%!PS-Adobe-2.0
%%Title: higz.ps (Landscape A 4)
%%Pages: (atend)
%%Creator: ROOT Version 2.22/10
%%CreationDate:Sat Sep 18 15:17:35 1999
%%EndComments
%%BeginProlog
/s {stroke} def /l {lineto} def /m {moveto} def /t {translate} def
/sw {stringwidth} def /r {rotate} def /rl {roll}  def /R {repeat} def
/d {rlineto} def /rm {rmoveto} def /gr {grestore} def /f {eofill} def
/c {setrgbcolor} def /lw {setlinewidth} def /sd {setdash} def
/cl {closepath} def /sf {scalefont setfont} def /black {0 setgray} def
/box {m dup 0 exch d exch 0 d 0 exch neg d cl} def
/NC{systemdict begin initclip end}def/C{NC box clip newpath}def
/bl {box s} def /bf {box f} def /Y { 0 exch d} def /X { 0 d} def 
/mp {newpath /y exch def /x exch def} def
/side {[w .77 mul w .23 mul] .385 w mul sd w 0 l currentpoint t -144 r} def
/mr {mp x y w2 0 360 arc} def /m24 {mr s} def /m20 {mr f} def
/mb {mp x y w2 add m w2 neg 0 d 0 w neg d w 0 d 0 w d cl} def
/mt {mp x y w2 add m w2 neg w neg d w 0 d cl} def
/m21 {mb f} def /m25 {mb s} def /m22 {mt f} def /m26{mt s} def
/m23 {mp x y w2 sub m w2 w d w neg 0 d cl f} def
/m27 {mp x y w2 add m w3 neg w2 neg d w3 w2 neg d w3 w2 d cl s} def
/m28 {mp x w2 sub y w2 sub w3 add m w3 0 d  0 w3 neg d w3 0 d 0 w3 d w3 0 d  0 w3 d w3 neg 0 d 0 w3 d w3 neg 0 d
 0 w3 neg d w3 neg 0 d cl s } def
/m29 {mp gsave x w2 sub y w2 add w3 sub m currentpoint t
 4 {side} repeat cl fill gr} def
/m30 {mp gsave x w2 sub y w2 add w3 sub m currentpoint t
 5 {side} repeat s gr} def
/m31 {mp x y w2 sub m 0 w d x w2 sub y m w 0 d x w2 sub y w2 add m w w neg d x w2 sub y w2
 sub m w w d s} def
/m2 {mp x y w2 sub m 0 w d x w2 sub y m w 0 d s} def
/m5 {mp x w2 sub y w2 sub m w w d x w2 sub y w2 add m w w neg d s} def
/reencdict 24 dict def /ReEncode {reencdict begin /nco&na exch def
/nfnam exch def /basefontname exch def /basefontdict basefontname findfont def
/newfont basefontdict maxlength dict def basefontdict {exch dup /FID ne
{dup /Encoding eq {exch dup length array copy newfont 3 1 roll put} {exch 
newfont 3 1 roll put} ifelse} {pop pop} ifelse } forall newfont
/FontName nfnam put nco&na aload pop nco&na length 2 idiv {newfont
/Encoding get 3 1 roll put} repeat nfnam newfont definefont pop end } def
/accvec [ 176 /agrave 181 /Agrave 190 /acircumflex 192 /Acircumflex
201 /adieresis 204 /Adieresis 209 /ccedilla 210 /Ccedilla 211 /eacute
212 /Eacute 213 /egrave 214 /Egrave 215 /ecircumflex 216 /Ecircumflex
217 /edieresis 218 /Edieresis 219 /icircumflex 220 /Icircumflex
221 /idieresis 222 /Idieresis 223 /ntilde 224 /Ntilde 226 /ocircumflex
228 /Ocircumflex 229 /odieresis 230 /Odieresis 231 /ucircumflex 236 /Ucircumflex
237 /udieresis 238 /Udieresis 239 /aring 242 /Aring 243 /ydieresis
244 /Ydieresis 246 /aacute 247 /Aacute 252 /ugrave 253 /Ugrave] def
/Times-Roman /Times-Roman accvec ReEncode
/Times-Italic /Times-Italic accvec ReEncode
/Times-Bold /Times-Bold accvec ReEncode
/Times-BoldItalic /Times-BoldItalic accvec ReEncode
/Helvetica /Helvetica accvec ReEncode
/Helvetica-Oblique /Helvetica-Oblique accvec ReEncode
/Helvetica-Bold /Helvetica-Bold accvec ReEncode
/Helvetica-BoldOblique /Helvetica-BoldOblique  accvec ReEncode
/Courier /Courier accvec ReEncode
/Courier-Oblique /Courier-Oblique accvec ReEncode
/Courier-Bold /Courier-Bold accvec ReEncode
/Courier-BoldOblique /Courier-BoldOblique accvec ReEncode
/oshow {gsave [] 0 sd true charpath stroke gr} def
/stwn { /fs exch def /fn exch def /text exch def fn findfont fs sf
 text sw pop xs add /xs exch def} def
/stwb { /fs exch def /fn exch def /nbas exch def /textf exch def
textf length /tlen exch def nbas tlen gt {/nbas tlendef} if
fn findfont fs sf textf dup length nbas sub nbas getinterval sw
pop neg xs add /xs exch def} def
/accspe [ 65 /plusminus  66 /bar  67 /existential  68 /universal 
69 /exclam  70 /numbersign 71 /greater  72 /question  73 /integral 
74 /colon  75 /semicolon  76 /less  77 /bracketleft  78 /bracketright
79 /greaterequal 80 /braceleft 81 /braceright 82 /radical
83 /spade 84 /heart 85 /diamond 86 /club 87 /lessequal
88 /multiply 89 /percent 90 /infinity 48 /circlemultiply 49 /circleplus
50 /emptyset  51 /lozenge 52 /bullet 53 /arrowright 54 /arrowup
55 /arrowleft 56 /arrowdown 57 /arrowboth 48 /degree 44 /comma 43 /plus 45 /angle 42 /angleleft 47 /divide 61 /notequal
 40 /equivalence 41 /second 97 /approxequal 98 /congruent 99 /perpendicular 100 /partialdiff 101 /florin
 102 /intersection 103 /union 104 /propersuperset 105 /reflexsuperset 106 /notsubset 107 /propersubset 108 /reflexsubset
 109 /element 110 /notelement 111 /gradient 112 /logicaland 113 /logicalor 114 /arrowdblboth 115 /arrowdblleft
 116 /arrowdblup 117 /arrowdblright 118 /arrowdbldown 119 /ampersand 120 /omega1 121 /similar 122 /aleph ] def
/Symbol /Special accspe ReEncode
/Zone {/iy exch def /ix exch def  ix 1 sub  3144 mul  1 iy sub  2224
 mul t} def
%%EndProlog
 gsave  90 r 0 -594 t  28 20 t .25 .25 scale  gsave 
%%Page: number 1
 black [] 0 sd 1 lw 0.999 0.999 0.999 c 2363 2268 0 0 bf 0.958 0.202 0.958 c 0 0 m 2 2 d 2264 Y 2359 X 2 2 d -2363 X
 -2268 Y f 0.202 0.958 0.958 c 0 0 m 2 2 d 2359 X 2264 Y 2 2 d -2268 Y -2363 X f 0 0 1 c [] 0 sd 1 lw [] 0 sd 1 lw 658
 2142 m -1 X s [] 0 sd 1 lw [] 0 sd 1 lw 657 2142 m -30 19 d s [] 0 sd 1 lw [] 0 sd 1 lw 657 2142 m -246 21 d s [] 0 sd
 1 lw [] 0 sd 1 lw 627 2161 m -246 21 d s [] 0 sd 1 lw [] 0 sd 1 lw 347 868 m -1 X s [] 0 sd 1 lw [] 0 sd 1 lw 411 2163
 m -30 19 d s [] 0 sd 1 lw [] 0 sd 1 lw 411 2163 m -65 -24 d s [] 0 sd 1 lw [] 0 sd 1 lw 381 2182 m -65 -24 d s [] 0 sd
 1 lw [] 0 sd 1 lw 347 903 m -1 X s [] 0 sd 1 lw [] 0 sd 1 lw 317 922 m -1 X s [] 0 sd 1 lw [] 0 sd 1 lw 347 2104 m -1 X
 s [] 0 sd 1 lw [] 0 sd 1 lw 346 868 m -30 19 d s [] 0 sd 1 lw [] 0 sd 1 lw 346 868 m 35 Y s [] 0 sd 1 lw [] 0 sd 1 lw
 316 887 m 35 Y s [] 0 sd 1 lw [] 0 sd 1 lw 346 903 m -30 19 d s [] 0 sd 1 lw [] 0 sd 1 lw 346 2104 m -30 19 d s [] 0 sd
 1 lw [] 0 sd 1 lw 346 2104 m 35 Y s [] 0 sd 1 lw [] 0 sd 1 lw 316 2123 m 35 Y s [] 0 sd 1 lw [] 0 sd 1 lw 346 2139 m
 -30 19 d s [] 0 sd 1 lw [] 0 sd 1 lw 944 1817 m -15 31 d s [] 0 sd 1 lw [] 0 sd 1 lw 921 1865 m -10 20 d s [] 0 sd 1 lw
 [] 0 sd 1 lw 888 1933 m -38 78 d s [] 0 sd 1 lw [] 0 sd 1 lw 850 2011 m -2 -11 d s [] 0 sd 1 lw [] 0 sd 1 lw 850 2011 m
 -192 131 d s [] 0 sd 1 lw [] 0 sd 1 lw 659 2128 m 1 Y s [] 0 sd 1 lw [] 0 sd 1 lw 428 886 m -16 -9 d s [] 0 sd 1 lw
 [] 0 sd 1 lw 658 2142 m 1 -13 d s [] 0 sd 1 lw [] 0 sd 1 lw 658 2142 m -246 20 d s [] 0 sd 1 lw [] 0 sd 1 lw 659 2129 m
 -243 20 d s [] 0 sd 1 lw [] 0 sd 1 lw 412 877 m 4 5 d s [] 0 sd 1 lw [] 0 sd 1 lw 412 877 m -65 -10 d s [] 0 sd 1 lw
 [] 0 sd 1 lw 412 2162 m 4 -13 d s [] 0 sd 1 lw [] 0 sd 1 lw 412 2162 m -65 -24 d s [] 0 sd 1 lw [] 0 sd 1 lw 353 874 m
 -1 X s [] 0 sd 1 lw [] 0 sd 1 lw 416 2149 m -64 -23 d s [] 0 sd 1 lw [] 0 sd 1 lw 353 899 m -1 X s [] 0 sd 1 lw [] 0 sd
 1 lw 348 902 m -1 X s [] 0 sd 1 lw [] 0 sd 1 lw 353 2100 m -1 X s [] 0 sd 1 lw [] 0 sd 1 lw 347 867 m 5 7 d s [] 0 sd 1
 lw [] 0 sd 1 lw 347 867 m 35 Y s [] 0 sd 1 lw [] 0 sd 1 lw 352 874 m 25 Y s [] 0 sd 1 lw [] 0 sd 1 lw 352 899 m -5 3 d
 s [] 0 sd 1 lw [] 0 sd 1 lw 933 1824 m -9 20 d s [] 0 sd 1 lw [] 0 sd 1 lw 903 1887 m -3 5 d s [] 0 sd 1 lw [] 0 sd 1
 lw 877 1940 m -28 59 d s [] 0 sd 1 lw [] 0 sd 1 lw 849 1999 m -6 -36 d s [] 0 sd 1 lw [] 0 sd 1 lw 826 1852 m -10 -63 d
 s [] 0 sd 1 lw [] 0 sd 1 lw 849 1999 m -190 129 d s [] 0 sd 1 lw [] 0 sd 1 lw 682 1880 m -1 1 d s [] 0 sd 1 lw [] 0 sd
 1 lw 425 887 m -8 -5 d s [] 0 sd 1 lw [] 0 sd 1 lw 659 2128 m 5 -50 d s [] 0 sd 1 lw [] 0 sd 1 lw 667 2038 m 1 -3 d s
 [] 0 sd 1 lw [] 0 sd 1 lw 676 1944 m 2 -26 d s [] 0 sd 1 lw [] 0 sd 1 lw 681 1884 m -3 Y s [] 0 sd 1 lw [] 0 sd 1 lw
 659 2128 m -242 20 d s [] 0 sd 1 lw [] 0 sd 1 lw 681 1881 m -69 5 d s [] 0 sd 1 lw [] 0 sd 1 lw 516 1894 m -7 1 d s
 [] 0 sd 1 lw [] 0 sd 1 lw 417 882 m 6 7 d s [] 0 sd 1 lw [] 0 sd 1 lw 481 959 m 27 32 d s [] 0 sd 1 lw [] 0 sd 1 lw 417
 882 m -24 -3 d s [] 0 sd 1 lw [] 0 sd 1 lw 388 878 m -35 -5 d s [] 0 sd 1 lw [] 0 sd 1 lw 417 2148 m 14 -38 d s [] 0 sd
 1 lw [] 0 sd 1 lw 487 1953 m 21 -58 d s [] 0 sd 1 lw [] 0 sd 1 lw 417 2148 m -64 -23 d s [] 0 sd 1 lw [] 0 sd 1 lw 463
 985 m s [] 0 sd 1 lw [] 0 sd 1 lw 475 1883 m -12 -5 d s [] 0 sd 1 lw [] 0 sd 1 lw 463 1010 m s [] 0 sd 1 lw [] 0 sd 1
 lw 463 1853 m s [] 0 sd 1 lw [] 0 sd 1 lw 353 873 m 25 Y s [] 0 sd 1 lw [] 0 sd 1 lw 353 873 m 110 112 d s [] 0 sd 1 lw
 [] 0 sd 1 lw 353 898 m 110 112 d s [] 0 sd 1 lw [] 0 sd 1 lw 463 985 m 25 Y s [] 0 sd 1 lw [] 0 sd 1 lw 463 1853 m 25 Y
 s [] 0 sd 1 lw [] 0 sd 1 lw 463 1853 m -110 247 d s [] 0 sd 1 lw [] 0 sd 1 lw 463 1878 m -110 247 d s [] 0 sd 1 lw
 [] 0 sd 1 lw 353 2100 m 25 Y s [] 0 sd 1 lw [] 0 sd 1 lw 841 1739 m -24 49 d s [] 0 sd 1 lw [] 0 sd 1 lw 817 1788 m
 -135 92 d s [] 0 sd 1 lw [] 0 sd 1 lw 682 1880 m -1 1 d s [] 0 sd 1 lw [] 0 sd 1 lw 509 991 m s [] 0 sd 1 lw [] 0 sd 1
 lw 682 1880 m -1 1 d s [] 0 sd 1 lw [] 0 sd 1 lw 681 1881 m -69 5 d s [] 0 sd 1 lw [] 0 sd 1 lw 516 1894 m -7 1 d s
 [] 0 sd 1 lw [] 0 sd 1 lw 509 991 m -1 X s [] 0 sd 1 lw [] 0 sd 1 lw 509 991 m -46 -7 d s [] 0 sd 1 lw [] 0 sd 1 lw 463
 985 m s [] 0 sd 1 lw [] 0 sd 1 lw 475 1883 m -12 -5 d s [] 0 sd 1 lw [] 0 sd 1 lw 468 1054 m -5 X s [] 0 sd 1 lw
 [] 0 sd 1 lw 463 1810 m -1 Y s [] 0 sd 1 lw [] 0 sd 1 lw 463 984 m 1 Y s [] 0 sd 1 lw [] 0 sd 1 lw 463 985 m 69 Y s
 [] 0 sd 1 lw [] 0 sd 1 lw 463 1809 m 69 Y s [] 0 sd 1 lw [] 0 sd 1 lw 841 1739 m -24 49 d s [] 0 sd 1 lw [] 0 sd 1 lw
 817 1788 m -6 -34 d s [] 0 sd 1 lw [] 0 sd 1 lw 817 1788 m -135 92 d s [] 0 sd 1 lw [] 0 sd 1 lw 713 1815 m -28 19 d s
 [] 0 sd 1 lw [] 0 sd 1 lw 509 991 m s [] 0 sd 1 lw [] 0 sd 1 lw 682 1880 m 3 -46 d s [] 0 sd 1 lw [] 0 sd 1 lw 682 1880
 m -71 6 d s [] 0 sd 1 lw [] 0 sd 1 lw 516 1894 m -6 X s [] 0 sd 1 lw [] 0 sd 1 lw 685 1834 m -90 7 d s [] 0 sd 1 lw
 [] 0 sd 1 lw 509 991 m s [] 0 sd 1 lw [] 0 sd 1 lw 509 991 m -46 -7 d s [] 0 sd 1 lw [] 0 sd 1 lw 476 1882 m -13 -4 d s
 [] 0 sd 1 lw [] 0 sd 1 lw 485 1006 m -2 X s [] 0 sd 1 lw [] 0 sd 1 lw 499 1837 m -16 -5 d s [] 0 sd 1 lw [] 0 sd 1 lw
 486 1056 m -23 -3 d s [] 0 sd 1 lw [] 0 sd 1 lw 463 984 m 20 22 d s [] 0 sd 1 lw [] 0 sd 1 lw 463 984 m 69 Y s [] 0 sd
 1 lw [] 0 sd 1 lw 483 1006 m 35 Y s [] 0 sd 1 lw [] 0 sd 1 lw 483 1041 m -20 12 d s [] 0 sd 1 lw [] 0 sd 1 lw 483 1797
 m -20 12 d s [] 0 sd 1 lw [] 0 sd 1 lw 483 1797 m 35 Y s [] 0 sd 1 lw [] 0 sd 1 lw 463 1809 m 69 Y s [] 0 sd 1 lw
 [] 0 sd 1 lw 483 1832 m -20 46 d s [] 0 sd 1 lw [] 0 sd 1 lw 2195 759 m 269 Y s [] 0 sd 1 lw [] 0 sd 1 lw 2195 759 m
 -105 -272 d s [] 0 sd 1 lw [] 0 sd 1 lw 2195 1028 m -105 219 d s [] 0 sd 1 lw [] 0 sd 1 lw 2161 758 m -31 19 d s
 [] 0 sd 1 lw [] 0 sd 1 lw 2161 758 m 254 Y s [] 0 sd 1 lw [] 0 sd 1 lw 2161 758 m -99 -257 d s [] 0 sd 1 lw [] 0 sd 1
 lw 2130 777 m 37 Y s [] 0 sd 1 lw [] 0 sd 1 lw 2130 777 m -2 -6 d s [] 0 sd 1 lw [] 0 sd 1 lw 2161 1012 m -99 206 d s
 [] 0 sd 1 lw [] 0 sd 1 lw 2107 1079 m -12 26 d s [] 0 sd 1 lw [] 0 sd 1 lw 2036 1228 m -5 9 d s [] 0 sd 1 lw [] 0 sd 1
 lw 2090 487 m -193 -229 d s [] 0 sd 1 lw [] 0 sd 1 lw 2090 1247 m -193 130 d s [] 0 sd 1 lw [] 0 sd 1 lw 2062 501 m -2
 1 d s [] 0 sd 1 lw [] 0 sd 1 lw 2062 501 m -182 -217 d s [] 0 sd 1 lw [] 0 sd 1 lw 2019 505 m -37 -44 d s [] 0 sd 1 lw
 [] 0 sd 1 lw 2062 1218 m -182 124 d s [] 0 sd 1 lw [] 0 sd 1 lw 2031 1237 m -7 5 d s [] 0 sd 1 lw [] 0 sd 1 lw 1944
 1297 m -15 10 d s [] 0 sd 1 lw [] 0 sd 1 lw 1897 258 m -246 -146 d s [] 0 sd 1 lw [] 0 sd 1 lw 1897 1377 m -30 19 d s
 [] 0 sd 1 lw [] 0 sd 1 lw 1897 1377 m -246 21 d s [] 0 sd 1 lw [] 0 sd 1 lw 1867 1396 m -246 21 d s [] 0 sd 1 lw
 [] 0 sd 1 lw 1880 284 m -8 6 d s [] 0 sd 1 lw [] 0 sd 1 lw 1880 284 m -232 -137 d s [] 0 sd 1 lw [] 0 sd 1 lw 1776 260
 m -39 -23 d s [] 0 sd 1 lw [] 0 sd 1 lw 1880 1342 m -225 19 d s [] 0 sd 1 lw [] 0 sd 1 lw 1652 1361 m -4 X s [] 0 sd 1
 lw [] 0 sd 1 lw 1651 112 m -65 -9 d s [] 0 sd 1 lw [] 0 sd 1 lw 1651 1398 m -30 19 d s [] 0 sd 1 lw [] 0 sd 1 lw 1651
 1398 m -65 -24 d s [] 0 sd 1 lw [] 0 sd 1 lw 1621 1417 m -65 -24 d s [] 0 sd 1 lw [] 0 sd 1 lw 1648 147 m -14 8 d s
 [] 0 sd 1 lw [] 0 sd 1 lw 1648 147 m -62 -9 d s [] 0 sd 1 lw [] 0 sd 1 lw 1557 157 m -1 X s [] 0 sd 1 lw [] 0 sd 1 lw
 1648 1361 m -62 -22 d s [] 0 sd 1 lw [] 0 sd 1 lw 1586 103 m -30 19 d s [] 0 sd 1 lw [] 0 sd 1 lw 1586 103 m 35 Y s
 [] 0 sd 1 lw [] 0 sd 1 lw 1556 122 m 35 Y s [] 0 sd 1 lw [] 0 sd 1 lw 1586 138 m -30 19 d s [] 0 sd 1 lw [] 0 sd 1 lw
 1586 1339 m -30 19 d s [] 0 sd 1 lw [] 0 sd 1 lw 1586 1339 m 35 Y s [] 0 sd 1 lw [] 0 sd 1 lw 1556 1358 m 35 Y s
 [] 0 sd 1 lw [] 0 sd 1 lw 1586 1374 m -30 19 d s [] 0 sd 1 lw [] 0 sd 1 lw 2130 777 m -6 4 d s [] 0 sd 1 lw [] 0 sd 1
 lw 2130 777 m 37 Y s [] 0 sd 1 lw [] 0 sd 1 lw 2130 777 m -3 -5 d s [] 0 sd 1 lw [] 0 sd 1 lw 2124 781 m 34 Y s [] 0 sd
 1 lw [] 0 sd 1 lw 2124 781 m -2 -6 d s [] 0 sd 1 lw [] 0 sd 1 lw 2107 1079 m -13 26 d s [] 0 sd 1 lw [] 0 sd 1 lw 2034
 1229 m -4 9 d s [] 0 sd 1 lw [] 0 sd 1 lw 2101 1082 m -10 22 d s [] 0 sd 1 lw [] 0 sd 1 lw 2025 1240 m 1 Y s [] 0 sd 1
 lw [] 0 sd 1 lw 1867 1396 m -1 1 d s [] 0 sd 1 lw [] 0 sd 1 lw 2018 505 m -37 -43 d s [] 0 sd 1 lw [] 0 sd 1 lw 2013
 508 m -37 -43 d s [] 0 sd 1 lw [] 0 sd 1 lw 2030 1238 m -6 4 d s [] 0 sd 1 lw [] 0 sd 1 lw 1943 1297 m -14 10 d s
 [] 0 sd 1 lw [] 0 sd 1 lw 2025 1241 m -1 1 d s [] 0 sd 1 lw [] 0 sd 1 lw 1938 1300 m -9 7 d s [] 0 sd 1 lw [] 0 sd 1 lw
 1866 1397 m -246 20 d s [] 0 sd 1 lw [] 0 sd 1 lw 1775 261 m -38 -23 d s [] 0 sd 1 lw [] 0 sd 1 lw 1770 264 m -36 -22 d
 s [] 0 sd 1 lw [] 0 sd 1 lw 1556 122 m -1 X s [] 0 sd 1 lw [] 0 sd 1 lw 1620 1417 m -65 -23 d s [] 0 sd 1 lw [] 0 sd 1
 lw 1556 157 m -1 X s [] 0 sd 1 lw [] 0 sd 1 lw 1551 161 m -1 -1 d s [] 0 sd 1 lw [] 0 sd 1 lw 1556 1359 m -1 -1 d s
 [] 0 sd 1 lw [] 0 sd 1 lw 1555 122 m -5 13 d s [] 0 sd 1 lw [] 0 sd 1 lw 1555 122 m 35 Y s [] 0 sd 1 lw [] 0 sd 1 lw
 1550 135 m 25 Y s [] 0 sd 1 lw [] 0 sd 1 lw 1555 157 m -5 3 d s [] 0 sd 1 lw [] 0 sd 1 lw 1555 1358 m -5 4 d s [] 0 sd
 1 lw [] 0 sd 1 lw 1555 1358 m 36 Y s [] 0 sd 1 lw [] 0 sd 1 lw 1550 1362 m 25 Y s [] 0 sd 1 lw [] 0 sd 1 lw 1550 1387 m
 5 7 d s [] 0 sd 1 lw [] 0 sd 1 lw 2124 781 m 34 Y s [] 0 sd 1 lw [] 0 sd 1 lw 2124 781 m -2 -5 d s [] 0 sd 1 lw [] 0 sd
 1 lw 2124 781 m -281 62 d s [] 0 sd 1 lw [] 0 sd 1 lw 2101 1083 m -11 21 d s [] 0 sd 1 lw [] 0 sd 1 lw 1952 1026 m -109
 -5 d s [] 0 sd 1 lw [] 0 sd 1 lw 1878 604 m -105 58 d s [] 0 sd 1 lw [] 0 sd 1 lw 2012 509 m -37 -44 d s [] 0 sd 1 lw
 [] 0 sd 1 lw 1866 1194 m -93 -28 d s [] 0 sd 1 lw [] 0 sd 1 lw 1937 1301 m -8 6 d s [] 0 sd 1 lw [] 0 sd 1 lw 1843 843
 m -57 -147 d s [] 0 sd 1 lw [] 0 sd 1 lw 1776 671 m -3 -9 d s [] 0 sd 1 lw [] 0 sd 1 lw 1843 1021 m -38 79 d s [] 0 sd
 1 lw [] 0 sd 1 lw 1795 1120 m -22 46 d s [] 0 sd 1 lw [] 0 sd 1 lw 1773 662 m -128 -151 d s [] 0 sd 1 lw [] 0 sd 1 lw
 1773 1166 m -128 87 d s [] 0 sd 1 lw [] 0 sd 1 lw 1720 433 m -75 78 d s [] 0 sd 1 lw [] 0 sd 1 lw 1769 264 m -36 -21 d
 s [] 0 sd 1 lw [] 0 sd 1 lw 1699 1283 m -54 -30 d s [] 0 sd 1 lw [] 0 sd 1 lw 1645 511 m -163 -97 d s [] 0 sd 1 lw
 [] 0 sd 1 lw 1645 1253 m -139 11 d s [] 0 sd 1 lw [] 0 sd 1 lw 1550 136 m -1 X s [] 0 sd 1 lw [] 0 sd 1 lw 1550 1388 m
 -1 -1 d s [] 0 sd 1 lw [] 0 sd 1 lw 1530 324 m -48 90 d s [] 0 sd 1 lw [] 0 sd 1 lw 1550 161 m -1 X s [] 0 sd 1 lw
 [] 0 sd 1 lw 1504 1286 m -3 -3 d s [] 0 sd 1 lw [] 0 sd 1 lw 1550 1362 m -1 X s [] 0 sd 1 lw [] 0 sd 1 lw 1482 414 m
 -43 -6 d s [] 0 sd 1 lw [] 0 sd 1 lw 1451 1255 m -12 -5 d s [] 0 sd 1 lw [] 0 sd 1 lw 1549 136 m 25 Y s [] 0 sd 1 lw
 [] 0 sd 1 lw 1549 136 m -110 246 d s [] 0 sd 1 lw [] 0 sd 1 lw 1549 161 m -110 247 d s [] 0 sd 1 lw [] 0 sd 1 lw 1439
 382 m 26 Y s [] 0 sd 1 lw [] 0 sd 1 lw 1439 1250 m 26 Y s [] 0 sd 1 lw [] 0 sd 1 lw 1439 1250 m 110 112 d s [] 0 sd 1
 lw [] 0 sd 1 lw 1439 1276 m 110 111 d s [] 0 sd 1 lw [] 0 sd 1 lw 1549 1362 m 25 Y s [] 0 sd 1 lw [] 0 sd 1 lw 1842 843
 m 178 Y s [] 0 sd 1 lw [] 0 sd 1 lw 1842 843 m -41 -2 d s [] 0 sd 1 lw [] 0 sd 1 lw 1842 843 m -57 -147 d s [] 0 sd 1
 lw [] 0 sd 1 lw 1775 671 m -3 -8 d s [] 0 sd 1 lw [] 0 sd 1 lw 1842 1021 m -41 -20 d s [] 0 sd 1 lw [] 0 sd 1 lw 1842
 1021 m -38 79 d s [] 0 sd 1 lw [] 0 sd 1 lw 1794 1120 m -22 46 d s [] 0 sd 1 lw [] 0 sd 1 lw 1801 841 m 160 Y s [] 0 sd
 1 lw [] 0 sd 1 lw 1801 841 m -63 -162 d s [] 0 sd 1 lw [] 0 sd 1 lw 1801 1001 m -63 130 d s [] 0 sd 1 lw [] 0 sd 1 lw
 1772 663 m -34 16 d s [] 0 sd 1 lw [] 0 sd 1 lw 1772 663 m -127 -152 d s [] 0 sd 1 lw [] 0 sd 1 lw 1772 1166 m -34 -35
 d s [] 0 sd 1 lw [] 0 sd 1 lw 1738 679 m -114 -136 d s [] 0 sd 1 lw [] 0 sd 1 lw 1738 1131 m -114 78 d s [] 0 sd 1 lw
 [] 0 sd 1 lw 1645 511 m -21 32 d s [] 0 sd 1 lw [] 0 sd 1 lw 1645 511 m -163 -97 d s [] 0 sd 1 lw [] 0 sd 1 lw 1644
 1253 m -20 -44 d s [] 0 sd 1 lw [] 0 sd 1 lw 1624 543 m -146 -86 d s [] 0 sd 1 lw [] 0 sd 1 lw 1624 1209 m -146 12 d s
 [] 0 sd 1 lw [] 0 sd 1 lw 1439 383 m -1 X s [] 0 sd 1 lw [] 0 sd 1 lw 1441 1277 m -3 -1 d s [] 0 sd 1 lw [] 0 sd 1 lw
 1482 414 m -4 43 d s [] 0 sd 1 lw [] 0 sd 1 lw 1482 414 m -44 -6 d s [] 0 sd 1 lw [] 0 sd 1 lw 1479 1233 m -1 -12 d s
 [] 0 sd 1 lw [] 0 sd 1 lw 1439 1251 m -1 X s [] 0 sd 1 lw [] 0 sd 1 lw 1478 457 m -39 -6 d s [] 0 sd 1 lw [] 0 sd 1 lw
 1478 1221 m -39 -14 d s [] 0 sd 1 lw [] 0 sd 1 lw 1439 382 m -1 1 d s [] 0 sd 1 lw [] 0 sd 1 lw 1438 383 m 25 Y s
 [] 0 sd 1 lw [] 0 sd 1 lw 1438 408 m 1 43 d s [] 0 sd 1 lw [] 0 sd 1 lw 1439 1207 m -1 44 d s [] 0 sd 1 lw [] 0 sd 1 lw
 1438 1251 m 25 Y s [] 0 sd 1 lw [] 0 sd 1 lw 1800 842 m -16 10 d s [] 0 sd 1 lw [] 0 sd 1 lw 1800 842 m 160 Y s [] 0 sd
 1 lw [] 0 sd 1 lw 1800 842 m -62 -162 d s [] 0 sd 1 lw [] 0 sd 1 lw 1800 1002 m -62 130 d s [] 0 sd 1 lw [] 0 sd 1 lw
 1738 680 m -20 12 d s [] 0 sd 1 lw [] 0 sd 1 lw 1738 680 m -115 -136 d s [] 0 sd 1 lw [] 0 sd 1 lw 1623 544 m -16 10 d
 s [] 0 sd 1 lw [] 0 sd 1 lw 1623 544 m -146 -87 d s [] 0 sd 1 lw [] 0 sd 1 lw 1439 383 m -1 X s [] 0 sd 1 lw [] 0 sd 1
 lw 1441 1277 m -3 -1 d s [] 0 sd 1 lw [] 0 sd 1 lw 1477 457 m -17 10 d s [] 0 sd 1 lw [] 0 sd 1 lw 1477 457 m -39 -5 d
 s [] 0 sd 1 lw [] 0 sd 1 lw 1439 1208 m -1 -1 d s [] 0 sd 1 lw [] 0 sd 1 lw 1438 383 m -19 46 d s [] 0 sd 1 lw [] 0 sd
 1 lw 1438 383 m 69 Y s [] 0 sd 1 lw [] 0 sd 1 lw 1419 429 m 35 Y s [] 0 sd 1 lw [] 0 sd 1 lw 1438 452 m -19 12 d s
 [] 0 sd 1 lw [] 0 sd 1 lw 1438 1207 m -19 13 d s [] 0 sd 1 lw [] 0 sd 1 lw 1438 1207 m 69 Y s [] 0 sd 1 lw [] 0 sd 1 lw
 1419 1220 m 35 Y s [] 0 sd 1 lw [] 0 sd 1 lw 1419 1255 m 19 21 d s [] 0 sd 1 lw [] 0 sd 1 lw 1142 1263 m -143 89 d s
 [] 0 sd 1 lw [] 0 sd 1 lw 1472 1347 m -33 20 d s [] 0 sd 1 lw [] 0 sd 1 lw 1395 1394 m -5 4 d s [] 0 sd 1 lw [] 0 sd 1
 lw 1344 1426 m -659 407 d s [] 0 sd 1 lw [] 0 sd 1 lw 685 1833 m -91 7 d s [] 0 sd 1 lw [] 0 sd 1 lw 1145 828 m -327
 202 d s [] 0 sd 1 lw [] 0 sd 1 lw 1369 1325 m -803 496 d s [] 0 sd 1 lw [] 0 sd 1 lw 500 1837 m -17 -7 d s [] 0 sd 1 lw
 [] 0 sd 1 lw 1394 486 m -861 531 d s [] 0 sd 1 lw [] 0 sd 1 lw 1419 430 m -936 577 d s [] 0 sd 1 lw [] 0 sd 1 lw 1419
 430 m 9 Y s [] 0 sd 1 lw [] 0 sd 1 lw 483 1007 m 9 Y s [] 0 sd 1 lw [] 0 sd 1 lw 1419 439 m -936 577 d s [] 0 sd 1 lw
 [] 0 sd 1 lw 1419 1244 m -927 572 d s [] 0 sd 1 lw [] 0 sd 1 lw 1419 1244 m 9 Y s [] 0 sd 1 lw [] 0 sd 1 lw 483 1821 m
 9 Y s [] 0 sd 1 lw [] 0 sd 1 lw 1419 1253 m -936 577 d s 0 1 1 c [] 0 sd 1 lw [] 0 sd 1 lw 1419 439 m -9 5 d s [] 0 sd
 1 lw [] 0 sd 1 lw 1419 439 m 25 Y s [] 0 sd 1 lw [] 0 sd 1 lw 1410 444 m 25 Y s [] 0 sd 1 lw [] 0 sd 1 lw 1419 464 m -9
 5 d s [] 0 sd 1 lw [] 0 sd 1 lw 1419 1220 m -9 5 d s [] 0 sd 1 lw [] 0 sd 1 lw 1419 1220 m 24 Y s [] 0 sd 1 lw [] 0 sd
 1 lw 1410 1225 m 24 Y s [] 0 sd 1 lw [] 0 sd 1 lw 1419 1244 m -9 5 d s 0 1 0 c [] 0 sd 1 lw [] 0 sd 1 lw 1434 394 m -31
 -18 d s [] 0 sd 1 lw [] 0 sd 1 lw 1577 1405 m -134 11 d s [] 0 sd 1 lw [] 0 sd 1 lw 1429 404 m -27 -16 d s [] 0 sd 1 lw
 [] 0 sd 1 lw 1422 420 m -37 -22 d s [] 0 sd 1 lw [] 0 sd 1 lw 1531 1396 m -89 8 d s [] 0 sd 1 lw [] 0 sd 1 lw 1403 376
 m -53 -8 d s [] 0 sd 1 lw [] 0 sd 1 lw 1396 1417 m -46 -17 d s [] 0 sd 1 lw [] 0 sd 1 lw 1402 388 m -17 10 d s [] 0 sd
 1 lw [] 0 sd 1 lw 1402 388 m -52 -8 d s [] 0 sd 1 lw [] 0 sd 1 lw 1385 398 m -52 -8 d s [] 0 sd 1 lw [] 0 sd 1 lw 1396
 1405 m -46 -17 d s [] 0 sd 1 lw [] 0 sd 1 lw 1350 368 m -17 10 d s [] 0 sd 1 lw [] 0 sd 1 lw 1350 368 m 12 Y s [] 0 sd
 1 lw [] 0 sd 1 lw 1333 378 m 12 Y s [] 0 sd 1 lw [] 0 sd 1 lw 1350 380 m -17 10 d s [] 0 sd 1 lw [] 0 sd 1 lw 1350 1388
 m -17 10 d s [] 0 sd 1 lw [] 0 sd 1 lw 1350 1388 m 12 Y s [] 0 sd 1 lw [] 0 sd 1 lw 1333 1398 m 13 Y s [] 0 sd 1 lw
 [] 0 sd 1 lw 1350 1400 m -17 11 d s 0 0 1 c [] 0 sd 1 lw [] 0 sd 1 lw 1609 1413 m -1 1 d s [] 0 sd 1 lw [] 0 sd 1 lw
 1438 384 m -34 -20 d s [] 0 sd 1 lw [] 0 sd 1 lw 1608 1414 m -17 11 d s [] 0 sd 1 lw [] 0 sd 1 lw 1608 1414 m -164 14 d
 s [] 0 sd 1 lw [] 0 sd 1 lw 1591 1425 m -144 12 d s [] 0 sd 1 lw [] 0 sd 1 lw 1434 394 m -31 -18 d s [] 0 sd 1 lw
 [] 0 sd 1 lw 1577 1405 m -134 11 d s [] 0 sd 1 lw [] 0 sd 1 lw 1404 364 m -54 -7 d s [] 0 sd 1 lw [] 0 sd 1 lw 1388
 1425 m -38 -13 d s [] 0 sd 1 lw [] 0 sd 1 lw 1382 1440 m -49 -18 d s [] 0 sd 1 lw [] 0 sd 1 lw 1403 376 m -16 9 d s
 [] 0 sd 1 lw [] 0 sd 1 lw 1403 376 m -53 -8 d s [] 0 sd 1 lw [] 0 sd 1 lw 1396 1417 m -46 -17 d s [] 0 sd 1 lw [] 0 sd
 1 lw 1350 357 m -17 10 d s [] 0 sd 1 lw [] 0 sd 1 lw 1350 357 m 11 Y s [] 0 sd 1 lw [] 0 sd 1 lw 1333 367 m 11 Y s
 [] 0 sd 1 lw [] 0 sd 1 lw 1350 368 m -17 10 d s [] 0 sd 1 lw [] 0 sd 1 lw 1350 1400 m -17 11 d s [] 0 sd 1 lw [] 0 sd 1
 lw 1350 1400 m 12 Y s [] 0 sd 1 lw [] 0 sd 1 lw 1333 1411 m 11 Y s [] 0 sd 1 lw [] 0 sd 1 lw 1350 1412 m -17 10 d s 0 1
 0 c [] 0 sd 1 lw [] 0 sd 1 lw 1718 1409 m -37 25 d s [] 0 sd 1 lw [] 0 sd 1 lw 1691 1411 m -16 11 d s [] 0 sd 1 lw
 [] 0 sd 1 lw 1689 1411 m -16 11 d s [] 0 sd 1 lw [] 0 sd 1 lw 1472 295 m -14 -9 d s [] 0 sd 1 lw [] 0 sd 1 lw 1681 1434
 m -223 19 d s [] 0 sd 1 lw [] 0 sd 1 lw 1468 305 m -12 -7 d s [] 0 sd 1 lw [] 0 sd 1 lw 1465 323 m -1 -1 d s [] 0 sd 1
 lw [] 0 sd 1 lw 1452 315 m -12 -7 d s [] 0 sd 1 lw [] 0 sd 1 lw 1675 1422 m -219 18 d s [] 0 sd 1 lw [] 0 sd 1 lw 1458
 286 m -59 -9 d s [] 0 sd 1 lw [] 0 sd 1 lw 1458 1453 m -12 7 d s [] 0 sd 1 lw [] 0 sd 1 lw 1458 1453 m -59 -22 d s
 [] 0 sd 1 lw [] 0 sd 1 lw 1456 298 m -16 10 d s [] 0 sd 1 lw [] 0 sd 1 lw 1456 298 m -57 -9 d s [] 0 sd 1 lw [] 0 sd 1
 lw 1440 308 m -58 -8 d s [] 0 sd 1 lw [] 0 sd 1 lw 1456 1440 m -57 -21 d s [] 0 sd 1 lw [] 0 sd 1 lw 1399 277 m -17 10
 d s [] 0 sd 1 lw [] 0 sd 1 lw 1399 277 m 12 Y s [] 0 sd 1 lw [] 0 sd 1 lw 1382 287 m 13 Y s [] 0 sd 1 lw [] 0 sd 1 lw
 1399 289 m -17 11 d s [] 0 sd 1 lw [] 0 sd 1 lw 1399 1419 m -17 10 d s [] 0 sd 1 lw [] 0 sd 1 lw 1399 1419 m 12 Y s
 [] 0 sd 1 lw [] 0 sd 1 lw 1382 1429 m 12 Y s [] 0 sd 1 lw [] 0 sd 1 lw 1399 1431 m -17 10 d s 0 0 1 c [] 0 sd 1 lw
 [] 0 sd 1 lw 1743 1407 m -57 38 d s [] 0 sd 1 lw [] 0 sd 1 lw 1718 1409 m -37 25 d s [] 0 sd 1 lw [] 0 sd 1 lw 1472 283
 m -13 -8 d s [] 0 sd 1 lw [] 0 sd 1 lw 1686 1445 m -16 11 d s [] 0 sd 1 lw [] 0 sd 1 lw 1686 1445 m -227 19 d s [] 0 sd
 1 lw [] 0 sd 1 lw 1670 1456 m -228 18 d s [] 0 sd 1 lw [] 0 sd 1 lw 1472 295 m -14 -9 d s [] 0 sd 1 lw [] 0 sd 1 lw
 1681 1434 m -223 19 d s [] 0 sd 1 lw [] 0 sd 1 lw 1459 275 m -60 -9 d s [] 0 sd 1 lw [] 0 sd 1 lw 1459 1464 m -17 10 d
 s [] 0 sd 1 lw [] 0 sd 1 lw 1459 1464 m -60 -22 d s [] 0 sd 1 lw [] 0 sd 1 lw 1442 1474 m -60 -21 d s [] 0 sd 1 lw
 [] 0 sd 1 lw 1458 286 m -16 10 d s [] 0 sd 1 lw [] 0 sd 1 lw 1458 286 m -59 -9 d s [] 0 sd 1 lw [] 0 sd 1 lw 1458 1453
 m -59 -22 d s [] 0 sd 1 lw [] 0 sd 1 lw 1399 266 m -17 10 d s [] 0 sd 1 lw [] 0 sd 1 lw 1399 266 m 11 Y s [] 0 sd 1 lw
 [] 0 sd 1 lw 1382 276 m 11 Y s [] 0 sd 1 lw [] 0 sd 1 lw 1399 277 m -17 10 d s [] 0 sd 1 lw [] 0 sd 1 lw 1399 1431 m
 -17 10 d s [] 0 sd 1 lw [] 0 sd 1 lw 1399 1431 m 11 Y s [] 0 sd 1 lw [] 0 sd 1 lw 1382 1441 m 12 Y s [] 0 sd 1 lw
 [] 0 sd 1 lw 1399 1442 m -17 11 d s 0 1 1 c [] 0 sd 1 lw [] 0 sd 1 lw 545 1024 m -12 -7 d s [] 0 sd 1 lw [] 0 sd 1 lw
 533 1017 m -41 -6 d s [] 0 sd 1 lw [] 0 sd 1 lw 520 1040 m -28 -4 d s [] 0 sd 1 lw [] 0 sd 1 lw 517 1801 m -25 -9 d s
 [] 0 sd 1 lw [] 0 sd 1 lw 492 1011 m -9 5 d s [] 0 sd 1 lw [] 0 sd 1 lw 492 1011 m 25 Y s [] 0 sd 1 lw [] 0 sd 1 lw 483
 1016 m 25 Y s [] 0 sd 1 lw [] 0 sd 1 lw 492 1036 m -9 5 d s [] 0 sd 1 lw [] 0 sd 1 lw 492 1792 m -9 5 d s [] 0 sd 1 lw
 [] 0 sd 1 lw 492 1792 m 24 Y s [] 0 sd 1 lw [] 0 sd 1 lw 483 1797 m 24 Y s [] 0 sd 1 lw [] 0 sd 1 lw 492 1816 m -9 5 d
 s 0 1 0 c [] 0 sd 1 lw [] 0 sd 1 lw 1072 1609 m 50 Y s [] 0 sd 1 lw [] 0 sd 1 lw 1072 1659 m -52 108 d s [] 0 sd 1 lw
 [] 0 sd 1 lw 1008 1793 m -31 64 d s [] 0 sd 1 lw [] 0 sd 1 lw 1061 1633 m 20 Y s [] 0 sd 1 lw [] 0 sd 1 lw 1061 1653 m
 -51 106 d s [] 0 sd 1 lw [] 0 sd 1 lw 997 1785 m -30 63 d s [] 0 sd 1 lw [] 0 sd 1 lw 981 1795 m -30 63 d s [] 0 sd 1
 lw [] 0 sd 1 lw 977 1857 m -175 119 d s [] 0 sd 1 lw [] 0 sd 1 lw 967 1848 m -171 116 d s [] 0 sd 1 lw [] 0 sd 1 lw 951
 1858 m -156 106 d s [] 0 sd 1 lw [] 0 sd 1 lw 607 844 m -28 -16 d s [] 0 sd 1 lw [] 0 sd 1 lw 802 1976 m -223 19 d s
 [] 0 sd 1 lw [] 0 sd 1 lw 578 840 m s [] 0 sd 1 lw [] 0 sd 1 lw 796 1964 m -218 18 d s [] 0 sd 1 lw [] 0 sd 1 lw 579
 828 m -59 -9 d s [] 0 sd 1 lw [] 0 sd 1 lw 579 1995 m -59 -22 d s [] 0 sd 1 lw [] 0 sd 1 lw 578 840 m -1 X s [] 0 sd 1
 lw [] 0 sd 1 lw 578 840 m -58 -9 d s [] 0 sd 1 lw [] 0 sd 1 lw 552 849 m -49 -7 d s [] 0 sd 1 lw [] 0 sd 1 lw 578 1982
 m -11 -4 d s [] 0 sd 1 lw [] 0 sd 1 lw 536 1967 m -16 -6 d s [] 0 sd 1 lw [] 0 sd 1 lw 520 819 m -17 10 d s [] 0 sd 1
 lw [] 0 sd 1 lw 520 819 m 12 Y s [] 0 sd 1 lw [] 0 sd 1 lw 503 829 m 13 Y s [] 0 sd 1 lw [] 0 sd 1 lw 520 831 m -17 11
 d s [] 0 sd 1 lw [] 0 sd 1 lw 520 1961 m -17 10 d s [] 0 sd 1 lw [] 0 sd 1 lw 520 1961 m 12 Y s [] 0 sd 1 lw [] 0 sd 1
 lw 503 1971 m 12 Y s [] 0 sd 1 lw [] 0 sd 1 lw 520 1973 m -17 10 d s 0 0 1 c [] 0 sd 1 lw [] 0 sd 1 lw 1083 1587 m 77 Y
 s [] 0 sd 1 lw [] 0 sd 1 lw 1083 1664 m -97 202 d s [] 0 sd 1 lw [] 0 sd 1 lw 1072 1609 m 50 Y s [] 0 sd 1 lw [] 0 sd 1
 lw 1072 1659 m -52 108 d s [] 0 sd 1 lw [] 0 sd 1 lw 1008 1793 m -31 64 d s [] 0 sd 1 lw [] 0 sd 1 lw 986 1866 m -178
 121 d s [] 0 sd 1 lw [] 0 sd 1 lw 977 1857 m -175 119 d s [] 0 sd 1 lw [] 0 sd 1 lw 688 881 m -108 -64 d s [] 0 sd 1 lw
 [] 0 sd 1 lw 808 1987 m -17 11 d s [] 0 sd 1 lw [] 0 sd 1 lw 808 1987 m -228 19 d s [] 0 sd 1 lw [] 0 sd 1 lw 791 1998
 m -227 19 d s [] 0 sd 1 lw [] 0 sd 1 lw 607 844 m -28 -16 d s [] 0 sd 1 lw [] 0 sd 1 lw 802 1976 m -223 19 d s [] 0 sd
 1 lw [] 0 sd 1 lw 580 817 m -60 -9 d s [] 0 sd 1 lw [] 0 sd 1 lw 580 2006 m -16 11 d s [] 0 sd 1 lw [] 0 sd 1 lw 580
 2006 m -60 -22 d s [] 0 sd 1 lw [] 0 sd 1 lw 564 2017 m -61 -22 d s [] 0 sd 1 lw [] 0 sd 1 lw 579 828 m -16 10 d s
 [] 0 sd 1 lw [] 0 sd 1 lw 579 828 m -59 -9 d s [] 0 sd 1 lw [] 0 sd 1 lw 579 1995 m -59 -22 d s [] 0 sd 1 lw [] 0 sd 1
 lw 520 808 m -17 10 d s [] 0 sd 1 lw [] 0 sd 1 lw 520 808 m 11 Y s [] 0 sd 1 lw [] 0 sd 1 lw 503 818 m 11 Y s [] 0 sd 1
 lw [] 0 sd 1 lw 520 819 m -17 10 d s [] 0 sd 1 lw [] 0 sd 1 lw 520 1973 m -17 10 d s [] 0 sd 1 lw [] 0 sd 1 lw 520 1973
 m 11 Y s [] 0 sd 1 lw [] 0 sd 1 lw 503 1983 m 12 Y s [] 0 sd 1 lw [] 0 sd 1 lw 520 1984 m -17 11 d s 0 1 0 c [] 0 sd 1
 lw [] 0 sd 1 lw 1063 1599 m 2 Y s [] 0 sd 1 lw [] 0 sd 1 lw 1063 1601 m -86 178 d s [] 0 sd 1 lw [] 0 sd 1 lw 1044 1611
 m -76 158 d s [] 0 sd 1 lw [] 0 sd 1 lw 1027 1621 m -30 64 d s [] 0 sd 1 lw [] 0 sd 1 lw 978 1723 m -27 56 d s [] 0 sd
 1 lw [] 0 sd 1 lw 977 1779 m -156 106 d s [] 0 sd 1 lw [] 0 sd 1 lw 968 1769 m -153 104 d s [] 0 sd 1 lw [] 0 sd 1 lw
 951 1779 m -138 94 d s [] 0 sd 1 lw [] 0 sd 1 lw 675 889 m -54 -31 d s [] 0 sd 1 lw [] 0 sd 1 lw 821 1885 m -200 17 d s
 [] 0 sd 1 lw [] 0 sd 1 lw 664 896 m -44 -26 d s [] 0 sd 1 lw [] 0 sd 1 lw 647 906 m -44 -26 d s [] 0 sd 1 lw [] 0 sd 1
 lw 815 1873 m -195 16 d s [] 0 sd 1 lw [] 0 sd 1 lw 621 858 m -52 -8 d s [] 0 sd 1 lw [] 0 sd 1 lw 621 1902 m -11 7 d s
 [] 0 sd 1 lw [] 0 sd 1 lw 621 1902 m -52 -20 d s [] 0 sd 1 lw [] 0 sd 1 lw 620 870 m -17 10 d s [] 0 sd 1 lw [] 0 sd 1
 lw 620 870 m -51 -8 d s [] 0 sd 1 lw [] 0 sd 1 lw 603 880 m -51 -8 d s [] 0 sd 1 lw [] 0 sd 1 lw 620 1889 m -51 -19 d s
 [] 0 sd 1 lw [] 0 sd 1 lw 569 850 m -17 10 d s [] 0 sd 1 lw [] 0 sd 1 lw 569 850 m 12 Y s [] 0 sd 1 lw [] 0 sd 1 lw 552
 860 m 12 Y s [] 0 sd 1 lw [] 0 sd 1 lw 569 862 m -17 10 d s [] 0 sd 1 lw [] 0 sd 1 lw 569 1870 m -17 11 d s [] 0 sd 1
 lw [] 0 sd 1 lw 569 1870 m 12 Y s [] 0 sd 1 lw [] 0 sd 1 lw 552 1881 m 12 Y s [] 0 sd 1 lw [] 0 sd 1 lw 569 1882 m -17
 11 d s 0 0 1 c [] 0 sd 1 lw [] 0 sd 1 lw 1073 1593 m 13 Y s [] 0 sd 1 lw [] 0 sd 1 lw 1073 1606 m -87 182 d s [] 0 sd 1
 lw [] 0 sd 1 lw 1063 1599 m 2 Y s [] 0 sd 1 lw [] 0 sd 1 lw 1063 1601 m -86 178 d s [] 0 sd 1 lw [] 0 sd 1 lw 986 1788
 m -159 108 d s [] 0 sd 1 lw [] 0 sd 1 lw 977 1779 m -156 106 d s [] 0 sd 1 lw [] 0 sd 1 lw 684 883 m -62 -36 d s
 [] 0 sd 1 lw [] 0 sd 1 lw 827 1896 m -17 11 d s [] 0 sd 1 lw [] 0 sd 1 lw 827 1896 m -205 17 d s [] 0 sd 1 lw [] 0 sd 1
 lw 810 1907 m -204 17 d s [] 0 sd 1 lw [] 0 sd 1 lw 675 889 m -54 -31 d s [] 0 sd 1 lw [] 0 sd 1 lw 821 1885 m -200 17
 d s [] 0 sd 1 lw [] 0 sd 1 lw 622 847 m -53 -8 d s [] 0 sd 1 lw [] 0 sd 1 lw 622 1913 m -16 11 d s [] 0 sd 1 lw [] 0 sd
 1 lw 622 1913 m -53 -19 d s [] 0 sd 1 lw [] 0 sd 1 lw 606 1924 m -54 -20 d s [] 0 sd 1 lw [] 0 sd 1 lw 621 858 m -16 9
 d s [] 0 sd 1 lw [] 0 sd 1 lw 621 858 m -52 -8 d s [] 0 sd 1 lw [] 0 sd 1 lw 621 1902 m -52 -20 d s [] 0 sd 1 lw
 [] 0 sd 1 lw 569 839 m -17 10 d s [] 0 sd 1 lw [] 0 sd 1 lw 569 839 m 11 Y s [] 0 sd 1 lw [] 0 sd 1 lw 552 849 m 11 Y s
 [] 0 sd 1 lw [] 0 sd 1 lw 569 850 m -17 10 d s [] 0 sd 1 lw [] 0 sd 1 lw 569 1882 m -17 11 d s [] 0 sd 1 lw [] 0 sd 1
 lw 569 1882 m 12 Y s [] 0 sd 1 lw [] 0 sd 1 lw 552 1893 m 11 Y s [] 0 sd 1 lw [] 0 sd 1 lw 569 1894 m -17 10 d s 0 1 0
 c [] 0 sd 1 lw [] 0 sd 1 lw 936 1772 m -10 20 d s [] 0 sd 1 lw [] 0 sd 1 lw 884 1879 m -17 36 d s [] 0 sd 1 lw [] 0 sd
 1 lw 931 1769 m -10 20 d s [] 0 sd 1 lw [] 0 sd 1 lw 869 1898 m -10 21 d s [] 0 sd 1 lw [] 0 sd 1 lw 728 2015 m -39 26
 d s [] 0 sd 1 lw [] 0 sd 1 lw 859 1919 m -16 11 d s [] 0 sd 1 lw [] 0 sd 1 lw 712 2019 m -25 17 d s [] 0 sd 1 lw
 [] 0 sd 1 lw 689 2041 m -20 13 d s [] 0 sd 1 lw [] 0 sd 1 lw 689 2041 m -117 10 d s [] 0 sd 1 lw [] 0 sd 1 lw 528 2055
 m -61 5 d s [] 0 sd 1 lw [] 0 sd 1 lw 551 2064 m -2 X s [] 0 sd 1 lw [] 0 sd 1 lw 508 2068 m -47 3 d s [] 0 sd 1 lw
 [] 0 sd 1 lw 687 2036 m -77 6 d s [] 0 sd 1 lw [] 0 sd 1 lw 527 2049 m -37 3 d s [] 0 sd 1 lw [] 0 sd 1 lw 471 2054 m
 -4 X s [] 0 sd 1 lw [] 0 sd 1 lw 417 892 m -8 -1 d s [] 0 sd 1 lw [] 0 sd 1 lw 467 2060 m -20 12 d s [] 0 sd 1 lw
 [] 0 sd 1 lw 467 2060 m -58 -22 d s [] 0 sd 1 lw [] 0 sd 1 lw 388 2051 m s [] 0 sd 1 lw [] 0 sd 1 lw 410 897 m -1 X s
 [] 0 sd 1 lw [] 0 sd 1 lw 467 2054 m -58 -21 d s [] 0 sd 1 lw [] 0 sd 1 lw 409 891 m -21 13 d s [] 0 sd 1 lw [] 0 sd 1
 lw 409 891 m 6 Y s [] 0 sd 1 lw [] 0 sd 1 lw 388 904 m 5 Y s [] 0 sd 1 lw [] 0 sd 1 lw 409 897 m -21 12 d s [] 0 sd 1
 lw [] 0 sd 1 lw 409 2033 m -21 13 d s [] 0 sd 1 lw [] 0 sd 1 lw 409 2033 m 5 Y s [] 0 sd 1 lw [] 0 sd 1 lw 388 2046 m 5
 Y s [] 0 sd 1 lw [] 0 sd 1 lw 409 2038 m -21 13 d s [] 0 sd 1 lw [] 0 sd 1 lw 904 1734 m -53 110 d s [] 0 sd 1 lw
 [] 0 sd 1 lw 899 1730 m -52 110 d s [] 0 sd 1 lw [] 0 sd 1 lw 851 1844 m -44 30 d s [] 0 sd 1 lw [] 0 sd 1 lw 751 1912
 m -53 36 d s [] 0 sd 1 lw [] 0 sd 1 lw 847 1840 m -52 35 d s [] 0 sd 1 lw [] 0 sd 1 lw 739 1913 m -44 30 d s [] 0 sd 1
 lw [] 0 sd 1 lw 547 968 m -45 -27 d s [] 0 sd 1 lw [] 0 sd 1 lw 698 1948 m -21 13 d s [] 0 sd 1 lw [] 0 sd 1 lw 698
 1948 m -133 11 d s [] 0 sd 1 lw [] 0 sd 1 lw 517 1963 m -15 1 d s [] 0 sd 1 lw [] 0 sd 1 lw 677 1961 m -111 9 d s
 [] 0 sd 1 lw [] 0 sd 1 lw 503 1975 m -22 2 d s [] 0 sd 1 lw [] 0 sd 1 lw 543 970 m -42 -24 d s [] 0 sd 1 lw [] 0 sd 1
 lw 695 1943 m -130 10 d s [] 0 sd 1 lw [] 0 sd 1 lw 518 1957 m -17 2 d s [] 0 sd 1 lw [] 0 sd 1 lw 502 941 m -52 -8 d s
 [] 0 sd 1 lw [] 0 sd 1 lw 502 1964 m -21 13 d s [] 0 sd 1 lw [] 0 sd 1 lw 502 1964 m -52 -19 d s [] 0 sd 1 lw [] 0 sd 1
 lw 481 1977 m -52 -19 d s [] 0 sd 1 lw [] 0 sd 1 lw 501 946 m -20 13 d s [] 0 sd 1 lw [] 0 sd 1 lw 501 946 m -51 -8 d s
 [] 0 sd 1 lw [] 0 sd 1 lw 501 1959 m -51 -19 d s [] 0 sd 1 lw [] 0 sd 1 lw 450 933 m -21 13 d s [] 0 sd 1 lw [] 0 sd 1
 lw 450 933 m 5 Y s [] 0 sd 1 lw [] 0 sd 1 lw 429 946 m 5 Y s [] 0 sd 1 lw [] 0 sd 1 lw 450 938 m -21 13 d s [] 0 sd 1
 lw [] 0 sd 1 lw 450 1940 m -21 13 d s [] 0 sd 1 lw [] 0 sd 1 lw 450 1940 m 5 Y s [] 0 sd 1 lw [] 0 sd 1 lw 429 1953 m 5
 Y s [] 0 sd 1 lw [] 0 sd 1 lw 450 1945 m -21 13 d s [] 0 sd 1 lw [] 0 sd 1 lw 1472 1335 m -20 -8 d s [] 0 sd 1 lw
 [] 0 sd 1 lw 1466 323 m -14 -2 d s [] 0 sd 1 lw [] 0 sd 1 lw 1472 302 m -20 13 d s [] 0 sd 1 lw [] 0 sd 1 lw 1472 302 m
 6 Y s [] 0 sd 1 lw [] 0 sd 1 lw 1452 315 m 6 Y s [] 0 sd 1 lw [] 0 sd 1 lw 1472 308 m -20 13 d s [] 0 sd 1 lw [] 0 sd 1
 lw 1472 1309 m -20 13 d s [] 0 sd 1 lw [] 0 sd 1 lw 1472 1309 m 6 Y s [] 0 sd 1 lw [] 0 sd 1 lw 1452 1322 m 5 Y s
 [] 0 sd 1 lw [] 0 sd 1 lw 1472 1315 m -20 12 d s [] 0 sd 1 lw [] 0 sd 1 lw 1513 1377 m -20 -8 d s [] 0 sd 1 lw [] 0 sd
 1 lw 1494 228 m -1 X s [] 0 sd 1 lw [] 0 sd 1 lw 1514 209 m -21 13 d s [] 0 sd 1 lw [] 0 sd 1 lw 1514 209 m 6 Y s
 [] 0 sd 1 lw [] 0 sd 1 lw 1493 222 m 6 Y s [] 0 sd 1 lw [] 0 sd 1 lw 1514 215 m -21 13 d s [] 0 sd 1 lw [] 0 sd 1 lw
 1514 1351 m -21 13 d s [] 0 sd 1 lw [] 0 sd 1 lw 1514 1351 m 6 Y s [] 0 sd 1 lw [] 0 sd 1 lw 1493 1364 m 5 Y s [] 0 sd
 1 lw [] 0 sd 1 lw 1514 1357 m -21 12 d s 1 0 0 c [] 0 sd 1 lw [] 0 sd 1 lw 379 884 m -1 X s [] 0 sd 1 lw [] 0 sd 1 lw
 463 1015 m -85 -29 d s [] 0 sd 1 lw [] 0 sd 1 lw 378 884 m -62 38 d s [] 0 sd 1 lw [] 0 sd 1 lw 378 884 m 102 Y s
 [] 0 sd 1 lw [] 0 sd 1 lw 316 922 m 2 Y s [] 0 sd 1 lw [] 0 sd 1 lw 316 924 m 62 62 d s [] 0 sd 1 lw [] 0 sd 1 lw 389
 878 m -1 X s [] 0 sd 1 lw [] 0 sd 1 lw 456 1004 m -68 -24 d s [] 0 sd 1 lw [] 0 sd 1 lw 463 1015 m -84 -29 d s [] 0 sd
 1 lw [] 0 sd 1 lw 388 878 m -9 5 d s [] 0 sd 1 lw [] 0 sd 1 lw 388 878 m 102 Y s [] 0 sd 1 lw [] 0 sd 1 lw 379 883 m
 103 Y s [] 0 sd 1 lw [] 0 sd 1 lw 388 980 m -9 6 d s [] 0 sd 1 lw [] 0 sd 1 lw 422 889 m -33 -12 d s [] 0 sd 1 lw
 [] 0 sd 1 lw 456 1004 m -68 -24 d s [] 0 sd 1 lw [] 0 sd 1 lw 389 877 m -1 33 d s [] 0 sd 1 lw [] 0 sd 1 lw 388 910 m
 70 Y s [] 0 sd 1 lw [] 0 sd 1 lw 591 940 m -162 -56 d s [] 0 sd 1 lw [] 0 sd 1 lw 455 1002 m -66 -23 d s [] 0 sd 1 lw
 [] 0 sd 1 lw 429 884 m -40 26 d s [] 0 sd 1 lw [] 0 sd 1 lw 429 884 m 70 Y s [] 0 sd 1 lw [] 0 sd 1 lw 389 910 m 69 Y s
 [] 0 sd 1 lw [] 0 sd 1 lw 429 954 m -40 25 d s [] 0 sd 1 lw [] 0 sd 1 lw 930 1794 m -4 -3 d s [] 0 sd 1 lw [] 0 sd 1 lw
 953 1774 m 1 Y s [] 0 sd 1 lw [] 0 sd 1 lw 931 1793 m -5 -2 d s [] 0 sd 1 lw [] 0 sd 1 lw 970 1657 m -1 16 d s [] 0 sd
 1 lw [] 0 sd 1 lw 948 1770 m -16 9 d s [] 0 sd 1 lw [] 0 sd 1 lw 911 1781 m -1 X s [] 0 sd 1 lw [] 0 sd 1 lw 777 2036 m
 -1 X s [] 0 sd 1 lw [] 0 sd 1 lw 776 2036 m -18 12 d s [] 0 sd 1 lw [] 0 sd 1 lw 776 2036 m -19 -26 d s [] 0 sd 1 lw
 [] 0 sd 1 lw 787 2030 m -1 X s [] 0 sd 1 lw [] 0 sd 1 lw 786 2030 m -9 6 d s [] 0 sd 1 lw [] 0 sd 1 lw 786 2030 m -22
 -29 d s [] 0 sd 1 lw [] 0 sd 1 lw 777 2036 m -20 -28 d s [] 0 sd 1 lw [] 0 sd 1 lw 933 1850 m -17 -11 d s [] 0 sd 1 lw
 [] 0 sd 1 lw 933 1850 m -36 45 d s [] 0 sd 1 lw [] 0 sd 1 lw 838 1967 m -51 63 d s [] 0 sd 1 lw [] 0 sd 1 lw 787 2030 m
 -23 -29 d s [] 0 sd 1 lw [] 0 sd 1 lw 929 1794 m -41 -28 d s [] 0 sd 1 lw [] 0 sd 1 lw 924 1830 m -84 103 d s [] 0 sd 1
 lw [] 0 sd 1 lw 797 1962 m -37 -51 d s [] 0 sd 1 lw [] 0 sd 1 lw 759 1911 m -5 3 d s [] 0 sd 1 lw [] 0 sd 1 lw 737 2061
 m -18 10 d s [] 0 sd 1 lw [] 0 sd 1 lw 737 2061 m -1 -1 d s [] 0 sd 1 lw [] 0 sd 1 lw 737 2061 m -232 53 d s [] 0 sd 1
 lw [] 0 sd 1 lw 505 2114 m -16 10 d s [] 0 sd 1 lw [] 0 sd 1 lw 505 2114 m -5 -28 d s [] 0 sd 1 lw [] 0 sd 1 lw 747
 2055 m -10 5 d s [] 0 sd 1 lw [] 0 sd 1 lw 747 2055 m -1 -1 d s [] 0 sd 1 lw [] 0 sd 1 lw 727 2024 m -1 Y s [] 0 sd 1
 lw [] 0 sd 1 lw 747 2055 m -232 53 d s [] 0 sd 1 lw [] 0 sd 1 lw 737 2060 m -231 53 d s [] 0 sd 1 lw [] 0 sd 1 lw 515
 2108 m -9 5 d s [] 0 sd 1 lw [] 0 sd 1 lw 515 2108 m -8 -40 d s [] 0 sd 1 lw [] 0 sd 1 lw 506 2113 m -6 -29 d s [] 0 sd
 1 lw [] 0 sd 1 lw 747 2054 m -20 -30 d s [] 0 sd 1 lw [] 0 sd 1 lw 747 2054 m -231 53 d s [] 0 sd 1 lw [] 0 sd 1 lw 727
 2024 m -1 Y s [] 0 sd 1 lw [] 0 sd 1 lw 727 2024 m -17 4 d s [] 0 sd 1 lw [] 0 sd 1 lw 551 2064 m -42 10 d s [] 0 sd 1
 lw [] 0 sd 1 lw 516 2107 m -7 -33 d s [] 0 sd 1 lw [] 0 sd 1 lw 509 2074 m -2 -6 d s [] 0 sd 1 lw [] 0 sd 1 lw 766 2000
 m -38 23 d s [] 0 sd 1 lw [] 0 sd 1 lw 750 1968 m -23 -37 d s [] 0 sd 1 lw [] 0 sd 1 lw 758 2000 m -208 48 d s [] 0 sd
 1 lw [] 0 sd 1 lw 728 2023 m -17 4 d s [] 0 sd 1 lw [] 0 sd 1 lw 692 2031 m -2 1 d s [] 0 sd 1 lw [] 0 sd 1 lw 552 2063
 m -43 10 d s [] 0 sd 1 lw [] 0 sd 1 lw 727 1931 m -6 1 d s [] 0 sd 1 lw [] 0 sd 1 lw 550 2048 m -41 25 d s [] 0 sd 1 lw
 [] 0 sd 1 lw 550 2048 m -8 -39 d s [] 0 sd 1 lw [] 0 sd 1 lw 509 2073 m -1 -6 d s [] 0 sd 1 lw [] 0 sd 1 lw 455 2110 m
 -12 8 d s [] 0 sd 1 lw [] 0 sd 1 lw 455 2110 m -1 Y s [] 0 sd 1 lw [] 0 sd 1 lw 455 2110 m -77 -26 d s [] 0 sd 1 lw
 [] 0 sd 1 lw 317 2122 m -1 X s [] 0 sd 1 lw [] 0 sd 1 lw 379 1982 m -1 -1 d s [] 0 sd 1 lw [] 0 sd 1 lw 378 1981 m -62
 140 d s [] 0 sd 1 lw [] 0 sd 1 lw 378 1981 m 103 Y s [] 0 sd 1 lw [] 0 sd 1 lw 316 2121 m 1 Y s [] 0 sd 1 lw [] 0 sd 1
 lw 378 2084 m -62 38 d s [] 0 sd 1 lw [] 0 sd 1 lw 465 2104 m -9 6 d s [] 0 sd 1 lw [] 0 sd 1 lw 465 2104 m -1 Y s
 [] 0 sd 1 lw [] 0 sd 1 lw 465 2104 m -77 -27 d s [] 0 sd 1 lw [] 0 sd 1 lw 456 2110 m -77 -27 d s [] 0 sd 1 lw [] 0 sd
 1 lw 389 1976 m -1 -1 d s [] 0 sd 1 lw [] 0 sd 1 lw 388 1975 m -9 6 d s [] 0 sd 1 lw [] 0 sd 1 lw 388 1975 m 102 Y s
 [] 0 sd 1 lw [] 0 sd 1 lw 379 1981 m 102 Y s [] 0 sd 1 lw [] 0 sd 1 lw 388 2077 m -9 6 d s [] 0 sd 1 lw [] 0 sd 1 lw
 466 2103 m -5 -32 d s [] 0 sd 1 lw [] 0 sd 1 lw 466 2103 m -77 -26 d s [] 0 sd 1 lw [] 0 sd 1 lw 389 1976 m -1 -1 d s
 [] 0 sd 1 lw [] 0 sd 1 lw 389 1975 m -1 X s [] 0 sd 1 lw [] 0 sd 1 lw 388 1975 m 70 Y s [] 0 sd 1 lw [] 0 sd 1 lw 388
 2045 m 1 32 d s [] 0 sd 1 lw [] 0 sd 1 lw 502 2045 m -21 12 d s [] 0 sd 1 lw [] 0 sd 1 lw 502 2045 m -8 -69 d s [] 0 sd
 1 lw [] 0 sd 1 lw 502 2045 m -73 -25 d s [] 0 sd 1 lw [] 0 sd 1 lw 429 1950 m -40 25 d s [] 0 sd 1 lw [] 0 sd 1 lw 429
 1950 m 70 Y s [] 0 sd 1 lw [] 0 sd 1 lw 389 1975 m 70 Y s [] 0 sd 1 lw [] 0 sd 1 lw 429 2020 m -40 25 d s 0 0 1 c
 [] 0 sd 1 lw [] 0 sd 1 lw 894 1724 m 1 Y s [] 0 sd 1 lw [] 0 sd 1 lw 894 1725 m -50 31 d s [] 0 sd 1 lw [] 0 sd 1 lw
 894 1725 m -15 -12 d s [] 0 sd 1 lw [] 0 sd 1 lw 980 1796 m -2 -2 d s [] 0 sd 1 lw [] 0 sd 1 lw 954 1774 m -75 -61 d s
 [] 0 sd 1 lw [] 0 sd 1 lw 1008 1793 m -1 1 d s [] 0 sd 1 lw [] 0 sd 1 lw 1007 1794 m -17 -14 d s [] 0 sd 1 lw [] 0 sd 1
 lw 962 1757 m -67 -54 d s [] 0 sd 1 lw [] 0 sd 1 lw 981 1795 m -3 -2 d s [] 0 sd 1 lw [] 0 sd 1 lw 954 1773 m -74 -61 d
 s [] 0 sd 1 lw [] 0 sd 1 lw 1022 1769 m -14 25 d s [] 0 sd 1 lw [] 0 sd 1 lw 1022 1769 m -20 -15 d s [] 0 sd 1 lw
 [] 0 sd 1 lw 973 1733 m -5 -4 d s [] 0 sd 1 lw [] 0 sd 1 lw 1008 1794 m -18 -15 d s [] 0 sd 1 lw [] 0 sd 1 lw 962 1757
 m -17 -14 d s [] 0 sd 1 lw [] 0 sd 1 lw 946 1743 m -1 X s [] 0 sd 1 lw [] 0 sd 1 lw 945 1743 m -50 -40 d s [] 0 sd 1 lw
 [] 0 sd 1 lw 953 1738 m -1 1 d s [] 0 sd 1 lw [] 0 sd 1 lw 952 1739 m -6 4 d s [] 0 sd 1 lw [] 0 sd 1 lw 952 1739 m -50
 -41 d s [] 0 sd 1 lw [] 0 sd 1 lw 946 1743 m -50 -41 d s [] 0 sd 1 lw [] 0 sd 1 lw 978 1723 m -1 1 d s [] 0 sd 1 lw
 [] 0 sd 1 lw 977 1724 m -24 15 d s [] 0 sd 1 lw [] 0 sd 1 lw 977 1724 m -41 -34 d s [] 0 sd 1 lw [] 0 sd 1 lw 953 1739
 m -50 -41 d s [] 0 sd 1 lw [] 0 sd 1 lw 946 1672 m -10 18 d s [] 0 sd 1 lw [] 0 sd 1 lw 936 1690 m -16 -3 d s [] 0 sd 1
 lw [] 0 sd 1 lw 978 1724 m -42 -34 d s [] 0 sd 1 lw [] 0 sd 1 lw 946 1672 m -10 18 d s [] 0 sd 1 lw [] 0 sd 1 lw 1016
 1699 m -12 23 d s [] 0 sd 1 lw [] 0 sd 1 lw 1016 1699 m -33 -24 d s [] 0 sd 1 lw [] 0 sd 1 lw 1004 1722 m -32 -27 d s
 [] 0 sd 1 lw [] 0 sd 1 lw 978 1724 m -42 -35 d s [] 0 sd 1 lw [] 0 sd 1 lw 983 1675 m -11 20 d s [] 0 sd 1 lw [] 0 sd 1
 lw 983 1675 m -34 -5 d s [] 0 sd 1 lw [] 0 sd 1 lw 972 1695 m -36 -6 d s [] 0 sd 1 lw [] 0 sd 1 lw 946 1671 m -10 18 d
 s [] 0 sd 1 lw [] 0 sd 1 lw 516 1890 m -22 14 d s [] 0 sd 1 lw [] 0 sd 1 lw 517 1871 m -1 -1 d s [] 0 sd 1 lw [] 0 sd 1
 lw 515 1828 m s [] 0 sd 1 lw [] 0 sd 1 lw 516 1870 m -49 30 d s [] 0 sd 1 lw [] 0 sd 1 lw 516 1870 m -1 -42 d s [] 0 sd
 1 lw [] 0 sd 1 lw 444 1895 m -1 -23 d s [] 0 sd 1 lw [] 0 sd 1 lw 515 1828 m -23 13 d s [] 0 sd 1 lw [] 0 sd 1 lw 458
 1862 m -15 10 d s [] 0 sd 1 lw [] 0 sd 1 lw 515 1828 m s [] 0 sd 1 lw [] 0 sd 1 lw 518 1962 m -3 -134 d s [] 0 sd 1 lw
 [] 0 sd 1 lw 515 1827 m 1 Y s [] 0 sd 1 lw [] 0 sd 1 lw 566 1982 m -1 Y s [] 0 sd 1 lw [] 0 sd 1 lw 566 1982 m -31 -6 d
 s [] 0 sd 1 lw [] 0 sd 1 lw 532 1818 m -1 -1 d s [] 0 sd 1 lw [] 0 sd 1 lw 535 1976 m -4 -159 d s [] 0 sd 1 lw [] 0 sd
 1 lw 519 1962 m -4 -135 d s [] 0 sd 1 lw [] 0 sd 1 lw 531 1817 m -16 10 d s [] 0 sd 1 lw [] 0 sd 1 lw 567 1981 m -7 -74
 d s [] 0 sd 1 lw [] 0 sd 1 lw 567 1981 m -31 -6 d s [] 0 sd 1 lw [] 0 sd 1 lw 560 1907 m -27 -5 d s [] 0 sd 1 lw
 [] 0 sd 1 lw 532 1818 m -1 -1 d s [] 0 sd 1 lw [] 0 sd 1 lw 536 1975 m -3 -73 d s [] 0 sd 1 lw [] 0 sd 1 lw 533 1902 m
 -2 -85 d s [] 0 sd 1 lw [] 0 sd 1 lw 532 1817 m -1 X s [] 0 sd 1 lw [] 0 sd 1 lw 567 1903 m -10 -2 d s [] 0 sd 1 lw
 [] 0 sd 1 lw 552 1900 m -11 -3 d s [] 0 sd 1 lw [] 0 sd 1 lw 556 1905 m -22 -4 d s [] 0 sd 1 lw [] 0 sd 1 lw 539 1813 m
 -1 X s [] 0 sd 1 lw [] 0 sd 1 lw 541 1897 m -7 4 d s [] 0 sd 1 lw [] 0 sd 1 lw 541 1897 m -3 -84 d s [] 0 sd 1 lw
 [] 0 sd 1 lw 534 1901 m -2 -84 d s [] 0 sd 1 lw [] 0 sd 1 lw 538 1813 m -6 4 d s [] 0 sd 1 lw [] 0 sd 1 lw 552 1899 m
 -11 -2 d s [] 0 sd 1 lw [] 0 sd 1 lw 587 1836 m -25 -19 d s [] 0 sd 1 lw [] 0 sd 1 lw 565 1833 m -1 -1 d s [] 0 sd 1 lw
 [] 0 sd 1 lw 562 1817 m -23 -4 d s [] 0 sd 1 lw [] 0 sd 1 lw 552 1890 m -11 7 d s [] 0 sd 1 lw [] 0 sd 1 lw 565 1872 m
 -1 -40 d s [] 0 sd 1 lw [] 0 sd 1 lw 541 1897 m -2 -84 d s [] 0 sd 1 lw [] 0 sd 1 lw 564 1832 m -25 -19 d s [] 0 sd 1
 lw [] 0 sd 1 lw 589 1837 m -24 -5 d s [] 0 sd 1 lw [] 0 sd 1 lw 565 1833 m -1 -1 d s [] 0 sd 1 lw [] 0 sd 1 lw 565 1872
 m -1 -40 d s [] 0 sd 1 lw [] 0 sd 1 lw 565 1832 m -1 X s [] 0 sd 1 lw [] 0 sd 1 lw 610 1889 m -3 -39 d s [] 0 sd 1 lw
 [] 0 sd 1 lw 610 1889 m -28 -6 d s [] 0 sd 1 lw [] 0 sd 1 lw 607 1850 m -18 -13 d s [] 0 sd 1 lw [] 0 sd 1 lw 607 1850
 m -26 -5 d s [] 0 sd 1 lw [] 0 sd 1 lw 589 1837 m -24 -5 d s [] 0 sd 1 lw [] 0 sd 1 lw 582 1883 m -1 -38 d s [] 0 sd 1
 lw [] 0 sd 1 lw 566 1872 m -1 -40 d s [] 0 sd 1 lw [] 0 sd 1 lw 581 1845 m -16 -13 d s [] 0 sd 1 lw [] 0 sd 1 lw 1848
 665 m -7 4 d s [] 0 sd 1 lw [] 0 sd 1 lw 1848 665 m -14 -25 d s [] 0 sd 1 lw [] 0 sd 1 lw 1848 665 m -35 13 d s [] 0 sd
 1 lw [] 0 sd 1 lw 1834 640 m -33 16 d s [] 0 sd 1 lw [] 0 sd 1 lw 1813 678 m -31 20 d s [] 0 sd 1 lw [] 0 sd 1 lw 1813
 678 m -12 -22 d s [] 0 sd 1 lw [] 0 sd 1 lw 1801 656 m -32 19 d s [] 0 sd 1 lw [] 0 sd 1 lw 1872 1109 m -12 20 d s
 [] 0 sd 1 lw [] 0 sd 1 lw 1872 1109 m -37 -28 d s [] 0 sd 1 lw [] 0 sd 1 lw 1860 1129 m -5 3 d s [] 0 sd 1 lw [] 0 sd 1
 lw 1860 1129 m -36 -30 d s [] 0 sd 1 lw [] 0 sd 1 lw 1835 1081 m -32 20 d s [] 0 sd 1 lw [] 0 sd 1 lw 1835 1081 m -11
 18 d s [] 0 sd 1 lw [] 0 sd 1 lw 1824 1099 m -31 20 d s [] 0 sd 1 lw [] 0 sd 1 lw 1507 1279 m -10 6 d s [] 0 sd 1 lw
 [] 0 sd 1 lw 1467 1304 m -31 19 d s [] 0 sd 1 lw [] 0 sd 1 lw 1507 1279 m -3 -43 d s [] 0 sd 1 lw [] 0 sd 1 lw 1507
 1279 m -25 -5 d s [] 0 sd 1 lw [] 0 sd 1 lw 1436 1323 m -25 -5 d s [] 0 sd 1 lw [] 0 sd 1 lw 1504 1236 m -23 -5 d s
 [] 0 sd 1 lw [] 0 sd 1 lw 1482 1274 m -7 5 d s [] 0 sd 1 lw [] 0 sd 1 lw 1455 1291 m -44 27 d s [] 0 sd 1 lw [] 0 sd 1
 lw 1482 1274 m -1 -43 d s [] 0 sd 1 lw [] 0 sd 1 lw 1411 1318 m -1 -43 d s [] 0 sd 1 lw [] 0 sd 1 lw 1481 1231 m -31 20
 d s [] 0 sd 1 lw [] 0 sd 1 lw 1427 1264 m -17 11 d s [] 0 sd 1 lw [] 0 sd 1 lw 1445 1436 m -10 -112 d s [] 0 sd 1 lw
 [] 0 sd 1 lw 1445 1440 m -31 -6 d s [] 0 sd 1 lw [] 0 sd 1 lw 1435 1324 m -1 Y s [] 0 sd 1 lw [] 0 sd 1 lw 1435 1324 m
 -25 -5 d s [] 0 sd 1 lw [] 0 sd 1 lw 1410 1276 m -1 X s [] 0 sd 1 lw [] 0 sd 1 lw 1414 1425 m -4 -106 d s [] 0 sd 1 lw
 [] 0 sd 1 lw 1410 1319 m -1 -43 d s [] 0 sd 1 lw [] 0 sd 1 lw 1410 1275 m -1 1 d s [] 0 sd 1 lw [] 0 sd 1 lw 1435 1324
 m -1 Y s [] 0 sd 1 lw [] 0 sd 1 lw 1410 1276 m -1 X s [] 0 sd 1 lw [] 0 sd 1 lw 1413 1424 m -4 -148 d s [] 0 sd 1 lw
 [] 0 sd 1 lw 1397 1420 m -4 -134 d s [] 0 sd 1 lw [] 0 sd 1 lw 1409 1276 m -16 10 d s [] 0 sd 1 lw [] 0 sd 1 lw 1393
 1286 m -1 X s [] 0 sd 1 lw [] 0 sd 1 lw 1396 1421 m -4 -135 d s [] 0 sd 1 lw [] 0 sd 1 lw 1393 1286 m -1 X s [] 0 sd 1
 lw [] 0 sd 1 lw 1395 1371 m -1 Y s [] 0 sd 1 lw [] 0 sd 1 lw 1395 1375 m -7 -1 d s [] 0 sd 1 lw [] 0 sd 1 lw 1393 1286
 m -1 X s [] 0 sd 1 lw [] 0 sd 1 lw 1395 1370 m -7 4 d s [] 0 sd 1 lw [] 0 sd 1 lw 1395 1370 m -3 -84 d s [] 0 sd 1 lw
 [] 0 sd 1 lw 1388 1374 m -2 -84 d s [] 0 sd 1 lw [] 0 sd 1 lw 1392 1286 m -6 4 d s [] 0 sd 1 lw [] 0 sd 1 lw 1395 1392
 m -5 3 d s [] 0 sd 1 lw [] 0 sd 1 lw 1395 1376 m -7 -1 d s [] 0 sd 1 lw [] 0 sd 1 lw 1390 1395 m -27 -5 d s [] 0 sd 1
 lw [] 0 sd 1 lw 1386 1291 m -1 X s [] 0 sd 1 lw [] 0 sd 1 lw 1388 1375 m -25 15 d s [] 0 sd 1 lw [] 0 sd 1 lw 1388 1375
 m -3 -84 d s [] 0 sd 1 lw [] 0 sd 1 lw 1363 1390 m -1 -50 d s [] 0 sd 1 lw [] 0 sd 1 lw 1362 1340 m 23 -49 d s [] 0 sd
 1 lw [] 0 sd 1 lw 1391 1403 m -1 -8 d s [] 0 sd 1 lw [] 0 sd 1 lw 1391 1407 m -27 -6 d s [] 0 sd 1 lw [] 0 sd 1 lw 1390
 1395 m s [] 0 sd 1 lw [] 0 sd 1 lw 1390 1395 m -27 -5 d s [] 0 sd 1 lw [] 0 sd 1 lw 1362 1341 m -1 X s [] 0 sd 1 lw
 [] 0 sd 1 lw 1363 1393 m -3 Y s [] 0 sd 1 lw [] 0 sd 1 lw 1363 1390 m -2 -49 d s [] 0 sd 1 lw [] 0 sd 1 lw 1362 1340 m
 -1 1 d s [] 0 sd 1 lw [] 0 sd 1 lw 1390 1395 m s [] 0 sd 1 lw [] 0 sd 1 lw 1362 1341 m -1 X s [] 0 sd 1 lw [] 0 sd 1 lw
 1363 1393 m -2 -52 d s [] 0 sd 1 lw [] 0 sd 1 lw 1347 1390 m -1 -16 d s [] 0 sd 1 lw [] 0 sd 1 lw 1346 1374 m 15 -33 d
 s 1 0 0 c [] 0 sd 1 lw [] 0 sd 1 lw 1763 200 m 1 Y s [] 0 sd 1 lw [] 0 sd 1 lw 1763 200 m -177 -61 d s [] 0 sd 1 lw
 [] 0 sd 1 lw 1751 218 m -80 112 d s [] 0 sd 1 lw [] 0 sd 1 lw 1763 201 m -177 -61 d s [] 0 sd 1 lw [] 0 sd 1 lw 1671
 330 m -147 -51 d s [] 0 sd 1 lw [] 0 sd 1 lw 1586 139 m -62 38 d s [] 0 sd 1 lw [] 0 sd 1 lw 1586 139 m 1 Y s [] 0 sd 1
 lw [] 0 sd 1 lw 1524 177 m 102 Y s [] 0 sd 1 lw [] 0 sd 1 lw 1586 140 m -62 139 d s [] 0 sd 1 lw [] 0 sd 1 lw 1670 330
 m s [] 0 sd 1 lw [] 0 sd 1 lw 1524 178 m -1 -1 d s [] 0 sd 1 lw [] 0 sd 1 lw 1670 330 m -9 6 d s [] 0 sd 1 lw [] 0 sd 1
 lw 1670 330 m -147 -50 d s [] 0 sd 1 lw [] 0 sd 1 lw 1661 336 m -147 -51 d s [] 0 sd 1 lw [] 0 sd 1 lw 1523 177 m -9 6
 d s [] 0 sd 1 lw [] 0 sd 1 lw 1523 177 m 103 Y s [] 0 sd 1 lw [] 0 sd 1 lw 1514 183 m 102 Y s [] 0 sd 1 lw [] 0 sd 1 lw
 1523 280 m -9 5 d s [] 0 sd 1 lw [] 0 sd 1 lw 1660 336 m 1 Y s [] 0 sd 1 lw [] 0 sd 1 lw 1514 184 m -1 X s [] 0 sd 1 lw
 [] 0 sd 1 lw 1660 337 m -147 -51 d s [] 0 sd 1 lw [] 0 sd 1 lw 1513 184 m 102 Y s [] 0 sd 1 lw [] 0 sd 1 lw 1660 336 m
 1 Y s [] 0 sd 1 lw [] 0 sd 1 lw 1660 337 m -19 12 d s [] 0 sd 1 lw [] 0 sd 1 lw 1660 337 m -147 -51 d s [] 0 sd 1 lw
 [] 0 sd 1 lw 1513 216 m -41 25 d s [] 0 sd 1 lw [] 0 sd 1 lw 1513 216 m 70 Y s [] 0 sd 1 lw [] 0 sd 1 lw 1472 241 m 70
 Y s [] 0 sd 1 lw [] 0 sd 1 lw 1513 286 m -41 25 d s [] 0 sd 1 lw [] 0 sd 1 lw 2021 436 m -1 X s [] 0 sd 1 lw [] 0 sd 1
 lw 2021 436 m -209 -206 d s [] 0 sd 1 lw [] 0 sd 1 lw 2006 445 m -122 81 d s [] 0 sd 1 lw [] 0 sd 1 lw 2020 436 m -209
 -205 d s [] 0 sd 1 lw [] 0 sd 1 lw 1884 526 m -173 -171 d s [] 0 sd 1 lw [] 0 sd 1 lw 1812 230 m -1 1 d s [] 0 sd 1 lw
 [] 0 sd 1 lw 1730 313 m -19 42 d s [] 0 sd 1 lw [] 0 sd 1 lw 1800 245 m -89 110 d s [] 0 sd 1 lw [] 0 sd 1 lw 1884 526
 m -1 X s [] 0 sd 1 lw [] 0 sd 1 lw 1883 526 m -9 6 d s [] 0 sd 1 lw [] 0 sd 1 lw 1883 526 m -173 -170 d s [] 0 sd 1 lw
 [] 0 sd 1 lw 1874 532 m -173 -171 d s [] 0 sd 1 lw [] 0 sd 1 lw 1728 315 m -18 41 d s [] 0 sd 1 lw [] 0 sd 1 lw 1714
 333 m -13 28 d s [] 0 sd 1 lw [] 0 sd 1 lw 1710 356 m -9 5 d s [] 0 sd 1 lw [] 0 sd 1 lw 1874 532 m -1 X s [] 0 sd 1 lw
 [] 0 sd 1 lw 1873 532 m -173 -170 d s [] 0 sd 1 lw [] 0 sd 1 lw 1712 334 m -12 28 d s [] 0 sd 1 lw [] 0 sd 1 lw 1874
 532 m -1 X s [] 0 sd 1 lw [] 0 sd 1 lw 1873 532 m -20 13 d s [] 0 sd 1 lw [] 0 sd 1 lw 1873 532 m -173 -170 d s [] 0 sd
 1 lw [] 0 sd 1 lw 1712 334 m -12 28 d s [] 0 sd 1 lw [] 0 sd 1 lw 1700 362 m -20 13 d s [] 0 sd 1 lw [] 0 sd 1 lw 2161
 752 m -1 X s [] 0 sd 1 lw [] 0 sd 1 lw 2161 752 m -107 -267 d s [] 0 sd 1 lw [] 0 sd 1 lw 2058 790 m -57 -2 d s [] 0 sd
 1 lw [] 0 sd 1 lw 2158 753 m -157 35 d s [] 0 sd 1 lw [] 0 sd 1 lw 2160 752 m -107 -267 d s [] 0 sd 1 lw [] 0 sd 1 lw
 2001 788 m -89 -221 d s [] 0 sd 1 lw [] 0 sd 1 lw 2054 485 m -1 X s [] 0 sd 1 lw [] 0 sd 1 lw 2048 488 m -136 79 d s
 [] 0 sd 1 lw [] 0 sd 1 lw 2056 790 m -56 -1 d s [] 0 sd 1 lw [] 0 sd 1 lw 2033 796 m -42 -1 d s [] 0 sd 1 lw [] 0 sd 1
 lw 2000 789 m -9 6 d s [] 0 sd 1 lw [] 0 sd 1 lw 2000 789 m -89 -222 d s [] 0 sd 1 lw [] 0 sd 1 lw 1991 795 m -89 -222
 d s [] 0 sd 1 lw [] 0 sd 1 lw 1912 567 m -1 X s [] 0 sd 1 lw [] 0 sd 1 lw 1911 567 m -9 6 d s [] 0 sd 1 lw [] 0 sd 1 lw
 2030 796 m -40 -1 d s [] 0 sd 1 lw [] 0 sd 1 lw 1990 795 m -89 -222 d s [] 0 sd 1 lw [] 0 sd 1 lw 1902 573 m -1 X s
 [] 0 sd 1 lw [] 0 sd 1 lw 2030 796 m -40 -1 d s [] 0 sd 1 lw [] 0 sd 1 lw 1990 795 m -25 16 d s [] 0 sd 1 lw [] 0 sd 1
 lw 1990 795 m -89 -222 d s [] 0 sd 1 lw [] 0 sd 1 lw 1902 573 m -1 X s [] 0 sd 1 lw [] 0 sd 1 lw 1901 573 m -25 15 d s
 [] 0 sd 1 lw [] 0 sd 1 lw 2170 807 m -1 X s [] 0 sd 1 lw [] 0 sd 1 lw 2170 807 m -22 259 d s [] 0 sd 1 lw [] 0 sd 1 lw
 2169 807 m -22 258 d s [] 0 sd 1 lw [] 0 sd 1 lw 2156 809 m -147 25 d s [] 0 sd 1 lw [] 0 sd 1 lw 2148 1066 m -1 -1 d s
 [] 0 sd 1 lw [] 0 sd 1 lw 2039 1077 m -49 -29 d s [] 0 sd 1 lw [] 0 sd 1 lw 2132 1063 m -142 -15 d s [] 0 sd 1 lw
 [] 0 sd 1 lw 2009 834 m -19 214 d s [] 0 sd 1 lw [] 0 sd 1 lw 2008 835 m s [] 0 sd 1 lw [] 0 sd 1 lw 2036 1076 m -47
 -27 d s [] 0 sd 1 lw [] 0 sd 1 lw 2014 1074 m -34 -20 d s [] 0 sd 1 lw [] 0 sd 1 lw 2008 835 m -9 5 d s [] 0 sd 1 lw
 [] 0 sd 1 lw 2008 835 m -19 214 d s [] 0 sd 1 lw [] 0 sd 1 lw 1999 840 m -19 214 d s [] 0 sd 1 lw [] 0 sd 1 lw 1989
 1049 m -9 5 d s [] 0 sd 1 lw [] 0 sd 1 lw 1998 841 m s [] 0 sd 1 lw [] 0 sd 1 lw 2012 1074 m -33 -19 d s [] 0 sd 1 lw
 [] 0 sd 1 lw 1998 841 m -19 214 d s [] 0 sd 1 lw [] 0 sd 1 lw 1998 841 m s [] 0 sd 1 lw [] 0 sd 1 lw 2012 1074 m -33
 -19 d s [] 0 sd 1 lw [] 0 sd 1 lw 1998 841 m -22 13 d s [] 0 sd 1 lw [] 0 sd 1 lw 1998 841 m -19 214 d s [] 0 sd 1 lw
 [] 0 sd 1 lw 1979 1055 m -21 13 d s [] 0 sd 1 lw [] 0 sd 1 lw 2130 1111 m -1 -1 d s [] 0 sd 1 lw [] 0 sd 1 lw 2130 1111
 m -146 180 d s [] 0 sd 1 lw [] 0 sd 1 lw 2110 1107 m -135 -21 d s [] 0 sd 1 lw [] 0 sd 1 lw 2129 1110 m -146 180 d s
 [] 0 sd 1 lw [] 0 sd 1 lw 1975 1086 m -121 149 d s [] 0 sd 1 lw [] 0 sd 1 lw 1984 1291 m -1 -1 d s [] 0 sd 1 lw [] 0 sd
 1 lw 1886 1280 m -32 -45 d s [] 0 sd 1 lw [] 0 sd 1 lw 1967 1283 m -113 -48 d s [] 0 sd 1 lw [] 0 sd 1 lw 1975 1087 m s
 [] 0 sd 1 lw [] 0 sd 1 lw 1975 1087 m -9 5 d s [] 0 sd 1 lw [] 0 sd 1 lw 1975 1087 m -122 149 d s [] 0 sd 1 lw [] 0 sd
 1 lw 1966 1092 m -122 149 d s [] 0 sd 1 lw [] 0 sd 1 lw 1884 1279 m -31 -43 d s [] 0 sd 1 lw [] 0 sd 1 lw 1866 1271 m
 -22 -30 d s [] 0 sd 1 lw [] 0 sd 1 lw 1853 1236 m -9 5 d s [] 0 sd 1 lw [] 0 sd 1 lw 1965 1093 m s [] 0 sd 1 lw [] 0 sd
 1 lw 1965 1093 m -122 149 d s [] 0 sd 1 lw [] 0 sd 1 lw 1864 1271 m -21 -29 d s [] 0 sd 1 lw [] 0 sd 1 lw 1965 1093 m s
 [] 0 sd 1 lw [] 0 sd 1 lw 1965 1093 m -20 12 d s [] 0 sd 1 lw [] 0 sd 1 lw 1965 1093 m -122 149 d s [] 0 sd 1 lw
 [] 0 sd 1 lw 1864 1271 m -21 -29 d s [] 0 sd 1 lw [] 0 sd 1 lw 1843 1242 m -19 12 d s [] 0 sd 1 lw [] 0 sd 1 lw 1945
 1315 m -1 -1 d s [] 0 sd 1 lw [] 0 sd 1 lw 1945 1315 m -231 53 d s [] 0 sd 1 lw [] 0 sd 1 lw 1930 1307 m -109 -52 d s
 [] 0 sd 1 lw [] 0 sd 1 lw 1944 1314 m -231 53 d s [] 0 sd 1 lw [] 0 sd 1 lw 1821 1255 m -191 44 d s [] 0 sd 1 lw
 [] 0 sd 1 lw 1714 1368 m -1 -1 d s [] 0 sd 1 lw [] 0 sd 1 lw 1638 1341 m -8 -42 d s [] 0 sd 1 lw [] 0 sd 1 lw 1701 1357
 m -71 -58 d s [] 0 sd 1 lw [] 0 sd 1 lw 1630 1300 m -1 X s [] 0 sd 1 lw [] 0 sd 1 lw 1637 1340 m -8 -40 d s [] 0 sd 1
 lw [] 0 sd 1 lw 1625 1329 m -5 -23 d s [] 0 sd 1 lw [] 0 sd 1 lw 1629 1300 m -9 6 d s [] 0 sd 1 lw [] 0 sd 1 lw 1620
 1306 m -1 X s [] 0 sd 1 lw [] 0 sd 1 lw 1623 1328 m -4 -22 d s [] 0 sd 1 lw [] 0 sd 1 lw 1620 1306 m -1 X s [] 0 sd 1
 lw [] 0 sd 1 lw 1620 1306 m -1 X s [] 0 sd 1 lw [] 0 sd 1 lw 1623 1328 m -4 -22 d s [] 0 sd 1 lw [] 0 sd 1 lw 1619 1306
 m -12 8 d s [] 0 sd 1 lw [] 0 sd 1 lw 1663 1365 m -2 Y s [] 0 sd 1 lw [] 0 sd 1 lw 1663 1365 m -77 -27 d s [] 0 sd 1 lw
 [] 0 sd 1 lw 1545 1384 m -21 -7 d s [] 0 sd 1 lw [] 0 sd 1 lw 1660 1360 m -72 -64 d s [] 0 sd 1 lw [] 0 sd 1 lw 1663
 1363 m -77 -26 d s [] 0 sd 1 lw [] 0 sd 1 lw 1588 1296 m -64 -22 d s [] 0 sd 1 lw [] 0 sd 1 lw 1524 1274 m 62 63 d s
 [] 0 sd 1 lw [] 0 sd 1 lw 1524 1274 m 103 Y s [] 0 sd 1 lw [] 0 sd 1 lw 1586 1337 m 1 Y s [] 0 sd 1 lw [] 0 sd 1 lw
 1586 1338 m -62 39 d s [] 0 sd 1 lw [] 0 sd 1 lw 1594 1408 m -3 1 d s [] 0 sd 1 lw [] 0 sd 1 lw 1546 1385 m -23 -8 d s
 [] 0 sd 1 lw [] 0 sd 1 lw 1591 1409 m -77 -26 d s [] 0 sd 1 lw [] 0 sd 1 lw 1524 1275 m -1 X s [] 0 sd 1 lw [] 0 sd 1
 lw 1523 1275 m -9 6 d s [] 0 sd 1 lw [] 0 sd 1 lw 1523 1275 m 102 Y s [] 0 sd 1 lw [] 0 sd 1 lw 1514 1281 m 102 Y s
 [] 0 sd 1 lw [] 0 sd 1 lw 1523 1377 m -9 6 d s [] 0 sd 1 lw [] 0 sd 1 lw 1590 1410 m -1 Y s [] 0 sd 1 lw [] 0 sd 1 lw
 1590 1410 m -77 -27 d s [] 0 sd 1 lw [] 0 sd 1 lw 1578 1303 m -1 X s [] 0 sd 1 lw [] 0 sd 1 lw 1514 1281 m -1 X s
 [] 0 sd 1 lw [] 0 sd 1 lw 1514 1281 m -1 X s [] 0 sd 1 lw [] 0 sd 1 lw 1513 1281 m 102 Y s [] 0 sd 1 lw [] 0 sd 1 lw
 1552 1397 m -7 4 d s [] 0 sd 1 lw [] 0 sd 1 lw 1545 1401 m -73 -25 d s [] 0 sd 1 lw [] 0 sd 1 lw 1514 1281 m -1 X s
 [] 0 sd 1 lw [] 0 sd 1 lw 1513 1281 m -41 25 d s [] 0 sd 1 lw [] 0 sd 1 lw 1513 1281 m 70 Y s [] 0 sd 1 lw [] 0 sd 1 lw
 1472 1306 m 70 Y s [] 0 sd 1 lw [] 0 sd 1 lw 1513 1351 m -41 25 d s 0 0 1 c [] 0 sd 1 lw [] 0 sd 1 lw 789 1408 m 11 Y s
 [] 0 sd 1 lw [] 0 sd 1 lw 786 1421 m -3 -7 d s [] 0 sd 1 lw [] 0 sd 1 lw 783 1411 m 3 Y s [] 0 sd 1 lw [] 0 sd 1 lw 783
 1414 m -5 12 d s [] 0 sd 1 lw [] 0 sd 1 lw 742 1344 m -4 3 d s [] 0 sd 1 lw [] 0 sd 1 lw 738 1347 m 50 Y s [] 0 sd 1 lw
 [] 0 sd 1 lw 738 1347 m -23 -59 d s [] 0 sd 1 lw [] 0 sd 1 lw 720 1285 m -5 3 d s [] 0 sd 1 lw [] 0 sd 1 lw 715 1288 m
 -41 -49 d s [] 0 sd 1 lw [] 0 sd 1 lw 657 1173 m -22 -13 d s [] 0 sd 1 lw [] 0 sd 1 lw 655 1177 m -19 -11 d s [] 0 sd 1
 lw [] 0 sd 1 lw 679 1237 m -5 2 d s [] 0 sd 1 lw [] 0 sd 1 lw 674 1239 m -53 -31 d s [] 0 sd 1 lw [] 0 sd 1 lw 629 1157
 m 7 9 d s [] 0 sd 1 lw [] 0 sd 1 lw 636 1166 m -18 -3 d s [] 0 sd 1 lw [] 0 sd 1 lw 633 1514 m -15 -6 d s [] 0 sd 1 lw
 [] 0 sd 1 lw 626 1206 m -5 2 d s [] 0 sd 1 lw [] 0 sd 1 lw 621 1208 m -14 -2 d s [] 0 sd 1 lw [] 0 sd 1 lw 607 1152 m
 11 11 d s [] 0 sd 1 lw [] 0 sd 1 lw 607 1152 m 54 Y s [] 0 sd 1 lw [] 0 sd 1 lw 618 1163 m 37 Y s [] 0 sd 1 lw [] 0 sd
 1 lw 618 1200 m -11 6 d s [] 0 sd 1 lw [] 0 sd 1 lw 618 1472 m -11 6 d s [] 0 sd 1 lw [] 0 sd 1 lw 618 1472 m 36 Y s
 [] 0 sd 1 lw [] 0 sd 1 lw 607 1478 m 54 Y s [] 0 sd 1 lw [] 0 sd 1 lw 618 1508 m -11 24 d s [] 0 sd 1 lw [] 0 sd 1 lw
 789 1408 m 11 Y s [] 0 sd 1 lw [] 0 sd 1 lw 737 1347 m 50 Y s [] 0 sd 1 lw [] 0 sd 1 lw 737 1347 m -23 -58 d s [] 0 sd
 1 lw [] 0 sd 1 lw 714 1289 m -41 -49 d s [] 0 sd 1 lw [] 0 sd 1 lw 657 1173 m -22 -13 d s [] 0 sd 1 lw [] 0 sd 1 lw 673
 1240 m -52 -31 d s [] 0 sd 1 lw [] 0 sd 1 lw 621 1209 m -14 -2 d s [] 0 sd 1 lw [] 0 sd 1 lw 607 1479 m s [] 0 sd 1 lw
 [] 0 sd 1 lw 607 1152 m 1 Y s [] 0 sd 1 lw [] 0 sd 1 lw 607 1153 m 54 Y s [] 0 sd 1 lw [] 0 sd 1 lw 607 1479 m 53 Y s
 [] 0 sd 1 lw [] 0 sd 1 lw 772 1596 m -3 -21 d s [] 0 sd 1 lw [] 0 sd 1 lw 690 1637 m 2 -14 d s [] 0 sd 1 lw [] 0 sd 1
 lw 566 1084 m 17 20 d s [] 0 sd 1 lw [] 0 sd 1 lw 537 1788 m 5 -14 d s [] 0 sd 1 lw [] 0 sd 1 lw 577 1676 m 19 -53 d s
 [] 0 sd 1 lw [] 0 sd 1 lw 607 1178 m s [] 0 sd 1 lw [] 0 sd 1 lw 607 1507 m s [] 0 sd 1 lw [] 0 sd 1 lw 491 1035 m 25 Y
 s [] 0 sd 1 lw [] 0 sd 1 lw 491 1035 m 116 118 d s [] 0 sd 1 lw [] 0 sd 1 lw 491 1060 m 116 118 d s [] 0 sd 1 lw
 [] 0 sd 1 lw 607 1153 m 25 Y s [] 0 sd 1 lw [] 0 sd 1 lw 607 1507 m 25 Y s [] 0 sd 1 lw [] 0 sd 1 lw 607 1507 m -116
 261 d s [] 0 sd 1 lw [] 0 sd 1 lw 607 1532 m -116 261 d s [] 0 sd 1 lw [] 0 sd 1 lw 491 1768 m 25 Y s [] 0 sd 1 lw
 [] 0 sd 1 lw 491 1035 m -1 X s [] 0 sd 1 lw [] 0 sd 1 lw 490 1035 m -3 3 d s [] 0 sd 1 lw [] 0 sd 1 lw 490 1035 m 26 Y
 s [] 0 sd 1 lw [] 0 sd 1 lw 487 1038 m 18 Y s [] 0 sd 1 lw [] 0 sd 1 lw 487 1056 m 3 5 d s [] 0 sd 1 lw [] 0 sd 1 lw
 490 1768 m -3 10 d s [] 0 sd 1 lw [] 0 sd 1 lw 490 1768 m 26 Y s [] 0 sd 1 lw [] 0 sd 1 lw 487 1778 m 18 Y s [] 0 sd 1
 lw [] 0 sd 1 lw 490 1794 m -3 2 d s [] 0 sd 1 lw [] 0 sd 1 lw 487 1057 m -1 -1 d s [] 0 sd 1 lw [] 0 sd 1 lw 474 1068 m
 -6 -1 d s [] 0 sd 1 lw [] 0 sd 1 lw 487 1779 m -1 -1 d s [] 0 sd 1 lw [] 0 sd 1 lw 486 1038 m -18 11 d s [] 0 sd 1 lw
 [] 0 sd 1 lw 486 1038 m 18 Y s [] 0 sd 1 lw [] 0 sd 1 lw 468 1049 m 18 Y s [] 0 sd 1 lw [] 0 sd 1 lw 486 1056 m -18 11
 d s [] 0 sd 1 lw [] 0 sd 1 lw 486 1778 m -18 11 d s [] 0 sd 1 lw [] 0 sd 1 lw 486 1778 m 19 Y s [] 0 sd 1 lw [] 0 sd 1
 lw 468 1789 m 18 Y s [] 0 sd 1 lw [] 0 sd 1 lw 486 1797 m -18 10 d s [] 0 sd 1 lw [] 0 sd 1 lw 1413 930 m -6 3 d s
 [] 0 sd 1 lw [] 0 sd 1 lw 1413 930 m 57 Y s [] 0 sd 1 lw [] 0 sd 1 lw 1413 930 m -23 -58 d s [] 0 sd 1 lw [] 0 sd 1 lw
 1413 987 m -23 47 d s [] 0 sd 1 lw [] 0 sd 1 lw 1390 872 m -6 4 d s [] 0 sd 1 lw [] 0 sd 1 lw 1390 872 m -41 -49 d s
 [] 0 sd 1 lw [] 0 sd 1 lw 1349 823 m -6 4 d s [] 0 sd 1 lw [] 0 sd 1 lw 1349 823 m -52 -31 d s [] 0 sd 1 lw [] 0 sd 1
 lw 1297 792 m -6 3 d s [] 0 sd 1 lw [] 0 sd 1 lw 1297 792 m -14 -2 d s [] 0 sd 1 lw [] 0 sd 1 lw 1284 1062 m -1 -1 d s
 [] 0 sd 1 lw [] 0 sd 1 lw 1283 736 m -11 23 d s [] 0 sd 1 lw [] 0 sd 1 lw 1283 736 m 54 Y s [] 0 sd 1 lw [] 0 sd 1 lw
 1272 759 m 37 Y s [] 0 sd 1 lw [] 0 sd 1 lw 1283 790 m -11 6 d s [] 0 sd 1 lw [] 0 sd 1 lw 1283 1061 m -11 7 d s
 [] 0 sd 1 lw [] 0 sd 1 lw 1283 1061 m 54 Y s [] 0 sd 1 lw [] 0 sd 1 lw 1272 1068 m 37 Y s [] 0 sd 1 lw [] 0 sd 1 lw
 1272 1105 m 11 10 d s [] 0 sd 1 lw [] 0 sd 1 lw 1440 931 m 69 Y s [] 0 sd 1 lw [] 0 sd 1 lw 1440 931 m -27 -71 d s
 [] 0 sd 1 lw [] 0 sd 1 lw 1440 931 m -26 -2 d s [] 0 sd 1 lw [] 0 sd 1 lw 1440 1000 m -27 57 d s [] 0 sd 1 lw [] 0 sd 1
 lw 1440 1000 m -26 -13 d s [] 0 sd 1 lw [] 0 sd 1 lw 1413 860 m -22 11 d s [] 0 sd 1 lw [] 0 sd 1 lw 1413 860 m -37 -44
 d s [] 0 sd 1 lw [] 0 sd 1 lw 1413 1057 m -22 -23 d s [] 0 sd 1 lw [] 0 sd 1 lw 1414 929 m 58 Y s [] 0 sd 1 lw [] 0 sd
 1 lw 1414 929 m -23 -58 d s [] 0 sd 1 lw [] 0 sd 1 lw 1414 987 m -23 47 d s [] 0 sd 1 lw [] 0 sd 1 lw 1391 871 m -41
 -49 d s [] 0 sd 1 lw [] 0 sd 1 lw 1391 1034 m -41 28 d s [] 0 sd 1 lw [] 0 sd 1 lw 1355 814 m -5 8 d s [] 0 sd 1 lw
 [] 0 sd 1 lw 1351 794 m -51 -30 d s [] 0 sd 1 lw [] 0 sd 1 lw 1354 1071 m -4 -9 d s [] 0 sd 1 lw [] 0 sd 1 lw 1350 822
 m -52 -31 d s [] 0 sd 1 lw [] 0 sd 1 lw 1350 1062 m -52 4 d s [] 0 sd 1 lw [] 0 sd 1 lw 1300 764 m -2 27 d s [] 0 sd 1
 lw [] 0 sd 1 lw 1300 764 m -17 -3 d s [] 0 sd 1 lw [] 0 sd 1 lw 1300 1095 m -2 -29 d s [] 0 sd 1 lw [] 0 sd 1 lw 1284
 1090 m -1 X s [] 0 sd 1 lw [] 0 sd 1 lw 1298 791 m -14 -2 d s [] 0 sd 1 lw [] 0 sd 1 lw 1298 1066 m -14 -5 d s [] 0 sd
 1 lw [] 0 sd 1 lw 1284 735 m -1 1 d s [] 0 sd 1 lw [] 0 sd 1 lw 1283 736 m 25 Y s [] 0 sd 1 lw [] 0 sd 1 lw 1283 761 m
 1 28 d s [] 0 sd 1 lw [] 0 sd 1 lw 1284 1061 m -1 29 d s [] 0 sd 1 lw [] 0 sd 1 lw 1283 1090 m 25 Y s [] 0 sd 1 lw
 [] 0 sd 1 lw 1738 865 m 14 Y s [] 0 sd 1 lw [] 0 sd 1 lw 1738 865 m -1 -3 d s [] 0 sd 1 lw [] 0 sd 1 lw 1738 865 m -125
 28 d s [] 0 sd 1 lw [] 0 sd 1 lw 1473 923 m -32 7 d s [] 0 sd 1 lw [] 0 sd 1 lw 1725 1043 m -2 3 d s [] 0 sd 1 lw
 [] 0 sd 1 lw 1670 1011 m -63 -3 d s [] 0 sd 1 lw [] 0 sd 1 lw 1491 1002 m -50 -2 d s [] 0 sd 1 lw [] 0 sd 1 lw 1672 704
 m -21 -24 d s [] 0 sd 1 lw [] 0 sd 1 lw 1624 744 m -54 30 d s [] 0 sd 1 lw [] 0 sd 1 lw 1442 844 m -28 16 d s [] 0 sd 1
 lw [] 0 sd 1 lw 1616 1117 m -71 -21 d s [] 0 sd 1 lw [] 0 sd 1 lw 1445 1066 m -31 -10 d s [] 0 sd 1 lw [] 0 sd 1 lw
 1524 636 m -6 6 d s [] 0 sd 1 lw [] 0 sd 1 lw 1388 776 m -13 14 d s [] 0 sd 1 lw [] 0 sd 1 lw 1529 561 m -16 -10 d s
 [] 0 sd 1 lw [] 0 sd 1 lw 1483 1158 m -24 -14 d s [] 0 sd 1 lw [] 0 sd 1 lw 1441 930 m 70 Y s [] 0 sd 1 lw [] 0 sd 1 lw
 1441 930 m -27 -70 d s [] 0 sd 1 lw [] 0 sd 1 lw 1441 1000 m -27 56 d s [] 0 sd 1 lw [] 0 sd 1 lw 1414 860 m -38 -45 d
 s [] 0 sd 1 lw [] 0 sd 1 lw 1414 1056 m -33 23 d s [] 0 sd 1 lw [] 0 sd 1 lw 1352 793 m -52 -30 d s [] 0 sd 1 lw
 [] 0 sd 1 lw 1313 1094 m -13 2 d s [] 0 sd 1 lw [] 0 sd 1 lw 1400 474 m -1 X s [] 0 sd 1 lw [] 0 sd 1 lw 1410 1237 m
 -11 -4 d s [] 0 sd 1 lw [] 0 sd 1 lw 1403 567 m -27 51 d s [] 0 sd 1 lw [] 0 sd 1 lw 1316 733 m -16 30 d s [] 0 sd 1 lw
 [] 0 sd 1 lw 1387 1176 m -26 -25 d s [] 0 sd 1 lw [] 0 sd 1 lw 1305 1100 m -5 -4 d s [] 0 sd 1 lw [] 0 sd 1 lw 1300 763
 m -16 -2 d s [] 0 sd 1 lw [] 0 sd 1 lw 1300 1096 m -16 -7 d s [] 0 sd 1 lw [] 0 sd 1 lw 1399 474 m 26 Y s [] 0 sd 1 lw
 [] 0 sd 1 lw 1399 474 m -115 261 d s [] 0 sd 1 lw [] 0 sd 1 lw 1399 500 m -115 261 d s [] 0 sd 1 lw [] 0 sd 1 lw 1284
 735 m 26 Y s [] 0 sd 1 lw [] 0 sd 1 lw 1284 1089 m 26 Y s [] 0 sd 1 lw [] 0 sd 1 lw 1284 1089 m 115 118 d s [] 0 sd 1
 lw [] 0 sd 1 lw 1284 1115 m 115 118 d s [] 0 sd 1 lw [] 0 sd 1 lw 1399 1207 m 26 Y s [] 0 sd 1 lw [] 0 sd 1 lw 1749 863
 m 14 Y s [] 0 sd 1 lw [] 0 sd 1 lw 1749 863 m -10 2 d s [] 0 sd 1 lw [] 0 sd 1 lw 1749 863 m -2 -5 d s [] 0 sd 1 lw
 [] 0 sd 1 lw 1735 1044 m -1 4 d s [] 0 sd 1 lw [] 0 sd 1 lw 1691 1137 m -2 2 d s [] 0 sd 1 lw [] 0 sd 1 lw 1739 865 m
 14 Y s [] 0 sd 1 lw [] 0 sd 1 lw 1739 865 m -1 -4 d s [] 0 sd 1 lw [] 0 sd 1 lw 1725 1042 m -1 4 d s [] 0 sd 1 lw
 [] 0 sd 1 lw 1682 699 m -22 -26 d s [] 0 sd 1 lw [] 0 sd 1 lw 1689 1139 m s [] 0 sd 1 lw [] 0 sd 1 lw 1689 1139 m -1 2
 d s [] 0 sd 1 lw [] 0 sd 1 lw 1606 1196 m -9 7 d s [] 0 sd 1 lw [] 0 sd 1 lw 1673 704 m -21 -25 d s [] 0 sd 1 lw
 [] 0 sd 1 lw 1582 1203 m -2 1 d s [] 0 sd 1 lw [] 0 sd 1 lw 1536 552 m -16 -10 d s [] 0 sd 1 lw [] 0 sd 1 lw 1530 560 m
 -16 -10 d s [] 0 sd 1 lw [] 0 sd 1 lw 1405 472 m -1 X s [] 0 sd 1 lw [] 0 sd 1 lw 1410 1233 m -6 -3 d s [] 0 sd 1 lw
 [] 0 sd 1 lw 1410 1236 m -10 -4 d s [] 0 sd 1 lw [] 0 sd 1 lw 1410 491 m -6 -1 d s [] 0 sd 1 lw [] 0 sd 1 lw 1405 1212
 m -1 X s [] 0 sd 1 lw [] 0 sd 1 lw 1404 472 m -4 2 d s [] 0 sd 1 lw [] 0 sd 1 lw 1404 472 m 18 Y s [] 0 sd 1 lw [] 0 sd
 1 lw 1400 474 m 25 Y s [] 0 sd 1 lw [] 0 sd 1 lw 1404 490 m -4 9 d s [] 0 sd 1 lw [] 0 sd 1 lw 1400 1207 m 4 5 d s
 [] 0 sd 1 lw [] 0 sd 1 lw 1400 1207 m 25 Y s [] 0 sd 1 lw [] 0 sd 1 lw 1404 1212 m 18 Y s [] 0 sd 1 lw [] 0 sd 1 lw
 1404 1230 m -4 2 d s [] 0 sd 1 lw [] 0 sd 1 lw 1767 852 m -17 10 d s [] 0 sd 1 lw [] 0 sd 1 lw 1767 852 m 22 Y s
 [] 0 sd 1 lw [] 0 sd 1 lw 1767 852 m -1 -5 d s [] 0 sd 1 lw [] 0 sd 1 lw 1750 862 m 15 Y s [] 0 sd 1 lw [] 0 sd 1 lw
 1750 862 m -2 -4 d s [] 0 sd 1 lw [] 0 sd 1 lw 1753 1033 m -8 17 d s [] 0 sd 1 lw [] 0 sd 1 lw 1722 1099 m -14 29 d s
 [] 0 sd 1 lw [] 0 sd 1 lw 1736 1044 m -2 4 d s [] 0 sd 1 lw [] 0 sd 1 lw 1692 1135 m -2 4 d s [] 0 sd 1 lw [] 0 sd 1 lw
 1700 688 m -22 -26 d s [] 0 sd 1 lw [] 0 sd 1 lw 1683 698 m -22 -25 d s [] 0 sd 1 lw [] 0 sd 1 lw 1708 1128 m -22 15 d
 s [] 0 sd 1 lw [] 0 sd 1 lw 1655 1164 m -10 7 d s [] 0 sd 1 lw [] 0 sd 1 lw 1624 1185 m -26 18 d s [] 0 sd 1 lw [] 0 sd
 1 lw 1690 1139 m -2 2 d s [] 0 sd 1 lw [] 0 sd 1 lw 1607 1196 m -10 7 d s [] 0 sd 1 lw [] 0 sd 1 lw 1554 541 m -23 -14
 d s [] 0 sd 1 lw [] 0 sd 1 lw 1537 552 m -17 -10 d s [] 0 sd 1 lw [] 0 sd 1 lw 1410 1232 m -5 -2 d s [] 0 sd 1 lw
 [] 0 sd 1 lw 1428 480 m -6 -1 d s [] 0 sd 1 lw [] 0 sd 1 lw 1411 490 m -6 X s [] 0 sd 1 lw [] 0 sd 1 lw 1439 1207 m -17
 -6 d s [] 0 sd 1 lw [] 0 sd 1 lw 1422 461 m -17 10 d s [] 0 sd 1 lw [] 0 sd 1 lw 1422 461 m 18 Y s [] 0 sd 1 lw [] 0 sd
 1 lw 1405 471 m 19 Y s [] 0 sd 1 lw [] 0 sd 1 lw 1422 479 m -17 11 d s [] 0 sd 1 lw [] 0 sd 1 lw 1422 1201 m -17 10 d s
 [] 0 sd 1 lw [] 0 sd 1 lw 1422 1201 m 18 Y s [] 0 sd 1 lw [] 0 sd 1 lw 1405 1211 m 19 Y s [] 0 sd 1 lw [] 0 sd 1 lw
 1422 1219 m -17 11 d s [] 0 sd 1 lw [] 0 sd 1 lw 1355 1187 m -125 77 d s [] 0 sd 1 lw [] 0 sd 1 lw 1203 1278 m -61 -13
 d s [] 0 sd 1 lw [] 0 sd 1 lw 1334 1083 m -1 -1 d s [] 0 sd 1 lw [] 0 sd 1 lw 1333 1082 m -191 118 d s [] 0 sd 1 lw
 [] 0 sd 1 lw 1333 1082 m 65 Y s [] 0 sd 1 lw [] 0 sd 1 lw 1142 1200 m 65 Y s [] 0 sd 1 lw [] 0 sd 1 lw 1333 1147 m -191
 118 d s [] 0 sd 1 lw [] 0 sd 1 lw 1437 1137 m -31 18 d s [] 0 sd 1 lw [] 0 sd 1 lw 1437 1137 m -2 Y s [] 0 sd 1 lw
 [] 0 sd 1 lw 1437 1137 m -65 -14 d s [] 0 sd 1 lw [] 0 sd 1 lw 1437 1135 m -55 -43 d s [] 0 sd 1 lw [] 0 sd 1 lw 1437
 1135 m -65 -13 d s [] 0 sd 1 lw [] 0 sd 1 lw 1382 1092 m -48 -10 d s [] 0 sd 1 lw [] 0 sd 1 lw 1334 1082 m 38 40 d s
 [] 0 sd 1 lw [] 0 sd 1 lw 1334 1082 m 65 Y s [] 0 sd 1 lw [] 0 sd 1 lw 1372 1122 m 1 Y s [] 0 sd 1 lw [] 0 sd 1 lw 1372
 1123 m -38 24 d s [] 0 sd 1 lw [] 0 sd 1 lw 1512 990 m s [] 0 sd 1 lw [] 0 sd 1 lw 1512 990 m -34 20 d s [] 0 sd 1 lw
 [] 0 sd 1 lw 1512 990 m -37 64 d s [] 0 sd 1 lw [] 0 sd 1 lw 1412 1088 m -1 1 d s [] 0 sd 1 lw [] 0 sd 1 lw 1433 1143 m
 -1 -3 d s [] 0 sd 1 lw [] 0 sd 1 lw 1427 1127 m -16 -38 d s [] 0 sd 1 lw [] 0 sd 1 lw 1243 1265 m -2 -7 d s [] 0 sd 1
 lw [] 0 sd 1 lw 1411 1089 m -19 11 d s [] 0 sd 1 lw [] 0 sd 1 lw 1613 999 m -1 -1 d s [] 0 sd 1 lw [] 0 sd 1 lw 1613
 999 m -50 86 d s [] 0 sd 1 lw [] 0 sd 1 lw 1612 998 m -50 86 d s [] 0 sd 1 lw [] 0 sd 1 lw 1612 998 m -100 -9 d s
 [] 0 sd 1 lw [] 0 sd 1 lw 1563 1085 m -32 20 d s [] 0 sd 1 lw [] 0 sd 1 lw 1563 1085 m -85 46 d s [] 0 sd 1 lw [] 0 sd
 1 lw 1562 1084 m -87 -30 d s [] 0 sd 1 lw [] 0 sd 1 lw 1562 1084 m -85 46 d s [] 0 sd 1 lw [] 0 sd 1 lw 1512 989 m -37
 65 d s [] 0 sd 1 lw [] 0 sd 1 lw 1475 1054 m -63 34 d s [] 0 sd 1 lw [] 0 sd 1 lw 1478 1131 m -32 20 d s [] 0 sd 1 lw
 [] 0 sd 1 lw 1478 1131 m -1 -1 d s [] 0 sd 1 lw [] 0 sd 1 lw 1434 1144 m -1 -5 d s [] 0 sd 1 lw [] 0 sd 1 lw 1428 1129
 m -16 -41 d s [] 0 sd 1 lw [] 0 sd 1 lw 1477 1130 m -65 -42 d s [] 0 sd 1 lw [] 0 sd 1 lw 1568 976 m -51 -18 d s
 [] 0 sd 1 lw [] 0 sd 1 lw 1517 958 m -32 20 d s [] 0 sd 1 lw [] 0 sd 1 lw 1517 958 m -10 -85 d s [] 0 sd 1 lw [] 0 sd 1
 lw 1499 764 m -35 28 d s [] 0 sd 1 lw [] 0 sd 1 lw 1507 873 m -32 20 d s [] 0 sd 1 lw [] 0 sd 1 lw 1507 873 m -43 -81 d
 s [] 0 sd 1 lw [] 0 sd 1 lw 1464 792 m -32 20 d s [] 0 sd 1 lw [] 0 sd 1 lw 1620 956 m -30 19 d s [] 0 sd 1 lw [] 0 sd
 1 lw 1620 956 m -1 X s [] 0 sd 1 lw [] 0 sd 1 lw 1620 956 m -14 -115 d s [] 0 sd 1 lw [] 0 sd 1 lw 1570 976 m -52 -18 d
 s [] 0 sd 1 lw [] 0 sd 1 lw 1619 956 m -14 -114 d s [] 0 sd 1 lw [] 0 sd 1 lw 1619 956 m -101 2 d s [] 0 sd 1 lw
 [] 0 sd 1 lw 1606 841 m -58 -109 d s [] 0 sd 1 lw [] 0 sd 1 lw 1605 842 m -57 -109 d s [] 0 sd 1 lw [] 0 sd 1 lw 1605
 842 m -97 31 d s [] 0 sd 1 lw [] 0 sd 1 lw 1518 958 m -10 -85 d s [] 0 sd 1 lw [] 0 sd 1 lw 1548 732 m -30 19 d s
 [] 0 sd 1 lw [] 0 sd 1 lw 1548 732 m 1 Y s [] 0 sd 1 lw [] 0 sd 1 lw 1501 763 m -36 29 d s [] 0 sd 1 lw [] 0 sd 1 lw
 1548 733 m -83 59 d s [] 0 sd 1 lw [] 0 sd 1 lw 1508 873 m -43 -81 d s [] 0 sd 1 lw [] 0 sd 1 lw 1440 764 m -1 X s
 [] 0 sd 1 lw [] 0 sd 1 lw 1439 764 m -33 20 d s [] 0 sd 1 lw [] 0 sd 1 lw 1439 764 m -74 -50 d s [] 0 sd 1 lw [] 0 sd 1
 lw 1365 714 m -33 20 d s [] 0 sd 1 lw [] 0 sd 1 lw 1272 771 m -78 48 d s [] 0 sd 1 lw [] 0 sd 1 lw 1365 714 m -32 -7 d
 s [] 0 sd 1 lw [] 0 sd 1 lw 1145 825 m -3 X s [] 0 sd 1 lw [] 0 sd 1 lw 1333 642 m -191 118 d s [] 0 sd 1 lw [] 0 sd 1
 lw 1333 642 m 65 Y s [] 0 sd 1 lw [] 0 sd 1 lw 1142 760 m 65 Y s [] 0 sd 1 lw [] 0 sd 1 lw 1333 707 m -191 118 d s
 [] 0 sd 1 lw [] 0 sd 1 lw 1515 695 m -1 1 d s [] 0 sd 1 lw [] 0 sd 1 lw 1515 695 m -99 -68 d s [] 0 sd 1 lw [] 0 sd 1
 lw 1514 696 m -74 68 d s [] 0 sd 1 lw [] 0 sd 1 lw 1514 696 m -99 -68 d s [] 0 sd 1 lw [] 0 sd 1 lw 1440 764 m -74 -51
 d s [] 0 sd 1 lw [] 0 sd 1 lw 1416 627 m -44 -9 d s [] 0 sd 1 lw [] 0 sd 1 lw 1415 628 m -49 85 d s [] 0 sd 1 lw
 [] 0 sd 1 lw 1415 628 m -43 -9 d s [] 0 sd 1 lw [] 0 sd 1 lw 1366 713 m -32 -7 d s [] 0 sd 1 lw [] 0 sd 1 lw 1372 618 m
 -38 23 d s [] 0 sd 1 lw [] 0 sd 1 lw 1372 618 m 1 Y s [] 0 sd 1 lw [] 0 sd 1 lw 1334 641 m 65 Y s [] 0 sd 1 lw [] 0 sd
 1 lw 1372 619 m -38 87 d s [] 0 sd 1 lw [] 0 sd 1 lw 1613 1192 m -65 15 d s [] 0 sd 1 lw [] 0 sd 1 lw 1479 1177 m -1 X
 s [] 0 sd 1 lw [] 0 sd 1 lw 1485 1212 m -7 -35 d s [] 0 sd 1 lw [] 0 sd 1 lw 1305 1314 m -2 Y s [] 0 sd 1 lw [] 0 sd 1
 lw 1478 1177 m -14 9 d s [] 0 sd 1 lw [] 0 sd 1 lw 1649 1174 m -14 9 d s [] 0 sd 1 lw [] 0 sd 1 lw 1649 1174 m -1 -1 d
 s [] 0 sd 1 lw [] 0 sd 1 lw 1649 1174 m -137 31 d s [] 0 sd 1 lw [] 0 sd 1 lw 1614 1191 m -69 16 d s [] 0 sd 1 lw
 [] 0 sd 1 lw 1648 1173 m -48 -24 d s [] 0 sd 1 lw [] 0 sd 1 lw 1648 1173 m -137 31 d s [] 0 sd 1 lw [] 0 sd 1 lw 1600
 1149 m -121 27 d s [] 0 sd 1 lw [] 0 sd 1 lw 1512 1205 m -14 9 d s [] 0 sd 1 lw [] 0 sd 1 lw 1512 1205 m -1 -1 d s
 [] 0 sd 1 lw [] 0 sd 1 lw 1486 1212 m -7 -36 d s [] 0 sd 1 lw [] 0 sd 1 lw 1511 1204 m -32 -28 d s [] 0 sd 1 lw [] 0 sd
 1 lw 1697 1042 m s [] 0 sd 1 lw [] 0 sd 1 lw 1697 1042 m -31 19 d s [] 0 sd 1 lw [] 0 sd 1 lw 1697 1042 m -77 94 d s
 [] 0 sd 1 lw [] 0 sd 1 lw 1644 1171 m -24 -35 d s [] 0 sd 1 lw [] 0 sd 1 lw 1620 1136 m -20 13 d s [] 0 sd 1 lw [] 0 sd
 1 lw 1759 1053 m -1 -1 d s [] 0 sd 1 lw [] 0 sd 1 lw 1759 1053 m -87 106 d s [] 0 sd 1 lw [] 0 sd 1 lw 1758 1052 m -61
 -10 d s [] 0 sd 1 lw [] 0 sd 1 lw 1758 1052 m -86 106 d s [] 0 sd 1 lw [] 0 sd 1 lw 1697 1042 m -76 94 d s [] 0 sd 1 lw
 [] 0 sd 1 lw 1672 1159 m -14 9 d s [] 0 sd 1 lw [] 0 sd 1 lw 1672 1159 m -1 Y s [] 0 sd 1 lw [] 0 sd 1 lw 1645 1170 m
 -24 -34 d s [] 0 sd 1 lw [] 0 sd 1 lw 1672 1158 m -51 -22 d s [] 0 sd 1 lw [] 0 sd 1 lw 1718 883 m -1 X s [] 0 sd 1 lw
 [] 0 sd 1 lw 1743 1040 m -37 -22 d s [] 0 sd 1 lw [] 0 sd 1 lw 1717 883 m -32 20 d s [] 0 sd 1 lw [] 0 sd 1 lw 1717 883
 m -11 135 d s [] 0 sd 1 lw [] 0 sd 1 lw 1706 1018 m -32 20 d s [] 0 sd 1 lw [] 0 sd 1 lw 1783 872 m -1 X s [] 0 sd 1 lw
 [] 0 sd 1 lw 1783 872 m -13 154 d s [] 0 sd 1 lw [] 0 sd 1 lw 1782 872 m -13 153 d s [] 0 sd 1 lw [] 0 sd 1 lw 1782 872
 m -64 10 d s [] 0 sd 1 lw [] 0 sd 1 lw 1770 1026 m -14 8 d s [] 0 sd 1 lw [] 0 sd 1 lw 1770 1026 m -1 -1 d s [] 0 sd 1
 lw [] 0 sd 1 lw 1743 1039 m -36 -21 d s [] 0 sd 1 lw [] 0 sd 1 lw 1769 1025 m -62 -7 d s [] 0 sd 1 lw [] 0 sd 1 lw 1718
 882 m -11 136 d s [] 0 sd 1 lw [] 0 sd 1 lw 1753 855 m -9 5 d s [] 0 sd 1 lw [] 0 sd 1 lw 1753 855 m -40 -1 d s [] 0 sd
 1 lw [] 0 sd 1 lw 1753 855 m -1 Y s [] 0 sd 1 lw [] 0 sd 1 lw 1713 854 m -35 21 d s [] 0 sd 1 lw [] 0 sd 1 lw 1713 854
 m -57 -141 d s [] 0 sd 1 lw [] 0 sd 1 lw 1657 713 m -1 X s [] 0 sd 1 lw [] 0 sd 1 lw 1656 713 m -34 21 d s [] 0 sd 1 lw
 [] 0 sd 1 lw 1778 839 m -24 15 d s [] 0 sd 1 lw [] 0 sd 1 lw 1778 839 m -2 X s [] 0 sd 1 lw [] 0 sd 1 lw 1778 839 m -64
 -159 d s [] 0 sd 1 lw [] 0 sd 1 lw 1754 854 m -40 -1 d s [] 0 sd 1 lw [] 0 sd 1 lw 1776 839 m -62 14 d s [] 0 sd 1 lw
 [] 0 sd 1 lw 1776 839 m -63 -158 d s [] 0 sd 1 lw [] 0 sd 1 lw 1714 853 m -57 -140 d s [] 0 sd 1 lw [] 0 sd 1 lw 1714
 680 m -1 1 d s [] 0 sd 1 lw [] 0 sd 1 lw 1713 681 m -56 32 d s [] 0 sd 1 lw [] 0 sd 1 lw 1640 687 m -1 1 d s [] 0 sd 1
 lw [] 0 sd 1 lw 1639 688 m -32 19 d s [] 0 sd 1 lw [] 0 sd 1 lw 1639 688 m -110 -108 d s [] 0 sd 1 lw [] 0 sd 1 lw 1544
 548 m -15 32 d s [] 0 sd 1 lw [] 0 sd 1 lw 1529 580 m -31 19 d s [] 0 sd 1 lw [] 0 sd 1 lw 1694 651 m -1 1 d s [] 0 sd
 1 lw [] 0 sd 1 lw 1694 651 m -124 -122 d s [] 0 sd 1 lw [] 0 sd 1 lw 1693 652 m -53 35 d s [] 0 sd 1 lw [] 0 sd 1 lw
 1693 652 m -124 -122 d s [] 0 sd 1 lw [] 0 sd 1 lw 1640 687 m -110 -108 d s [] 0 sd 1 lw [] 0 sd 1 lw 1570 529 m -14 9
 d s [] 0 sd 1 lw [] 0 sd 1 lw 1570 529 m -1 1 d s [] 0 sd 1 lw [] 0 sd 1 lw 1544 547 m -14 32 d s [] 0 sd 1 lw [] 0 sd
 1 lw 1569 530 m -39 49 d s [] 0 sd 1 lw [] 0 sd 1 lw 1504 563 m 1 Y s [] 0 sd 1 lw [] 0 sd 1 lw 1412 490 m -1 X s
 [] 0 sd 1 lw [] 0 sd 1 lw 1504 564 m -31 19 d s [] 0 sd 1 lw [] 0 sd 1 lw 1504 564 m -93 -32 d s [] 0 sd 1 lw [] 0 sd 1
 lw 1297 664 m -64 -22 d s [] 0 sd 1 lw [] 0 sd 1 lw 1411 490 m -178 110 d s [] 0 sd 1 lw [] 0 sd 1 lw 1411 490 m 42 Y s
 [] 0 sd 1 lw [] 0 sd 1 lw 1233 600 m 42 Y s [] 0 sd 1 lw [] 0 sd 1 lw 1411 532 m -178 110 d s [] 0 sd 1 lw [] 0 sd 1 lw
 1541 511 m 1 Y s [] 0 sd 1 lw [] 0 sd 1 lw 1541 511 m -105 -36 d s [] 0 sd 1 lw [] 0 sd 1 lw 1541 512 m -36 51 d s
 [] 0 sd 1 lw [] 0 sd 1 lw 1541 512 m -105 -36 d s [] 0 sd 1 lw [] 0 sd 1 lw 1505 563 m -93 -32 d s [] 0 sd 1 lw [] 0 sd
 1 lw 1436 475 m -24 15 d s [] 0 sd 1 lw [] 0 sd 1 lw 1436 475 m 1 Y s [] 0 sd 1 lw [] 0 sd 1 lw 1412 490 m 41 Y s
 [] 0 sd 1 lw [] 0 sd 1 lw 1436 476 m -24 55 d s [] 0 sd 1 lw [] 0 sd 1 lw 1410 1247 m -131 82 d s [] 0 sd 1 lw [] 0 sd
 1 lw 1416 1204 m -5 -1 d s [] 0 sd 1 lw [] 0 sd 1 lw 1279 1329 m -46 -16 d s [] 0 sd 1 lw [] 0 sd 1 lw 1412 1161 m -1 X
 s [] 0 sd 1 lw [] 0 sd 1 lw 1411 1161 m -178 110 d s [] 0 sd 1 lw [] 0 sd 1 lw 1411 1161 m 42 Y s [] 0 sd 1 lw [] 0 sd
 1 lw 1233 1271 m 42 Y s [] 0 sd 1 lw [] 0 sd 1 lw 1411 1203 m -178 110 d s [] 0 sd 1 lw [] 0 sd 1 lw 1482 1203 m -17 11
 d s [] 0 sd 1 lw [] 0 sd 1 lw 1482 1203 m -1 -1 d s [] 0 sd 1 lw [] 0 sd 1 lw 1482 1203 m -46 -16 d s [] 0 sd 1 lw
 [] 0 sd 1 lw 1417 1204 m -5 -2 d s [] 0 sd 1 lw [] 0 sd 1 lw 1481 1202 m -29 -27 d s [] 0 sd 1 lw [] 0 sd 1 lw 1481
 1202 m -45 -16 d s [] 0 sd 1 lw [] 0 sd 1 lw 1452 1175 m -40 -14 d s [] 0 sd 1 lw [] 0 sd 1 lw 1412 1161 m 24 25 d s
 [] 0 sd 1 lw [] 0 sd 1 lw 1412 1161 m 41 Y s [] 0 sd 1 lw [] 0 sd 1 lw 1436 1186 m 1 Y s [] 0 sd 1 lw [] 0 sd 1 lw 1436
 1187 m -24 15 d s 0 1 1 c [] 0 sd 1 lw [] 0 sd 1 lw 1272 1085 m -4 -2 d s [] 0 sd 1 lw [] 0 sd 1 lw 1272 784 m -4 2 d s
 [] 0 sd 1 lw [] 0 sd 1 lw 1272 784 m 12 Y s [] 0 sd 1 lw [] 0 sd 1 lw 1268 786 m 13 Y s [] 0 sd 1 lw [] 0 sd 1 lw 1272
 796 m -4 3 d s [] 0 sd 1 lw [] 0 sd 1 lw 1272 1068 m -4 2 d s [] 0 sd 1 lw [] 0 sd 1 lw 1272 1068 m 12 Y s [] 0 sd 1 lw
 [] 0 sd 1 lw 1268 1070 m 13 Y s [] 0 sd 1 lw [] 0 sd 1 lw 1272 1080 m -4 3 d s [] 0 sd 1 lw [] 0 sd 1 lw 1407 933 m 58
 Y s [] 0 sd 1 lw [] 0 sd 1 lw 1407 933 m -22 -58 d s [] 0 sd 1 lw [] 0 sd 1 lw 1407 991 m -22 47 d s [] 0 sd 1 lw
 [] 0 sd 1 lw 1407 933 m -665 410 d s [] 0 sd 1 lw [] 0 sd 1 lw 1407 933 m 57 Y s [] 0 sd 1 lw [] 0 sd 1 lw 1407 933 m
 -23 -57 d s [] 0 sd 1 lw [] 0 sd 1 lw 742 1343 m 51 Y s [] 0 sd 1 lw [] 0 sd 1 lw 742 1343 m -22 -58 d s [] 0 sd 1 lw
 [] 0 sd 1 lw 1407 990 m -23 47 d s [] 0 sd 1 lw [] 0 sd 1 lw 1385 875 m -41 -49 d s [] 0 sd 1 lw [] 0 sd 1 lw 1385 1038
 m -36 24 d s [] 0 sd 1 lw [] 0 sd 1 lw 1384 876 m -664 409 d s [] 0 sd 1 lw [] 0 sd 1 lw 1384 876 m -41 -49 d s [] 0 sd
 1 lw [] 0 sd 1 lw 720 1285 m -41 -48 d s [] 0 sd 1 lw [] 0 sd 1 lw 1384 1037 m -36 25 d s [] 0 sd 1 lw [] 0 sd 1 lw
 1344 826 m -53 -31 d s [] 0 sd 1 lw [] 0 sd 1 lw 1275 1108 m -112 69 d s [] 0 sd 1 lw [] 0 sd 1 lw 1145 1188 m -399 246
 d s [] 0 sd 1 lw [] 0 sd 1 lw 728 1445 m -39 25 d s [] 0 sd 1 lw [] 0 sd 1 lw 1343 827 m -664 410 d s [] 0 sd 1 lw
 [] 0 sd 1 lw 1343 827 m -52 -31 d s [] 0 sd 1 lw [] 0 sd 1 lw 679 1237 m -52 -31 d s [] 0 sd 1 lw [] 0 sd 1 lw 1291 795
 m -14 -2 d s [] 0 sd 1 lw [] 0 sd 1 lw 1269 1083 m -633 391 d s [] 0 sd 1 lw [] 0 sd 1 lw 1291 796 m -664 410 d s
 [] 0 sd 1 lw [] 0 sd 1 lw 1291 796 m -14 -2 d s [] 0 sd 1 lw [] 0 sd 1 lw 627 1206 m -14 -2 d s [] 0 sd 1 lw [] 0 sd 1
 lw 1278 1064 m -1 X s [] 0 sd 1 lw [] 0 sd 1 lw 1277 793 m -664 410 d s [] 0 sd 1 lw [] 0 sd 1 lw 1277 793 m 1 Y s
 [] 0 sd 1 lw [] 0 sd 1 lw 613 1203 m 1 Y s [] 0 sd 1 lw [] 0 sd 1 lw 1277 794 m -664 410 d s [] 0 sd 1 lw [] 0 sd 1 lw
 1277 1064 m -664 410 d s [] 0 sd 1 lw [] 0 sd 1 lw 1277 1064 m 1 Y s [] 0 sd 1 lw [] 0 sd 1 lw 613 1474 m 1 Y s [] 0 sd
 1 lw [] 0 sd 1 lw 1277 1065 m -664 410 d s [] 0 sd 1 lw [] 0 sd 1 lw 749 1432 m -1 3 d s [] 0 sd 1 lw [] 0 sd 1 lw 638
 1187 m -1 X s [] 0 sd 1 lw [] 0 sd 1 lw 683 1483 m -46 4 d s [] 0 sd 1 lw [] 0 sd 1 lw 679 1486 m -46 4 d s [] 0 sd 1
 lw [] 0 sd 1 lw 689 1470 m -53 4 d s [] 0 sd 1 lw [] 0 sd 1 lw 637 1187 m -15 -2 d s [] 0 sd 1 lw [] 0 sd 1 lw 637 1487
 m -4 3 d s [] 0 sd 1 lw [] 0 sd 1 lw 637 1487 m -15 -5 d s [] 0 sd 1 lw [] 0 sd 1 lw 633 1490 m -15 -6 d s [] 0 sd 1 lw
 [] 0 sd 1 lw 636 1474 m -14 -5 d s [] 0 sd 1 lw [] 0 sd 1 lw 622 1185 m -4 2 d s [] 0 sd 1 lw [] 0 sd 1 lw 622 1185 m
 12 Y s [] 0 sd 1 lw [] 0 sd 1 lw 618 1187 m 13 Y s [] 0 sd 1 lw [] 0 sd 1 lw 622 1197 m -4 3 d s [] 0 sd 1 lw [] 0 sd 1
 lw 622 1469 m -4 3 d s [] 0 sd 1 lw [] 0 sd 1 lw 622 1469 m 13 Y s [] 0 sd 1 lw [] 0 sd 1 lw 618 1472 m 12 Y s [] 0 sd
 1 lw [] 0 sd 1 lw 622 1482 m -4 2 d s 0 0 1 c [] 0 sd 1 lw [] 0 sd 1 lw 996 1341 m -40 25 d s [] 0 sd 1 lw [] 0 sd 1 lw
 996 1341 m -7 -57 d s [] 0 sd 1 lw [] 0 sd 1 lw 996 1341 m -63 -22 d s [] 0 sd 1 lw [] 0 sd 1 lw 737 1397 m -6 -45 d s
 [] 0 sd 1 lw [] 0 sd 1 lw 695 1266 m -7 5 d s [] 0 sd 1 lw [] 0 sd 1 lw 737 1348 m -6 4 d s [] 0 sd 1 lw [] 0 sd 1 lw
 731 1352 m -43 -81 d s [] 0 sd 1 lw [] 0 sd 1 lw 695 1266 m -7 5 d s [] 0 sd 1 lw [] 0 sd 1 lw 694 1265 m -7 6 d s
 [] 0 sd 1 lw [] 0 sd 1 lw 692 1262 m -5 9 d s [] 0 sd 1 lw [] 0 sd 1 lw 730 1352 m -43 -81 d s [] 0 sd 1 lw [] 0 sd 1
 lw 854 1054 m -62 -42 d s [] 0 sd 1 lw [] 0 sd 1 lw 670 1238 m -7 5 d s [] 0 sd 1 lw [] 0 sd 1 lw 800 1088 m -20 -14 d
 s [] 0 sd 1 lw [] 0 sd 1 lw 663 1243 m -51 -35 d s [] 0 sd 1 lw [] 0 sd 1 lw 607 1204 m -18 -12 d s [] 0 sd 1 lw
 [] 0 sd 1 lw 792 1012 m -44 -9 d s [] 0 sd 1 lw [] 0 sd 1 lw 780 1074 m -3 2 d s [] 0 sd 1 lw [] 0 sd 1 lw 747 1095 m
 -109 67 d s [] 0 sd 1 lw [] 0 sd 1 lw 607 1181 m -18 11 d s [] 0 sd 1 lw [] 0 sd 1 lw 780 1074 m -32 -6 d s [] 0 sd 1
 lw [] 0 sd 1 lw 589 1192 m -32 -7 d s [] 0 sd 1 lw [] 0 sd 1 lw 748 1003 m -191 117 d s [] 0 sd 1 lw [] 0 sd 1 lw 748
 1003 m 65 Y s [] 0 sd 1 lw [] 0 sd 1 lw 557 1120 m 65 Y s [] 0 sd 1 lw [] 0 sd 1 lw 748 1068 m -191 117 d s [] 0 sd 1
 lw [] 0 sd 1 lw 663 1243 m s [] 0 sd 1 lw [] 0 sd 1 lw 663 1243 m -53 -36 d s [] 0 sd 1 lw [] 0 sd 1 lw 607 1205 m -18
 -12 d s [] 0 sd 1 lw [] 0 sd 1 lw 589 1193 m -33 -7 d s [] 0 sd 1 lw [] 0 sd 1 lw 556 1121 m -38 24 d s [] 0 sd 1 lw
 [] 0 sd 1 lw 556 1121 m 65 Y s [] 0 sd 1 lw [] 0 sd 1 lw 518 1145 m 1 Y s [] 0 sd 1 lw [] 0 sd 1 lw 518 1146 m 38 40 d
 s [] 0 sd 1 lw [] 0 sd 1 lw 813 1522 m -116 71 d s [] 0 sd 1 lw [] 0 sd 1 lw 670 1609 m -42 26 d s [] 0 sd 1 lw [] 0 sd
 1 lw 813 1522 m -17 -69 d s [] 0 sd 1 lw [] 0 sd 1 lw 813 1522 m -65 -14 d s [] 0 sd 1 lw [] 0 sd 1 lw 796 1453 m -48
 -10 d s [] 0 sd 1 lw [] 0 sd 1 lw 748 1443 m -191 118 d s [] 0 sd 1 lw [] 0 sd 1 lw 748 1443 m 65 Y s [] 0 sd 1 lw
 [] 0 sd 1 lw 557 1561 m 65 Y s [] 0 sd 1 lw [] 0 sd 1 lw 748 1508 m -191 118 d s [] 0 sd 1 lw [] 0 sd 1 lw 541 1655 m
 -23 -5 d s [] 0 sd 1 lw [] 0 sd 1 lw 557 1562 m -1 -1 d s [] 0 sd 1 lw [] 0 sd 1 lw 556 1561 m -38 88 d s [] 0 sd 1 lw
 [] 0 sd 1 lw 556 1561 m 65 Y s [] 0 sd 1 lw [] 0 sd 1 lw 518 1649 m 1 Y s [] 0 sd 1 lw [] 0 sd 1 lw 556 1626 m -38 24 d
 s [] 0 sd 1 lw [] 0 sd 1 lw 989 1384 m -50 86 d s [] 0 sd 1 lw [] 0 sd 1 lw 989 1384 m -62 -33 d s [] 0 sd 1 lw [] 0 sd
 1 lw 939 1470 m -183 113 d s [] 0 sd 1 lw [] 0 sd 1 lw 939 1470 m -85 47 d s [] 0 sd 1 lw [] 0 sd 1 lw 927 1351 m -3 2
 d s [] 0 sd 1 lw [] 0 sd 1 lw 884 1377 m -69 42 d s [] 0 sd 1 lw [] 0 sd 1 lw 927 1351 m -37 64 d s [] 0 sd 1 lw
 [] 0 sd 1 lw 890 1415 m -64 34 d s [] 0 sd 1 lw [] 0 sd 1 lw 854 1517 m -131 80 d s [] 0 sd 1 lw [] 0 sd 1 lw 682 1622
 m -12 8 d s [] 0 sd 1 lw [] 0 sd 1 lw 854 1517 m -28 -68 d s [] 0 sd 1 lw [] 0 sd 1 lw 826 1449 m -4 3 d s [] 0 sd 1 lw
 [] 0 sd 1 lw 763 991 m -5 14 d s [] 0 sd 1 lw [] 0 sd 1 lw 763 991 m -106 -36 d s [] 0 sd 1 lw [] 0 sd 1 lw 544 1129 m
 -65 -22 d s [] 0 sd 1 lw [] 0 sd 1 lw 657 955 m -178 110 d s [] 0 sd 1 lw [] 0 sd 1 lw 657 955 m 42 Y s [] 0 sd 1 lw
 [] 0 sd 1 lw 479 1065 m 42 Y s [] 0 sd 1 lw [] 0 sd 1 lw 657 997 m -178 110 d s [] 0 sd 1 lw [] 0 sd 1 lw 479 1066 m -1
 -1 d s [] 0 sd 1 lw [] 0 sd 1 lw 543 1129 m -65 -22 d s [] 0 sd 1 lw [] 0 sd 1 lw 478 1065 m -24 15 d s [] 0 sd 1 lw
 [] 0 sd 1 lw 478 1065 m 42 Y s [] 0 sd 1 lw [] 0 sd 1 lw 454 1080 m 2 Y s [] 0 sd 1 lw [] 0 sd 1 lw 454 1082 m 24 25 d
 s [] 0 sd 1 lw [] 0 sd 1 lw 798 1016 m -7 -6 d s [] 0 sd 1 lw [] 0 sd 1 lw 791 1010 m -2 1 d s [] 0 sd 1 lw [] 0 sd 1
 lw 791 1010 m 1 Y s [] 0 sd 1 lw [] 0 sd 1 lw 999 1320 m -5 3 d s [] 0 sd 1 lw [] 0 sd 1 lw 999 1320 m -5 X s [] 0 sd 1
 lw [] 0 sd 1 lw 999 1320 m -8 -19 d s [] 0 sd 1 lw [] 0 sd 1 lw 1004 1352 m -13 154 d s [] 0 sd 1 lw [] 0 sd 1 lw 1004
 1352 m -8 -1 d s [] 0 sd 1 lw [] 0 sd 1 lw 991 1506 m -26 16 d s [] 0 sd 1 lw [] 0 sd 1 lw 991 1506 m -25 -15 d s
 [] 0 sd 1 lw [] 0 sd 1 lw 924 1500 m -103 64 d s [] 0 sd 1 lw [] 0 sd 1 lw 966 1523 m -7 -5 d s [] 0 sd 1 lw [] 0 sd 1
 lw 911 1526 m -91 57 d s [] 0 sd 1 lw [] 0 sd 1 lw 703 1684 m -154 95 d s [] 0 sd 1 lw [] 0 sd 1 lw 703 1684 m -5 -44 d
 s [] 0 sd 1 lw [] 0 sd 1 lw 703 1684 m -46 -16 d s [] 0 sd 1 lw [] 0 sd 1 lw 484 1779 m -5 -1 d s [] 0 sd 1 lw [] 0 sd
 1 lw 698 1640 m -41 -14 d s [] 0 sd 1 lw [] 0 sd 1 lw 657 1626 m -178 110 d s [] 0 sd 1 lw [] 0 sd 1 lw 657 1626 m 42 Y
 s [] 0 sd 1 lw [] 0 sd 1 lw 479 1736 m 42 Y s [] 0 sd 1 lw [] 0 sd 1 lw 657 1668 m -178 110 d s [] 0 sd 1 lw [] 0 sd 1
 lw 483 1780 m -5 -2 d s [] 0 sd 1 lw [] 0 sd 1 lw 468 1798 m -14 -5 d s [] 0 sd 1 lw [] 0 sd 1 lw 479 1737 m -1 -1 d s
 [] 0 sd 1 lw [] 0 sd 1 lw 478 1736 m -24 56 d s [] 0 sd 1 lw [] 0 sd 1 lw 478 1736 m 42 Y s [] 0 sd 1 lw [] 0 sd 1 lw
 454 1792 m 1 Y s [] 0 sd 1 lw [] 0 sd 1 lw 478 1778 m -24 15 d s [] 0 sd 1 lw [] 0 sd 1 lw 763 1633 m -39 9 d s [] 0 sd
 1 lw [] 0 sd 1 lw 730 1669 m -6 -27 d s [] 0 sd 1 lw [] 0 sd 1 lw 724 1642 m -24 15 d s 0 1 0 c [] 0 sd 1 lw [] 0 sd 1
 lw 983 1349 m 32 Y s [] 0 sd 1 lw [] 0 sd 1 lw 983 1393 m 41 Y s [] 0 sd 1 lw [] 0 sd 1 lw 983 1434 m -51 107 d s
 [] 0 sd 1 lw [] 0 sd 1 lw 970 1357 m 17 Y s [] 0 sd 1 lw [] 0 sd 1 lw 970 1415 m 13 Y s [] 0 sd 1 lw [] 0 sd 1 lw 970
 1428 m -49 102 d s [] 0 sd 1 lw [] 0 sd 1 lw 938 1471 m -33 69 d s [] 0 sd 1 lw [] 0 sd 1 lw 932 1541 m -56 38 d s
 [] 0 sd 1 lw [] 0 sd 1 lw 921 1530 m -89 61 d s [] 0 sd 1 lw [] 0 sd 1 lw 905 1540 m -75 51 d s [] 0 sd 1 lw [] 0 sd 1
 lw 746 1004 m -27 -16 d s [] 0 sd 1 lw [] 0 sd 1 lw 834 1605 m -115 9 d s [] 0 sd 1 lw [] 0 sd 1 lw 705 1624 m -3 1 d s
 [] 0 sd 1 lw [] 0 sd 1 lw 734 1011 m -17 -10 d s [] 0 sd 1 lw [] 0 sd 1 lw 832 1591 m -115 9 d s [] 0 sd 1 lw [] 0 sd 1
 lw 719 988 m -32 -5 d s [] 0 sd 1 lw [] 0 sd 1 lw 719 1614 m -17 11 d s [] 0 sd 1 lw [] 0 sd 1 lw 719 1614 m -32 -11 d
 s [] 0 sd 1 lw [] 0 sd 1 lw 702 1625 m -2 -1 d s [] 0 sd 1 lw [] 0 sd 1 lw 675 1615 m -5 -2 d s [] 0 sd 1 lw [] 0 sd 1
 lw 717 1001 m -30 -4 d s [] 0 sd 1 lw [] 0 sd 1 lw 686 1009 m -16 -2 d s [] 0 sd 1 lw [] 0 sd 1 lw 717 1600 m -30 -11 d
 s [] 0 sd 1 lw [] 0 sd 1 lw 687 983 m -17 11 d s [] 0 sd 1 lw [] 0 sd 1 lw 687 983 m 14 Y s [] 0 sd 1 lw [] 0 sd 1 lw
 670 994 m 13 Y s [] 0 sd 1 lw [] 0 sd 1 lw 687 997 m -17 10 d s [] 0 sd 1 lw [] 0 sd 1 lw 687 1589 m -17 11 d s [] 0 sd
 1 lw [] 0 sd 1 lw 687 1589 m 14 Y s [] 0 sd 1 lw [] 0 sd 1 lw 670 1600 m 13 Y s [] 0 sd 1 lw [] 0 sd 1 lw 687 1603 m
 -17 10 d s 0 0 1 c [] 0 sd 1 lw [] 0 sd 1 lw 768 1619 m -16 10 d s [] 0 sd 1 lw [] 0 sd 1 lw 768 1619 m -6 -18 d s
 [] 0 sd 1 lw [] 0 sd 1 lw 768 1619 m -76 -8 d s [] 0 sd 1 lw [] 0 sd 1 lw 752 1629 m -47 -5 d s [] 0 sd 1 lw [] 0 sd 1
 lw 700 1624 m -25 -3 d s [] 0 sd 1 lw [] 0 sd 1 lw 762 1601 m -69 -7 d s [] 0 sd 1 lw [] 0 sd 1 lw 693 1594 m -1 17 d s
 [] 0 sd 1 lw [] 0 sd 1 lw 675 1615 m 6 Y s [] 0 sd 1 lw [] 0 sd 1 lw 692 1611 m -17 10 d s [] 0 sd 1 lw [] 0 sd 1 lw
 843 1599 m -3 -5 d s [] 0 sd 1 lw [] 0 sd 1 lw 810 1619 m -30 7 d s [] 0 sd 1 lw [] 0 sd 1 lw 794 1630 m -30 6 d s
 [] 0 sd 1 lw [] 0 sd 1 lw 840 1594 m -63 14 d s [] 0 sd 1 lw [] 0 sd 1 lw 780 1626 m -16 10 d s [] 0 sd 1 lw [] 0 sd 1
 lw 780 1626 m -3 -18 d s [] 0 sd 1 lw [] 0 sd 1 lw 764 1636 m -3 -13 d s [] 0 sd 1 lw [] 0 sd 1 lw 910 1558 m -9 -9 d s
 [] 0 sd 1 lw [] 0 sd 1 lw 901 1549 m -53 34 d s [] 0 sd 1 lw [] 0 sd 1 lw 853 1593 m -5 -10 d s [] 0 sd 1 lw [] 0 sd 1
 lw 968 1505 m -16 -10 d s [] 0 sd 1 lw [] 0 sd 1 lw 968 1505 m -23 32 d s [] 0 sd 1 lw [] 0 sd 1 lw 952 1495 m -37 51 d
 s [] 0 sd 1 lw [] 0 sd 1 lw 919 1552 m -4 -6 d s [] 0 sd 1 lw [] 0 sd 1 lw 988 1420 m -17 -5 d s [] 0 sd 1 lw [] 0 sd 1
 lw 988 1420 m -22 71 d s [] 0 sd 1 lw [] 0 sd 1 lw 971 1415 m -19 64 d s [] 0 sd 1 lw [] 0 sd 1 lw 966 1491 m -10 6 d s
 [] 0 sd 1 lw [] 0 sd 1 lw 966 1491 m -14 -12 d s [] 0 sd 1 lw [] 0 sd 1 lw 996 1332 m 80 Y s [] 0 sd 1 lw [] 0 sd 1 lw
 996 1332 m -1 X s [] 0 sd 1 lw [] 0 sd 1 lw 996 1412 m -11 7 d s [] 0 sd 1 lw [] 0 sd 1 lw 996 1412 m -16 -8 d s
 [] 0 sd 1 lw [] 0 sd 1 lw 980 1351 m 28 Y s [] 0 sd 1 lw [] 0 sd 1 lw 980 1399 m 5 Y s [] 0 sd 1 lw [] 0 sd 1 lw 783
 1010 m -3 -2 d s [] 0 sd 1 lw [] 0 sd 1 lw 780 1008 m -2 1 d s [] 0 sd 1 lw [] 0 sd 1 lw 780 1008 m 1 Y s [] 0 sd 1 lw
 [] 0 sd 1 lw 758 1004 m -66 -26 d s [] 0 sd 1 lw [] 0 sd 1 lw 733 1012 m -40 -17 d s [] 0 sd 1 lw [] 0 sd 1 lw 717 1022
 m -31 -13 d s [] 0 sd 1 lw [] 0 sd 1 lw 693 995 m -1 -17 d s [] 0 sd 1 lw [] 0 sd 1 lw 675 991 m -3 Y s [] 0 sd 1 lw
 [] 0 sd 1 lw 692 978 m -17 10 d s 0 1 0 c [] 0 sd 1 lw [] 0 sd 1 lw 927 1323 m 21 Y s [] 0 sd 1 lw [] 0 sd 1 lw 927
 1344 m -7 15 d s [] 0 sd 1 lw [] 0 sd 1 lw 914 1330 m 8 Y s [] 0 sd 1 lw [] 0 sd 1 lw 898 1341 m 7 Y s [] 0 sd 1 lw
 [] 0 sd 1 lw 914 1338 m -29 61 d s [] 0 sd 1 lw [] 0 sd 1 lw 898 1348 m -30 61 d s [] 0 sd 1 lw [] 0 sd 1 lw 888 1415 m
 -9 6 d s [] 0 sd 1 lw [] 0 sd 1 lw 885 1399 m -53 36 d s [] 0 sd 1 lw [] 0 sd 1 lw 868 1409 m -38 26 d s [] 0 sd 1 lw
 [] 0 sd 1 lw 788 1084 m -14 -8 d s [] 0 sd 1 lw [] 0 sd 1 lw 826 1450 m -33 2 d s [] 0 sd 1 lw [] 0 sd 1 lw 786 1096 m
 -23 -13 d s [] 0 sd 1 lw [] 0 sd 1 lw 769 1107 m -15 -9 d s [] 0 sd 1 lw [] 0 sd 1 lw 832 1435 m -69 6 d s [] 0 sd 1 lw
 [] 0 sd 1 lw 763 1083 m -18 -2 d s [] 0 sd 1 lw [] 0 sd 1 lw 744 1093 m -16 -2 d s [] 0 sd 1 lw [] 0 sd 1 lw 763 1441 m
 -18 -7 d s [] 0 sd 1 lw [] 0 sd 1 lw 745 1067 m -17 10 d s [] 0 sd 1 lw [] 0 sd 1 lw 745 1067 m 14 Y s [] 0 sd 1 lw
 [] 0 sd 1 lw 728 1077 m 14 Y s [] 0 sd 1 lw [] 0 sd 1 lw 745 1081 m -17 10 d s [] 0 sd 1 lw [] 0 sd 1 lw 745 1434 m -17
 10 d s [] 0 sd 1 lw [] 0 sd 1 lw 745 1434 m 14 Y s [] 0 sd 1 lw [] 0 sd 1 lw 728 1444 m 14 Y s [] 0 sd 1 lw [] 0 sd 1
 lw 745 1448 m -17 10 d s 0 0 1 c [] 0 sd 1 lw [] 0 sd 1 lw 824 1458 m -16 11 d s [] 0 sd 1 lw [] 0 sd 1 lw 824 1458 m
 -7 -17 d s [] 0 sd 1 lw [] 0 sd 1 lw 824 1458 m -27 X s [] 0 sd 1 lw [] 0 sd 1 lw 808 1469 m -8 -1 d s [] 0 sd 1 lw
 [] 0 sd 1 lw 817 1441 m -68 -1 d s [] 0 sd 1 lw [] 0 sd 1 lw 749 1440 m -4 2 d s [] 0 sd 1 lw [] 0 sd 1 lw 749 1440 m 3
 Y s [] 0 sd 1 lw [] 0 sd 1 lw 886 1417 m -2 -2 d s [] 0 sd 1 lw [] 0 sd 1 lw 884 1415 m -55 32 d s [] 0 sd 1 lw [] 0 sd
 1 lw 830 1448 m -1 -1 d s [] 0 sd 1 lw [] 0 sd 1 lw 926 1351 m -12 -6 d s [] 0 sd 1 lw [] 0 sd 1 lw 914 1345 m -30 58 d
 s [] 0 sd 1 lw [] 0 sd 1 lw 891 1410 m -7 -7 d s [] 0 sd 1 lw [] 0 sd 1 lw 940 1325 m 22 Y s [] 0 sd 1 lw [] 0 sd 1 lw
 940 1347 m -9 6 d s [] 0 sd 1 lw [] 0 sd 1 lw 940 1347 m -16 -8 d s [] 0 sd 1 lw [] 0 sd 1 lw 924 1325 m 14 Y s [] 0 sd
 1 lw [] 0 sd 1 lw 787 1096 m -38 -19 d s [] 0 sd 1 lw [] 0 sd 1 lw 754 1098 m -10 -5 d s [] 0 sd 1 lw [] 0 sd 1 lw 749
 1077 m -7 Y s 0 1 0 c [] 0 sd 1 lw [] 0 sd 1 lw 1205 827 m -14 -8 d s [] 0 sd 1 lw [] 0 sd 1 lw 1202 839 m -22 -13 d s
 [] 0 sd 1 lw [] 0 sd 1 lw 1186 850 m -15 -9 d s [] 0 sd 1 lw [] 0 sd 1 lw 1180 826 m -18 -3 d s [] 0 sd 1 lw [] 0 sd 1
 lw 1161 836 m -16 -2 d s [] 0 sd 1 lw [] 0 sd 1 lw 1173 1181 m -11 -4 d s [] 0 sd 1 lw [] 0 sd 1 lw 1162 810 m -17 10 d
 s [] 0 sd 1 lw [] 0 sd 1 lw 1162 810 m 13 Y s [] 0 sd 1 lw [] 0 sd 1 lw 1145 820 m 14 Y s [] 0 sd 1 lw [] 0 sd 1 lw
 1162 823 m -17 11 d s [] 0 sd 1 lw [] 0 sd 1 lw 1162 1177 m -17 10 d s [] 0 sd 1 lw [] 0 sd 1 lw 1162 1177 m 13 Y s
 [] 0 sd 1 lw [] 0 sd 1 lw 1145 1187 m 14 Y s [] 0 sd 1 lw [] 0 sd 1 lw 1162 1190 m -17 11 d s 0 0 1 c [] 0 sd 1 lw
 [] 0 sd 1 lw 1170 1183 m -4 X s [] 0 sd 1 lw [] 0 sd 1 lw 1166 1183 m -4 2 d s [] 0 sd 1 lw [] 0 sd 1 lw 1166 1183 m 2
 Y s [] 0 sd 1 lw [] 0 sd 1 lw 1204 838 m -38 -18 d s [] 0 sd 1 lw [] 0 sd 1 lw 1171 841 m -10 -5 d s [] 0 sd 1 lw
 [] 0 sd 1 lw 1166 820 m -7 Y s 0 1 0 c [] 0 sd 1 lw [] 0 sd 1 lw 1279 675 m -27 -16 d s [] 0 sd 1 lw [] 0 sd 1 lw 1267
 682 m -17 -10 d s [] 0 sd 1 lw [] 0 sd 1 lw 1252 659 m -32 -4 d s [] 0 sd 1 lw [] 0 sd 1 lw 1233 1279 m -13 -5 d s
 [] 0 sd 1 lw [] 0 sd 1 lw 1233 1295 m s [] 0 sd 1 lw [] 0 sd 1 lw 1209 1286 m -6 -2 d s [] 0 sd 1 lw [] 0 sd 1 lw 1250
 672 m -30 -4 d s [] 0 sd 1 lw [] 0 sd 1 lw 1219 681 m -16 -3 d s [] 0 sd 1 lw [] 0 sd 1 lw 1239 1267 m -19 -6 d s
 [] 0 sd 1 lw [] 0 sd 1 lw 1220 655 m -17 10 d s [] 0 sd 1 lw [] 0 sd 1 lw 1220 655 m 13 Y s [] 0 sd 1 lw [] 0 sd 1 lw
 1203 665 m 13 Y s [] 0 sd 1 lw [] 0 sd 1 lw 1220 668 m -17 10 d s [] 0 sd 1 lw [] 0 sd 1 lw 1220 1261 m -17 10 d s
 [] 0 sd 1 lw [] 0 sd 1 lw 1220 1261 m 13 Y s [] 0 sd 1 lw [] 0 sd 1 lw 1203 1271 m 13 Y s [] 0 sd 1 lw [] 0 sd 1 lw
 1220 1274 m -17 10 d s 0 0 1 c [] 0 sd 1 lw [] 0 sd 1 lw 1233 1283 m -8 -1 d s [] 0 sd 1 lw [] 0 sd 1 lw 1233 1295 m
 -25 -3 d s [] 0 sd 1 lw [] 0 sd 1 lw 1240 1267 m -14 -2 d s [] 0 sd 1 lw [] 0 sd 1 lw 1226 1265 m -1 17 d s [] 0 sd 1
 lw [] 0 sd 1 lw 1209 1286 m -1 6 d s [] 0 sd 1 lw [] 0 sd 1 lw 1225 1282 m -17 10 d s [] 0 sd 1 lw [] 0 sd 1 lw 1283
 673 m -58 -24 d s [] 0 sd 1 lw [] 0 sd 1 lw 1267 683 m -41 -16 d s [] 0 sd 1 lw [] 0 sd 1 lw 1250 693 m -31 -12 d s
 [] 0 sd 1 lw [] 0 sd 1 lw 1226 667 m -1 -18 d s [] 0 sd 1 lw [] 0 sd 1 lw 1208 662 m -3 Y s [] 0 sd 1 lw [] 0 sd 1 lw
 1225 649 m -17 10 d s [] 0 sd 1 lw [] 0 sd 1 lw 823 1436 m -12 -25 d s [] 0 sd 1 lw [] 0 sd 1 lw 811 1411 m -22 8 d s
 [] 0 sd 1 lw [] 0 sd 1 lw 798 1438 m -9 -19 d s [] 0 sd 1 lw [] 0 sd 1 lw 789 1419 m -32 19 d s [] 0 sd 1 lw [] 0 sd 1
 lw 1386 1091 m -13 -27 d s [] 0 sd 1 lw [] 0 sd 1 lw 1385 1091 m -3 1 d s [] 0 sd 1 lw [] 0 sd 1 lw 1373 1064 m -22 8 d
 s [] 0 sd 1 lw [] 0 sd 1 lw 1358 1087 m -7 -15 d s [] 0 sd 1 lw [] 0 sd 1 lw 1351 1072 m -7 4 d s [] 0 sd 1 lw [] 0 sd
 1 lw 1386 800 m -13 20 d s [] 0 sd 1 lw [] 0 sd 1 lw 1385 799 m -20 -18 d s [] 0 sd 1 lw [] 0 sd 1 lw 1373 820 m -7 4 d
 s [] 0 sd 1 lw [] 0 sd 1 lw 1373 820 m -22 -19 d s [] 0 sd 1 lw [] 0 sd 1 lw 1364 781 m -13 20 d s [] 0 sd 1 lw [] 0 sd
 1 lw 1351 801 m -7 4 d s [] 0 sd 1 lw [] 0 sd 1 lw 1531 652 m -13 20 d s [] 0 sd 1 lw [] 0 sd 1 lw 1531 652 m -23 -19 d
 s [] 0 sd 1 lw [] 0 sd 1 lw 1518 672 m -19 12 d s [] 0 sd 1 lw [] 0 sd 1 lw 1518 672 m -23 -19 d s [] 0 sd 1 lw [] 0 sd
 1 lw 1508 633 m -2 2 d s [] 0 sd 1 lw [] 0 sd 1 lw 1508 633 m -13 20 d s [] 0 sd 1 lw [] 0 sd 1 lw 1495 653 m -18 12 d
 s [] 0 sd 1 lw [] 0 sd 1 lw 1667 932 m 27 Y s [] 0 sd 1 lw [] 0 sd 1 lw 1667 932 m -26 -6 d s [] 0 sd 1 lw [] 0 sd 1 lw
 1667 959 m s [] 0 sd 1 lw [] 0 sd 1 lw 1667 959 m -26 -6 d s [] 0 sd 1 lw [] 0 sd 1 lw 1641 926 m -17 10 d s [] 0 sd 1
 lw [] 0 sd 1 lw 1641 926 m 27 Y s [] 0 sd 1 lw [] 0 sd 1 lw 1641 953 m -17 10 d s [] 0 sd 1 lw [] 0 sd 1 lw 1528 1165 m
 -10 -22 d s [] 0 sd 1 lw [] 0 sd 1 lw 1518 1143 m -23 8 d s [] 0 sd 1 lw [] 0 sd 1 lw 1505 1171 m -10 -20 d s [] 0 sd 1
 lw [] 0 sd 1 lw 1495 1151 m -18 12 d s [] 0 sd 1 lw [] 0 sd 1 lw 824 1592 m -8 -16 d s [] 0 sd 1 lw [] 0 sd 1 lw 816
 1576 m -22 8 d s [] 0 sd 1 lw [] 0 sd 1 lw 799 1594 m -5 -10 d s [] 0 sd 1 lw [] 0 sd 1 lw 794 1584 m -19 12 d s
 [] 0 sd 1 lw [] 0 sd 1 lw 725 1627 m -27 16 d s 1 0 0 c gr 
showpage gr
 gr 
%%Trailer
%%Pages:  1
%%EOF
