%!PS-Adobe-2.0
%%Title: higz.ps (Landscape A 4)
%%Pages: (atend)
%%Creator: ROOT Version 2.22/10
%%CreationDate:Sat Sep 18 15:18:13 1999
%%EndComments
%%BeginProlog
/s {stroke} def /l {lineto} def /m {moveto} def /t {translate} def
/sw {stringwidth} def /r {rotate} def /rl {roll}  def /R {repeat} def
/d {rlineto} def /rm {rmoveto} def /gr {grestore} def /f {eofill} def
/c {setrgbcolor} def /lw {setlinewidth} def /sd {setdash} def
/cl {closepath} def /sf {scalefont setfont} def /black {0 setgray} def
/box {m dup 0 exch d exch 0 d 0 exch neg d cl} def
/NC{systemdict begin initclip end}def/C{NC box clip newpath}def
/bl {box s} def /bf {box f} def /Y { 0 exch d} def /X { 0 d} def 
/mp {newpath /y exch def /x exch def} def
/side {[w .77 mul w .23 mul] .385 w mul sd w 0 l currentpoint t -144 r} def
/mr {mp x y w2 0 360 arc} def /m24 {mr s} def /m20 {mr f} def
/mb {mp x y w2 add m w2 neg 0 d 0 w neg d w 0 d 0 w d cl} def
/mt {mp x y w2 add m w2 neg w neg d w 0 d cl} def
/m21 {mb f} def /m25 {mb s} def /m22 {mt f} def /m26{mt s} def
/m23 {mp x y w2 sub m w2 w d w neg 0 d cl f} def
/m27 {mp x y w2 add m w3 neg w2 neg d w3 w2 neg d w3 w2 d cl s} def
/m28 {mp x w2 sub y w2 sub w3 add m w3 0 d  0 w3 neg d w3 0 d 0 w3 d w3 0 d  0 w3 d w3 neg 0 d 0 w3 d w3 neg 0 d
 0 w3 neg d w3 neg 0 d cl s } def
/m29 {mp gsave x w2 sub y w2 add w3 sub m currentpoint t
 4 {side} repeat cl fill gr} def
/m30 {mp gsave x w2 sub y w2 add w3 sub m currentpoint t
 5 {side} repeat s gr} def
/m31 {mp x y w2 sub m 0 w d x w2 sub y m w 0 d x w2 sub y w2 add m w w neg d x w2 sub y w2
 sub m w w d s} def
/m2 {mp x y w2 sub m 0 w d x w2 sub y m w 0 d s} def
/m5 {mp x w2 sub y w2 sub m w w d x w2 sub y w2 add m w w neg d s} def
/reencdict 24 dict def /ReEncode {reencdict begin /nco&na exch def
/nfnam exch def /basefontname exch def /basefontdict basefontname findfont def
/newfont basefontdict maxlength dict def basefontdict {exch dup /FID ne
{dup /Encoding eq {exch dup length array copy newfont 3 1 roll put} {exch 
newfont 3 1 roll put} ifelse} {pop pop} ifelse } forall newfont
/FontName nfnam put nco&na aload pop nco&na length 2 idiv {newfont
/Encoding get 3 1 roll put} repeat nfnam newfont definefont pop end } def
/accvec [ 176 /agrave 181 /Agrave 190 /acircumflex 192 /Acircumflex
201 /adieresis 204 /Adieresis 209 /ccedilla 210 /Ccedilla 211 /eacute
212 /Eacute 213 /egrave 214 /Egrave 215 /ecircumflex 216 /Ecircumflex
217 /edieresis 218 /Edieresis 219 /icircumflex 220 /Icircumflex
221 /idieresis 222 /Idieresis 223 /ntilde 224 /Ntilde 226 /ocircumflex
228 /Ocircumflex 229 /odieresis 230 /Odieresis 231 /ucircumflex 236 /Ucircumflex
237 /udieresis 238 /Udieresis 239 /aring 242 /Aring 243 /ydieresis
244 /Ydieresis 246 /aacute 247 /Aacute 252 /ugrave 253 /Ugrave] def
/Times-Roman /Times-Roman accvec ReEncode
/Times-Italic /Times-Italic accvec ReEncode
/Times-Bold /Times-Bold accvec ReEncode
/Times-BoldItalic /Times-BoldItalic accvec ReEncode
/Helvetica /Helvetica accvec ReEncode
/Helvetica-Oblique /Helvetica-Oblique accvec ReEncode
/Helvetica-Bold /Helvetica-Bold accvec ReEncode
/Helvetica-BoldOblique /Helvetica-BoldOblique  accvec ReEncode
/Courier /Courier accvec ReEncode
/Courier-Oblique /Courier-Oblique accvec ReEncode
/Courier-Bold /Courier-Bold accvec ReEncode
/Courier-BoldOblique /Courier-BoldOblique accvec ReEncode
/oshow {gsave [] 0 sd true charpath stroke gr} def
/stwn { /fs exch def /fn exch def /text exch def fn findfont fs sf
 text sw pop xs add /xs exch def} def
/stwb { /fs exch def /fn exch def /nbas exch def /textf exch def
textf length /tlen exch def nbas tlen gt {/nbas tlendef} if
fn findfont fs sf textf dup length nbas sub nbas getinterval sw
pop neg xs add /xs exch def} def
/accspe [ 65 /plusminus  66 /bar  67 /existential  68 /universal 
69 /exclam  70 /numbersign 71 /greater  72 /question  73 /integral 
74 /colon  75 /semicolon  76 /less  77 /bracketleft  78 /bracketright
79 /greaterequal 80 /braceleft 81 /braceright 82 /radical
83 /spade 84 /heart 85 /diamond 86 /club 87 /lessequal
88 /multiply 89 /percent 90 /infinity 48 /circlemultiply 49 /circleplus
50 /emptyset  51 /lozenge 52 /bullet 53 /arrowright 54 /arrowup
55 /arrowleft 56 /arrowdown 57 /arrowboth 48 /degree 44 /comma 43 /plus 45 /angle 42 /angleleft 47 /divide 61 /notequal
 40 /equivalence 41 /second 97 /approxequal 98 /congruent 99 /perpendicular 100 /partialdiff 101 /florin
 102 /intersection 103 /union 104 /propersuperset 105 /reflexsuperset 106 /notsubset 107 /propersubset 108 /reflexsubset
 109 /element 110 /notelement 111 /gradient 112 /logicaland 113 /logicalor 114 /arrowdblboth 115 /arrowdblleft
 116 /arrowdblup 117 /arrowdblright 118 /arrowdbldown 119 /ampersand 120 /omega1 121 /similar 122 /aleph ] def
/Symbol /Special accspe ReEncode
/Zone {/iy exch def /ix exch def  ix 1 sub  3144 mul  1 iy sub  2224
 mul t} def
%%EndProlog
 gsave  90 r 0 -594 t  28 20 t .25 .25 scale  gsave 
%%Page: number 1
 black [] 0 sd 1 lw 0.999 0.999 0.999 c 2363 2268 0 0 bf 0.958 0.202 0.958 c 0 0 m 2 2 d 2264 Y 2359 X 2 2 d -2363 X
 -2268 Y f 0.202 0.958 0.958 c 0 0 m 2 2 d 2359 X 2264 Y 2 2 d -2268 Y -2363 X f 0 0 1 c [] 0 sd 1 lw [] 0 sd 1 lw 1408
 475 m 31 -19 d s [] 0 sd 1 lw [] 0 sd 1 lw 1408 475 m 269 Y s [] 0 sd 1 lw [] 0 sd 1 lw 1408 475 m 105 -219 d s [] 0 sd
 1 lw [] 0 sd 1 lw 1439 456 m 269 Y s [] 0 sd 1 lw [] 0 sd 1 lw 1439 456 m 105 -219 d s [] 0 sd 1 lw [] 0 sd 1 lw 1408
 744 m 31 -19 d s [] 0 sd 1 lw [] 0 sd 1 lw 1408 744 m 105 272 d s [] 0 sd 1 lw [] 0 sd 1 lw 1439 725 m 105 272 d s
 [] 0 sd 1 lw [] 0 sd 1 lw 1472 472 m 254 Y s [] 0 sd 1 lw [] 0 sd 1 lw 1472 472 m 100 -207 d s [] 0 sd 1 lw [] 0 sd 1
 lw 1472 726 m 100 257 d s [] 0 sd 1 lw [] 0 sd 1 lw 1513 256 m 31 -19 d s [] 0 sd 1 lw [] 0 sd 1 lw 1513 256 m 192 -131
 d s [] 0 sd 1 lw [] 0 sd 1 lw 1544 237 m 192 -130 d s [] 0 sd 1 lw [] 0 sd 1 lw 1513 1016 m 31 -19 d s [] 0 sd 1 lw
 [] 0 sd 1 lw 1513 1016 m 192 229 d s [] 0 sd 1 lw [] 0 sd 1 lw 1544 997 m 192 229 d s [] 0 sd 1 lw [] 0 sd 1 lw 1572
 265 m 181 -123 d s [] 0 sd 1 lw [] 0 sd 1 lw 1572 983 m 181 216 d s [] 0 sd 1 lw [] 0 sd 1 lw 1705 125 m 31 -18 d s
 [] 0 sd 1 lw [] 0 sd 1 lw 1736 107 m 246 -21 d s [] 0 sd 1 lw [] 0 sd 1 lw 1705 1245 m 31 -19 d s [] 0 sd 1 lw [] 0 sd
 1 lw 1705 1245 m 246 146 d s [] 0 sd 1 lw [] 0 sd 1 lw 1736 1226 m 246 146 d s [] 0 sd 1 lw [] 0 sd 1 lw 1726 160 m 19
 -1 d s [] 0 sd 1 lw [] 0 sd 1 lw 1817 153 m 27 -2 d s [] 0 sd 1 lw [] 0 sd 1 lw 1753 142 m 233 -19 d s [] 0 sd 1 lw
 [] 0 sd 1 lw 1753 1199 m 233 138 d s [] 0 sd 1 lw [] 0 sd 1 lw 1982 86 m 65 24 d s [] 0 sd 1 lw [] 0 sd 1 lw 1951 1391
 m 31 -19 d s [] 0 sd 1 lw [] 0 sd 1 lw 1951 1391 m 65 9 d s [] 0 sd 1 lw [] 0 sd 1 lw 1982 1372 m 65 9 d s [] 0 sd 1 lw
 [] 0 sd 1 lw 1969 133 m 17 -10 d s [] 0 sd 1 lw [] 0 sd 1 lw 1986 123 m 61 22 d s [] 0 sd 1 lw [] 0 sd 1 lw 1986 1337 m
 61 9 d s [] 0 sd 1 lw [] 0 sd 1 lw 2047 110 m 35 Y s [] 0 sd 1 lw [] 0 sd 1 lw 2046 146 m 1 -1 d s [] 0 sd 1 lw [] 0 sd
 1 lw 2047 1346 m 35 Y s [] 0 sd 1 lw [] 0 sd 1 lw 2016 1400 m 31 -19 d s [] 0 sd 1 lw [] 0 sd 1 lw 1407 476 m 268 Y s
 [] 0 sd 1 lw [] 0 sd 1 lw 1407 476 m 105 -219 d s [] 0 sd 1 lw [] 0 sd 1 lw 1407 744 m 105 273 d s [] 0 sd 1 lw [] 0 sd
 1 lw 1512 257 m 193 -131 d s [] 0 sd 1 lw [] 0 sd 1 lw 1512 1017 m 193 228 d s [] 0 sd 1 lw [] 0 sd 1 lw 1705 126 m s
 [] 0 sd 1 lw [] 0 sd 1 lw 1705 1245 m 246 146 d s [] 0 sd 1 lw [] 0 sd 1 lw 1721 164 m 16 -1 d s [] 0 sd 1 lw [] 0 sd 1
 lw 1817 156 m 21 -2 d s [] 0 sd 1 lw [] 0 sd 1 lw 1725 161 m 19 -2 d s [] 0 sd 1 lw [] 0 sd 1 lw 1817 153 m 26 -2 d s
 [] 0 sd 1 lw [] 0 sd 1 lw 1951 1391 m 65 10 d s [] 0 sd 1 lw [] 0 sd 1 lw 2016 1400 m 1 Y s [] 0 sd 1 lw [] 0 sd 1 lw
 1503 631 m 51 -105 d s [] 0 sd 1 lw [] 0 sd 1 lw 1590 484 m 104 -71 d s [] 0 sd 1 lw [] 0 sd 1 lw 1720 165 m 16 -2 d s
 [] 0 sd 1 lw [] 0 sd 1 lw 1817 157 m 20 -2 d s [] 0 sd 1 lw [] 0 sd 1 lw 1694 413 m 163 -14 d s [] 0 sd 1 lw [] 0 sd 1
 lw 1857 399 m 43 16 d s [] 0 sd 1 lw [] 0 sd 1 lw 1947 310 m -47 105 d s [] 0 sd 1 lw [] 0 sd 1 lw 1505 649 m 33 15 d s
 [] 0 sd 1 lw [] 0 sd 1 lw 1510 823 m 28 1 d s [] 0 sd 1 lw [] 0 sd 1 lw 1538 664 m 160 Y s [] 0 sd 1 lw [] 0 sd 1 lw
 1538 664 m 63 -130 d s [] 0 sd 1 lw [] 0 sd 1 lw 1538 824 m 57 146 d s [] 0 sd 1 lw [] 0 sd 1 lw 1581 515 m 20 19 d s
 [] 0 sd 1 lw [] 0 sd 1 lw 1601 534 m 114 -78 d s [] 0 sd 1 lw [] 0 sd 1 lw 1610 997 m 105 125 d s [] 0 sd 1 lw [] 0 sd
 1 lw 1693 413 m 22 43 d s [] 0 sd 1 lw [] 0 sd 1 lw 1693 413 m 163 -13 d s [] 0 sd 1 lw [] 0 sd 1 lw 1711 1128 m 4 -6 d
 s [] 0 sd 1 lw [] 0 sd 1 lw 1715 456 m 147 -12 d s [] 0 sd 1 lw [] 0 sd 1 lw 1715 1122 m 147 86 d s [] 0 sd 1 lw
 [] 0 sd 1 lw 1856 400 m 6 44 d s [] 0 sd 1 lw [] 0 sd 1 lw 1856 400 m 43 15 d s [] 0 sd 1 lw [] 0 sd 1 lw 1858 1237 m 4
 -29 d s [] 0 sd 1 lw [] 0 sd 1 lw 1862 444 m 38 14 d s [] 0 sd 1 lw [] 0 sd 1 lw 1862 1208 m 38 6 d s [] 0 sd 1 lw
 [] 0 sd 1 lw 1899 415 m s [] 0 sd 1 lw [] 0 sd 1 lw 1899 415 m 1 43 d s [] 0 sd 1 lw [] 0 sd 1 lw 1900 1214 m 13 Y s
 [] 0 sd 1 lw [] 0 sd 1 lw 1715 457 m 146 -12 d s [] 0 sd 1 lw [] 0 sd 1 lw 1856 448 m 5 -3 d s [] 0 sd 1 lw [] 0 sd 1
 lw 1861 445 m 38 14 d s [] 0 sd 1 lw [] 0 sd 1 lw 1899 415 m 43 Y s [] 0 sd 1 lw [] 0 sd 1 lw 1894 462 m 5 -3 d s
 [] 0 sd 1 lw [] 0 sd 1 lw 168 1240 m 31 -19 d s [] 0 sd 1 lw [] 0 sd 1 lw 168 1240 m 269 Y s [] 0 sd 1 lw [] 0 sd 1 lw
 168 1240 m 105 -219 d s [] 0 sd 1 lw [] 0 sd 1 lw 199 1221 m 269 Y s [] 0 sd 1 lw [] 0 sd 1 lw 199 1221 m 105 -219 d s
 [] 0 sd 1 lw [] 0 sd 1 lw 168 1509 m 31 -19 d s [] 0 sd 1 lw [] 0 sd 1 lw 168 1509 m 105 272 d s [] 0 sd 1 lw [] 0 sd 1
 lw 199 1490 m 105 272 d s [] 0 sd 1 lw [] 0 sd 1 lw 273 1021 m 31 -19 d s [] 0 sd 1 lw [] 0 sd 1 lw 273 1021 m 193 -131
 d s [] 0 sd 1 lw [] 0 sd 1 lw 304 1002 m 1 X s [] 0 sd 1 lw [] 0 sd 1 lw 273 1781 m 31 -19 d s [] 0 sd 1 lw [] 0 sd 1
 lw 273 1781 m 193 229 d s [] 0 sd 1 lw [] 0 sd 1 lw 304 1762 m 192 229 d s [] 0 sd 1 lw [] 0 sd 1 lw 466 890 m 30 -19 d
 s [] 0 sd 1 lw [] 0 sd 1 lw 496 871 m s [] 0 sd 1 lw [] 0 sd 1 lw 466 2010 m 30 -19 d s [] 0 sd 1 lw [] 0 sd 1 lw 466
 2010 m 246 146 d s [] 0 sd 1 lw [] 0 sd 1 lw 496 1991 m 246 146 d s [] 0 sd 1 lw [] 0 sd 1 lw 712 2156 m 30 -19 d s
 [] 0 sd 1 lw [] 0 sd 1 lw 712 2156 m 65 9 d s [] 0 sd 1 lw [] 0 sd 1 lw 742 2137 m 65 9 d s [] 0 sd 1 lw [] 0 sd 1 lw
 807 2145 m 1 Y s [] 0 sd 1 lw [] 0 sd 1 lw 777 2165 m 30 -19 d s [] 0 sd 1 lw [] 0 sd 1 lw 200 1220 m 269 Y s [] 0 sd 1
 lw [] 0 sd 1 lw 200 1220 m 14 2 d s [] 0 sd 1 lw [] 0 sd 1 lw 200 1220 m 105 -218 d s [] 0 sd 1 lw [] 0 sd 1 lw 200
 1489 m 14 -3 d s [] 0 sd 1 lw [] 0 sd 1 lw 200 1489 m 105 273 d s [] 0 sd 1 lw [] 0 sd 1 lw 214 1222 m 264 Y s [] 0 sd
 1 lw [] 0 sd 1 lw 214 1222 m 104 -216 d s [] 0 sd 1 lw [] 0 sd 1 lw 214 1486 m 104 269 d s [] 0 sd 1 lw [] 0 sd 1 lw
 305 1002 m 13 4 d s [] 0 sd 1 lw [] 0 sd 1 lw 305 1002 m 192 -131 d s [] 0 sd 1 lw [] 0 sd 1 lw 305 1762 m 13 -7 d s
 [] 0 sd 1 lw [] 0 sd 1 lw 305 1762 m 192 228 d s [] 0 sd 1 lw [] 0 sd 1 lw 318 1006 m s [] 0 sd 1 lw [] 0 sd 1 lw 318
 1755 m 189 225 d s [] 0 sd 1 lw [] 0 sd 1 lw 497 871 m 10 6 d s [] 0 sd 1 lw [] 0 sd 1 lw 497 871 m 123 -10 d s [] 0 sd
 1 lw [] 0 sd 1 lw 676 856 m 67 -5 d s [] 0 sd 1 lw [] 0 sd 1 lw 497 1990 m 10 -10 d s [] 0 sd 1 lw [] 0 sd 1 lw 497
 1990 m 246 146 d s [] 0 sd 1 lw [] 0 sd 1 lw 507 877 m s [] 0 sd 1 lw [] 0 sd 1 lw 507 1980 m 242 143 d s [] 0 sd 1 lw
 [] 0 sd 1 lw 743 851 m 6 6 d s [] 0 sd 1 lw [] 0 sd 1 lw 743 851 m 10 3 d s [] 0 sd 1 lw [] 0 sd 1 lw 806 874 m 2 X s
 [] 0 sd 1 lw [] 0 sd 1 lw 743 2136 m 6 -13 d s [] 0 sd 1 lw [] 0 sd 1 lw 743 2136 m 65 10 d s [] 0 sd 1 lw [] 0 sd 1 lw
 749 2123 m 64 10 d s [] 0 sd 1 lw [] 0 sd 1 lw 808 874 m 2 3 d s [] 0 sd 1 lw [] 0 sd 1 lw 813 2132 m 1 Y s [] 0 sd 1
 lw [] 0 sd 1 lw 813 2133 m -5 13 d s [] 0 sd 1 lw [] 0 sd 1 lw 215 1221 m 265 Y s [] 0 sd 1 lw [] 0 sd 1 lw 215 1221 m
 104 -215 d s [] 0 sd 1 lw [] 0 sd 1 lw 215 1221 m 85 4 d s [] 0 sd 1 lw [] 0 sd 1 lw 326 1227 m 75 3 d s [] 0 sd 1 lw
 [] 0 sd 1 lw 440 1232 m 56 3 d s [] 0 sd 1 lw [] 0 sd 1 lw 215 1486 m 104 268 d s [] 0 sd 1 lw [] 0 sd 1 lw 215 1486 m
 53 -12 d s [] 0 sd 1 lw [] 0 sd 1 lw 459 1432 m 37 -8 d s [] 0 sd 1 lw [] 0 sd 1 lw 319 1006 m 38 11 d s [] 0 sd 1 lw
 [] 0 sd 1 lw 507 1063 m 35 10 d s [] 0 sd 1 lw [] 0 sd 1 lw 319 1006 m 189 -129 d s [] 0 sd 1 lw [] 0 sd 1 lw 319 1754
 m 53 -30 d s [] 0 sd 1 lw [] 0 sd 1 lw 539 1633 m 31 -17 d s [] 0 sd 1 lw [] 0 sd 1 lw 319 1754 m 189 225 d s [] 0 sd 1
 lw [] 0 sd 1 lw 496 1235 m 189 Y s [] 0 sd 1 lw [] 0 sd 1 lw 496 1235 m 12 -25 d s [] 0 sd 1 lw [] 0 sd 1 lw 496 1424 m
 33 85 d s [] 0 sd 1 lw [] 0 sd 1 lw 546 1554 m 24 62 d s [] 0 sd 1 lw [] 0 sd 1 lw 570 1616 m 135 160 d s [] 0 sd 1 lw
 [] 0 sd 1 lw 508 877 m 38 22 d s [] 0 sd 1 lw [] 0 sd 1 lw 649 958 m 56 32 d s [] 0 sd 1 lw [] 0 sd 1 lw 508 877 m 100
 -8 d s [] 0 sd 1 lw [] 0 sd 1 lw 705 861 m 45 -4 d s [] 0 sd 1 lw [] 0 sd 1 lw 508 1979 m 40 -41 d s [] 0 sd 1 lw
 [] 0 sd 1 lw 680 1802 m 25 -26 d s [] 0 sd 1 lw [] 0 sd 1 lw 508 1979 m 242 144 d s [] 0 sd 1 lw [] 0 sd 1 lw 705 990 m
 s [] 0 sd 1 lw [] 0 sd 1 lw 705 1776 m 173 103 d s [] 0 sd 1 lw [] 0 sd 1 lw 839 940 m 9 7 d s [] 0 sd 1 lw [] 0 sd 1
 lw 798 874 m 8 3 d s [] 0 sd 1 lw [] 0 sd 1 lw 750 2123 m 20 -37 d s [] 0 sd 1 lw [] 0 sd 1 lw 856 1920 m 22 -41 d s
 [] 0 sd 1 lw [] 0 sd 1 lw 750 2123 m 64 9 d s [] 0 sd 1 lw [] 0 sd 1 lw 878 1879 m 9 1 d s [] 0 sd 1 lw [] 0 sd 1 lw
 922 1890 m -25 55 d s [] 0 sd 1 lw [] 0 sd 1 lw 830 2096 m -16 36 d s [] 0 sd 1 lw [] 0 sd 1 lw 496 1235 m 189 Y s
 [] 0 sd 1 lw [] 0 sd 1 lw 496 1235 m 12 -25 d s [] 0 sd 1 lw [] 0 sd 1 lw 496 1424 m 33 85 d s [] 0 sd 1 lw [] 0 sd 1
 lw 546 1554 m 24 62 d s [] 0 sd 1 lw [] 0 sd 1 lw 570 1616 m 135 160 d s [] 0 sd 1 lw [] 0 sd 1 lw 705 990 m 1 -1 d s
 [] 0 sd 1 lw [] 0 sd 1 lw 705 990 m s [] 0 sd 1 lw [] 0 sd 1 lw 706 989 m 86 -7 d s [] 0 sd 1 lw [] 0 sd 1 lw 705 1776
 m 173 103 d s [] 0 sd 1 lw [] 0 sd 1 lw 878 1879 m 9 1 d s [] 0 sd 1 lw [] 0 sd 1 lw 497 1235 m 189 Y s [] 0 sd 1 lw
 [] 0 sd 1 lw 497 1235 m 11 X s [] 0 sd 1 lw [] 0 sd 1 lw 547 1238 m 2 X s [] 0 sd 1 lw [] 0 sd 1 lw 497 1235 m 11 -23 d
 s [] 0 sd 1 lw [] 0 sd 1 lw 497 1424 m 31 -7 d s [] 0 sd 1 lw [] 0 sd 1 lw 497 1424 m 33 85 d s [] 0 sd 1 lw [] 0 sd 1
 lw 547 1554 m 24 61 d s [] 0 sd 1 lw [] 0 sd 1 lw 549 1238 m 124 Y s [] 0 sd 1 lw [] 0 sd 1 lw 549 1238 m 59 -123 d s
 [] 0 sd 1 lw [] 0 sd 1 lw 655 1024 m 51 -35 d s [] 0 sd 1 lw [] 0 sd 1 lw 571 1615 m 30 -16 d s [] 0 sd 1 lw [] 0 sd 1
 lw 571 1615 m 135 161 d s [] 0 sd 1 lw [] 0 sd 1 lw 706 989 m 36 22 d s [] 0 sd 1 lw [] 0 sd 1 lw 706 989 m 86 -7 d s
 [] 0 sd 1 lw [] 0 sd 1 lw 706 1776 m 23 -24 d s [] 0 sd 1 lw [] 0 sd 1 lw 706 1776 m 173 102 d s [] 0 sd 1 lw [] 0 sd 1
 lw 742 1011 m 4 -1 d s [] 0 sd 1 lw [] 0 sd 1 lw 879 1878 m 9 -17 d s [] 0 sd 1 lw [] 0 sd 1 lw 879 1878 m 9 2 d s
 [] 0 sd 1 lw [] 0 sd 1 lw 550 1238 m 730 -450 d s [] 0 sd 1 lw [] 0 sd 1 lw 1328 758 m 63 -38 d s [] 0 sd 1 lw [] 0 sd
 1 lw 550 1238 m 128 Y s [] 0 sd 1 lw [] 0 sd 1 lw 550 1238 m 60 -125 d s [] 0 sd 1 lw [] 0 sd 1 lw 565 1403 m 747 -460
 d s [] 0 sd 1 lw [] 0 sd 1 lw 1349 920 m 88 -54 d s [] 0 sd 1 lw [] 0 sd 1 lw 658 1073 m 622 -384 d s [] 0 sd 1 lw
 [] 0 sd 1 lw 1330 658 m 53 -33 d s [] 0 sd 1 lw [] 0 sd 1 lw 658 1070 m 85 -58 d s [] 0 sd 1 lw [] 0 sd 1 lw 635 1579 m
 748 -462 d s [] 0 sd 1 lw [] 0 sd 1 lw 1420 1094 m 79 -48 d s [] 0 sd 1 lw [] 0 sd 1 lw 743 1012 m 537 -331 d s [] 0 sd
 1 lw [] 0 sd 1 lw 1336 646 m 46 -28 d s [] 0 sd 1 lw [] 0 sd 1 lw 760 1727 m 747 -461 d s [] 0 sd 1 lw [] 0 sd 1 lw
 1545 1242 m 66 -41 d s [] 0 sd 1 lw [] 0 sd 1 lw 907 1828 m 741 -457 d s [] 0 sd 1 lw [] 0 sd 1 lw 1689 1346 m 64 -40 d
 s [] 0 sd 1 lw [] 0 sd 1 lw 980 1816 m 695 -429 d s [] 0 sd 1 lw [] 0 sd 1 lw 1715 1362 m 62 -38 d s 0 1 0 c [] 0 sd 1
 lw [] 0 sd 1 lw 535 1138 m 219 Y s [] 0 sd 1 lw [] 0 sd 1 lw 535 1138 m 86 -177 d s [] 0 sd 1 lw [] 0 sd 1 lw 535 1357
 m 50 128 d s [] 0 sd 1 lw [] 0 sd 1 lw 585 1485 m 36 93 d s [] 0 sd 1 lw [] 0 sd 1 lw 547 1144 m 213 Y s [] 0 sd 1 lw
 [] 0 sd 1 lw 547 1144 m 83 -174 d s [] 0 sd 1 lw [] 0 sd 1 lw 547 1357 m 83 216 d s [] 0 sd 1 lw [] 0 sd 1 lw 621 961 m
 156 -107 d s [] 0 sd 1 lw [] 0 sd 1 lw 621 1578 m 156 186 d s [] 0 sd 1 lw [] 0 sd 1 lw 630 970 m 153 -103 d s [] 0 sd
 1 lw [] 0 sd 1 lw 630 1573 m 153 181 d s [] 0 sd 1 lw [] 0 sd 1 lw 777 854 m 200 -16 d s [] 0 sd 1 lw [] 0 sd 1 lw 777
 1764 m 200 118 d s [] 0 sd 1 lw [] 0 sd 1 lw 768 877 m 193 -16 d s [] 0 sd 1 lw [] 0 sd 1 lw 783 867 m 195 -17 d s
 [] 0 sd 1 lw [] 0 sd 1 lw 783 1754 m 195 116 d s [] 0 sd 1 lw [] 0 sd 1 lw 977 838 m 30 11 d s [] 0 sd 1 lw [] 0 sd 1
 lw 977 1882 m 52 8 d s [] 0 sd 1 lw [] 0 sd 1 lw 961 861 m 17 -11 d s [] 0 sd 1 lw [] 0 sd 1 lw 961 861 m 17 6 d s
 [] 0 sd 1 lw [] 0 sd 1 lw 978 850 m 17 7 d s [] 0 sd 1 lw [] 0 sd 1 lw 978 1870 m 51 7 d s [] 0 sd 1 lw [] 0 sd 1 lw
 1029 1877 m 13 Y s 0 0 1 c [] 0 sd 1 lw [] 0 sd 1 lw 508 1143 m 17 -10 d s [] 0 sd 1 lw [] 0 sd 1 lw 508 1143 m 223 Y s
 [] 0 sd 1 lw [] 0 sd 1 lw 508 1143 m 87 -181 d s [] 0 sd 1 lw [] 0 sd 1 lw 525 1133 m 223 Y s [] 0 sd 1 lw [] 0 sd 1 lw
 525 1133 m 87 -181 d s [] 0 sd 1 lw [] 0 sd 1 lw 508 1366 m 17 -10 d s [] 0 sd 1 lw [] 0 sd 1 lw 508 1366 m 87 226 d s
 [] 0 sd 1 lw [] 0 sd 1 lw 525 1356 m 87 226 d s [] 0 sd 1 lw [] 0 sd 1 lw 535 1138 m 219 Y s [] 0 sd 1 lw [] 0 sd 1 lw
 535 1138 m 86 -177 d s [] 0 sd 1 lw [] 0 sd 1 lw 535 1357 m 50 128 d s [] 0 sd 1 lw [] 0 sd 1 lw 585 1485 m 36 93 d s
 [] 0 sd 1 lw [] 0 sd 1 lw 595 962 m 17 -10 d s [] 0 sd 1 lw [] 0 sd 1 lw 595 962 m 160 -109 d s [] 0 sd 1 lw [] 0 sd 1
 lw 612 952 m 159 -109 d s [] 0 sd 1 lw [] 0 sd 1 lw 595 1592 m 17 -10 d s [] 0 sd 1 lw [] 0 sd 1 lw 595 1592 m 160 190
 d s [] 0 sd 1 lw [] 0 sd 1 lw 612 1582 m 159 190 d s [] 0 sd 1 lw [] 0 sd 1 lw 621 961 m 156 -107 d s [] 0 sd 1 lw
 [] 0 sd 1 lw 621 1578 m 156 186 d s [] 0 sd 1 lw [] 0 sd 1 lw 755 853 m 16 -10 d s [] 0 sd 1 lw [] 0 sd 1 lw 771 843 m
 205 -17 d s [] 0 sd 1 lw [] 0 sd 1 lw 755 1782 m 16 -10 d s [] 0 sd 1 lw [] 0 sd 1 lw 755 1782 m 204 121 d s [] 0 sd 1
 lw [] 0 sd 1 lw 771 1772 m 205 121 d s [] 0 sd 1 lw [] 0 sd 1 lw 777 854 m 200 -16 d s [] 0 sd 1 lw [] 0 sd 1 lw 777
 1764 m 200 118 d s [] 0 sd 1 lw [] 0 sd 1 lw 976 826 m 43 16 d s [] 0 sd 1 lw [] 0 sd 1 lw 959 1903 m 17 -10 d s
 [] 0 sd 1 lw [] 0 sd 1 lw 959 1903 m 54 8 d s [] 0 sd 1 lw [] 0 sd 1 lw 976 1893 m 53 8 d s [] 0 sd 1 lw [] 0 sd 1 lw
 977 838 m 30 11 d s [] 0 sd 1 lw [] 0 sd 1 lw 977 1882 m 52 8 d s [] 0 sd 1 lw [] 0 sd 1 lw 1029 1890 m 11 Y s [] 0 sd
 1 lw [] 0 sd 1 lw 1013 1911 m 16 -10 d s 0 1 0 c [] 0 sd 1 lw [] 0 sd 1 lw 429 1141 m 244 Y s [] 0 sd 1 lw [] 0 sd 1 lw
 429 1141 m 95 -199 d s [] 0 sd 1 lw [] 0 sd 1 lw 429 1385 m 52 135 d s [] 0 sd 1 lw [] 0 sd 1 lw 486 1532 m 38 100 d s
 [] 0 sd 1 lw [] 0 sd 1 lw 440 1146 m 239 Y s [] 0 sd 1 lw [] 0 sd 1 lw 440 1146 m 77 -159 d s [] 0 sd 1 lw [] 0 sd 1 lw
 529 961 m 5 -9 d s [] 0 sd 1 lw [] 0 sd 1 lw 440 1385 m 51 133 d s [] 0 sd 1 lw [] 0 sd 1 lw 504 1550 m 30 77 d s
 [] 0 sd 1 lw [] 0 sd 1 lw 524 942 m 175 -119 d s [] 0 sd 1 lw [] 0 sd 1 lw 524 1632 m 175 207 d s [] 0 sd 1 lw [] 0 sd
 1 lw 534 952 m 171 -116 d s [] 0 sd 1 lw [] 0 sd 1 lw 534 1627 m 171 203 d s [] 0 sd 1 lw [] 0 sd 1 lw 699 823 m 223
 -18 d s [] 0 sd 1 lw [] 0 sd 1 lw 699 1839 m 223 133 d s [] 0 sd 1 lw [] 0 sd 1 lw 690 846 m 217 -18 d s [] 0 sd 1 lw
 [] 0 sd 1 lw 705 836 m 218 -19 d s [] 0 sd 1 lw [] 0 sd 1 lw 705 1830 m 218 130 d s [] 0 sd 1 lw [] 0 sd 1 lw 922 805 m
 59 21 d s [] 0 sd 1 lw [] 0 sd 1 lw 922 1972 m 59 8 d s [] 0 sd 1 lw [] 0 sd 1 lw 907 828 m 16 -11 d s [] 0 sd 1 lw
 [] 0 sd 1 lw 907 828 m 9 3 d s [] 0 sd 1 lw [] 0 sd 1 lw 923 817 m 30 11 d s [] 0 sd 1 lw [] 0 sd 1 lw 923 1960 m 13 2
 d s [] 0 sd 1 lw [] 0 sd 1 lw 966 1966 m 15 2 d s [] 0 sd 1 lw [] 0 sd 1 lw 981 826 m 2 Y s [] 0 sd 1 lw [] 0 sd 1 lw
 981 1968 m 12 Y s 0 0 1 c [] 0 sd 1 lw [] 0 sd 1 lw 401 1146 m 17 -11 d s [] 0 sd 1 lw [] 0 sd 1 lw 401 1146 m 248 Y s
 [] 0 sd 1 lw [] 0 sd 1 lw 401 1146 m 98 -203 d s [] 0 sd 1 lw [] 0 sd 1 lw 418 1135 m 249 Y s [] 0 sd 1 lw [] 0 sd 1 lw
 418 1135 m 97 -202 d s [] 0 sd 1 lw [] 0 sd 1 lw 401 1394 m 17 -10 d s [] 0 sd 1 lw [] 0 sd 1 lw 401 1394 m 98 252 d s
 [] 0 sd 1 lw [] 0 sd 1 lw 418 1384 m 97 252 d s [] 0 sd 1 lw [] 0 sd 1 lw 429 1141 m 244 Y s [] 0 sd 1 lw [] 0 sd 1 lw
 429 1141 m 95 -199 d s [] 0 sd 1 lw [] 0 sd 1 lw 429 1385 m 52 135 d s [] 0 sd 1 lw [] 0 sd 1 lw 486 1532 m 38 100 d s
 [] 0 sd 1 lw [] 0 sd 1 lw 499 943 m 16 -10 d s [] 0 sd 1 lw [] 0 sd 1 lw 499 943 m 177 -121 d s [] 0 sd 1 lw [] 0 sd 1
 lw 515 933 m 178 -121 d s [] 0 sd 1 lw [] 0 sd 1 lw 499 1646 m 16 -10 d s [] 0 sd 1 lw [] 0 sd 1 lw 499 1646 m 177 212
 d s [] 0 sd 1 lw [] 0 sd 1 lw 515 1636 m 178 212 d s [] 0 sd 1 lw [] 0 sd 1 lw 524 942 m 175 -119 d s [] 0 sd 1 lw
 [] 0 sd 1 lw 524 1632 m 175 207 d s [] 0 sd 1 lw [] 0 sd 1 lw 676 822 m 17 -10 d s [] 0 sd 1 lw [] 0 sd 1 lw 693 812 m
 228 -19 d s [] 0 sd 1 lw [] 0 sd 1 lw 676 1858 m 17 -10 d s [] 0 sd 1 lw [] 0 sd 1 lw 676 1858 m 228 135 d s [] 0 sd 1
 lw [] 0 sd 1 lw 693 1848 m 228 135 d s [] 0 sd 1 lw [] 0 sd 1 lw 699 823 m 223 -18 d s [] 0 sd 1 lw [] 0 sd 1 lw 699
 1839 m 223 133 d s [] 0 sd 1 lw [] 0 sd 1 lw 921 793 m 60 22 d s [] 0 sd 1 lw [] 0 sd 1 lw 904 1993 m 17 -10 d s
 [] 0 sd 1 lw [] 0 sd 1 lw 904 1993 m 60 9 d s [] 0 sd 1 lw [] 0 sd 1 lw 921 1983 m 60 9 d s [] 0 sd 1 lw [] 0 sd 1 lw
 922 805 m 59 21 d s [] 0 sd 1 lw [] 0 sd 1 lw 922 1972 m 59 8 d s [] 0 sd 1 lw [] 0 sd 1 lw 981 815 m 11 Y s [] 0 sd 1
 lw [] 0 sd 1 lw 981 1980 m 12 Y s [] 0 sd 1 lw [] 0 sd 1 lw 964 2002 m 17 -10 d s 0 1 0 c [] 0 sd 1 lw [] 0 sd 1 lw
 1307 599 m 243 Y s [] 0 sd 1 lw [] 0 sd 1 lw 1307 599 m 96 -199 d s [] 0 sd 1 lw [] 0 sd 1 lw 1307 842 m 96 248 d s
 [] 0 sd 1 lw [] 0 sd 1 lw 1319 604 m 239 Y s [] 0 sd 1 lw [] 0 sd 1 lw 1319 604 m 93 -194 d s [] 0 sd 1 lw [] 0 sd 1 lw
 1319 843 m 93 242 d s [] 0 sd 1 lw [] 0 sd 1 lw 1403 400 m 60 -41 d s [] 0 sd 1 lw [] 0 sd 1 lw 1403 1090 m 174 207 d s
 [] 0 sd 1 lw [] 0 sd 1 lw 1412 410 m 40 -27 d s [] 0 sd 1 lw [] 0 sd 1 lw 1412 1085 m 171 203 d s [] 0 sd 1 lw [] 0 sd
 1 lw 1577 1297 m 224 133 d s [] 0 sd 1 lw [] 0 sd 1 lw 1583 1288 m 219 130 d s [] 0 sd 1 lw [] 0 sd 1 lw 1801 1430 m 59
 8 d s [] 0 sd 1 lw [] 0 sd 1 lw 1802 1418 m 58 8 d s [] 0 sd 1 lw [] 0 sd 1 lw 1860 1426 m 12 Y s 0 0 1 c [] 0 sd 1 lw
 [] 0 sd 1 lw 1280 604 m 16 -11 d s [] 0 sd 1 lw [] 0 sd 1 lw 1280 604 m 248 Y s [] 0 sd 1 lw [] 0 sd 1 lw 1280 604 m 97
 -203 d s [] 0 sd 1 lw [] 0 sd 1 lw 1296 593 m 249 Y s [] 0 sd 1 lw [] 0 sd 1 lw 1296 593 m 98 -202 d s [] 0 sd 1 lw
 [] 0 sd 1 lw 1280 852 m 16 -10 d s [] 0 sd 1 lw [] 0 sd 1 lw 1280 852 m 97 252 d s [] 0 sd 1 lw [] 0 sd 1 lw 1296 842 m
 98 252 d s [] 0 sd 1 lw [] 0 sd 1 lw 1307 599 m 243 Y s [] 0 sd 1 lw [] 0 sd 1 lw 1307 599 m 96 -199 d s [] 0 sd 1 lw
 [] 0 sd 1 lw 1307 842 m 96 248 d s [] 0 sd 1 lw [] 0 sd 1 lw 1377 401 m 17 -10 d s [] 0 sd 1 lw [] 0 sd 1 lw 1377 401 m
 98 -66 d s [] 0 sd 1 lw [] 0 sd 1 lw 1394 391 m 80 -54 d s [] 0 sd 1 lw [] 0 sd 1 lw 1377 1104 m 17 -10 d s [] 0 sd 1
 lw [] 0 sd 1 lw 1377 1104 m 178 212 d s [] 0 sd 1 lw [] 0 sd 1 lw 1394 1094 m 178 212 d s [] 0 sd 1 lw [] 0 sd 1 lw
 1403 400 m 60 -41 d s [] 0 sd 1 lw [] 0 sd 1 lw 1403 1090 m 174 207 d s [] 0 sd 1 lw [] 0 sd 1 lw 1555 1316 m 17 -10 d
 s [] 0 sd 1 lw [] 0 sd 1 lw 1555 1316 m 228 135 d s [] 0 sd 1 lw [] 0 sd 1 lw 1572 1306 m 227 135 d s [] 0 sd 1 lw
 [] 0 sd 1 lw 1577 1297 m 224 133 d s [] 0 sd 1 lw [] 0 sd 1 lw 1783 1451 m 16 -10 d s [] 0 sd 1 lw [] 0 sd 1 lw 1783
 1451 m 60 9 d s [] 0 sd 1 lw [] 0 sd 1 lw 1799 1441 m 61 9 d s [] 0 sd 1 lw [] 0 sd 1 lw 1801 1430 m 59 8 d s [] 0 sd 1
 lw [] 0 sd 1 lw 1860 1438 m 12 Y s [] 0 sd 1 lw [] 0 sd 1 lw 1843 1460 m 17 -10 d s 0 1 0 c [] 0 sd 1 lw [] 0 sd 1 lw
 1319 652 m 83 -173 d s [] 0 sd 1 lw [] 0 sd 1 lw 1328 662 m 206 Y s [] 0 sd 1 lw [] 0 sd 1 lw 1328 662 m 72 -150 d s
 [] 0 sd 1 lw [] 0 sd 1 lw 1575 1279 m 184 109 d s [] 0 sd 1 lw [] 0 sd 1 lw 1776 1402 m 22 4 d s [] 0 sd 1 lw [] 0 sd 1
 lw 1759 1388 m 40 6 d s 0 0 1 c [] 0 sd 1 lw [] 0 sd 1 lw 1289 877 m 7 Y s [] 0 sd 1 lw [] 0 sd 1 lw 1319 624 m 74 -154
 d s [] 0 sd 1 lw [] 0 sd 1 lw 1289 884 m 3 -1 d s [] 0 sd 1 lw [] 0 sd 1 lw 1289 884 m 88 226 d s [] 0 sd 1 lw [] 0 sd
 1 lw 1319 652 m 83 -173 d s [] 0 sd 1 lw [] 0 sd 1 lw 1379 478 m 14 -8 d s [] 0 sd 1 lw [] 0 sd 1 lw 1380 478 m 12 -8 d
 s [] 0 sd 1 lw [] 0 sd 1 lw 1377 1110 m 3 -2 d s [] 0 sd 1 lw [] 0 sd 1 lw 1377 1110 m 159 190 d s [] 0 sd 1 lw [] 0 sd
 1 lw 1536 1300 m 4 -2 d s [] 0 sd 1 lw [] 0 sd 1 lw 1536 1300 m 11 7 d s [] 0 sd 1 lw [] 0 sd 1 lw 1776 1402 m 22 4 d s
 0 1 0 c [] 0 sd 1 lw [] 0 sd 1 lw 1405 542 m 2 -2 d s [] 0 sd 1 lw [] 0 sd 1 lw 1405 542 m 11 Y s [] 0 sd 1 lw [] 0 sd
 1 lw 1405 744 m 40 Y s [] 0 sd 1 lw [] 0 sd 1 lw 1405 542 m 2 -5 d s [] 0 sd 1 lw [] 0 sd 1 lw 1405 784 m 3 -2 d s
 [] 0 sd 1 lw [] 0 sd 1 lw 1405 784 m 4 11 d s [] 0 sd 1 lw [] 0 sd 1 lw 1427 841 m 15 38 d s [] 0 sd 1 lw [] 0 sd 1 lw
 1474 963 m 26 67 d s [] 0 sd 1 lw [] 0 sd 1 lw 1500 1030 m 9 -6 d s [] 0 sd 1 lw [] 0 sd 1 lw 1500 1030 m 40 47 d s
 [] 0 sd 1 lw [] 0 sd 1 lw 1587 1134 m 32 37 d s [] 0 sd 1 lw [] 0 sd 1 lw 1654 1213 m 20 23 d s [] 0 sd 1 lw [] 0 sd 1
 lw 1674 1236 m 6 -4 d s [] 0 sd 1 lw [] 0 sd 1 lw 1674 1236 m 60 36 d s [] 0 sd 1 lw [] 0 sd 1 lw 1860 1347 m 36 21 d s
 [] 0 sd 1 lw [] 0 sd 1 lw 1896 1368 m 3 -2 d s [] 0 sd 1 lw [] 0 sd 1 lw 1896 1368 m 2 X s [] 0 sd 1 lw [] 0 sd 1 lw
 406 1406 m 37 Y s [] 0 sd 1 lw [] 0 sd 1 lw 440 1157 m 50 -102 d s [] 0 sd 1 lw [] 0 sd 1 lw 440 1188 m 70 -146 d s
 [] 0 sd 1 lw [] 0 sd 1 lw 406 1443 m 11 -7 d s [] 0 sd 1 lw [] 0 sd 1 lw 406 1443 m 84 217 d s [] 0 sd 1 lw [] 0 sd 1
 lw 440 1201 m 75 -155 d s [] 0 sd 1 lw [] 0 sd 1 lw 490 1055 m 20 -13 d s [] 0 sd 1 lw [] 0 sd 1 lw 490 1055 m 41 -29 d
 s [] 0 sd 1 lw [] 0 sd 1 lw 569 1001 m 11 -8 d s [] 0 sd 1 lw [] 0 sd 1 lw 510 1042 m 22 -15 d s [] 0 sd 1 lw [] 0 sd 1
 lw 570 1001 m 9 -6 d s [] 0 sd 1 lw [] 0 sd 1 lw 490 1660 m 13 -9 d s [] 0 sd 1 lw [] 0 sd 1 lw 490 1660 m 153 182 d s
 [] 0 sd 1 lw [] 0 sd 1 lw 515 1046 m 22 -15 d s [] 0 sd 1 lw [] 0 sd 1 lw 574 1006 m -1 Y s [] 0 sd 1 lw [] 0 sd 1 lw
 681 936 m 178 -15 d s [] 0 sd 1 lw [] 0 sd 1 lw 643 1842 m 13 -8 d s [] 0 sd 1 lw [] 0 sd 1 lw 643 1842 m 196 116 d s
 [] 0 sd 1 lw [] 0 sd 1 lw 671 943 m 189 -16 d s [] 0 sd 1 lw [] 0 sd 1 lw 859 921 m 20 7 d s [] 0 sd 1 lw [] 0 sd 1 lw
 839 1958 m 3 -2 d s [] 0 sd 1 lw [] 0 sd 1 lw 839 1958 m 8 1 d s [] 0 sd 1 lw [] 0 sd 1 lw 911 1952 m 1 Y s [] 0 sd 1
 lw [] 0 sd 1 lw 839 940 m 21 -13 d s [] 0 sd 1 lw [] 0 sd 1 lw 860 927 m 13 5 d s [] 0 sd 1 lw [] 0 sd 1 lw 899 1945 m
 12 2 d s [] 0 sd 1 lw [] 0 sd 1 lw 911 1947 m 6 Y s [] 0 sd 1 lw [] 0 sd 1 lw 911 1953 m s [] 0 sd 1 lw [] 0 sd 1 lw
 300 1224 m 21 -13 d s [] 0 sd 1 lw [] 0 sd 1 lw 300 1224 m 42 Y s [] 0 sd 1 lw [] 0 sd 1 lw 300 1300 m 11 Y s [] 0 sd 1
 lw [] 0 sd 1 lw 300 1224 m 2 -5 d s [] 0 sd 1 lw [] 0 sd 1 lw 321 1211 m 42 Y s [] 0 sd 1 lw [] 0 sd 1 lw 321 1298 m
 155 Y s [] 0 sd 1 lw [] 0 sd 1 lw 321 1211 m 94 -198 d s [] 0 sd 1 lw [] 0 sd 1 lw 300 1466 m 21 -13 d s [] 0 sd 1 lw
 [] 0 sd 1 lw 316 1508 m 1 3 d s [] 0 sd 1 lw [] 0 sd 1 lw 322 1523 m 18 48 d s [] 0 sd 1 lw [] 0 sd 1 lw 356 1611 m 2 6
 d s [] 0 sd 1 lw [] 0 sd 1 lw 321 1453 m 16 42 d s [] 0 sd 1 lw [] 0 sd 1 lw 343 1510 m 18 48 d s [] 0 sd 1 lw [] 0 sd
 1 lw 379 1605 m 36 94 d s [] 0 sd 1 lw [] 0 sd 1 lw 326 1213 m 37 Y s [] 0 sd 1 lw [] 0 sd 1 lw 326 1361 m 92 Y s
 [] 0 sd 1 lw [] 0 sd 1 lw 326 1213 m 2 -4 d s [] 0 sd 1 lw [] 0 sd 1 lw 380 1100 m 40 -82 d s [] 0 sd 1 lw [] 0 sd 1 lw
 326 1453 m 9 26 d s [] 0 sd 1 lw [] 0 sd 1 lw 348 1510 m 17 46 d s [] 0 sd 1 lw [] 0 sd 1 lw 395 1632 m 25 65 d s
 [] 0 sd 1 lw [] 0 sd 1 lw 395 1026 m 20 -13 d s [] 0 sd 1 lw [] 0 sd 1 lw 406 1019 m 37 -26 d s [] 0 sd 1 lw [] 0 sd 1
 lw 415 1013 m 48 -32 d s [] 0 sd 1 lw [] 0 sd 1 lw 395 1712 m 20 -13 d s [] 0 sd 1 lw [] 0 sd 1 lw 451 1779 m 4 4 d s
 [] 0 sd 1 lw [] 0 sd 1 lw 479 1812 m 35 42 d s [] 0 sd 1 lw [] 0 sd 1 lw 527 1870 m 3 3 d s [] 0 sd 1 lw [] 0 sd 1 lw
 415 1699 m 57 67 d s [] 0 sd 1 lw [] 0 sd 1 lw 499 1799 m 35 42 d s [] 0 sd 1 lw [] 0 sd 1 lw 551 1860 m 38 46 d s
 [] 0 sd 1 lw [] 0 sd 1 lw 420 1018 m 3 -2 d s [] 0 sd 1 lw [] 0 sd 1 lw 451 997 m 16 -11 d s [] 0 sd 1 lw [] 0 sd 1 lw
 420 1697 m 39 46 d s [] 0 sd 1 lw [] 0 sd 1 lw 503 1797 m 34 40 d s [] 0 sd 1 lw [] 0 sd 1 lw 567 1872 m 25 29 d s
 [] 0 sd 1 lw [] 0 sd 1 lw 620 893 m 10 -1 d s [] 0 sd 1 lw [] 0 sd 1 lw 684 888 m 20 -2 d s [] 0 sd 1 lw [] 0 sd 1 lw
 804 878 m 7 -1 d s [] 0 sd 1 lw [] 0 sd 1 lw 569 1918 m 20 -12 d s [] 0 sd 1 lw [] 0 sd 1 lw 686 1988 m 7 5 d s [] 0 sd
 1 lw [] 0 sd 1 lw 733 2016 m 43 25 d s [] 0 sd 1 lw [] 0 sd 1 lw 589 1906 m 118 69 d s [] 0 sd 1 lw [] 0 sd 1 lw 754
 2003 m 57 34 d s [] 0 sd 1 lw [] 0 sd 1 lw 611 899 m 5 X s [] 0 sd 1 lw [] 0 sd 1 lw 685 893 m 13 -1 d s [] 0 sd 1 lw
 [] 0 sd 1 lw 592 1901 m 76 46 d s [] 0 sd 1 lw [] 0 sd 1 lw 759 2001 m 38 22 d s [] 0 sd 1 lw [] 0 sd 1 lw 807 2029 m 4
 3 d s [] 0 sd 1 lw [] 0 sd 1 lw 811 877 m 8 3 d s [] 0 sd 1 lw [] 0 sd 1 lw 790 2050 m 21 -13 d s [] 0 sd 1 lw [] 0 sd
 1 lw 811 2037 m 59 9 d s [] 0 sd 1 lw [] 0 sd 1 lw 811 2032 m 59 8 d s [] 0 sd 1 lw [] 0 sd 1 lw 870 2040 m 6 Y s
 [] 0 sd 1 lw [] 0 sd 1 lw 849 2058 m 21 -12 d s 1 0 0 c [] 0 sd 1 lw [] 0 sd 1 lw 1824 212 m 14 50 d s [] 0 sd 1 lw
 [] 0 sd 1 lw 1870 117 m 1 Y s [] 0 sd 1 lw [] 0 sd 1 lw 1870 117 m 177 29 d s [] 0 sd 1 lw [] 0 sd 1 lw 1866 137 m -28
 125 d s [] 0 sd 1 lw [] 0 sd 1 lw 1870 118 m 177 29 d s [] 0 sd 1 lw [] 0 sd 1 lw 1838 262 m 147 24 d s [] 0 sd 1 lw
 [] 0 sd 1 lw 2047 146 m 1 Y s [] 0 sd 1 lw [] 0 sd 1 lw 2047 147 m -62 139 d s [] 0 sd 1 lw [] 0 sd 1 lw 1818 234 m 10
 34 d s [] 0 sd 1 lw [] 0 sd 1 lw 1823 214 m 14 49 d s [] 0 sd 1 lw [] 0 sd 1 lw 1828 268 m 9 -5 d s [] 0 sd 1 lw
 [] 0 sd 1 lw 1828 268 m 147 24 d s [] 0 sd 1 lw [] 0 sd 1 lw 1837 263 m 147 24 d s [] 0 sd 1 lw [] 0 sd 1 lw 1984 286 m
 1 Y s [] 0 sd 1 lw [] 0 sd 1 lw 1975 292 m 9 -5 d s [] 0 sd 1 lw [] 0 sd 1 lw 1818 236 m 9 33 d s [] 0 sd 1 lw [] 0 sd
 1 lw 1827 269 m 147 24 d s [] 0 sd 1 lw [] 0 sd 1 lw 1974 292 m 1 Y s [] 0 sd 1 lw [] 0 sd 1 lw 1818 236 m 9 33 d s
 [] 0 sd 1 lw [] 0 sd 1 lw 1808 281 m 19 -12 d s [] 0 sd 1 lw [] 0 sd 1 lw 1827 269 m 147 24 d s [] 0 sd 1 lw [] 0 sd 1
 lw 1974 292 m 1 Y s [] 0 sd 1 lw [] 0 sd 1 lw 1947 310 m 27 -17 d s [] 0 sd 1 lw [] 0 sd 1 lw 1588 305 m 37 44 d s
 [] 0 sd 1 lw [] 0 sd 1 lw 1613 221 m 1 1 d s [] 0 sd 1 lw [] 0 sd 1 lw 1613 221 m 209 -98 d s [] 0 sd 1 lw [] 0 sd 1 lw
 1615 236 m 10 113 d s [] 0 sd 1 lw [] 0 sd 1 lw 1614 222 m 208 -98 d s [] 0 sd 1 lw [] 0 sd 1 lw 1625 349 m 173 -82 d s
 [] 0 sd 1 lw [] 0 sd 1 lw 1822 123 m 1 Y s [] 0 sd 1 lw [] 0 sd 1 lw 1820 140 m -22 127 d s [] 0 sd 1 lw [] 0 sd 1 lw
 1590 326 m 25 29 d s [] 0 sd 1 lw [] 0 sd 1 lw 1588 306 m 36 44 d s [] 0 sd 1 lw [] 0 sd 1 lw 1615 355 m 9 -5 d s
 [] 0 sd 1 lw [] 0 sd 1 lw 1615 355 m 173 -82 d s [] 0 sd 1 lw [] 0 sd 1 lw 1624 350 m 1 -1 d s [] 0 sd 1 lw [] 0 sd 1
 lw 1797 268 m s [] 0 sd 1 lw [] 0 sd 1 lw 1788 273 m 9 -5 d s [] 0 sd 1 lw [] 0 sd 1 lw 1591 328 m 23 28 d s [] 0 sd 1
 lw [] 0 sd 1 lw 1614 356 m 173 -82 d s [] 0 sd 1 lw [] 0 sd 1 lw 1787 274 m s [] 0 sd 1 lw [] 0 sd 1 lw 1591 328 m 23
 28 d s [] 0 sd 1 lw [] 0 sd 1 lw 1596 367 m 18 -11 d s [] 0 sd 1 lw [] 0 sd 1 lw 1614 356 m 173 -82 d s [] 0 sd 1 lw
 [] 0 sd 1 lw 1787 274 m s [] 0 sd 1 lw [] 0 sd 1 lw 1767 286 m 20 -12 d s [] 0 sd 1 lw [] 0 sd 1 lw 1473 536 m 35 16 d
 s [] 0 sd 1 lw [] 0 sd 1 lw 1472 466 m 1 1 d s [] 0 sd 1 lw [] 0 sd 1 lw 1472 466 m 108 -212 d s [] 0 sd 1 lw [] 0 sd 1
 lw 1474 469 m 34 83 d s [] 0 sd 1 lw [] 0 sd 1 lw 1473 467 m 108 -212 d s [] 0 sd 1 lw [] 0 sd 1 lw 1508 552 m 89 -176
 d s [] 0 sd 1 lw [] 0 sd 1 lw 1580 254 m 1 1 d s [] 0 sd 1 lw [] 0 sd 1 lw 1581 259 m 16 117 d s [] 0 sd 1 lw [] 0 sd 1
 lw 1400 511 m 7 -4 d s [] 0 sd 1 lw [] 0 sd 1 lw 1400 511 m 7 4 d s [] 0 sd 1 lw [] 0 sd 1 lw 1480 550 m 18 9 d s
 [] 0 sd 1 lw [] 0 sd 1 lw 1400 511 m 7 -14 d s [] 0 sd 1 lw [] 0 sd 1 lw 1474 537 m 33 16 d s [] 0 sd 1 lw [] 0 sd 1 lw
 1498 559 m 9 -6 d s [] 0 sd 1 lw [] 0 sd 1 lw 1507 553 m -1 Y s [] 0 sd 1 lw [] 0 sd 1 lw 1399 512 m 8 4 d s [] 0 sd 1
 lw [] 0 sd 1 lw 1480 551 m 17 8 d s [] 0 sd 1 lw [] 0 sd 1 lw 1399 512 m 8 -16 d s [] 0 sd 1 lw [] 0 sd 1 lw 1497 559 m
 1 X s [] 0 sd 1 lw [] 0 sd 1 lw 1497 559 m -1 Y s [] 0 sd 1 lw [] 0 sd 1 lw 1389 552 m 16 -10 d s [] 0 sd 1 lw [] 0 sd
 1 lw 1389 552 m 10 4 d s [] 0 sd 1 lw [] 0 sd 1 lw 1389 552 m 18 -36 d s [] 0 sd 1 lw [] 0 sd 1 lw 1480 551 m 17 8 d s
 [] 0 sd 1 lw [] 0 sd 1 lw 1487 565 m 10 -6 d s [] 0 sd 1 lw [] 0 sd 1 lw 1497 559 m -1 Y s [] 0 sd 1 lw [] 0 sd 1 lw
 1401 555 m 6 -4 d s [] 0 sd 1 lw [] 0 sd 1 lw 1401 555 m 6 76 d s [] 0 sd 1 lw [] 0 sd 1 lw 1419 775 m 4 50 d s [] 0 sd
 1 lw [] 0 sd 1 lw 1463 517 m 1 X s [] 0 sd 1 lw [] 0 sd 1 lw 1463 517 m 22 269 d s [] 0 sd 1 lw [] 0 sd 1 lw 1464 517 m
 23 269 d s [] 0 sd 1 lw [] 0 sd 1 lw 1472 534 m 28 60 d s [] 0 sd 1 lw [] 0 sd 1 lw 1423 825 m 12 -8 d s [] 0 sd 1 lw
 [] 0 sd 1 lw 1423 825 m 15 -1 d s [] 0 sd 1 lw [] 0 sd 1 lw 1508 819 m 11 -1 d s [] 0 sd 1 lw [] 0 sd 1 lw 1485 786 m 2
 X s [] 0 sd 1 lw [] 0 sd 1 lw 1501 800 m 18 18 d s [] 0 sd 1 lw [] 0 sd 1 lw 1500 594 m 19 224 d s [] 0 sd 1 lw [] 0 sd
 1 lw 1391 561 m 9 -5 d s [] 0 sd 1 lw [] 0 sd 1 lw 1391 561 m 22 270 d s [] 0 sd 1 lw [] 0 sd 1 lw 1400 556 m 7 86 d s
 [] 0 sd 1 lw [] 0 sd 1 lw 1418 772 m 4 53 d s [] 0 sd 1 lw [] 0 sd 1 lw 1400 556 m 1 X s [] 0 sd 1 lw [] 0 sd 1 lw 1413
 831 m 9 -6 d s [] 0 sd 1 lw [] 0 sd 1 lw 1413 831 m 27 -2 d s [] 0 sd 1 lw [] 0 sd 1 lw 1422 825 m 16 -1 d s [] 0 sd 1
 lw [] 0 sd 1 lw 1508 819 m 10 -1 d s [] 0 sd 1 lw [] 0 sd 1 lw 1518 818 m s [] 0 sd 1 lw [] 0 sd 1 lw 1510 823 m 8 -5 d
 s [] 0 sd 1 lw [] 0 sd 1 lw 1390 562 m 22 269 d s [] 0 sd 1 lw [] 0 sd 1 lw 1390 562 m 1 X s [] 0 sd 1 lw [] 0 sd 1 lw
 1412 831 m 28 -2 d s [] 0 sd 1 lw [] 0 sd 1 lw 1381 599 m 12 -7 d s [] 0 sd 1 lw [] 0 sd 1 lw 1381 599 m 21 255 d s
 [] 0 sd 1 lw [] 0 sd 1 lw 1402 854 m 38 -23 d s [] 0 sd 1 lw [] 0 sd 1 lw 1402 854 m 29 -2 d s [] 0 sd 1 lw [] 0 sd 1
 lw 1441 879 m 15 -9 d s [] 0 sd 1 lw [] 0 sd 1 lw 1441 879 m 57 99 d s [] 0 sd 1 lw [] 0 sd 1 lw 1535 1044 m 52 90 d s
 [] 0 sd 1 lw [] 0 sd 1 lw 1503 841 m 1 X s [] 0 sd 1 lw [] 0 sd 1 lw 1503 841 m 146 254 d s [] 0 sd 1 lw [] 0 sd 1 lw
 1522 854 m 11 9 d s [] 0 sd 1 lw [] 0 sd 1 lw 1504 841 m 146 254 d s [] 0 sd 1 lw [] 0 sd 1 lw 1533 863 m 122 211 d s
 [] 0 sd 1 lw [] 0 sd 1 lw 1587 1134 m 16 -10 d s [] 0 sd 1 lw [] 0 sd 1 lw 1649 1095 m 1 X s [] 0 sd 1 lw [] 0 sd 1 lw
 1653 1080 m 2 -6 d s [] 0 sd 1 lw [] 0 sd 1 lw 1431 886 m 9 -6 d s [] 0 sd 1 lw [] 0 sd 1 lw 1431 886 m 146 254 d s
 [] 0 sd 1 lw [] 0 sd 1 lw 1440 880 m 1 X s [] 0 sd 1 lw [] 0 sd 1 lw 1440 880 m 60 104 d s [] 0 sd 1 lw [] 0 sd 1 lw
 1532 1040 m 54 94 d s [] 0 sd 1 lw [] 0 sd 1 lw 1577 1140 m 9 -6 d s [] 0 sd 1 lw [] 0 sd 1 lw 1586 1134 m 1 X s
 [] 0 sd 1 lw [] 0 sd 1 lw 1430 886 m 1 X s [] 0 sd 1 lw [] 0 sd 1 lw 1430 886 m 146 254 d s [] 0 sd 1 lw [] 0 sd 1 lw
 1576 1140 m 1 X s [] 0 sd 1 lw [] 0 sd 1 lw 1418 906 m 17 -10 d s [] 0 sd 1 lw [] 0 sd 1 lw 1418 906 m 139 241 d s
 [] 0 sd 1 lw [] 0 sd 1 lw 1557 1147 m 17 -11 d s [] 0 sd 1 lw [] 0 sd 1 lw 1626 1178 m 15 -9 d s [] 0 sd 1 lw [] 0 sd 1
 lw 1626 1178 m 12 -12 d s [] 0 sd 1 lw [] 0 sd 1 lw 1683 1116 m 4 -5 d s [] 0 sd 1 lw [] 0 sd 1 lw 1626 1178 m 58 42 d
 s [] 0 sd 1 lw [] 0 sd 1 lw 1769 1284 m 88 65 d s [] 0 sd 1 lw [] 0 sd 1 lw 1689 1140 m -1 Y s [] 0 sd 1 lw [] 0 sd 1
 lw 1689 1140 m 231 171 d s [] 0 sd 1 lw [] 0 sd 1 lw 1688 1122 m -1 -11 d s [] 0 sd 1 lw [] 0 sd 1 lw 1689 1139 m 231
 170 d s [] 0 sd 1 lw [] 0 sd 1 lw 1687 1111 m 192 142 d s [] 0 sd 1 lw [] 0 sd 1 lw 1857 1349 m 11 -7 d s [] 0 sd 1 lw
 [] 0 sd 1 lw 1920 1311 m -2 Y s [] 0 sd 1 lw [] 0 sd 1 lw 1906 1290 m -7 -9 d s [] 0 sd 1 lw [] 0 sd 1 lw 1616 1184 m 9
 -5 d s [] 0 sd 1 lw [] 0 sd 1 lw 1616 1184 m 20 -21 d s [] 0 sd 1 lw [] 0 sd 1 lw 1616 1184 m 231 171 d s [] 0 sd 1 lw
 [] 0 sd 1 lw 1625 1179 m 12 -14 d s [] 0 sd 1 lw [] 0 sd 1 lw 1683 1116 m 4 -5 d s [] 0 sd 1 lw [] 0 sd 1 lw 1625 1179
 m 61 44 d s [] 0 sd 1 lw [] 0 sd 1 lw 1761 1279 m 96 70 d s [] 0 sd 1 lw [] 0 sd 1 lw 1682 1114 m 5 -3 d s [] 0 sd 1 lw
 [] 0 sd 1 lw 1687 1111 m 1 Y s [] 0 sd 1 lw [] 0 sd 1 lw 1847 1355 m 10 -6 d s [] 0 sd 1 lw [] 0 sd 1 lw 1857 1349 m s
 [] 0 sd 1 lw [] 0 sd 1 lw 1616 1185 m 19 -22 d s [] 0 sd 1 lw [] 0 sd 1 lw 1616 1185 m 231 171 d s [] 0 sd 1 lw [] 0 sd
 1 lw 1847 1356 m -1 Y s [] 0 sd 1 lw [] 0 sd 1 lw 1594 1189 m 41 -25 d s [] 0 sd 1 lw [] 0 sd 1 lw 1594 1189 m 21 -23 d
 s [] 0 sd 1 lw [] 0 sd 1 lw 1594 1189 m 219 161 d s [] 0 sd 1 lw [] 0 sd 1 lw 1635 1164 m -1 Y s [] 0 sd 1 lw [] 0 sd 1
 lw 1635 1164 m s [] 0 sd 1 lw [] 0 sd 1 lw 1813 1350 m 14 -9 d s [] 0 sd 1 lw [] 0 sd 1 lw 1908 1371 m 4 -2 d s [] 0 sd
 1 lw [] 0 sd 1 lw 1908 1371 m 1 -5 d s [] 0 sd 1 lw [] 0 sd 1 lw 1918 1297 m 3 -26 d s [] 0 sd 1 lw [] 0 sd 1 lw 1908
 1371 m 12 2 d s [] 0 sd 1 lw [] 0 sd 1 lw 1970 1333 m -2 Y s [] 0 sd 1 lw [] 0 sd 1 lw 1970 1333 m 77 12 d s [] 0 sd 1
 lw [] 0 sd 1 lw 1965 1325 m -44 -54 d s [] 0 sd 1 lw [] 0 sd 1 lw 1970 1331 m 77 13 d s [] 0 sd 1 lw [] 0 sd 1 lw 1921
 1271 m 64 11 d s [] 0 sd 1 lw [] 0 sd 1 lw 1985 1282 m 62 62 d s [] 0 sd 1 lw [] 0 sd 1 lw 2047 1344 m 1 Y s [] 0 sd 1
 lw [] 0 sd 1 lw 2046 1346 m 1 -1 d s [] 0 sd 1 lw [] 0 sd 1 lw 1898 1377 m 9 -5 d s [] 0 sd 1 lw [] 0 sd 1 lw 1898 1377
 m 2 -16 d s [] 0 sd 1 lw [] 0 sd 1 lw 1909 1292 m 2 -15 d s [] 0 sd 1 lw [] 0 sd 1 lw 1898 1377 m 40 7 d s [] 0 sd 1 lw
 [] 0 sd 1 lw 1907 1372 m 1 -6 d s [] 0 sd 1 lw [] 0 sd 1 lw 1917 1296 m 3 -24 d s [] 0 sd 1 lw [] 0 sd 1 lw 1907 1372 m
 15 2 d s [] 0 sd 1 lw [] 0 sd 1 lw 1911 1277 m 9 -5 d s [] 0 sd 1 lw [] 0 sd 1 lw 1920 1272 m 1 X s [] 0 sd 1 lw
 [] 0 sd 1 lw 1897 1378 m 2 -17 d s [] 0 sd 1 lw [] 0 sd 1 lw 1909 1291 m 1 -13 d s [] 0 sd 1 lw [] 0 sd 1 lw 1897 1378
 m 43 7 d s [] 0 sd 1 lw [] 0 sd 1 lw 1910 1278 m 1 -1 d s [] 0 sd 1 lw [] 0 sd 1 lw 1910 1278 m 1 X s [] 0 sd 1 lw
 [] 0 sd 1 lw 1861 1371 m 19 -12 d s [] 0 sd 1 lw [] 0 sd 1 lw 1861 1371 m 3 -22 d s [] 0 sd 1 lw [] 0 sd 1 lw 1861 1371
 m 36 6 d s [] 0 sd 1 lw [] 0 sd 1 lw 1909 1291 m 1 -13 d s [] 0 sd 1 lw [] 0 sd 1 lw 1901 1283 m 9 -5 d s [] 0 sd 1 lw
 [] 0 sd 1 lw 1910 1278 m 1 X s 0 0 1 c [] 0 sd 1 lw [] 0 sd 1 lw 1546 484 m 7 -5 d s [] 0 sd 1 lw [] 0 sd 1 lw 1553 479
 m 14 -18 d s [] 0 sd 1 lw [] 0 sd 1 lw 1553 479 m 35 31 d s [] 0 sd 1 lw [] 0 sd 1 lw 1557 467 m 10 -6 d s [] 0 sd 1 lw
 [] 0 sd 1 lw 1567 461 m 33 33 d s [] 0 sd 1 lw [] 0 sd 1 lw 1556 530 m 32 -20 d s [] 0 sd 1 lw [] 0 sd 1 lw 1588 510 m
 12 -16 d s [] 0 sd 1 lw [] 0 sd 1 lw 1388 439 m 17 -22 d s [] 0 sd 1 lw [] 0 sd 1 lw 1395 446 m 18 17 d s [] 0 sd 1 lw
 [] 0 sd 1 lw 1408 420 m 17 18 d s [] 0 sd 1 lw [] 0 sd 1 lw 1386 463 m 21 19 d s [] 0 sd 1 lw [] 0 sd 1 lw 1394 447 m
 19 16 d s [] 0 sd 1 lw [] 0 sd 1 lw 1386 464 m 21 19 d s [] 0 sd 1 lw [] 0 sd 1 lw 1399 523 m 7 -4 d s [] 0 sd 1 lw
 [] 0 sd 1 lw 1399 523 m 7 -8 d s [] 0 sd 1 lw [] 0 sd 1 lw 1399 523 m 3 3 d s [] 0 sd 1 lw [] 0 sd 1 lw 1396 521 m 2 3
 d s [] 0 sd 1 lw [] 0 sd 1 lw 1390 515 m 15 -21 d s [] 0 sd 1 lw [] 0 sd 1 lw 1398 524 m 7 -9 d s [] 0 sd 1 lw [] 0 sd
 1 lw 1398 524 m 4 3 d s [] 0 sd 1 lw [] 0 sd 1 lw 1388 538 m 6 5 d s [] 0 sd 1 lw [] 0 sd 1 lw 1396 521 m 6 6 d s
 [] 0 sd 1 lw [] 0 sd 1 lw 1557 905 m 9 -2 d s [] 0 sd 1 lw [] 0 sd 1 lw 1571 928 m 6 -2 d s [] 0 sd 1 lw [] 0 sd 1 lw
 1566 903 m 11 23 d s [] 0 sd 1 lw [] 0 sd 1 lw 1571 929 m 6 -3 d s [] 0 sd 1 lw [] 0 sd 1 lw 1358 979 m 14 32 d s
 [] 0 sd 1 lw [] 0 sd 1 lw 1370 976 m 78 -18 d s [] 0 sd 1 lw [] 0 sd 1 lw 1383 1008 m 80 -25 d s [] 0 sd 1 lw [] 0 sd 1
 lw 1384 1012 m 81 -25 d s [] 0 sd 1 lw [] 0 sd 1 lw 1383 1008 m 80 -25 d s [] 0 sd 1 lw [] 0 sd 1 lw 1384 1013 m 81 -25
 d s [] 0 sd 1 lw [] 0 sd 1 lw 1410 1005 m 1 1 d s [] 0 sd 1 lw [] 0 sd 1 lw 1417 1002 m 1 Y s [] 0 sd 1 lw [] 0 sd 1 lw
 1411 1006 m 6 -3 d s [] 0 sd 1 lw [] 0 sd 1 lw 1411 1006 m 55 -17 d s [] 0 sd 1 lw [] 0 sd 1 lw 1417 1003 m 48 -15 d s
 [] 0 sd 1 lw [] 0 sd 1 lw 1409 1005 m 1 2 d s [] 0 sd 1 lw [] 0 sd 1 lw 1388 1021 m 22 -14 d s [] 0 sd 1 lw [] 0 sd 1
 lw 1388 1021 m 39 -12 d s [] 0 sd 1 lw [] 0 sd 1 lw 1410 1007 m 56 -17 d s [] 0 sd 1 lw [] 0 sd 1 lw 1427 1009 m 40 -18
 d s [] 0 sd 1 lw [] 0 sd 1 lw 1388 1021 m 38 -11 d s [] 0 sd 1 lw [] 0 sd 1 lw 1426 1009 m 1 Y s [] 0 sd 1 lw [] 0 sd 1
 lw 1426 1010 m 1 -1 d s [] 0 sd 1 lw [] 0 sd 1 lw 1389 1026 m 2 -1 d s [] 0 sd 1 lw [] 0 sd 1 lw 1388 1021 m 38 -11 d s
 [] 0 sd 1 lw [] 0 sd 1 lw 1391 1025 m 35 -15 d s [] 0 sd 1 lw [] 0 sd 1 lw 1426 1009 m 1 Y s [] 0 sd 1 lw [] 0 sd 1 lw
 1891 1269 m 3 -2 d s [] 0 sd 1 lw [] 0 sd 1 lw 1894 1267 m 3 -41 d s [] 0 sd 1 lw [] 0 sd 1 lw 1894 1267 m 22 7 d s
 [] 0 sd 1 lw [] 0 sd 1 lw 1867 1244 m 30 -18 d s [] 0 sd 1 lw [] 0 sd 1 lw 1897 1226 m 23 7 d s [] 0 sd 1 lw [] 0 sd 1
 lw 1813 1419 m 6 -72 d s [] 0 sd 1 lw [] 0 sd 1 lw 1813 1423 m 31 10 d s [] 0 sd 1 lw [] 0 sd 1 lw 1844 1424 m 2 -69 d
 s [] 0 sd 1 lw [] 0 sd 1 lw 1798 1416 m 6 -72 d s [] 0 sd 1 lw [] 0 sd 1 lw 1813 1419 m 6 -72 d s [] 0 sd 1 lw [] 0 sd
 1 lw 1797 1415 m 6 -72 d s [] 0 sd 1 lw [] 0 sd 1 lw 1795 1366 m 7 -4 d s [] 0 sd 1 lw [] 0 sd 1 lw 1795 1366 m 3 -27 d
 s [] 0 sd 1 lw [] 0 sd 1 lw 1795 1366 m 6 2 d s [] 0 sd 1 lw [] 0 sd 1 lw 1802 1362 m 1 -19 d s [] 0 sd 1 lw [] 0 sd 1
 lw 1802 1362 m s [] 0 sd 1 lw [] 0 sd 1 lw 1770 1381 m 25 -14 d s [] 0 sd 1 lw [] 0 sd 1 lw 1770 1381 m 4 -48 d s
 [] 0 sd 1 lw [] 0 sd 1 lw 1770 1381 m 27 9 d s [] 0 sd 1 lw [] 0 sd 1 lw 1795 1367 m 2 -28 d s [] 0 sd 1 lw [] 0 sd 1
 lw 1795 1367 m 6 2 d s [] 0 sd 1 lw [] 0 sd 1 lw 1774 1333 m 5 -8 d s [] 0 sd 1 lw [] 0 sd 1 lw 1797 1390 m 2 -1 d s
 [] 0 sd 1 lw [] 0 sd 1 lw 1770 1389 m -7 Y s [] 0 sd 1 lw [] 0 sd 1 lw 1770 1393 m 27 8 d s [] 0 sd 1 lw [] 0 sd 1 lw
 1770 1382 m 4 -48 d s [] 0 sd 1 lw [] 0 sd 1 lw 1770 1382 m 27 8 d s [] 0 sd 1 lw [] 0 sd 1 lw 1774 1334 m -1 Y s
 [] 0 sd 1 lw [] 0 sd 1 lw 1774 1334 m s [] 0 sd 1 lw [] 0 sd 1 lw 1797 1393 m -3 Y s [] 0 sd 1 lw [] 0 sd 1 lw 1797
 1390 m s [] 0 sd 1 lw [] 0 sd 1 lw 1754 1385 m 2 -19 d s [] 0 sd 1 lw [] 0 sd 1 lw 1769 1389 m 5 -55 d s [] 0 sd 1 lw
 [] 0 sd 1 lw 1756 1366 m 18 -32 d s [] 0 sd 1 lw [] 0 sd 1 lw 1774 1334 m s [] 0 sd 1 lw [] 0 sd 1 lw 1797 1390 m s
 [] 0 sd 1 lw [] 0 sd 1 lw 577 1081 m 9 -5 d s [] 0 sd 1 lw [] 0 sd 1 lw 586 1076 m 1 -1 d s [] 0 sd 1 lw [] 0 sd 1 lw
 586 1076 m 35 31 d s [] 0 sd 1 lw [] 0 sd 1 lw 599 1121 m 22 -14 d s [] 0 sd 1 lw [] 0 sd 1 lw 621 1107 m 1 -1 d s
 [] 0 sd 1 lw [] 0 sd 1 lw 508 1005 m 46 42 d s [] 0 sd 1 lw [] 0 sd 1 lw 582 1072 m 39 35 d s [] 0 sd 1 lw [] 0 sd 1 lw
 621 1107 m 1 -1 d s [] 0 sd 1 lw [] 0 sd 1 lw 621 1107 m 1 -1 d s [] 0 sd 1 lw [] 0 sd 1 lw 508 1005 m 47 41 d s
 [] 0 sd 1 lw [] 0 sd 1 lw 582 1071 m 40 35 d s [] 0 sd 1 lw [] 0 sd 1 lw 509 981 m 17 -22 d s [] 0 sd 1 lw [] 0 sd 1 lw
 509 981 m 54 48 d s [] 0 sd 1 lw [] 0 sd 1 lw 590 1054 m 48 43 d s [] 0 sd 1 lw [] 0 sd 1 lw 526 959 m s [] 0 sd 1 lw
 [] 0 sd 1 lw 622 1106 m 16 -9 d s [] 0 sd 1 lw [] 0 sd 1 lw 638 1097 m -1 Y s [] 0 sd 1 lw [] 0 sd 1 lw 510 981 m 17
 -23 d s [] 0 sd 1 lw [] 0 sd 1 lw 510 981 m 53 48 d s [] 0 sd 1 lw [] 0 sd 1 lw 527 958 m 47 48 d s [] 0 sd 1 lw
 [] 0 sd 1 lw 590 1054 m 48 43 d s [] 0 sd 1 lw [] 0 sd 1 lw 638 1097 m 1 -1 d s [] 0 sd 1 lw [] 0 sd 1 lw 638 1097 m -1
 Y s [] 0 sd 1 lw [] 0 sd 1 lw 591 1053 m 48 43 d s [] 0 sd 1 lw [] 0 sd 1 lw 594 1047 m 51 45 d s [] 0 sd 1 lw [] 0 sd
 1 lw 639 1096 m 6 -4 d s [] 0 sd 1 lw [] 0 sd 1 lw 645 1092 m -1 Y s [] 0 sd 1 lw [] 0 sd 1 lw 594 1046 m 52 46 d s
 [] 0 sd 1 lw [] 0 sd 1 lw 606 1020 m 35 32 d s [] 0 sd 1 lw [] 0 sd 1 lw 641 1052 m 1 -1 d s [] 0 sd 1 lw [] 0 sd 1 lw
 641 1052 m 5 40 d s [] 0 sd 1 lw [] 0 sd 1 lw 655 1034 m 3 41 d s [] 0 sd 1 lw [] 0 sd 1 lw 646 1092 m 12 -17 d s
 [] 0 sd 1 lw [] 0 sd 1 lw 606 1020 m 35 32 d s [] 0 sd 1 lw [] 0 sd 1 lw 641 1052 m 1 -1 d s [] 0 sd 1 lw [] 0 sd 1 lw
 641 1052 m 1 -1 d s [] 0 sd 1 lw [] 0 sd 1 lw 642 1051 m 14 -18 d s [] 0 sd 1 lw [] 0 sd 1 lw 607 1019 m 35 32 d s
 [] 0 sd 1 lw [] 0 sd 1 lw 608 997 m 15 -20 d s [] 0 sd 1 lw [] 0 sd 1 lw 608 997 m 31 27 d s [] 0 sd 1 lw [] 0 sd 1 lw
 623 977 m 30 29 d s [] 0 sd 1 lw [] 0 sd 1 lw 639 1024 m 14 -18 d s [] 0 sd 1 lw [] 0 sd 1 lw 639 1024 m 3 27 d s
 [] 0 sd 1 lw [] 0 sd 1 lw 653 1006 m 3 27 d s [] 0 sd 1 lw [] 0 sd 1 lw 642 1051 m 14 -18 d s [] 0 sd 1 lw [] 0 sd 1 lw
 524 1564 m 49 -30 d s [] 0 sd 1 lw [] 0 sd 1 lw 506 1554 m 67 -20 d s [] 0 sd 1 lw [] 0 sd 1 lw 611 1522 m s [] 0 sd 1
 lw [] 0 sd 1 lw 480 1521 m 14 32 d s [] 0 sd 1 lw [] 0 sd 1 lw 480 1521 m 1 -1 d s [] 0 sd 1 lw [] 0 sd 1 lw 544 1506 m
 -1 Y s [] 0 sd 1 lw [] 0 sd 1 lw 506 1554 m 67 -20 d s [] 0 sd 1 lw [] 0 sd 1 lw 611 1522 m s [] 0 sd 1 lw [] 0 sd 1 lw
 494 1553 m 77 -24 d s [] 0 sd 1 lw [] 0 sd 1 lw 609 1517 m 18 -5 d s [] 0 sd 1 lw [] 0 sd 1 lw 626 1512 m 1 X s [] 0 sd
 1 lw [] 0 sd 1 lw 611 1522 m 16 -10 d s [] 0 sd 1 lw [] 0 sd 1 lw 480 1520 m 14 32 d s [] 0 sd 1 lw [] 0 sd 1 lw 480
 1520 m 64 -14 d s [] 0 sd 1 lw [] 0 sd 1 lw 494 1552 m 62 -18 d s [] 0 sd 1 lw [] 0 sd 1 lw 544 1506 m 12 28 d s
 [] 0 sd 1 lw [] 0 sd 1 lw 544 1506 m -1 Y s [] 0 sd 1 lw [] 0 sd 1 lw 556 1534 m 15 -5 d s [] 0 sd 1 lw [] 0 sd 1 lw
 609 1517 m 18 -5 d s [] 0 sd 1 lw [] 0 sd 1 lw 626 1512 m 1 X s [] 0 sd 1 lw [] 0 sd 1 lw 627 1512 m s [] 0 sd 1 lw
 [] 0 sd 1 lw 544 1505 m 7 -4 d s [] 0 sd 1 lw [] 0 sd 1 lw 544 1505 m 13 28 d s [] 0 sd 1 lw [] 0 sd 1 lw 551 1501 m 12
 28 d s [] 0 sd 1 lw [] 0 sd 1 lw 551 1501 m 1 X s [] 0 sd 1 lw [] 0 sd 1 lw 557 1533 m 6 -4 d s [] 0 sd 1 lw [] 0 sd 1
 lw 557 1533 m 14 -4 d s [] 0 sd 1 lw [] 0 sd 1 lw 609 1517 m 18 -5 d s [] 0 sd 1 lw [] 0 sd 1 lw 563 1529 m 7 -2 d s
 [] 0 sd 1 lw [] 0 sd 1 lw 608 1516 m 26 -8 d s [] 0 sd 1 lw [] 0 sd 1 lw 633 1507 m 1 1 d s [] 0 sd 1 lw [] 0 sd 1 lw
 627 1512 m 7 -4 d s [] 0 sd 1 lw [] 0 sd 1 lw 551 1501 m 7 -4 d s [] 0 sd 1 lw [] 0 sd 1 lw 551 1501 m 13 28 d s
 [] 0 sd 1 lw [] 0 sd 1 lw 564 1529 m 5 -4 d s [] 0 sd 1 lw [] 0 sd 1 lw 564 1529 m 6 -2 d s [] 0 sd 1 lw [] 0 sd 1 lw
 608 1515 m 26 -8 d s [] 0 sd 1 lw [] 0 sd 1 lw 606 1509 m 23 -8 d s [] 0 sd 1 lw [] 0 sd 1 lw 629 1501 m s [] 0 sd 1 lw
 [] 0 sd 1 lw 621 1479 m 3 5 d s [] 0 sd 1 lw [] 0 sd 1 lw 629 1501 m 5 6 d s [] 0 sd 1 lw [] 0 sd 1 lw 624 1484 m 10 23
 d s [] 0 sd 1 lw [] 0 sd 1 lw 606 1509 m 23 -8 d s [] 0 sd 1 lw [] 0 sd 1 lw 629 1501 m s [] 0 sd 1 lw [] 0 sd 1 lw 619
 1475 m 11 26 d s [] 0 sd 1 lw [] 0 sd 1 lw 629 1501 m 1 X s [] 0 sd 1 lw [] 0 sd 1 lw 582 1478 m 12 29 d s [] 0 sd 1 lw
 [] 0 sd 1 lw 582 1478 m 33 -8 d s [] 0 sd 1 lw [] 0 sd 1 lw 605 1508 m 25 -7 d s [] 0 sd 1 lw [] 0 sd 1 lw 594 1507 m
 32 -10 d s [] 0 sd 1 lw [] 0 sd 1 lw 615 1470 m 11 27 d s [] 0 sd 1 lw [] 0 sd 1 lw 615 1470 m 4 5 d s [] 0 sd 1 lw
 [] 0 sd 1 lw 626 1497 m 4 4 d s [] 0 sd 1 lw [] 0 sd 1 lw 619 1475 m 11 26 d s [] 0 sd 1 lw [] 0 sd 1 lw 881 1892 m 29
 -18 d s [] 0 sd 1 lw [] 0 sd 1 lw 929 1841 m 2 -19 d s [] 0 sd 1 lw [] 0 sd 1 lw 914 1832 m 17 -10 d s [] 0 sd 1 lw
 [] 0 sd 1 lw 931 1822 m s [] 0 sd 1 lw [] 0 sd 1 lw 903 1901 m 22 -13 d s [] 0 sd 1 lw [] 0 sd 1 lw 919 1958 m 7 -75 d
 s [] 0 sd 1 lw [] 0 sd 1 lw 929 1841 m 2 -19 d s [] 0 sd 1 lw [] 0 sd 1 lw 931 1822 m s [] 0 sd 1 lw [] 0 sd 1 lw 931
 1822 m s [] 0 sd 1 lw [] 0 sd 1 lw 920 1958 m 6 -74 d s [] 0 sd 1 lw [] 0 sd 1 lw 930 1841 m 1 -19 d s [] 0 sd 1 lw
 [] 0 sd 1 lw 935 1965 m 6 -73 d s [] 0 sd 1 lw [] 0 sd 1 lw 944 1850 m 3 -38 d s [] 0 sd 1 lw [] 0 sd 1 lw 935 1965 m
 30 10 d s [] 0 sd 1 lw [] 0 sd 1 lw 931 1822 m 16 -10 d s [] 0 sd 1 lw [] 0 sd 1 lw 947 1812 m 1 X s [] 0 sd 1 lw
 [] 0 sd 1 lw 965 1975 m -1 Y s [] 0 sd 1 lw [] 0 sd 1 lw 935 1965 m 5 -72 d s [] 0 sd 1 lw [] 0 sd 1 lw 935 1965 m 31 9
 d s [] 0 sd 1 lw [] 0 sd 1 lw 940 1893 m 1 -1 d s [] 0 sd 1 lw [] 0 sd 1 lw 944 1850 m 3 -38 d s [] 0 sd 1 lw [] 0 sd 1
 lw 940 1893 m 5 2 d s [] 0 sd 1 lw [] 0 sd 1 lw 947 1812 m 1 -1 d s [] 0 sd 1 lw [] 0 sd 1 lw 947 1812 m 1 X s [] 0 sd
 1 lw [] 0 sd 1 lw 966 1974 m 1 -70 d s [] 0 sd 1 lw [] 0 sd 1 lw 941 1893 m s [] 0 sd 1 lw [] 0 sd 1 lw 941 1893 m s
 [] 0 sd 1 lw [] 0 sd 1 lw 945 1850 m 3 -39 d s [] 0 sd 1 lw [] 0 sd 1 lw 941 1893 m 1 X s [] 0 sd 1 lw [] 0 sd 1 lw 950
 1854 m 4 -47 d s [] 0 sd 1 lw [] 0 sd 1 lw 948 1811 m 6 -4 d s [] 0 sd 1 lw [] 0 sd 1 lw 954 1807 m 1 1 d s [] 0 sd 1
 lw [] 0 sd 1 lw 951 1854 m 4 -47 d s [] 0 sd 1 lw [] 0 sd 1 lw 973 1867 m 3 -41 d s [] 0 sd 1 lw [] 0 sd 1 lw 976 1826
 m -21 -19 d s [] 0 sd 1 lw [] 0 sd 1 lw 976 1826 m 1 X s [] 0 sd 1 lw [] 0 sd 1 lw 955 1807 m 23 7 d s [] 0 sd 1 lw
 [] 0 sd 1 lw 999 1832 m -21 -18 d s [] 0 sd 1 lw [] 0 sd 1 lw 973 1867 m 3 -41 d s [] 0 sd 1 lw [] 0 sd 1 lw 976 1826 m
 1 -1 d s [] 0 sd 1 lw [] 0 sd 1 lw 976 1826 m 1 X s [] 0 sd 1 lw [] 0 sd 1 lw 977 1825 m 25 8 d s [] 0 sd 1 lw [] 0 sd
 1 lw 974 1867 m 3 -42 d s [] 0 sd 1 lw [] 0 sd 1 lw 988 1875 m 3 -37 d s [] 0 sd 1 lw [] 0 sd 1 lw 988 1875 m 28 9 d s
 [] 0 sd 1 lw [] 0 sd 1 lw 991 1838 m -14 -13 d s [] 0 sd 1 lw [] 0 sd 1 lw 991 1838 m 26 8 d s [] 0 sd 1 lw [] 0 sd 1
 lw 977 1825 m 25 8 d s [] 0 sd 1 lw [] 0 sd 1 lw 1016 1884 m 1 -38 d s [] 0 sd 1 lw [] 0 sd 1 lw 1017 1846 m -15 -13 d
 s 1 0 0 c [] 0 sd 1 lw [] 0 sd 1 lw 662 864 m 3 11 d s [] 0 sd 1 lw [] 0 sd 1 lw 663 864 m 3 11 d s [] 0 sd 1 lw
 [] 0 sd 1 lw 672 858 m 4 12 d s [] 0 sd 1 lw [] 0 sd 1 lw 673 857 m 3 13 d s [] 0 sd 1 lw [] 0 sd 1 lw 675 856 m 61 10
 d s [] 0 sd 1 lw [] 0 sd 1 lw 791 875 m 15 2 d s [] 0 sd 1 lw [] 0 sd 1 lw 817 879 m 33 5 d s [] 0 sd 1 lw [] 0 sd 1 lw
 850 884 m 1 Y s [] 0 sd 1 lw [] 0 sd 1 lw 685 887 m 38 -23 d s [] 0 sd 1 lw [] 0 sd 1 lw 723 864 m 2 9 d s [] 0 sd 1 lw
 [] 0 sd 1 lw 733 901 m 9 30 d s [] 0 sd 1 lw [] 0 sd 1 lw 723 864 m 13 2 d s [] 0 sd 1 lw [] 0 sd 1 lw 789 875 m 101 17
 d s [] 0 sd 1 lw [] 0 sd 1 lw 890 892 m 29 Y s [] 0 sd 1 lw [] 0 sd 1 lw 388 977 m 17 -10 d s [] 0 sd 1 lw [] 0 sd 1 lw
 405 967 m 19 23 d s [] 0 sd 1 lw [] 0 sd 1 lw 405 967 m -1 Y s [] 0 sd 1 lw [] 0 sd 1 lw 405 966 m 10 -5 d s [] 0 sd 1
 lw [] 0 sd 1 lw 405 966 m 21 25 d s [] 0 sd 1 lw [] 0 sd 1 lw 415 961 m 27 33 d s [] 0 sd 1 lw [] 0 sd 1 lw 415 961 m
 -1 Y s [] 0 sd 1 lw [] 0 sd 1 lw 415 960 m 23 29 d s [] 0 sd 1 lw [] 0 sd 1 lw 415 960 m 192 -91 d s [] 0 sd 1 lw
 [] 0 sd 1 lw 438 989 m 4 5 d s [] 0 sd 1 lw [] 0 sd 1 lw 438 989 m 1 -1 d s [] 0 sd 1 lw [] 0 sd 1 lw 632 885 m 2 5 d s
 [] 0 sd 1 lw [] 0 sd 1 lw 439 988 m 40 -25 d s [] 0 sd 1 lw [] 0 sd 1 lw 439 988 m 4 5 d s [] 0 sd 1 lw [] 0 sd 1 lw
 479 963 m 7 8 d s [] 0 sd 1 lw [] 0 sd 1 lw 479 963 m 13 -6 d s [] 0 sd 1 lw [] 0 sd 1 lw 526 1027 m 3 -2 d s [] 0 sd 1
 lw [] 0 sd 1 lw 677 870 m 11 29 d s [] 0 sd 1 lw [] 0 sd 1 lw 697 925 m 4 10 d s [] 0 sd 1 lw [] 0 sd 1 lw 253 1219 m
 11 -7 d s [] 0 sd 1 lw [] 0 sd 1 lw 264 1212 m 17 8 d s [] 0 sd 1 lw [] 0 sd 1 lw 264 1212 m 108 -213 d s [] 0 sd 1 lw
 [] 0 sd 1 lw 360 1007 m 12 -8 d s [] 0 sd 1 lw [] 0 sd 1 lw 372 999 m 1 Y s [] 0 sd 1 lw [] 0 sd 1 lw 265 1211 m 9 -5 d
 s [] 0 sd 1 lw [] 0 sd 1 lw 265 1211 m 18 9 d s [] 0 sd 1 lw [] 0 sd 1 lw 265 1211 m 107 -212 d s [] 0 sd 1 lw [] 0 sd
 1 lw 274 1206 m 28 13 d s [] 0 sd 1 lw [] 0 sd 1 lw 274 1206 m 108 -213 d s [] 0 sd 1 lw [] 0 sd 1 lw 372 999 m 10 -6 d
 s [] 0 sd 1 lw [] 0 sd 1 lw 382 993 m s [] 0 sd 1 lw [] 0 sd 1 lw 275 1205 m 27 14 d s [] 0 sd 1 lw [] 0 sd 1 lw 275
 1205 m 107 -212 d s [] 0 sd 1 lw [] 0 sd 1 lw 382 993 m 24 26 d s [] 0 sd 1 lw [] 0 sd 1 lw 325 1208 m 21 -13 d s
 [] 0 sd 1 lw [] 0 sd 1 lw 346 1195 m 55 27 d s [] 0 sd 1 lw [] 0 sd 1 lw 346 1195 m 102 -201 d s [] 0 sd 1 lw [] 0 sd 1
 lw 427 1007 m 21 -13 d s [] 0 sd 1 lw [] 0 sd 1 lw 448 994 m 18 18 d s [] 0 sd 1 lw [] 0 sd 1 lw 491 1039 m 8 9 d s
 [] 0 sd 1 lw [] 0 sd 1 lw 240 1271 m 15 -9 d s [] 0 sd 1 lw [] 0 sd 1 lw 255 1262 m 22 270 d s [] 0 sd 1 lw [] 0 sd 1
 lw 255 1262 m 1 1 d s [] 0 sd 1 lw [] 0 sd 1 lw 261 1542 m 16 -10 d s [] 0 sd 1 lw [] 0 sd 1 lw 277 1532 m 24 -2 d s
 [] 0 sd 1 lw [] 0 sd 1 lw 256 1262 m 9 -6 d s [] 0 sd 1 lw [] 0 sd 1 lw 256 1262 m 22 269 d s [] 0 sd 1 lw [] 0 sd 1 lw
 265 1256 m 22 270 d s [] 0 sd 1 lw [] 0 sd 1 lw 265 1256 m 1 X s [] 0 sd 1 lw [] 0 sd 1 lw 296 1268 m 1 1 d s [] 0 sd 1
 lw [] 0 sd 1 lw 278 1531 m 9 -5 d s [] 0 sd 1 lw [] 0 sd 1 lw 278 1531 m 25 -2 d s [] 0 sd 1 lw [] 0 sd 1 lw 287 1526 m
 35 -3 d s [] 0 sd 1 lw [] 0 sd 1 lw 266 1256 m 22 269 d s [] 0 sd 1 lw [] 0 sd 1 lw 266 1256 m 30 12 d s [] 0 sd 1 lw
 [] 0 sd 1 lw 288 1525 m 29 -2 d s [] 0 sd 1 lw [] 0 sd 1 lw 296 1268 m 4 43 d s [] 0 sd 1 lw [] 0 sd 1 lw 316 1508 m 1
 15 d s [] 0 sd 1 lw [] 0 sd 1 lw 296 1268 m 1 1 d s [] 0 sd 1 lw [] 0 sd 1 lw 317 1523 m 5 X s [] 0 sd 1 lw [] 0 sd 1
 lw 297 1268 m 41 -25 d s [] 0 sd 1 lw [] 0 sd 1 lw 297 1268 m 4 42 d s [] 0 sd 1 lw [] 0 sd 1 lw 317 1508 m 1 15 d s
 [] 0 sd 1 lw [] 0 sd 1 lw 338 1243 m 21 255 d s [] 0 sd 1 lw [] 0 sd 1 lw 338 1243 m 63 25 d s [] 0 sd 1 lw [] 0 sd 1
 lw 318 1523 m 41 -25 d s [] 0 sd 1 lw [] 0 sd 1 lw 318 1523 m 5 X s [] 0 sd 1 lw [] 0 sd 1 lw 359 1498 m 65 -5 d s
 [] 0 sd 1 lw [] 0 sd 1 lw 424 1490 m 3 Y s [] 0 sd 1 lw [] 0 sd 1 lw 421 1495 m 3 -2 d s [] 0 sd 1 lw [] 0 sd 1 lw 277
 1598 m 18 -12 d s [] 0 sd 1 lw [] 0 sd 1 lw 295 1586 m 1 X s [] 0 sd 1 lw [] 0 sd 1 lw 295 1586 m 146 255 d s [] 0 sd 1
 lw [] 0 sd 1 lw 423 1852 m 18 -11 d s [] 0 sd 1 lw [] 0 sd 1 lw 441 1841 m 1 -1 d s [] 0 sd 1 lw [] 0 sd 1 lw 295 1586
 m 10 -6 d s [] 0 sd 1 lw [] 0 sd 1 lw 295 1586 m 147 254 d s [] 0 sd 1 lw [] 0 sd 1 lw 305 1580 m 1 X s [] 0 sd 1 lw
 [] 0 sd 1 lw 334 1575 m 1 X s [] 0 sd 1 lw [] 0 sd 1 lw 305 1580 m 146 255 d s [] 0 sd 1 lw [] 0 sd 1 lw 442 1840 m 9
 -5 d s [] 0 sd 1 lw [] 0 sd 1 lw 451 1835 m 1 -1 d s [] 0 sd 1 lw [] 0 sd 1 lw 472 1816 m 1 -1 d s [] 0 sd 1 lw [] 0 sd
 1 lw 305 1580 m 29 -5 d s [] 0 sd 1 lw [] 0 sd 1 lw 305 1580 m 147 254 d s [] 0 sd 1 lw [] 0 sd 1 lw 334 1575 m 1 X s
 [] 0 sd 1 lw [] 0 sd 1 lw 334 1575 m 24 42 d s [] 0 sd 1 lw [] 0 sd 1 lw 451 1779 m 21 37 d s [] 0 sd 1 lw [] 0 sd 1 lw
 452 1834 m 20 -18 d s [] 0 sd 1 lw [] 0 sd 1 lw 472 1816 m 1 -1 d s [] 0 sd 1 lw [] 0 sd 1 lw 335 1575 m 40 -25 d s
 [] 0 sd 1 lw [] 0 sd 1 lw 335 1575 m 24 42 d s [] 0 sd 1 lw [] 0 sd 1 lw 452 1779 m 21 36 d s [] 0 sd 1 lw [] 0 sd 1 lw
 375 1550 m 64 -12 d s [] 0 sd 1 lw [] 0 sd 1 lw 375 1550 m 139 240 d s [] 0 sd 1 lw [] 0 sd 1 lw 439 1538 m 12 22 d s
 [] 0 sd 1 lw [] 0 sd 1 lw 550 1731 m 10 18 d s [] 0 sd 1 lw [] 0 sd 1 lw 473 1815 m 41 -25 d s [] 0 sd 1 lw [] 0 sd 1
 lw 514 1790 m 46 -41 d s [] 0 sd 1 lw [] 0 sd 1 lw 463 1896 m 17 -11 d s [] 0 sd 1 lw [] 0 sd 1 lw 480 1885 m 17 -18 d
 s [] 0 sd 1 lw [] 0 sd 1 lw 480 1885 m 231 171 d s [] 0 sd 1 lw [] 0 sd 1 lw 695 2066 m 16 -10 d s [] 0 sd 1 lw [] 0 sd
 1 lw 711 2056 m 1 -1 d s [] 0 sd 1 lw [] 0 sd 1 lw 481 1885 m 9 -6 d s [] 0 sd 1 lw [] 0 sd 1 lw 481 1885 m 17 -19 d s
 [] 0 sd 1 lw [] 0 sd 1 lw 481 1885 m 231 170 d s [] 0 sd 1 lw [] 0 sd 1 lw 490 1879 m 24 -26 d s [] 0 sd 1 lw [] 0 sd 1
 lw 490 1879 m 231 171 d s [] 0 sd 1 lw [] 0 sd 1 lw 712 2055 m 9 -5 d s [] 0 sd 1 lw [] 0 sd 1 lw 721 2050 m 1 -1 d s
 [] 0 sd 1 lw [] 0 sd 1 lw 728 2019 m -1 Y s [] 0 sd 1 lw [] 0 sd 1 lw 491 1878 m 19 -20 d s [] 0 sd 1 lw [] 0 sd 1 lw
 491 1878 m 231 171 d s [] 0 sd 1 lw [] 0 sd 1 lw 510 1858 m 4 -5 d s [] 0 sd 1 lw [] 0 sd 1 lw 510 1858 m 20 15 d s
 [] 0 sd 1 lw [] 0 sd 1 lw 686 1988 m 42 31 d s [] 0 sd 1 lw [] 0 sd 1 lw 722 2049 m 6 -30 d s [] 0 sd 1 lw [] 0 sd 1 lw
 728 2019 m -1 Y s [] 0 sd 1 lw [] 0 sd 1 lw 510 1857 m 41 -25 d s [] 0 sd 1 lw [] 0 sd 1 lw 510 1857 m 4 -4 d s [] 0 sd
 1 lw [] 0 sd 1 lw 510 1857 m 21 15 d s [] 0 sd 1 lw [] 0 sd 1 lw 687 1987 m 42 32 d s [] 0 sd 1 lw [] 0 sd 1 lw 551
 1832 m 42 -46 d s [] 0 sd 1 lw [] 0 sd 1 lw 551 1832 m 219 162 d s [] 0 sd 1 lw [] 0 sd 1 lw 588 1789 m 5 -3 d s
 [] 0 sd 1 lw [] 0 sd 1 lw 593 1786 m 8 6 d s [] 0 sd 1 lw [] 0 sd 1 lw 770 1917 m 15 11 d s [] 0 sd 1 lw [] 0 sd 1 lw
 729 2019 m 41 -25 d s [] 0 sd 1 lw [] 0 sd 1 lw 770 1994 m 15 -66 d s [] 0 sd 1 lw [] 0 sd 1 lw 750 2086 m 12 -8 d s
 [] 0 sd 1 lw [] 0 sd 1 lw 762 2078 m 3 -19 d s [] 0 sd 1 lw [] 0 sd 1 lw 762 2078 m 77 13 d s [] 0 sd 1 lw [] 0 sd 1 lw
 839 2090 m 1 Y s [] 0 sd 1 lw [] 0 sd 1 lw 830 2096 m 9 -5 d s [] 0 sd 1 lw [] 0 sd 1 lw 763 2078 m 9 -6 d s [] 0 sd 1
 lw [] 0 sd 1 lw 763 2078 m 3 -21 d s [] 0 sd 1 lw [] 0 sd 1 lw 763 2078 m 77 12 d s [] 0 sd 1 lw [] 0 sd 1 lw 772 2072
 m 4 -31 d s [] 0 sd 1 lw [] 0 sd 1 lw 772 2072 m 77 13 d s [] 0 sd 1 lw [] 0 sd 1 lw 849 2058 m 27 Y s [] 0 sd 1 lw
 [] 0 sd 1 lw 840 2090 m 9 -5 d s [] 0 sd 1 lw [] 0 sd 1 lw 773 2071 m 3 -30 d s [] 0 sd 1 lw [] 0 sd 1 lw 773 2071 m 77
 13 d s [] 0 sd 1 lw [] 0 sd 1 lw 849 2058 m 1 26 d s [] 0 sd 1 lw [] 0 sd 1 lw 797 2028 m 21 -13 d s [] 0 sd 1 lw
 [] 0 sd 1 lw 818 2015 m 8 -65 d s [] 0 sd 1 lw [] 0 sd 1 lw 818 2015 m 72 12 d s [] 0 sd 1 lw [] 0 sd 1 lw 890 1985 m
 42 Y s [] 0 sd 1 lw [] 0 sd 1 lw 869 2040 m 21 -13 d s 0 0 1 c [] 0 sd 1 lw [] 0 sd 1 lw 1689 789 m 52 -4 d s [] 0 sd 1
 lw [] 0 sd 1 lw 1736 788 m 5 -3 d s [] 0 sd 1 lw [] 0 sd 1 lw 1741 785 m 14 5 d s [] 0 sd 1 lw [] 0 sd 1 lw 1755 760 m
 29 Y s [] 0 sd 1 lw [] 0 sd 1 lw 1750 793 m 5 -3 d s [] 0 sd 1 lw [] 0 sd 1 lw 1622 862 m 4 1 d s [] 0 sd 1 lw [] 0 sd
 1 lw 1631 799 m 18 17 d s [] 0 sd 1 lw [] 0 sd 1 lw 1626 863 m 34 Y s [] 0 sd 1 lw [] 0 sd 1 lw 1626 863 m 23 -47 d s
 [] 0 sd 1 lw [] 0 sd 1 lw 1649 816 m 41 -28 d s [] 0 sd 1 lw [] 0 sd 1 lw 1684 778 m 6 10 d s [] 0 sd 1 lw [] 0 sd 1 lw
 1697 758 m 42 -3 d s [] 0 sd 1 lw [] 0 sd 1 lw 1690 788 m 52 -4 d s [] 0 sd 1 lw [] 0 sd 1 lw 1729 1051 m 13 8 d s
 [] 0 sd 1 lw [] 0 sd 1 lw 1739 755 m 3 29 d s [] 0 sd 1 lw [] 0 sd 1 lw 1739 755 m 16 6 d s [] 0 sd 1 lw [] 0 sd 1 lw
 1740 1079 m -1 Y s [] 0 sd 1 lw [] 0 sd 1 lw 1740 1076 m 2 -17 d s [] 0 sd 1 lw [] 0 sd 1 lw 1742 784 m 14 5 d s
 [] 0 sd 1 lw [] 0 sd 1 lw 1742 1059 m 14 2 d s [] 0 sd 1 lw [] 0 sd 1 lw 1755 760 m 1 Y s [] 0 sd 1 lw [] 0 sd 1 lw
 1755 761 m 1 28 d s [] 0 sd 1 lw [] 0 sd 1 lw 1756 1061 m 8 Y s [] 0 sd 1 lw [] 0 sd 1 lw 1599 878 m 1 Y s [] 0 sd 1 lw
 [] 0 sd 1 lw 1632 790 m 34 -24 d s [] 0 sd 1 lw [] 0 sd 1 lw 1697 758 m 42 -3 d s [] 0 sd 1 lw [] 0 sd 1 lw 1739 755 m
 17 6 d s [] 0 sd 1 lw [] 0 sd 1 lw 1848 554 m -25 57 d s [] 0 sd 1 lw [] 0 sd 1 lw 1771 728 m -15 33 d s [] 0 sd 1 lw
 [] 0 sd 1 lw 1702 488 m 19 -2 d s [] 0 sd 1 lw [] 0 sd 1 lw 1772 482 m s [] 0 sd 1 lw [] 0 sd 1 lw 1771 492 m -1 Y s
 [] 0 sd 1 lw [] 0 sd 1 lw 1549 675 m 28 Y s [] 0 sd 1 lw [] 0 sd 1 lw 1549 722 m 106 Y s [] 0 sd 1 lw [] 0 sd 1 lw 1549
 675 m 60 -124 d s [] 0 sd 1 lw [] 0 sd 1 lw 1549 828 m 11 29 d s [] 0 sd 1 lw [] 0 sd 1 lw 1563 864 m 12 30 d s [] 0 sd
 1 lw [] 0 sd 1 lw 1584 920 m 25 63 d s [] 0 sd 1 lw [] 0 sd 1 lw 1609 551 m 30 -20 d s [] 0 sd 1 lw [] 0 sd 1 lw 1666
 512 m 52 -35 d s [] 0 sd 1 lw [] 0 sd 1 lw 1609 983 m 37 45 d s [] 0 sd 1 lw [] 0 sd 1 lw 1661 1045 m 22 27 d s [] 0 sd
 1 lw [] 0 sd 1 lw 1692 1082 m 26 31 d s [] 0 sd 1 lw [] 0 sd 1 lw 1702 487 m 20 -1 d s [] 0 sd 1 lw [] 0 sd 1 lw 1772
 482 m 1 X s [] 0 sd 1 lw [] 0 sd 1 lw 1718 477 m 28 -2 d s [] 0 sd 1 lw [] 0 sd 1 lw 1774 472 m 17 -1 d s [] 0 sd 1 lw
 [] 0 sd 1 lw 1854 466 m 3 -1 d s [] 0 sd 1 lw [] 0 sd 1 lw 1718 1113 m 79 46 d s [] 0 sd 1 lw [] 0 sd 1 lw 1821 1174 m
 36 21 d s [] 0 sd 1 lw [] 0 sd 1 lw 1856 466 m 1 -1 d s [] 0 sd 1 lw [] 0 sd 1 lw 1857 465 m 5 2 d s [] 0 sd 1 lw
 [] 0 sd 1 lw 1857 1195 m 37 6 d s [] 0 sd 1 lw [] 0 sd 1 lw 1894 462 m 10 Y s [] 0 sd 1 lw [] 0 sd 1 lw 1894 1201 m 12
 Y s 0 1 1 c [] 0 sd 1 lw [] 0 sd 1 lw 1648 818 m 36 -25 d s [] 0 sd 1 lw [] 0 sd 1 lw 1684 792 m 52 -4 d s [] 0 sd 1 lw
 [] 0 sd 1 lw 1684 793 m 52 -4 d s [] 0 sd 1 lw [] 0 sd 1 lw 1736 788 m 14 5 d s [] 0 sd 1 lw [] 0 sd 1 lw 1631 854 m
 105 -65 d s [] 0 sd 1 lw [] 0 sd 1 lw 1736 789 m 14 5 d s [] 0 sd 1 lw [] 0 sd 1 lw 1750 793 m 1 Y s [] 0 sd 1 lw
 [] 0 sd 1 lw 1626 870 m 124 -76 d s 0 0 1 c [] 0 sd 1 lw [] 0 sd 1 lw 1589 859 m 32 5 d s [] 0 sd 1 lw [] 0 sd 1 lw
 1589 884 m 32 -20 d s [] 0 sd 1 lw [] 0 sd 1 lw 1621 864 m s [] 0 sd 1 lw [] 0 sd 1 lw 1587 836 m 10 -6 d s [] 0 sd 1
 lw [] 0 sd 1 lw 1589 858 m 33 6 d s [] 0 sd 1 lw [] 0 sd 1 lw 1597 830 m 1 X s [] 0 sd 1 lw [] 0 sd 1 lw 1597 830 m 14
 -108 d s [] 0 sd 1 lw [] 0 sd 1 lw 1598 830 m 14 -107 d s [] 0 sd 1 lw [] 0 sd 1 lw 1598 830 m 24 34 d s [] 0 sd 1 lw
 [] 0 sd 1 lw 1580 741 m 31 -19 d s [] 0 sd 1 lw [] 0 sd 1 lw 1611 722 m 58 -79 d s [] 0 sd 1 lw [] 0 sd 1 lw 1612 723 m
 58 -79 d s [] 0 sd 1 lw [] 0 sd 1 lw 1612 723 m 21 61 d s [] 0 sd 1 lw [] 0 sd 1 lw 1622 864 m 11 -80 d s [] 0 sd 1 lw
 [] 0 sd 1 lw 1638 661 m 31 -18 d s [] 0 sd 1 lw [] 0 sd 1 lw 1669 643 m 1 1 d s [] 0 sd 1 lw [] 0 sd 1 lw 1670 644 m 6
 81 d s [] 0 sd 1 lw [] 0 sd 1 lw 1633 784 m 43 -59 d s [] 0 sd 1 lw [] 0 sd 1 lw 1671 661 m 28 49 d s [] 0 sd 1 lw
 [] 0 sd 1 lw 1676 725 m 23 -15 d s [] 0 sd 1 lw [] 0 sd 1 lw 1699 710 m 74 -13 d s [] 0 sd 1 lw [] 0 sd 1 lw 1741 717 m
 32 -20 d s [] 0 sd 1 lw [] 0 sd 1 lw 1773 697 m 33 10 d s [] 0 sd 1 lw [] 0 sd 1 lw 1806 706 m 1 Y s [] 0 sd 1 lw
 [] 0 sd 1 lw 1771 728 m 35 -21 d s [] 0 sd 1 lw [] 0 sd 1 lw 1671 641 m 31 -19 d s [] 0 sd 1 lw [] 0 sd 1 lw 1671 659 m
 29 51 d s [] 0 sd 1 lw [] 0 sd 1 lw 1702 622 m 1 1 d s [] 0 sd 1 lw [] 0 sd 1 lw 1702 622 m 100 -17 d s [] 0 sd 1 lw
 [] 0 sd 1 lw 1703 623 m -3 87 d s [] 0 sd 1 lw [] 0 sd 1 lw 1703 623 m 99 -17 d s [] 0 sd 1 lw [] 0 sd 1 lw 1700 710 m
 74 -13 d s [] 0 sd 1 lw [] 0 sd 1 lw 1802 605 m 43 13 d s [] 0 sd 1 lw [] 0 sd 1 lw 1802 606 m -28 91 d s [] 0 sd 1 lw
 [] 0 sd 1 lw 1802 606 m 43 13 d s [] 0 sd 1 lw [] 0 sd 1 lw 1774 697 m 32 9 d s [] 0 sd 1 lw [] 0 sd 1 lw 1845 618 m 1
 Y s [] 0 sd 1 lw [] 0 sd 1 lw 1845 619 m -39 87 d s [] 0 sd 1 lw [] 0 sd 1 lw 1751 1093 m 7 -25 d s [] 0 sd 1 lw
 [] 0 sd 1 lw 1735 1082 m 23 -14 d s [] 0 sd 1 lw [] 0 sd 1 lw 1758 1068 m s [] 0 sd 1 lw [] 0 sd 1 lw 1772 1109 m 9 -5
 d s [] 0 sd 1 lw [] 0 sd 1 lw 1781 1104 m -2 Y s [] 0 sd 1 lw [] 0 sd 1 lw 1781 1104 m 64 19 d s [] 0 sd 1 lw [] 0 sd 1
 lw 1781 1102 m -22 -35 d s [] 0 sd 1 lw [] 0 sd 1 lw 1781 1102 m 64 20 d s [] 0 sd 1 lw [] 0 sd 1 lw 1759 1067 m 47 15
 d s [] 0 sd 1 lw [] 0 sd 1 lw 1806 1082 m 39 40 d s [] 0 sd 1 lw [] 0 sd 1 lw 1845 1122 m 1 Y s [] 0 sd 1 lw [] 0 sd 1
 lw 1816 1141 m 29 -18 d s [] 0 sd 1 lw [] 0 sd 1 lw 1585 888 m 20 -12 d s [] 0 sd 1 lw [] 0 sd 1 lw 1605 876 m 1 X s
 [] 0 sd 1 lw [] 0 sd 1 lw 1605 876 m 49 112 d s [] 0 sd 1 lw [] 0 sd 1 lw 1606 876 m 49 111 d s [] 0 sd 1 lw [] 0 sd 1
 lw 1606 876 m 22 22 d s [] 0 sd 1 lw [] 0 sd 1 lw 1652 989 m 2 -1 d s [] 0 sd 1 lw [] 0 sd 1 lw 1654 988 m 86 90 d s
 [] 0 sd 1 lw [] 0 sd 1 lw 1655 987 m 10 -6 d s [] 0 sd 1 lw [] 0 sd 1 lw 1655 987 m 85 90 d s [] 0 sd 1 lw [] 0 sd 1 lw
 1628 898 m 37 83 d s [] 0 sd 1 lw [] 0 sd 1 lw 1665 981 m 63 67 d s [] 0 sd 1 lw [] 0 sd 1 lw 1735 1081 m 5 -3 d s
 [] 0 sd 1 lw [] 0 sd 1 lw 1740 1078 m -1 Y s [] 0 sd 1 lw [] 0 sd 1 lw 1740 1077 m -12 -29 d s [] 0 sd 1 lw [] 0 sd 1
 lw 1780 478 m 11 38 d s [] 0 sd 1 lw [] 0 sd 1 lw 1760 535 m 31 -19 d s [] 0 sd 1 lw [] 0 sd 1 lw 1791 516 m 93 16 d s
 [] 0 sd 1 lw [] 0 sd 1 lw 1884 531 m 1 Y s [] 0 sd 1 lw [] 0 sd 1 lw 1848 554 m 36 -22 d s [] 0 sd 1 lw [] 0 sd 1 lw
 1789 466 m 14 -9 d s [] 0 sd 1 lw [] 0 sd 1 lw 1781 477 m 11 39 d s [] 0 sd 1 lw [] 0 sd 1 lw 1803 457 m 1 2 d s
 [] 0 sd 1 lw [] 0 sd 1 lw 1803 457 m 106 18 d s [] 0 sd 1 lw [] 0 sd 1 lw 1804 459 m -12 57 d s [] 0 sd 1 lw [] 0 sd 1
 lw 1804 459 m 105 17 d s [] 0 sd 1 lw [] 0 sd 1 lw 1792 516 m 92 15 d s [] 0 sd 1 lw [] 0 sd 1 lw 1909 475 m 1 Y s
 [] 0 sd 1 lw [] 0 sd 1 lw 1909 476 m -25 55 d s [] 0 sd 1 lw [] 0 sd 1 lw 1628 538 m 2 2 d s [] 0 sd 1 lw [] 0 sd 1 lw
 1632 543 m 24 28 d s [] 0 sd 1 lw [] 0 sd 1 lw 1638 582 m 18 -11 d s [] 0 sd 1 lw [] 0 sd 1 lw 1656 571 m 1 X s [] 0 sd
 1 lw [] 0 sd 1 lw 1765 520 m s [] 0 sd 1 lw [] 0 sd 1 lw 1734 539 m 31 -19 d s [] 0 sd 1 lw [] 0 sd 1 lw 1636 528 m 14
 -8 d s [] 0 sd 1 lw [] 0 sd 1 lw 1629 537 m 1 2 d s [] 0 sd 1 lw [] 0 sd 1 lw 1632 541 m 25 30 d s [] 0 sd 1 lw [] 0 sd
 1 lw 1650 520 m 1 1 d s [] 0 sd 1 lw [] 0 sd 1 lw 1650 520 m 125 -59 d s [] 0 sd 1 lw [] 0 sd 1 lw 1651 521 m 6 50 d s
 [] 0 sd 1 lw [] 0 sd 1 lw 1651 521 m 124 -59 d s [] 0 sd 1 lw [] 0 sd 1 lw 1657 571 m 109 -52 d s [] 0 sd 1 lw [] 0 sd
 1 lw 1775 461 m 1 Y s [] 0 sd 1 lw [] 0 sd 1 lw 1775 462 m -9 57 d s [] 0 sd 1 lw [] 0 sd 1 lw 1549 684 m 33 16 d s
 [] 0 sd 1 lw [] 0 sd 1 lw 1569 708 m 13 -8 d s [] 0 sd 1 lw [] 0 sd 1 lw 1582 700 m -1 Y s [] 0 sd 1 lw [] 0 sd 1 lw
 1549 676 m 18 -11 d s [] 0 sd 1 lw [] 0 sd 1 lw 1549 683 m 34 17 d s [] 0 sd 1 lw [] 0 sd 1 lw 1567 665 m 1 1 d s
 [] 0 sd 1 lw [] 0 sd 1 lw 1567 665 m 64 -126 d s [] 0 sd 1 lw [] 0 sd 1 lw 1568 666 m 15 34 d s [] 0 sd 1 lw [] 0 sd 1
 lw 1568 666 m 64 -126 d s [] 0 sd 1 lw [] 0 sd 1 lw 1583 700 m 56 -112 d s [] 0 sd 1 lw [] 0 sd 1 lw 1608 553 m 23 -14
 d s [] 0 sd 1 lw [] 0 sd 1 lw 1631 539 m 1 1 d s [] 0 sd 1 lw [] 0 sd 1 lw 1632 540 m 7 48 d s [] 0 sd 1 lw [] 0 sd 1
 lw 1565 870 m 24 -2 d s [] 0 sd 1 lw [] 0 sd 1 lw 1589 867 m 1 Y s [] 0 sd 1 lw [] 0 sd 1 lw 1569 880 m 20 -12 d s
 [] 0 sd 1 lw [] 0 sd 1 lw 1547 704 m 15 -9 d s [] 0 sd 1 lw [] 0 sd 1 lw 1562 695 m 1 1 d s [] 0 sd 1 lw [] 0 sd 1 lw
 1562 695 m 13 160 d s [] 0 sd 1 lw [] 0 sd 1 lw 1563 696 m 13 159 d s [] 0 sd 1 lw [] 0 sd 1 lw 1563 696 m 15 30 d s
 [] 0 sd 1 lw [] 0 sd 1 lw 1561 864 m 14 -9 d s [] 0 sd 1 lw [] 0 sd 1 lw 1565 869 m 25 -2 d s [] 0 sd 1 lw [] 0 sd 1 lw
 1575 855 m 1 X s [] 0 sd 1 lw [] 0 sd 1 lw 1576 855 m 14 12 d s [] 0 sd 1 lw [] 0 sd 1 lw 1578 726 m 12 141 d s [] 0 sd
 1 lw [] 0 sd 1 lw 1571 897 m 14 -9 d s [] 0 sd 1 lw [] 0 sd 1 lw 1585 888 m 1 X s [] 0 sd 1 lw [] 0 sd 1 lw 1585 888 m
 87 151 d s [] 0 sd 1 lw [] 0 sd 1 lw 1586 888 m 13 8 d s [] 0 sd 1 lw [] 0 sd 1 lw 1586 888 m 87 150 d s [] 0 sd 1 lw
 [] 0 sd 1 lw 1599 896 m 77 133 d s [] 0 sd 1 lw [] 0 sd 1 lw 1658 1048 m 14 -9 d s [] 0 sd 1 lw [] 0 sd 1 lw 1672 1039
 m 1 -1 d s [] 0 sd 1 lw [] 0 sd 1 lw 1673 1038 m 3 -9 d s [] 0 sd 1 lw [] 0 sd 1 lw 1839 1185 m 4 -30 d s [] 0 sd 1 lw
 [] 0 sd 1 lw 1831 1162 m 12 -7 d s [] 0 sd 1 lw [] 0 sd 1 lw 1843 1155 m 1 X s [] 0 sd 1 lw [] 0 sd 1 lw 1848 1189 m 15
 -9 d s [] 0 sd 1 lw [] 0 sd 1 lw 1840 1185 m 4 -31 d s [] 0 sd 1 lw [] 0 sd 1 lw 1863 1180 m -1 Y s [] 0 sd 1 lw
 [] 0 sd 1 lw 1863 1180 m 46 7 d s [] 0 sd 1 lw [] 0 sd 1 lw 1863 1179 m -19 -25 d s [] 0 sd 1 lw [] 0 sd 1 lw 1863 1179
 m 46 7 d s [] 0 sd 1 lw [] 0 sd 1 lw 1844 1154 m 40 7 d s [] 0 sd 1 lw [] 0 sd 1 lw 1884 1161 m 25 25 d s [] 0 sd 1 lw
 [] 0 sd 1 lw 1909 1186 m 1 Y s [] 0 sd 1 lw [] 0 sd 1 lw 1888 1200 m 21 -13 d s [] 0 sd 1 lw [] 0 sd 1 lw 1681 1069 m
 14 -16 d s [] 0 sd 1 lw [] 0 sd 1 lw 1677 1064 m 18 -11 d s [] 0 sd 1 lw [] 0 sd 1 lw 1695 1053 m 1 X s [] 0 sd 1 lw
 [] 0 sd 1 lw 1681 1074 m 14 -9 d s [] 0 sd 1 lw [] 0 sd 1 lw 1681 1069 m 15 -16 d s [] 0 sd 1 lw [] 0 sd 1 lw 1695 1065
 m 1 -1 d s [] 0 sd 1 lw [] 0 sd 1 lw 1695 1065 m 138 102 d s [] 0 sd 1 lw [] 0 sd 1 lw 1696 1064 m -11 Y s [] 0 sd 1 lw
 [] 0 sd 1 lw 1696 1064 m 137 102 d s [] 0 sd 1 lw [] 0 sd 1 lw 1696 1053 m 122 89 d s [] 0 sd 1 lw [] 0 sd 1 lw 1819
 1175 m 14 -8 d s [] 0 sd 1 lw [] 0 sd 1 lw 1833 1167 m -1 Y s [] 0 sd 1 lw [] 0 sd 1 lw 1833 1166 m -15 -24 d s [] 0 sd
 1 lw [] 0 sd 1 lw 1667 751 m 13 26 d s [] 0 sd 1 lw [] 0 sd 1 lw 1668 750 m 21 -7 d s [] 0 sd 1 lw [] 0 sd 1 lw 1673
 782 m 7 -5 d s [] 0 sd 1 lw [] 0 sd 1 lw 1680 777 m 23 -7 d s [] 0 sd 1 lw [] 0 sd 1 lw 1690 743 m 13 27 d s [] 0 sd 1
 lw [] 0 sd 1 lw 1695 774 m 8 -4 d s [] 0 sd 1 lw [] 0 sd 1 lw 1683 573 m 3 -2 d s [] 0 sd 1 lw [] 0 sd 1 lw 1686 571 m
 13 27 d s [] 0 sd 1 lw [] 0 sd 1 lw 1686 571 m 22 -7 d s [] 0 sd 1 lw [] 0 sd 1 lw 1680 609 m 19 -11 d s [] 0 sd 1 lw
 [] 0 sd 1 lw 1699 598 m 22 -8 d s [] 0 sd 1 lw [] 0 sd 1 lw 1708 564 m 13 26 d s [] 0 sd 1 lw [] 0 sd 1 lw 1702 602 m
 19 -12 d s 1 0 0 c gr 
showpage gr
 gr 
%%Trailer
%%Pages:  1
%%EOF
