%!PS-Adobe-2.0 EPSF-2.0
%%Title: partcuts.fig
%%Creator: fig2dev Version 3.2 Patchlevel 4
%%CreationDate: Thu Jun 23 17:01:48 2005
%%For: skowron@roko.scv.pl (Piotr Skowronski)
%%BoundingBox: 0 0 584 380
%%Magnification: 1.0000
%%EndComments
/$F2psDict 200 dict def
$F2psDict begin
$F2psDict /mtrx matrix put
/col-1 {0 setgray} bind def
/col0 {0.000 0.000 0.000 srgb} bind def
/col1 {0.000 0.000 1.000 srgb} bind def
/col2 {0.000 1.000 0.000 srgb} bind def
/col3 {0.000 1.000 1.000 srgb} bind def
/col4 {1.000 0.000 0.000 srgb} bind def
/col5 {1.000 0.000 1.000 srgb} bind def
/col6 {1.000 1.000 0.000 srgb} bind def
/col7 {1.000 1.000 1.000 srgb} bind def
/col8 {0.000 0.000 0.560 srgb} bind def
/col9 {0.000 0.000 0.690 srgb} bind def
/col10 {0.000 0.000 0.820 srgb} bind def
/col11 {0.530 0.810 1.000 srgb} bind def
/col12 {0.000 0.560 0.000 srgb} bind def
/col13 {0.000 0.690 0.000 srgb} bind def
/col14 {0.000 0.820 0.000 srgb} bind def
/col15 {0.000 0.560 0.560 srgb} bind def
/col16 {0.000 0.690 0.690 srgb} bind def
/col17 {0.000 0.820 0.820 srgb} bind def
/col18 {0.560 0.000 0.000 srgb} bind def
/col19 {0.690 0.000 0.000 srgb} bind def
/col20 {0.820 0.000 0.000 srgb} bind def
/col21 {0.560 0.000 0.560 srgb} bind def
/col22 {0.690 0.000 0.690 srgb} bind def
/col23 {0.820 0.000 0.820 srgb} bind def
/col24 {0.500 0.190 0.000 srgb} bind def
/col25 {0.630 0.250 0.000 srgb} bind def
/col26 {0.750 0.380 0.000 srgb} bind def
/col27 {1.000 0.500 0.500 srgb} bind def
/col28 {1.000 0.630 0.630 srgb} bind def
/col29 {1.000 0.750 0.750 srgb} bind def
/col30 {1.000 0.880 0.880 srgb} bind def
/col31 {1.000 0.840 0.000 srgb} bind def

end
save
newpath 0 380 moveto 0 0 lineto 584 0 lineto 584 380 lineto closepath clip newpath
-1.9 790.1 translate
1 -1 scale

/cp {closepath} bind def
/ef {eofill} bind def
/gr {grestore} bind def
/gs {gsave} bind def
/sa {save} bind def
/rs {restore} bind def
/l {lineto} bind def
/m {moveto} bind def
/rm {rmoveto} bind def
/n {newpath} bind def
/s {stroke} bind def
/sh {show} bind def
/slc {setlinecap} bind def
/slj {setlinejoin} bind def
/slw {setlinewidth} bind def
/srgb {setrgbcolor} bind def
/rot {rotate} bind def
/sc {scale} bind def
/sd {setdash} bind def
/ff {findfont} bind def
/sf {setfont} bind def
/scf {scalefont} bind def
/sw {stringwidth} bind def
/tr {translate} bind def
/tnt {dup dup currentrgbcolor
  4 -2 roll dup 1 exch sub 3 -1 roll mul add
  4 -2 roll dup 1 exch sub 3 -1 roll mul add
  4 -2 roll dup 1 exch sub 3 -1 roll mul add srgb}
  bind def
/shd {dup dup currentrgbcolor 4 -2 roll mul 4 -2 roll mul
  4 -2 roll mul srgb} bind def
/$F2psBegin {$F2psDict begin /$F2psEnteredState save def} def
/$F2psEnd {$F2psEnteredState restore end} def

$F2psBegin
10 setmiterlimit
0 slj 0 slc
 0.06000 0.06000 sc
%
% Fig objects follow
%
% 
% here starts figure with depth 999
%  polyline 
% Polyline
7.500 slw
n 43 7456 m
 3793 7456 l gs col0 s gr 
%  polyline 
% Polyline
15.000 slw
gs  clippath
2605 7787 m 2606 7967 l 2938 7966 l 2668 7877 l 2937 7786 l cp
eoclip
n 2621 7877 m
 5143 7871 l gs col0 s gr gr

% arrowhead
30.000 slw
n 2937 7786 m 2668 7877 l 2938 7966 l 3027 7876 l 2937 7786 l 
 cp gs 0.00 setgray ef gr  col0 s
% here ends figure;
% 
% here starts figure with depth 993
%  polyline 
% Polyline
7.500 slw
n 5143 8056 m
 9744 8056 l gs col0 s gr 
% here ends figure;
% 
% here starts figure with depth 991
%  polyline 
% Polyline
7.500 slw
n 5143 7456 m 9744 7456 l 9744 9406 l 5143 9406 l
 5143 7456 l  cp gs col0 s gr 
%  polyline 
% Polyline
n 5443 10756 m
 5443 9406 l gs col4 s gr 
% here ends figure;
% 
% here starts figure with depth 988
%  polyline 
% Polyline
n 5563 9680 m 5443 9440 l 5323 9680 l
 5563 9680 l  cp gs col4 1.00 shd ef gr 
% here ends figure;
% 
% here starts figure with depth 986
%  polyline 
% Polyline
7.500 slw
n 5563 9680 m 5443 9440 l 5323 9680 l
 5563 9680 l  cp gs col4 s gr 
%  polyline 
% Polyline
n 6493 11656 m
 6493 9406 l gs col4 s gr 
% here ends figure;
% 
% here starts figure with depth 983
%  polyline 
% Polyline
n 6613 9680 m 6493 9440 l 6373 9680 l
 6613 9680 l  cp gs col4 1.00 shd ef gr 
% here ends figure;
% 
% here starts figure with depth 981
%  polyline 
% Polyline
7.500 slw
n 6613 9680 m 6493 9440 l 6373 9680 l
 6613 9680 l  cp gs col4 s gr 
%  polyline 
% Polyline
n 7693 12556 m
 7693 9406 l gs col4 s gr 
% here ends figure;
% 
% here starts figure with depth 978
%  polyline 
% Polyline
n 7813 9680 m 7693 9440 l 7573 9680 l
 7813 9680 l  cp gs col4 1.00 shd ef gr 
% here ends figure;
% 
% here starts figure with depth 976
%  polyline 
% Polyline
7.500 slw
n 7813 9680 m 7693 9440 l 7573 9680 l
 7813 9680 l  cp gs col4 s gr 
%  polyline 
% Polyline
n 3343 10756 m 5993 10756 l 5993 11356 l 3343 11356 l
 3343 10756 l  cp gs col0 s gr 
%  polyline 
% Polyline
n 4393 11656 m 7393 11656 l 7393 12256 l 4393 12256 l
 4393 11656 l  cp gs col0 s gr 
%  polyline 
% Polyline
n 5593 12556 m 8393 12556 l 8393 13156 l 5593 13156 l
 5593 12556 l  cp gs col0 s gr 
%  polyline 
% Polyline
n 43 6856 m 3793 6856 l 3793 8806 l 43 8806 l
 43 6856 l  cp gs col0 s gr 
% here ends figure;
% 
% here starts figure with depth 970
%  text 
/Helvetica-Bold ff 360.00 scf sf
300 7275 m
gs 1 -1 sc (AliAODParticleCut) col0 sh gr
%  text 
/Helvetica-Bold ff 360.00 scf sf
5343 7906 m
gs 1 -1 sc (AliAODParticleBaseCut) col0 sh gr
%  text 
/Helvetica ff 360.00 scf sf
5850 8550 m
gs 1 -1 sc (fMin) col0 sh gr
%  text 
/Helvetica ff 360.00 scf sf
5850 9000 m
gs 1 -1 sc (fMax) col0 sh gr
% here ends figure;
% 
% here starts figure with depth 965
%  text 
/Helvetica ff 360.00 scf sf
493 8010 m
gs 1 -1 sc (fBaseCuts []) col0 sh gr
%  text 
/Helvetica-Bold ff 360.00 scf sf
5925 12975 m
gs 1 -1 sc (AliAODYCut) col0 sh gr
% here ends figure;
% 
% here starts figure with depth 962
%  text 
/Helvetica-Bold ff 360.00 scf sf
4650 12075 m
gs 1 -1 sc (AliAODPIDCut) col0 sh gr
%  text 
/Helvetica-Bold ff 360.00 scf sf
3525 11175 m
gs 1 -1 sc (AliAODPtCut) col0 sh gr
% here ends figure;
$F2psEnd
rs
showpage
