%!PS-Adobe-2.0 EPSF-2.0
%%BoundingBox:  0 0 567 394
%%Title: /home/pchrist/ALICE/TagDB/Drafts/TagNote/fig2.eps: Tag System - Sources of Information
%%Creator: ROOT Version 5.06/00
%%CreationDate: Wed Nov 23 10:03:24 2005
%%EndComments
%%BeginProlog
80 dict begin
/s {stroke} def /l {lineto} def /m {moveto} def /t {translate} def
/sw {stringwidth} def /r {rotate} def /rl {roll}  def /R {repeat} def
/d {rlineto} def /rm {rmoveto} def /gr {grestore} def /f {eofill} def
/c {setrgbcolor} def /black {0 setgray} def /sd {setdash} def
/cl {closepath} def /sf {scalefont setfont} def /lw {setlinewidth} def
/box {m dup 0 exch d exch 0 d 0 exch neg d cl} def
/NC{systemdict begin initclip end}def/C{NC box clip newpath}def
/bl {box s} def /bf {box f} def /Y { 0 exch d} def /X { 0 d} def 
/mp {newpath /y exch def /x exch def} def
/side {[w .77 mul w .23 mul] .385 w mul sd w 0 l currentpoint t -144 r} def
/mr {mp x y w2 0 360 arc} def /m24 {mr s} def /m20 {mr f} def
/mb {mp x y w2 add m w2 neg 0 d 0 w neg d w 0 d 0 w d cl} def
/mt {mp x y w2 add m w2 neg w neg d w 0 d cl} def
/m21 {mb f} def /m25 {mb s} def /m22 {mt f} def /m26{mt s} def
/m23 {mp x y w2 sub m w2 w d w neg 0 d cl f} def
/m27 {mp x y w2 add m w3 neg w2 neg d w3 w2 neg d w3 w2 d cl s} def
/m28 {mp x w2 sub y w2 sub w3 add m w3 0 d  0 w3 neg d w3 0 d 0 w3 d w3 0 d  0 w3 d w3 neg 0 d 0 w3 d w3 neg 0 d
 0 w3 neg d w3 neg 0 d cl s } def
/m29 {mp gsave x w2 sub y w2 add w3 sub m currentpoint t
 4 {side} repeat cl fill gr} def
/m30 {mp gsave x w2 sub y w2 add w3 sub m currentpoint t
 4 {side} repeat cl s gr} def
/m31 {mp x y w2 sub m 0 w d x w2 sub y m w 0 d x w2 sub y w2 add m w w neg d x w2 sub y w2
 sub m w w d s} def
/m2 {mp x y w2 sub m 0 w d x w2 sub y m w 0 d s} def
/m5 {mp x w2 sub y w2 sub m w w d x w2 sub y w2 add m w w neg d s} def
/reencdict 24 dict def /ReEncode {reencdict begin /nco&na exch def
/nfnam exch def /basefontname exch def /basefontdict basefontname findfont def
/newfont basefontdict maxlength dict def basefontdict {exch dup /FID ne
{dup /Encoding eq {exch dup length array copy newfont 3 1 roll put} {exch 
newfont 3 1 roll put} ifelse} {pop pop} ifelse } forall newfont
/FontName nfnam put nco&na aload pop nco&na length 2 idiv {newfont
/Encoding get 3 1 roll put} repeat nfnam newfont definefont pop end } def
/accvec [ 176 /agrave 181 /Agrave 190 /acircumflex 192 /Acircumflex
201 /adieresis 204 /Adieresis 209 /ccedilla 210 /Ccedilla 211 /eacute
212 /Eacute 213 /egrave 214 /Egrave 215 /ecircumflex 216 /Ecircumflex
217 /edieresis 218 /Edieresis 219 /icircumflex 220 /Icircumflex
221 /idieresis 222 /Idieresis 223 /ntilde 224 /Ntilde 226 /ocircumflex
228 /Ocircumflex 229 /odieresis 230 /Odieresis 231 /ucircumflex 236 /Ucircumflex
237 /udieresis 238 /Udieresis 239 /aring 242 /Aring 243 /ydieresis
244 /Ydieresis 246 /aacute 247 /Aacute 252 /ugrave 253 /Ugrave] def
/Times-Roman /Times-Roman accvec ReEncode
/Times-Italic /Times-Italic accvec ReEncode
/Times-Bold /Times-Bold accvec ReEncode
/Times-BoldItalic /Times-BoldItalic accvec ReEncode
/Helvetica /Helvetica accvec ReEncode
/Helvetica-Oblique /Helvetica-Oblique accvec ReEncode
/Helvetica-Bold /Helvetica-Bold accvec ReEncode
/Helvetica-BoldOblique /Helvetica-BoldOblique  accvec ReEncode
/Courier /Courier accvec ReEncode
/Courier-Oblique /Courier-Oblique accvec ReEncode
/Courier-Bold /Courier-Bold accvec ReEncode
/Courier-BoldOblique /Courier-BoldOblique accvec ReEncode
/oshow {gsave [] 0 sd true charpath stroke gr} def
/stwn { /fs exch def /fn exch def /text exch def fn findfont fs sf
 text sw pop xs add /xs exch def} def
/stwb { /fs exch def /fn exch def /nbas exch def /textf exch deftextf length /tlen exch def nbas tlen gt {/nbas tlendef} iffn findfont fs sf textf dup length nbas sub nbas getinterval sw
pop neg xs add /xs exch def} def
/accspe [ 65 /plusminus  66 /bar  67 /existential  68 /universal 
69 /exclam  70 /numbersign 71 /greater  72 /question  73 /integral 
74 /colon  75 /semicolon  76 /less  77 /bracketleft  78 /bracketright
79 /greaterequal 80 /braceleft 81 /braceright 82 /radical
83 /spade 84 /heart 85 /diamond 86 /club 87 /lessequal
88 /multiply 89 /percent 90 /infinity 48 /circlemultiply 49 /circleplus
50 /emptyset  51 /lozenge 52 /bullet 53 /arrowright 54 /arrowup
55 /arrowleft 56 /arrowdown 57 /arrowboth 48 /degree 44 /comma 43 /plus 45 /angle 42 /angleleft 47 /divide 61 /notequal 40 /equivalence 41 /second 97 /approxequal 98 /congruent 99 /perpendicular 100 /partialdiff 101 /florin 102 /intersection
 103 /union 104 /propersuperset 105 /reflexsuperset 106 /notsubset 107 /propersubset 108 /reflexsubset 109 /element 110 /notelement 111 /gradient 112 /logicaland 113 /logicalor 114 /arrowdblboth 115 /arrowdblleft 116 /arrowdblup 117 /arrowdblright
 118 /arrowdbldown 119 /ampersand 120 /omega1 121 /similar 122 /aleph ] def
/Symbol /Special accspe ReEncode
%%EndProlog
%%BeginSetup
%%EndSetup
newpath  gsave  .25 .25 scale  gsave  0 0 t black[  ] 0 sd 3 lw 0.999 0.999 0.999 c 2268 1574 0 0 bf 1 1 1 c 0 0 m 2 2 d 1570 Y 2264 X 2 2 d -2268 X -1574 Y f 0.999 0.999 0.999 c 0 0 m 2 2 d 2264 X 1570 Y 2 2 d -1574 Y -2268 X f black 0.7 0.7 0.7 c
 1080 188 540 1353 bf black 551 1353 m -7 Y 1076 X 184 Y -7 X -177 Y f 540 1353 m 188 Y 1080 X -188 Y -1080 X cl s
 gsave  618 1430
 t 0 r 0 0 m /Helvetica-Bold findfont 53.1496 sf 0 0 m (Tag System - Sources of Information) show  gr  1 1 0 c 432 111 130 933 bf black 145 933 m -10 Y 427 X 106 Y -10 X -96 Y f 130 933 m 111 Y 432 X -111 Y -432 X cl s
 gsave  172 974
 t 0 r 0 0 m /Helvetica-Bold findfont 50.6187 sf 0 0 m (Run Tag fields) show  gr  1 1 0 c 324 111 885 1154 bf black 901 1154 m -10 Y 319 X 106 Y -11 X -96 Y f 885 1154 m 111 Y 324 X -111 Y -324 X cl s
 gsave  992 1187
 t 0 r 0 0 m /Helvetica-Bold findfont 50.6187 sf 0 0 m (DCS) show  gr  0 0 1 c 12 lw black 0 0 1 c 598 1007 m 287 203 d s 3 lw black 609 992 m -37 -3 d 16 33 d cl s 12 lw 0 0 1 c 609 992 m -37 -3 d 16 33 d 21 -30 d cl s black 3 lw 1 1 0 c 324 111
 885 933 bf black 901 933 m -10 Y 319 X 106 Y -11 X -96 Y f 885 933 m 111 Y 324 X -111 Y -324 X cl s
 gsave  987 969
 t 0 r 0 0 m /Helvetica-Bold findfont 50.6187 sf 0 0 m (DAQ) show  gr  0 0 1 c 12 lw black 0 0 1 c 604 989 m 281 X s 3 lw black 604 970 m -32 19 d 32 18 d cl s 12 lw 0 0 1 c 604 970 m -32 19 d 32 18 d -37 Y cl s black 3 lw 1 1 0 c 324 110 885 713 bf
 black 901 713 m -11 Y 319 X 106 Y -11 X -95 Y f 885 713 m 110 Y 324 X -110 Y -324 X cl s
 gsave  964 744
 t 0 r 0 0 m /Helvetica-Bold findfont 50.6187 sf 0 0 m (Offline) show  gr  0 0 1 c 12 lw black 0 0 1 c 598 970 m 287 -202 d s 3 lw black 588 955 m -16 34 d 37 -4 d cl s 12 lw 0 0 1 c 588 955 m -16 34 d 37 -4 d -21 -30 d cl s black 3 lw 1 1 0 c 432
 110 1317 1044 bf black 1333 1044 m -10 Y 427 X 105 Y -11 X -95 Y f 1317 1044 m 110 Y 432 X -110 Y -432 X cl s
 gsave  1357 1083
 t 0 r 0 0 m /Helvetica-Bold findfont 50.6187 sf 0 0 m (LHC Tag fields) show  gr  1 1 0 c 216 110 1965 1044 bf black 1981 1044 m -10 Y 210 X 105 Y -10 X -95 Y f 1965 1044 m 110 Y 216 X -110 Y -216 X cl s
 gsave  2020 1076
 t 0 r 0 0 m /Helvetica-Bold findfont 50.6187 sf 0 0 m (DCS) show  gr  0 0 1 c 12 lw black 0 0 1 c 1792 1099 m 173 X s 3 lw black 1792 1081 m -32 18 d 32 19 d cl s 12 lw 0 0 1 c 1792 1081 m -32 18 d 32 19 d -37 Y cl s black 3 lw 1 1 0 c 453 110 1296
 823 bf black 1311 823 m -10 Y 449 X 105 Y -11 X -95 Y f 1296 823 m 110 Y 453 X -110 Y -453 X cl s
 gsave  1296 863
 t 0 r 0 0 m /Helvetica-Bold findfont 50.6187 sf 0 0 m (Detector Tag fields) show  gr  1 1 0 c 216 110 1965 823 bf black 1981 823 m -10 Y 210 X 105 Y -10 X -95 Y f 1965 823 m 110 Y 216 X -110 Y -216 X cl s
 gsave  2020 855
 t 0 r 0 0 m /Helvetica-Bold findfont 50.6187 sf 0 0 m (ECS) show  gr  0 0 1 c 12 lw black 0 0 1 c 1792 878 m 173 X s 3 lw black 1792 860 m -32 18 d 32 19 d cl s 12 lw 0 0 1 c 1792 860 m -32 18 d 32 19 d -37 Y cl s black 3 lw 1 1 0 c 324 110 885 492
 bf black 901 492 m -11 Y 319 X 106 Y -11 X -95 Y f 885 492 m 110 Y 324 X -110 Y -324 X cl s
 gsave  891 524
 t 0 r 0 0 m /Helvetica-Bold findfont 50.6187 sf 0 0 m (Offline - ESD) show  gr  0 0 1 c 12 lw black 0 0 1 c 602 447 m 283 100 d s 3 lw black 608 430 m -36 6 d 24 28 d cl s 12 lw 0 0 1 c 608 430 m -36 6 d 24 28 d 12 -34 d cl s black 3 lw 1 1 0 c 432
 111 130 381 bf black 145 381 m -10 Y 427 X 105 Y -10 X -95 Y f 130 381 m 111 Y 432 X -111 Y -432 X cl s
 gsave  152 420
 t 0 r 0 0 m /Helvetica-Bold findfont 50.6187 sf 0 0 m (Event Tag fields) show  gr  1 1 0 c 324 110 885 271 bf black 901 271 m -10 Y 319 X 105 Y -11 X -95 Y f 885 271 m 110 Y 324 X -110 Y -324 X cl s
 gsave  906 311
 t 0 r 0 0 m /Helvetica-Bold findfont 50.6187 sf 0 0 m (File catalog) show  gr  0 0 1 c 12 lw black 0 0 1 c 602 426 m 283 -100 d s 3 lw black 596 409 m -24 27 d 36 7 d cl s 12 lw 0 0 1 c 596 409 m -24 27 d 36 7 d -12 -34 d cl s
 gr  gr 
showpage
end
%%EOF
