%!PS-Adobe-2.0
%%Title: ITShitOccupancy_2_etap.ps (Landscape A 4)
%%Pages: (atend)
%%Creator: ROOT Version 2.22/09
%%CreationDate:Sat Sep 18 07:10:20 1999
%%EndComments
%%BeginProlog
/s {stroke} def /l {lineto} def /m {moveto} def /t {translate} def
/sw {stringwidth} def /r {rotate} def /rl {roll}  def /R {repeat} def
/d {rlineto} def /rm {rmoveto} def /gr {grestore} def /f {eofill} def
/c {setrgbcolor} def /lw {setlinewidth} def /sd {setdash} def
/cl {closepath} def /sf {scalefont setfont} def /black {0 setgray} def
/box {m dup 0 exch d exch 0 d 0 exch neg d cl} def
/NC{systemdict begin initclip end}def/C{NC box clip newpath}def
/bl {box s} def /bf {box f} def /Y { 0 exch d} def /X { 0 d} def 
/mp {newpath /y exch def /x exch def} def
/side {[w .77 mul w .23 mul] .385 w mul sd w 0 l currentpoint t -144 r} def
/mr {mp x y w2 0 360 arc} def /m24 {mr s} def /m20 {mr f} def
/mb {mp x y w2 add m w2 neg 0 d 0 w neg d w 0 d 0 w d cl} def
/mt {mp x y w2 add m w2 neg w neg d w 0 d cl} def
/m21 {mb f} def /m25 {mb s} def /m22 {mt f} def /m26{mt s} def
/m23 {mp x y w2 sub m w2 w d w neg 0 d cl f} def
/m27 {mp x y w2 add m w3 neg w2 neg d w3 w2 neg d w3 w2 d cl s} def
/m28 {mp x w2 sub y w2 sub w3 add m w3 0 d  0 w3 neg d w3 0 d 0 w3 d w3 0 d  0 w3 d w3 neg 0 d 0 w3 d w3 neg 0 d
 0 w3 neg d w3 neg 0 d cl s } def
/m29 {mp gsave x w2 sub y w2 add w3 sub m currentpoint t
 4 {side} repeat cl fill gr} def
/m30 {mp gsave x w2 sub y w2 add w3 sub m currentpoint t
 5 {side} repeat s gr} def
/m31 {mp x y w2 sub m 0 w d x w2 sub y m w 0 d x w2 sub y w2 add m w w neg d x w2 sub y w2
 sub m w w d s} def
/m2 {mp x y w2 sub m 0 w d x w2 sub y m w 0 d s} def
/m5 {mp x w2 sub y w2 sub m w w d x w2 sub y w2 add m w w neg d s} def
/DP {/PT exch def gsave 47.2 47.2 scale PT 1  eq { 16 16 1 [ 16 0 0 16 neg 0 16
] { < AA AA 55 55 AA AA 55 55 AA AA 55 55 AA AA 55 55 AA AA 55 55 AA AA 55 55
AA AA 55 55 AA AA 55 55 > } image } if PT 2 eq { 16 16 1 [ 16 0 0 16 neg 0 16
] { < BB BB EE EE BB BB EE EE BB BB EE EE BB BB EE EE BB BB EE EE BB BB EE EE
BB BB EE EE BB BB EE EE > } image } if PT 3 eq { 16 16 1 [ 16 0 0 16 neg 0 16
] { < FF FF BB BB FF FF EE EE FF FF BB BB FF FF EE EE FF FF BB BB FF FF EE EE
FF FF BB BB FF FF EE EE > } image } if PT 4 eq { 16 16 1 [ 16 0 0 16 neg 0 16
] { < DF DF BF BF 7F 7F FE FE FD FD FB FB F7 F7 EF EF DF DF BF BF 7F 7F FE FE
FD FD FB FB F7 F7 EF EF > } image } if PT 5 eq { 16 16 1 [ 16 0 0 16 neg 0 16
] { < 7F 7F BF B F DF DF EF EF F7 F7 FB FB FD FD FE FE 7F 7F BF BF DF DF EF
EF F7 F7 FB FB FD FD FE FE > } image } if PT 6 eq { 16 16 1 [ 16 0 0 16 neg 0
16 ] { < BB BB BB BB BB BB BB BB BB BB BB BB BB BB BB BB BB BB BB BB BB BB BB
BB BB BB BB BB BB BB BB BB > } image } if PT 7 eq { 16 16 1 [ 16 0 0 16 neg 0
16 ] { < FF FF FF FF FF FF 00 00 FF FF FF FF FF FF 00 00 FF FF FF FF FF FF 00
00 FF FF FF FF FF FF 00 00 > } image } if PT 8 eq { 16 16 1 [ 16 0 0 16 neg 0
16 ] { < EE EE 47 47 83 83 C5 C5 EE EE 5C 5C 38 38 74 74 EE EE 47 47 83 83 C5
C5 EE EE 5C 5C 38 38 74 74 > } image } if PT 9 eq { 16 16 1 [ 16 0 0 16 neg 0
16 ] { < EF EF EF EF D7 D7 38 38 FE FE FE FE 7D 7D 83 83 EF EF EF EF D7 D7 38
38  FE FE FE FE 7D 7D 83 83 > } image } if PT 10 eq { 16 16 1 [ 16 0 0 16 neg
0 16 ] { <  EF EF EF EF EF EF 00 00 FE FE FE FE FE FE 00 00 EF EF EF EF EF EF
00 00 FE FE FE FE FE FE 00 00 > } image } if PT 11 eq { 16 16 1 [ 16 0 0 16
neg 0 16 ] { < F7 F7 B6 B6 D5 D5 E3 E3 D5 D5 B6 B6 F7 F7 FF FF 7F 7F 6B 6B 5D
5D 3E 3E 5D 5D 6B 6B 7F 7F FF FF > } image } if PT 12 eq { 16 16 1 [ 16 0 0
16 neg 0 16 ] { < E3 E3 DD DD BE BE BE BE BE BE DD DD E3 E3 FF FF 3E 3E DD DD
EB EB EB EB EB EB DD DD 3E 3E FF FF > } image } if PT 13 eq { 16 16 1 [ 16 0
0 16 neg 0 16 ] { <  FE FE 7D 7D BB BB D7 D7 EF EF D7 D7 BB BB 7D 7D FE FE 7D
7D BB BB D7 D7 EF EF D7 D7 BB BB 7D 7D > } image } if PT 14 eq { 16 16 1 [ 16
0 0 16 neg 0 16 ] { < 00 00 EE EF EE EF EE EF 0E E0 EE EE EE EE EE EE 00 EE
FE EE FE EE FE EE 00 00 FE EF FE EF FE EF > } image } if PT 15 eq { 16 16 1 [
16 0 0 16 neg 0 16 ] { < DD DD AA AA DD DD FF FF 77 77 AA AA 77 77 FF FF DD
DD AA AA DD DD FF FF 77 77 AA AA 77 77 FF FF > } image } if PT 16 eq { 16 16
1 [ 16 0 0 16 neg 0 16 ] { <  F1 F1 EE EE 1F 1F FF FF F1 F1 EE EE 1F 1F FF FF
F1 F1 EE EE 1F 1F FF FF F1 F1 EE EE 1F 1F FF FF > } image } if PT 17 eq { 16
16 1 [ 16 0 0 16 neg 0 16 ] { <  EE EE DD DD BB BB FF FF EE EE DD DD BB BB FF
 FF EE EE DD DD BB BB FF FF EE EE DD DD BB BB FF FF > } image } if PT 18 eq {
16 16 1 [ 16 0 0 16 neg 0 16 ] { <  BB BB DD DD EE EE FF FF BB BB DD DD EE EE
FF FF BB BB DD DD EE EE FF FF BB BB DD DD EE EE FF FF > } image } if PT 19 eq
{ 16 16 1 [ 16 0 0 16 neg 0 16 ] { < 1F FC 67 F3 7B EF BD DE BD DE DE BD E6
B3 F8 0F E6 B3 DE BD BD DE BD DE 7B EF 67 F3 1F FC 7F FF > } image } if PT
20 eq { 16 16 1 [ 16 0 0 16 neg 0 16 ] { < DD DD EE EE EE EE EE EE DD DD BB
BB BB BB BB BB DD DD EE EE EE EE EE EE DD DD BB BB BB BB BB BB > } image }
if PT 21 eq { 16 16 1 [ 16 0 0 16 neg 0 16 ] { < 0E 0E EF EF EF EF EF EF E0
E0 FE FE FE FE FE FE 0E 0E EF EF EF EF EF EF E0 E0 FE FE FE FE FE FE > }
image }  if PT 22 eq { 16 16 1 [ 16 0 0 16 neg 0 16 ] { < 70 70 F7 F7 F7 F7 F7
F7 07 07 7F 7F 7F 7F 7F 7F 70 70 F7 F7 F7 F7 F7 F7 07 07 7F 7F 7F 7F 7F 7F >
} image } if PT 23 eq  { 16 16 1 [ 16 0 0 16 neg 0 16 ] { < AA AA 55 55 A9 A9
D1 D1 E1 E1 D1 D1 A9 A9 55 55 AA AA 55 55 A9 A9 D1 D1 E1 E1 D1 D1 A9 A9 55 55
> } image } if PT 24 eq { 16 16 1 [ 16 0 0 16 neg 0 16 ] { < FF FE FF FC EA
A8 D5 54 EA A8 D5 54 E8 28 D4 54 E8 E8 D4 D4 E8 EA 54 D5 A8 EA 54 D5 00 C0 00
80 > } image } if PT 25 eq {  16 16 1 [ 16 0 0 16 neg 0 16 ] { < FF FE FF FC
FF F8 FF F0 F0 00 F0 00 F0 20 F0 60 F0 E0 F1 E0 F3 E0 F0 00 E0 00 C0 00 80 00
00 00 > } image } if gr } def /FA { /PT exch def gsave clip 0 0 translate 1 1
74 { 1 sub 47.2 mul /Xcurr exch def 1 1 74 { 1 sub 47.2 mul /Ycurr exch def
gsave Xcurr Ycurr translate PT DP gr } for } for gr newpath } def
/reencdict 24 dict def /ReEncode {reencdict begin /nco&na exch def
/nfnam exch def /basefontname exch def /basefontdict basefontname findfont def
/newfont basefontdict maxlength dict def basefontdict {exch dup /FID ne
{dup /Encoding eq {exch dup length array copy newfont 3 1 roll put} {exch 
newfont 3 1 roll put} ifelse} {pop pop} ifelse } forall newfont
/FontName nfnam put nco&na aload pop nco&na length 2 idiv {newfont
/Encoding get 3 1 roll put} repeat nfnam newfont definefont pop end } def
/accvec [ 176 /agrave 181 /Agrave 190 /acircumflex 192 /Acircumflex
201 /adieresis 204 /Adieresis 209 /ccedilla 210 /Ccedilla 211 /eacute
212 /Eacute 213 /egrave 214 /Egrave 215 /ecircumflex 216 /Ecircumflex
217 /edieresis 218 /Edieresis 219 /icircumflex 220 /Icircumflex
221 /idieresis 222 /Idieresis 223 /ntilde 224 /Ntilde 226 /ocircumflex
228 /Ocircumflex 229 /odieresis 230 /Odieresis 231 /ucircumflex 236 /Ucircumflex
237 /udieresis 238 /Udieresis 239 /aring 242 /Aring 243 /ydieresis
244 /Ydieresis 246 /aacute 247 /Aacute 252 /ugrave 253 /Ugrave] def
/Times-Roman /Times-Roman accvec ReEncode
/Times-Italic /Times-Italic accvec ReEncode
/Times-Bold /Times-Bold accvec ReEncode
/Times-BoldItalic /Times-BoldItalic accvec ReEncode
/Helvetica /Helvetica accvec ReEncode
/Helvetica-Oblique /Helvetica-Oblique accvec ReEncode
/Helvetica-Bold /Helvetica-Bold accvec ReEncode
/Helvetica-BoldOblique /Helvetica-BoldOblique  accvec ReEncode
/Courier /Courier accvec ReEncode
/Courier-Oblique /Courier-Oblique accvec ReEncode
/Courier-Bold /Courier-Bold accvec ReEncode
/Courier-BoldOblique /Courier-BoldOblique accvec ReEncode
/oshow {gsave [] 0 sd true charpath stroke gr} def
/stwn { /fs exch def /fn exch def /text exch def fn findfont fs sf
 text sw pop xs add /xs exch def} def
/stwb { /fs exch def /fn exch def /nbas exch def /textf exch def
textf length /tlen exch def nbas tlen gt {/nbas tlendef} if
fn findfont fs sf textf dup length nbas sub nbas getinterval sw
pop neg xs add /xs exch def} def
/accspe [ 65 /plusminus  66 /bar  67 /existential  68 /universal 
69 /exclam  70 /numbersign 71 /greater  72 /question  73 /integral 
74 /colon  75 /semicolon  76 /less  77 /bracketleft  78 /bracketright
79 /greaterequal 80 /braceleft 81 /braceright 82 /radical
83 /spade 84 /heart 85 /diamond 86 /club 87 /lessequal
88 /multiply 89 /percent 90 /infinity 48 /circlemultiply 49 /circleplus
50 /emptyset  51 /lozenge 52 /bullet 53 /arrowright 54 /arrowup
55 /arrowleft 56 /arrowdown 57 /arrowboth 48 /degree 44 /comma 43 /plus 45 /angle 42 /angleleft 47 /divide 61 /notequal
 40 /equivalence 41 /second 97 /approxequal 98 /congruent 99 /perpendicular 100 /partialdiff 101 /florin
 102 /intersection 103 /union 104 /propersuperset 105 /reflexsuperset 106 /notsubset 107 /propersubset 108 /reflexsubset
 109 /element 110 /notelement 111 /gradient 112 /logicaland 113 /logicalor 114 /arrowdblboth 115 /arrowdblleft
 116 /arrowdblup 117 /arrowdblright 118 /arrowdbldown 119 /ampersand 120 /omega1 121 /similar 122 /aleph ] def
/Symbol /Special accspe ReEncode
/Zone {/iy exch def /ix exch def  ix 1 sub  3144 mul  1 iy sub  2224
 mul t} def
%%EndProlog
 gsave  90 r 0 -594 t  28 20 t .25 .25 scale  gsave 
%%Page: number 1
 black [] 0 sd 1 lw 0.95 0.95 0.95 c 2948 1944 0 0 bf 0.8 0.8 0.8 c 0 0 m 2 2 d 1940 Y 2944 X 2 2 d -2948 X -1944 Y f
 0.3 0.3 0.3 c 0 0 m 2 2 d 2944 X 1940 Y 2 2 d -1944 Y -2948 X f black [] 0 sd 1 lw 0.95 0.95 0.95 c 2358 1556 295 194
 bf 0.8 0.8 0.8 c 295 194 m 1 1 d 1554 Y 2356 X 1 1 d -2358 X -1556 Y f 0.3 0.3 0.3 c 295 194 m 1 1 d 2356 X 1554 Y 1 1
 d -1556 Y -2358 X f [] 0 sd 1 lw black 295 194 m 2358 X s [] 0 sd 1 lw 2653 194 m 1556 Y s [] 0 sd 1 lw 2653 1750 m
 -2358 X s [] 0 sd 1 lw 295 1750 m -1556 Y s [] 0 sd 1 lw 1 1 1 c black [] 0 sd 1 lw 295 194 m 59 X s [] 0 sd 1 lw 354
 194 m 59 X s [] 0 sd 1 lw 413 194 m 59 X s [] 0 sd 1 lw 472 194 m 59 X s [] 0 sd 1 lw 531 194 m 59 X s [] 0 sd 1 lw 590
 194 m 59 X s [] 0 sd 1 lw 708 250 m 46 Y s [] 0 sd 1 lw 708 296 m 45 Y s [] 0 sd 1 lw 649 296 m 59 X s [] 0 sd 1 lw 708
 296 m 58 X s [] 0 sd 1 lw /w 2 def /w2 {w 2 div} def /w3 {w 3 div} def 708 296 m20 [] 0 sd 1 lw [] 0 sd 1 lw 825 710 m
 113 Y s [] 0 sd 1 lw 825 823 m 113 Y s [] 0 sd 1 lw 766 823 m 59 X s [] 0 sd 1 lw 825 823 m 59 X s [] 0 sd 1 lw 825 823
 m20 [] 0 sd 1 lw [] 0 sd 1 lw 943 784 m 120 Y s [] 0 sd 1 lw 943 904 m 120 Y s [] 0 sd 1 lw 884 904 m 59 X s [] 0 sd 1
 lw 943 904 m 59 X s [] 0 sd 1 lw 943 904 m20 [] 0 sd 1 lw [] 0 sd 1 lw 1061 971 m 136 Y s [] 0 sd 1 lw 1061 1107 m 136
 Y s [] 0 sd 1 lw 1002 1107 m 59 X s [] 0 sd 1 lw 1061 1107 m 59 X s [] 0 sd 1 lw 1061 1107 m20 [] 0 sd 1 lw [] 0 sd 1
 lw 1179 1216 m 154 Y s [] 0 sd 1 lw 1179 1370 m 155 Y s [] 0 sd 1 lw 1120 1370 m 59 X s [] 0 sd 1 lw 1179 1370 m 59 X s
 [] 0 sd 1 lw 1179 1370 m20 [] 0 sd 1 lw [] 0 sd 1 lw 1297 1349 m 163 Y s [] 0 sd 1 lw 1297 1512 m 163 Y s [] 0 sd 1 lw
 1238 1512 m 59 X s [] 0 sd 1 lw 1297 1512 m 59 X s [] 0 sd 1 lw 1297 1512 m20 [] 0 sd 1 lw [] 0 sd 1 lw 1415 1178 m 152
 Y s [] 0 sd 1 lw 1415 1330 m 151 Y s [] 0 sd 1 lw 1356 1330 m 59 X s [] 0 sd 1 lw 1415 1330 m 59 X s [] 0 sd 1 lw 1415
 1330 m20 [] 0 sd 1 lw [] 0 sd 1 lw 1533 1027 m 140 Y s [] 0 sd 1 lw 1533 1167 m 141 Y s [] 0 sd 1 lw 1474 1167 m 59 X s
 [] 0 sd 1 lw 1533 1167 m 59 X s [] 0 sd 1 lw 1533 1167 m20 [] 0 sd 1 lw [] 0 sd 1 lw 1651 1273 m 158 Y s [] 0 sd 1 lw
 1651 1431 m 158 Y s [] 0 sd 1 lw 1592 1431 m 59 X s [] 0 sd 1 lw 1651 1431 m 59 X s [] 0 sd 1 lw 1651 1431 m20 [] 0 sd
 1 lw [] 0 sd 1 lw 1769 933 m 133 Y s [] 0 sd 1 lw 1769 1066 m 133 Y s [] 0 sd 1 lw 1710 1066 m 59 X s [] 0 sd 1 lw 1769
 1066 m 59 X s [] 0 sd 1 lw 1769 1066 m20 [] 0 sd 1 lw [] 0 sd 1 lw 1887 1046 m 142 Y s [] 0 sd 1 lw 1887 1188 m 142 Y s
 [] 0 sd 1 lw 1828 1188 m 59 X s [] 0 sd 1 lw 1887 1188 m 59 X s [] 0 sd 1 lw 1887 1188 m20 [] 0 sd 1 lw [] 0 sd 1 lw
 2005 765 m 119 Y s [] 0 sd 1 lw 2005 884 m 118 Y s [] 0 sd 1 lw 1946 884 m 59 X s [] 0 sd 1 lw 2005 884 m 59 X s
 [] 0 sd 1 lw 2005 884 m20 [] 0 sd 1 lw [] 0 sd 1 lw 2123 728 m 115 Y s [] 0 sd 1 lw 2123 843 m 115 Y s [] 0 sd 1 lw
 2064 843 m 59 X s [] 0 sd 1 lw 2123 843 m 59 X s [] 0 sd 1 lw 2123 843 m20 [] 0 sd 1 lw [] 0 sd 1 lw 2241 206 m 29 Y s
 [] 0 sd 1 lw 2241 235 m 29 Y s [] 0 sd 1 lw 2182 235 m 59 X s [] 0 sd 1 lw 2241 235 m 58 X s [] 0 sd 1 lw 2241 235 m20
 [] 0 sd 1 lw [] 0 sd 1 lw 2299 194 m 59 X s [] 0 sd 1 lw 2358 194 m 59 X s [] 0 sd 1 lw 2417 194 m 59 X s [] 0 sd 1 lw
 2476 194 m 59 X s [] 0 sd 1 lw 2535 194 m 59 X s [] 0 sd 1 lw 2594 194 m 59 X s [] 0 sd 1 lw [] 0 sd 1 lw 295 194 m
 2358 X s s
 /xs 0 def (Beam particle pseudorapidity) /Helvetica-Bold 72 stwn  gsave  2653 49
 t 0 r  xs neg 0 t 0 0 m /Helvetica-Bold findfont 72 sf 0 0 m (Beam particle pseudorapidity) show  gr  [] 0 sd 1 lw
 [] 0 sd 1 lw 295 241 m -47 Y s s [] 0 sd 1 lw [] 0 sd 1 lw 354 218 m -24 Y s s [] 0 sd 1 lw [] 0 sd 1 lw 413 218 m -24
 Y s s [] 0 sd 1 lw [] 0 sd 1 lw 472 218 m -24 Y s s [] 0 sd 1 lw [] 0 sd 1 lw 531 218 m -24 Y s s [] 0 sd 1 lw [] 0 sd
 1 lw 590 241 m -47 Y s s [] 0 sd 1 lw [] 0 sd 1 lw 649 218 m -24 Y s s [] 0 sd 1 lw [] 0 sd 1 lw 708 218 m -24 Y s s
 [] 0 sd 1 lw [] 0 sd 1 lw 766 218 m -24 Y s s [] 0 sd 1 lw [] 0 sd 1 lw 825 218 m -24 Y s s [] 0 sd 1 lw [] 0 sd 1 lw
 884 241 m -47 Y s s [] 0 sd 1 lw [] 0 sd 1 lw 943 218 m -24 Y s s [] 0 sd 1 lw [] 0 sd 1 lw 1002 218 m -24 Y s s
 [] 0 sd 1 lw [] 0 sd 1 lw 1061 218 m -24 Y s s [] 0 sd 1 lw [] 0 sd 1 lw 1120 218 m -24 Y s s [] 0 sd 1 lw [] 0 sd 1 lw
 1179 241 m -47 Y s s [] 0 sd 1 lw [] 0 sd 1 lw 1238 218 m -24 Y s s [] 0 sd 1 lw [] 0 sd 1 lw 1297 218 m -24 Y s s
 [] 0 sd 1 lw [] 0 sd 1 lw 1356 218 m -24 Y s s [] 0 sd 1 lw [] 0 sd 1 lw 1415 218 m -24 Y s s [] 0 sd 1 lw [] 0 sd 1 lw
 1474 241 m -47 Y s s [] 0 sd 1 lw [] 0 sd 1 lw 1533 218 m -24 Y s s [] 0 sd 1 lw [] 0 sd 1 lw 1592 218 m -24 Y s s
 [] 0 sd 1 lw [] 0 sd 1 lw 1651 218 m -24 Y s s [] 0 sd 1 lw [] 0 sd 1 lw 1710 218 m -24 Y s s [] 0 sd 1 lw [] 0 sd 1 lw
 1769 241 m -47 Y s s [] 0 sd 1 lw [] 0 sd 1 lw 1828 218 m -24 Y s s [] 0 sd 1 lw [] 0 sd 1 lw 1887 218 m -24 Y s s
 [] 0 sd 1 lw [] 0 sd 1 lw 1946 218 m -24 Y s s [] 0 sd 1 lw [] 0 sd 1 lw 2005 218 m -24 Y s s [] 0 sd 1 lw [] 0 sd 1 lw
 2064 241 m -47 Y s s [] 0 sd 1 lw [] 0 sd 1 lw 2123 218 m -24 Y s s [] 0 sd 1 lw [] 0 sd 1 lw 2182 218 m -24 Y s s
 [] 0 sd 1 lw [] 0 sd 1 lw 2241 218 m -24 Y s s [] 0 sd 1 lw [] 0 sd 1 lw 2299 218 m -24 Y s s [] 0 sd 1 lw [] 0 sd 1 lw
 2358 241 m -47 Y s s [] 0 sd 1 lw [] 0 sd 1 lw 2417 218 m -24 Y s s [] 0 sd 1 lw [] 0 sd 1 lw 2476 218 m -24 Y s s
 [] 0 sd 1 lw [] 0 sd 1 lw 2535 218 m -24 Y s s [] 0 sd 1 lw [] 0 sd 1 lw 2594 218 m -24 Y s s [] 0 sd 1 lw [] 0 sd 1 lw
 2653 241 m -47 Y s s
 /xs 0 def (-4) /Helvetica-Bold 72 stwn  gsave  295 107
 t 0 r xs 2 div neg 0 t 0 0 m /Helvetica-Bold findfont 72 sf 0 0 m (-4) show  gr 
 /xs 0 def (-3) /Helvetica-Bold 72 stwn  gsave  590 107
 t 0 r xs 2 div neg 0 t 0 0 m /Helvetica-Bold findfont 72 sf 0 0 m (-3) show  gr 
 /xs 0 def (-2) /Helvetica-Bold 72 stwn  gsave  884 107
 t 0 r xs 2 div neg 0 t 0 0 m /Helvetica-Bold findfont 72 sf 0 0 m (-2) show  gr 
 /xs 0 def (-1) /Helvetica-Bold 72 stwn  gsave  1179 107
 t 0 r xs 2 div neg 0 t 0 0 m /Helvetica-Bold findfont 72 sf 0 0 m (-1) show  gr 
 /xs 0 def (0) /Helvetica-Bold 72 stwn  gsave  1474 107
 t 0 r xs 2 div neg 0 t 0 0 m /Helvetica-Bold findfont 72 sf 0 0 m (0) show  gr 
 /xs 0 def (1) /Helvetica-Bold 72 stwn  gsave  1769 107
 t 0 r xs 2 div neg 0 t 0 0 m /Helvetica-Bold findfont 72 sf 0 0 m (1) show  gr 
 /xs 0 def (2) /Helvetica-Bold 72 stwn  gsave  2064 107
 t 0 r xs 2 div neg 0 t 0 0 m /Helvetica-Bold findfont 72 sf 0 0 m (2) show  gr 
 /xs 0 def (3) /Helvetica-Bold 72 stwn  gsave  2358 107
 t 0 r xs 2 div neg 0 t 0 0 m /Helvetica-Bold findfont 72 sf 0 0 m (3) show  gr 
 /xs 0 def (4) /Helvetica-Bold 72 stwn  gsave  2653 107
 t 0 r xs 2 div neg 0 t 0 0 m /Helvetica-Bold findfont 72 sf 0 0 m (4) show  gr  [] 0 sd 1 lw [] 0 sd 1 lw 295 194 m
 1556 Y s s
 /xs 0 def (Number of Hits) /Helvetica-Bold 72 stwn  gsave  136 1750
 t 90 r  xs neg 0 t 0 0 m /Helvetica-Bold findfont 72 sf 0 0 m (Number of Hits) show  gr  [] 0 sd 1 lw [] 0 sd 1 lw 366
 194 m -71 X s s [] 0 sd 1 lw [] 0 sd 1 lw 330 235 m -35 X s s [] 0 sd 1 lw [] 0 sd 1 lw 330 275 m -35 X s s [] 0 sd 1
 lw [] 0 sd 1 lw 330 316 m -35 X s s [] 0 sd 1 lw [] 0 sd 1 lw 330 357 m -35 X s s [] 0 sd 1 lw [] 0 sd 1 lw 366 397 m
 -71 X s s [] 0 sd 1 lw [] 0 sd 1 lw 330 438 m -35 X s s [] 0 sd 1 lw [] 0 sd 1 lw 330 478 m -35 X s s [] 0 sd 1 lw
 [] 0 sd 1 lw 330 519 m -35 X s s [] 0 sd 1 lw [] 0 sd 1 lw 330 559 m -35 X s s [] 0 sd 1 lw [] 0 sd 1 lw 366 600 m -71
 X s s [] 0 sd 1 lw [] 0 sd 1 lw 330 640 m -35 X s s [] 0 sd 1 lw [] 0 sd 1 lw 330 681 m -35 X s s [] 0 sd 1 lw [] 0 sd
 1 lw 330 721 m -35 X s s [] 0 sd 1 lw [] 0 sd 1 lw 330 762 m -35 X s s [] 0 sd 1 lw [] 0 sd 1 lw 366 803 m -71 X s s
 [] 0 sd 1 lw [] 0 sd 1 lw 330 843 m -35 X s s [] 0 sd 1 lw [] 0 sd 1 lw 330 884 m -35 X s s [] 0 sd 1 lw [] 0 sd 1 lw
 330 924 m -35 X s s [] 0 sd 1 lw [] 0 sd 1 lw 330 965 m -35 X s s [] 0 sd 1 lw [] 0 sd 1 lw 366 1005 m -71 X s s
 [] 0 sd 1 lw [] 0 sd 1 lw 330 1046 m -35 X s s [] 0 sd 1 lw [] 0 sd 1 lw 330 1086 m -35 X s s [] 0 sd 1 lw [] 0 sd 1 lw
 330 1127 m -35 X s s [] 0 sd 1 lw [] 0 sd 1 lw 330 1167 m -35 X s s [] 0 sd 1 lw [] 0 sd 1 lw 366 1208 m -71 X s s
 [] 0 sd 1 lw [] 0 sd 1 lw 330 1248 m -35 X s s [] 0 sd 1 lw [] 0 sd 1 lw 330 1289 m -35 X s s [] 0 sd 1 lw [] 0 sd 1 lw
 330 1330 m -35 X s s [] 0 sd 1 lw [] 0 sd 1 lw 330 1370 m -35 X s s [] 0 sd 1 lw [] 0 sd 1 lw 366 1411 m -71 X s s
 [] 0 sd 1 lw [] 0 sd 1 lw 330 1451 m -35 X s s [] 0 sd 1 lw [] 0 sd 1 lw 330 1492 m -35 X s s [] 0 sd 1 lw [] 0 sd 1 lw
 330 1532 m -35 X s s [] 0 sd 1 lw [] 0 sd 1 lw 330 1573 m -35 X s s [] 0 sd 1 lw [] 0 sd 1 lw 366 1613 m -71 X s s
 [] 0 sd 1 lw [] 0 sd 1 lw 366 1613 m -71 X s s [] 0 sd 1 lw [] 0 sd 1 lw 330 1654 m -35 X s s [] 0 sd 1 lw [] 0 sd 1 lw
 330 1694 m -35 X s s [] 0 sd 1 lw [] 0 sd 1 lw 330 1735 m -35 X s s
 /xs 0 def (0) /Helvetica-Bold 72 stwn  gsave  280 174
 t 0 r  xs neg 0 t 0 0 m /Helvetica-Bold findfont 72 sf 0 0 m (0) show  gr 
 /xs 0 def (10) /Helvetica-Bold 72 stwn  gsave  280 376
 t 0 r  xs neg 0 t 0 0 m /Helvetica-Bold findfont 72 sf 0 0 m (10) show  gr 
 /xs 0 def (20) /Helvetica-Bold 72 stwn  gsave  280 579
 t 0 r  xs neg 0 t 0 0 m /Helvetica-Bold findfont 72 sf 0 0 m (20) show  gr 
 /xs 0 def (30) /Helvetica-Bold 72 stwn  gsave  280 782
 t 0 r  xs neg 0 t 0 0 m /Helvetica-Bold findfont 72 sf 0 0 m (30) show  gr 
 /xs 0 def (40) /Helvetica-Bold 72 stwn  gsave  280 985
 t 0 r  xs neg 0 t 0 0 m /Helvetica-Bold findfont 72 sf 0 0 m (40) show  gr 
 /xs 0 def (50) /Helvetica-Bold 72 stwn  gsave  280 1187
 t 0 r  xs neg 0 t 0 0 m /Helvetica-Bold findfont 72 sf 0 0 m (50) show  gr 
 /xs 0 def (60) /Helvetica-Bold 72 stwn  gsave  280 1390
 t 0 r  xs neg 0 t 0 0 m /Helvetica-Bold findfont 72 sf 0 0 m (60) show  gr 
 /xs 0 def (70) /Helvetica-Bold 72 stwn  gsave  280 1593
 t 0 r  xs neg 0 t 0 0 m /Helvetica-Bold findfont 72 sf 0 0 m (70) show  gr  [] 0 sd 1 lw 0.95 0.95 0.95 c 855 97 29
 1837 bf black [] 0 sd 1 lw 49 1837 m -13 Y 848 X 91 Y -13 X -78 Y f [] 0 sd 1 lw 29 1837 m 97 Y s [] 0 sd 1 lw 29 1934
 m 855 X s [] 0 sd 1 lw 884 1934 m -97 Y s [] 0 sd 1 lw 884 1837 m -855 X s
 /xs 0 def (Hits for Layer 2) /Helvetica-Bold 76 stwn  gsave  457 1864
 t 0 r xs 2 div neg 0 t 0 0 m /Helvetica-Bold findfont 76 sf 0 0 m (Hits for Layer 2) show  gr  [] 0 sd 1 lw 0.95 0.95
 0.95 c 590 311 2299 1594 bf black [] 0 sd 1 lw 2319 1594 m -13 Y 583 X 305 Y -13 X -292 Y f [] 0 sd 1 lw 2299 1594 m
 311 Y s [] 0 sd 1 lw 2299 1905 m 590 X s [] 0 sd 1 lw 2889 1905 m -311 Y s [] 0 sd 1 lw 2889 1594 m -590 X s
 gsave  2329 1849
 t 0 r 0 0 m /Helvetica-Bold findfont 64 sf 0 0 m (hzetap_etap2) show  gr 
 gsave  2329 1771
 t 0 r 0 0 m /Helvetica-Bold findfont 64 sf 0 0 m (Nent = 564   \040) show  gr 
 gsave  2329 1693
 t 0 r 0 0 m /Helvetica-Bold findfont 64 sf 0 0 m (Mean  = -0.03688) show  gr 
 gsave  2329 1615
 t 0 r 0 0 m /Helvetica-Bold findfont 64 sf 0 0 m (RMS   =   1.27) show  gr  1 1 0 c gr 
showpage gr
 gr 
%%Trailer
%%Pages:  1
%%EOF
