%!PS-Adobe-2.0
%%Title: ITShitDensity_3_Eta.ps (Landscape A 4)
%%Pages: (atend)
%%Creator: ROOT Version 2.22/09
%%CreationDate:Sat Sep 18 07:10:24 1999
%%EndComments
%%BeginProlog
/s {stroke} def /l {lineto} def /m {moveto} def /t {translate} def
/sw {stringwidth} def /r {rotate} def /rl {roll}  def /R {repeat} def
/d {rlineto} def /rm {rmoveto} def /gr {grestore} def /f {eofill} def
/c {setrgbcolor} def /lw {setlinewidth} def /sd {setdash} def
/cl {closepath} def /sf {scalefont setfont} def /black {0 setgray} def
/box {m dup 0 exch d exch 0 d 0 exch neg d cl} def
/NC{systemdict begin initclip end}def/C{NC box clip newpath}def
/bl {box s} def /bf {box f} def /Y { 0 exch d} def /X { 0 d} def 
/mp {newpath /y exch def /x exch def} def
/side {[w .77 mul w .23 mul] .385 w mul sd w 0 l currentpoint t -144 r} def
/mr {mp x y w2 0 360 arc} def /m24 {mr s} def /m20 {mr f} def
/mb {mp x y w2 add m w2 neg 0 d 0 w neg d w 0 d 0 w d cl} def
/mt {mp x y w2 add m w2 neg w neg d w 0 d cl} def
/m21 {mb f} def /m25 {mb s} def /m22 {mt f} def /m26{mt s} def
/m23 {mp x y w2 sub m w2 w d w neg 0 d cl f} def
/m27 {mp x y w2 add m w3 neg w2 neg d w3 w2 neg d w3 w2 d cl s} def
/m28 {mp x w2 sub y w2 sub w3 add m w3 0 d  0 w3 neg d w3 0 d 0 w3 d w3 0 d  0 w3 d w3 neg 0 d 0 w3 d w3 neg 0 d
 0 w3 neg d w3 neg 0 d cl s } def
/m29 {mp gsave x w2 sub y w2 add w3 sub m currentpoint t
 4 {side} repeat cl fill gr} def
/m30 {mp gsave x w2 sub y w2 add w3 sub m currentpoint t
 5 {side} repeat s gr} def
/m31 {mp x y w2 sub m 0 w d x w2 sub y m w 0 d x w2 sub y w2 add m w w neg d x w2 sub y w2
 sub m w w d s} def
/m2 {mp x y w2 sub m 0 w d x w2 sub y m w 0 d s} def
/m5 {mp x w2 sub y w2 sub m w w d x w2 sub y w2 add m w w neg d s} def
/DP {/PT exch def gsave 47.2 47.2 scale PT 1  eq { 16 16 1 [ 16 0 0 16 neg 0 16
] { < AA AA 55 55 AA AA 55 55 AA AA 55 55 AA AA 55 55 AA AA 55 55 AA AA 55 55
AA AA 55 55 AA AA 55 55 > } image } if PT 2 eq { 16 16 1 [ 16 0 0 16 neg 0 16
] { < BB BB EE EE BB BB EE EE BB BB EE EE BB BB EE EE BB BB EE EE BB BB EE EE
BB BB EE EE BB BB EE EE > } image } if PT 3 eq { 16 16 1 [ 16 0 0 16 neg 0 16
] { < FF FF BB BB FF FF EE EE FF FF BB BB FF FF EE EE FF FF BB BB FF FF EE EE
FF FF BB BB FF FF EE EE > } image } if PT 4 eq { 16 16 1 [ 16 0 0 16 neg 0 16
] { < DF DF BF BF 7F 7F FE FE FD FD FB FB F7 F7 EF EF DF DF BF BF 7F 7F FE FE
FD FD FB FB F7 F7 EF EF > } image } if PT 5 eq { 16 16 1 [ 16 0 0 16 neg 0 16
] { < 7F 7F BF B F DF DF EF EF F7 F7 FB FB FD FD FE FE 7F 7F BF BF DF DF EF
EF F7 F7 FB FB FD FD FE FE > } image } if PT 6 eq { 16 16 1 [ 16 0 0 16 neg 0
16 ] { < BB BB BB BB BB BB BB BB BB BB BB BB BB BB BB BB BB BB BB BB BB BB BB
BB BB BB BB BB BB BB BB BB > } image } if PT 7 eq { 16 16 1 [ 16 0 0 16 neg 0
16 ] { < FF FF FF FF FF FF 00 00 FF FF FF FF FF FF 00 00 FF FF FF FF FF FF 00
00 FF FF FF FF FF FF 00 00 > } image } if PT 8 eq { 16 16 1 [ 16 0 0 16 neg 0
16 ] { < EE EE 47 47 83 83 C5 C5 EE EE 5C 5C 38 38 74 74 EE EE 47 47 83 83 C5
C5 EE EE 5C 5C 38 38 74 74 > } image } if PT 9 eq { 16 16 1 [ 16 0 0 16 neg 0
16 ] { < EF EF EF EF D7 D7 38 38 FE FE FE FE 7D 7D 83 83 EF EF EF EF D7 D7 38
38  FE FE FE FE 7D 7D 83 83 > } image } if PT 10 eq { 16 16 1 [ 16 0 0 16 neg
0 16 ] { <  EF EF EF EF EF EF 00 00 FE FE FE FE FE FE 00 00 EF EF EF EF EF EF
00 00 FE FE FE FE FE FE 00 00 > } image } if PT 11 eq { 16 16 1 [ 16 0 0 16
neg 0 16 ] { < F7 F7 B6 B6 D5 D5 E3 E3 D5 D5 B6 B6 F7 F7 FF FF 7F 7F 6B 6B 5D
5D 3E 3E 5D 5D 6B 6B 7F 7F FF FF > } image } if PT 12 eq { 16 16 1 [ 16 0 0
16 neg 0 16 ] { < E3 E3 DD DD BE BE BE BE BE BE DD DD E3 E3 FF FF 3E 3E DD DD
EB EB EB EB EB EB DD DD 3E 3E FF FF > } image } if PT 13 eq { 16 16 1 [ 16 0
0 16 neg 0 16 ] { <  FE FE 7D 7D BB BB D7 D7 EF EF D7 D7 BB BB 7D 7D FE FE 7D
7D BB BB D7 D7 EF EF D7 D7 BB BB 7D 7D > } image } if PT 14 eq { 16 16 1 [ 16
0 0 16 neg 0 16 ] { < 00 00 EE EF EE EF EE EF 0E E0 EE EE EE EE EE EE 00 EE
FE EE FE EE FE EE 00 00 FE EF FE EF FE EF > } image } if PT 15 eq { 16 16 1 [
16 0 0 16 neg 0 16 ] { < DD DD AA AA DD DD FF FF 77 77 AA AA 77 77 FF FF DD
DD AA AA DD DD FF FF 77 77 AA AA 77 77 FF FF > } image } if PT 16 eq { 16 16
1 [ 16 0 0 16 neg 0 16 ] { <  F1 F1 EE EE 1F 1F FF FF F1 F1 EE EE 1F 1F FF FF
F1 F1 EE EE 1F 1F FF FF F1 F1 EE EE 1F 1F FF FF > } image } if PT 17 eq { 16
16 1 [ 16 0 0 16 neg 0 16 ] { <  EE EE DD DD BB BB FF FF EE EE DD DD BB BB FF
 FF EE EE DD DD BB BB FF FF EE EE DD DD BB BB FF FF > } image } if PT 18 eq {
16 16 1 [ 16 0 0 16 neg 0 16 ] { <  BB BB DD DD EE EE FF FF BB BB DD DD EE EE
FF FF BB BB DD DD EE EE FF FF BB BB DD DD EE EE FF FF > } image } if PT 19 eq
{ 16 16 1 [ 16 0 0 16 neg 0 16 ] { < 1F FC 67 F3 7B EF BD DE BD DE DE BD E6
B3 F8 0F E6 B3 DE BD BD DE BD DE 7B EF 67 F3 1F FC 7F FF > } image } if PT
20 eq { 16 16 1 [ 16 0 0 16 neg 0 16 ] { < DD DD EE EE EE EE EE EE DD DD BB
BB BB BB BB BB DD DD EE EE EE EE EE EE DD DD BB BB BB BB BB BB > } image }
if PT 21 eq { 16 16 1 [ 16 0 0 16 neg 0 16 ] { < 0E 0E EF EF EF EF EF EF E0
E0 FE FE FE FE FE FE 0E 0E EF EF EF EF EF EF E0 E0 FE FE FE FE FE FE > }
image }  if PT 22 eq { 16 16 1 [ 16 0 0 16 neg 0 16 ] { < 70 70 F7 F7 F7 F7 F7
F7 07 07 7F 7F 7F 7F 7F 7F 70 70 F7 F7 F7 F7 F7 F7 07 07 7F 7F 7F 7F 7F 7F >
} image } if PT 23 eq  { 16 16 1 [ 16 0 0 16 neg 0 16 ] { < AA AA 55 55 A9 A9
D1 D1 E1 E1 D1 D1 A9 A9 55 55 AA AA 55 55 A9 A9 D1 D1 E1 E1 D1 D1 A9 A9 55 55
> } image } if PT 24 eq { 16 16 1 [ 16 0 0 16 neg 0 16 ] { < FF FE FF FC EA
A8 D5 54 EA A8 D5 54 E8 28 D4 54 E8 E8 D4 D4 E8 EA 54 D5 A8 EA 54 D5 00 C0 00
80 > } image } if PT 25 eq {  16 16 1 [ 16 0 0 16 neg 0 16 ] { < FF FE FF FC
FF F8 FF F0 F0 00 F0 00 F0 20 F0 60 F0 E0 F1 E0 F3 E0 F0 00 E0 00 C0 00 80 00
00 00 > } image } if gr } def /FA { /PT exch def gsave clip 0 0 translate 1 1
74 { 1 sub 47.2 mul /Xcurr exch def 1 1 74 { 1 sub 47.2 mul /Ycurr exch def
gsave Xcurr Ycurr translate PT DP gr } for } for gr newpath } def
/reencdict 24 dict def /ReEncode {reencdict begin /nco&na exch def
/nfnam exch def /basefontname exch def /basefontdict basefontname findfont def
/newfont basefontdict maxlength dict def basefontdict {exch dup /FID ne
{dup /Encoding eq {exch dup length array copy newfont 3 1 roll put} {exch 
newfont 3 1 roll put} ifelse} {pop pop} ifelse } forall newfont
/FontName nfnam put nco&na aload pop nco&na length 2 idiv {newfont
/Encoding get 3 1 roll put} repeat nfnam newfont definefont pop end } def
/accvec [ 176 /agrave 181 /Agrave 190 /acircumflex 192 /Acircumflex
201 /adieresis 204 /Adieresis 209 /ccedilla 210 /Ccedilla 211 /eacute
212 /Eacute 213 /egrave 214 /Egrave 215 /ecircumflex 216 /Ecircumflex
217 /edieresis 218 /Edieresis 219 /icircumflex 220 /Icircumflex
221 /idieresis 222 /Idieresis 223 /ntilde 224 /Ntilde 226 /ocircumflex
228 /Ocircumflex 229 /odieresis 230 /Odieresis 231 /ucircumflex 236 /Ucircumflex
237 /udieresis 238 /Udieresis 239 /aring 242 /Aring 243 /ydieresis
244 /Ydieresis 246 /aacute 247 /Aacute 252 /ugrave 253 /Ugrave] def
/Times-Roman /Times-Roman accvec ReEncode
/Times-Italic /Times-Italic accvec ReEncode
/Times-Bold /Times-Bold accvec ReEncode
/Times-BoldItalic /Times-BoldItalic accvec ReEncode
/Helvetica /Helvetica accvec ReEncode
/Helvetica-Oblique /Helvetica-Oblique accvec ReEncode
/Helvetica-Bold /Helvetica-Bold accvec ReEncode
/Helvetica-BoldOblique /Helvetica-BoldOblique  accvec ReEncode
/Courier /Courier accvec ReEncode
/Courier-Oblique /Courier-Oblique accvec ReEncode
/Courier-Bold /Courier-Bold accvec ReEncode
/Courier-BoldOblique /Courier-BoldOblique accvec ReEncode
/oshow {gsave [] 0 sd true charpath stroke gr} def
/stwn { /fs exch def /fn exch def /text exch def fn findfont fs sf
 text sw pop xs add /xs exch def} def
/stwb { /fs exch def /fn exch def /nbas exch def /textf exch def
textf length /tlen exch def nbas tlen gt {/nbas tlendef} if
fn findfont fs sf textf dup length nbas sub nbas getinterval sw
pop neg xs add /xs exch def} def
/accspe [ 65 /plusminus  66 /bar  67 /existential  68 /universal 
69 /exclam  70 /numbersign 71 /greater  72 /question  73 /integral 
74 /colon  75 /semicolon  76 /less  77 /bracketleft  78 /bracketright
79 /greaterequal 80 /braceleft 81 /braceright 82 /radical
83 /spade 84 /heart 85 /diamond 86 /club 87 /lessequal
88 /multiply 89 /percent 90 /infinity 48 /circlemultiply 49 /circleplus
50 /emptyset  51 /lozenge 52 /bullet 53 /arrowright 54 /arrowup
55 /arrowleft 56 /arrowdown 57 /arrowboth 48 /degree 44 /comma 43 /plus 45 /angle 42 /angleleft 47 /divide 61 /notequal
 40 /equivalence 41 /second 97 /approxequal 98 /congruent 99 /perpendicular 100 /partialdiff 101 /florin
 102 /intersection 103 /union 104 /propersuperset 105 /reflexsuperset 106 /notsubset 107 /propersubset 108 /reflexsubset
 109 /element 110 /notelement 111 /gradient 112 /logicaland 113 /logicalor 114 /arrowdblboth 115 /arrowdblleft
 116 /arrowdblup 117 /arrowdblright 118 /arrowdbldown 119 /ampersand 120 /omega1 121 /similar 122 /aleph ] def
/Symbol /Special accspe ReEncode
/Zone {/iy exch def /ix exch def  ix 1 sub  3144 mul  1 iy sub  2224
 mul t} def
%%EndProlog
 gsave  90 r 0 -594 t  28 20 t .25 .25 scale  gsave 
%%Page: number 1
 black [] 0 sd 1 lw 0.95 0.95 0.95 c 2948 1944 0 0 bf 0.8 0.8 0.8 c 0 0 m 2 2 d 1940 Y 2944 X 2 2 d -2948 X -1944 Y f
 0.3 0.3 0.3 c 0 0 m 2 2 d 2944 X 1940 Y 2 2 d -1944 Y -2948 X f black [] 0 sd 1 lw 0.95 0.95 0.95 c 2358 1556 295 194
 bf 0.8 0.8 0.8 c 295 194 m 1 1 d 1554 Y 2356 X 1 1 d -2358 X -1556 Y f 0.3 0.3 0.3 c 295 194 m 1 1 d 2356 X 1554 Y 1 1
 d -1556 Y -2358 X f [] 0 sd 1 lw black 295 194 m 2358 X s [] 0 sd 1 lw 2653 194 m 1556 Y s [] 0 sd 1 lw 2653 1750 m
 -2358 X s [] 0 sd 1 lw 295 1750 m -1556 Y s [] 0 sd 1 lw 1 1 1 c black [] 0 sd 1 lw 295 194 m 6 X s [] 0 sd 1 lw 301
 194 m 6 X s [] 0 sd 1 lw 307 194 m 5 X s [] 0 sd 1 lw 312 194 m 6 X s [] 0 sd 1 lw 318 194 m 6 X s [] 0 sd 1 lw 324 194
 m 6 X s [] 0 sd 1 lw 330 194 m 6 X s [] 0 sd 1 lw 336 194 m 6 X s [] 0 sd 1 lw 342 194 m 6 X s [] 0 sd 1 lw 348 194 m 6
 X s [] 0 sd 1 lw 354 194 m 6 X s [] 0 sd 1 lw 360 194 m 6 X s [] 0 sd 1 lw 366 194 m 5 X s [] 0 sd 1 lw 371 194 m 6 X s
 [] 0 sd 1 lw 377 194 m 6 X s [] 0 sd 1 lw 383 194 m 6 X s [] 0 sd 1 lw 389 194 m 6 X s [] 0 sd 1 lw 395 194 m 6 X s
 [] 0 sd 1 lw 401 194 m 6 X s [] 0 sd 1 lw 407 194 m 6 X s [] 0 sd 1 lw 413 194 m 6 X s [] 0 sd 1 lw 419 194 m 6 X s
 [] 0 sd 1 lw 425 194 m 5 X s [] 0 sd 1 lw 430 194 m 6 X s [] 0 sd 1 lw 442 194 m 80 Y s [] 0 sd 1 lw 442 274 m 80 Y s
 [] 0 sd 1 lw 436 274 m 6 X s [] 0 sd 1 lw 442 274 m 6 X s [] 0 sd 1 lw /w 2 def /w2 {w 2 div} def /w3 {w 3 div} def 442
 274 m20 [] 0 sd 1 lw [] 0 sd 1 lw 448 194 m 6 X s [] 0 sd 1 lw 454 194 m 6 X s [] 0 sd 1 lw 466 241 m 112 Y s [] 0 sd 1
 lw 466 353 m 112 Y s [] 0 sd 1 lw 460 353 m 6 X s [] 0 sd 1 lw 466 353 m 6 X s [] 0 sd 1 lw 466 353 m20 [] 0 sd 1 lw
 [] 0 sd 1 lw 478 194 m 80 Y s [] 0 sd 1 lw 478 274 m 79 Y s [] 0 sd 1 lw 472 274 m 6 X s [] 0 sd 1 lw 478 274 m 5 X s
 [] 0 sd 1 lw 478 274 m20 [] 0 sd 1 lw [] 0 sd 1 lw 489 242 m 116 Y s [] 0 sd 1 lw 489 358 m 115 Y s [] 0 sd 1 lw 483
 358 m 6 X s [] 0 sd 1 lw 489 358 m 6 X s [] 0 sd 1 lw 489 358 m20 [] 0 sd 1 lw [] 0 sd 1 lw 495 194 m 6 X s [] 0 sd 1
 lw 501 194 m 6 X s [] 0 sd 1 lw 513 194 m 76 Y s [] 0 sd 1 lw 513 270 m 75 Y s [] 0 sd 1 lw 507 270 m 6 X s [] 0 sd 1
 lw 513 270 m 6 X s [] 0 sd 1 lw 513 270 m20 [] 0 sd 1 lw [] 0 sd 1 lw 525 361 m 167 Y s [] 0 sd 1 lw 525 528 m 166 Y s
 [] 0 sd 1 lw 519 528 m 6 X s [] 0 sd 1 lw 525 528 m 6 X s [] 0 sd 1 lw 525 528 m20 [] 0 sd 1 lw [] 0 sd 1 lw 537 243 m
 117 Y s [] 0 sd 1 lw 537 360 m 117 Y s [] 0 sd 1 lw 531 360 m 6 X s [] 0 sd 1 lw 537 360 m 5 X s [] 0 sd 1 lw 537 360
 m20 [] 0 sd 1 lw [] 0 sd 1 lw 548 242 m 114 Y s [] 0 sd 1 lw 548 356 m 114 Y s [] 0 sd 1 lw 542 356 m 6 X s [] 0 sd 1
 lw 548 356 m 6 X s [] 0 sd 1 lw 548 356 m20 [] 0 sd 1 lw [] 0 sd 1 lw 560 303 m 149 Y s [] 0 sd 1 lw 560 452 m 149 Y s
 [] 0 sd 1 lw 554 452 m 6 X s [] 0 sd 1 lw 560 452 m 6 X s [] 0 sd 1 lw 560 452 m20 [] 0 sd 1 lw [] 0 sd 1 lw 572 244 m
 120 Y s [] 0 sd 1 lw 572 364 m 120 Y s [] 0 sd 1 lw 566 364 m 6 X s [] 0 sd 1 lw 572 364 m 6 X s [] 0 sd 1 lw 572 364
 m20 [] 0 sd 1 lw [] 0 sd 1 lw 584 367 m 174 Y s [] 0 sd 1 lw 584 541 m 173 Y s [] 0 sd 1 lw 578 541 m 6 X s [] 0 sd 1
 lw 584 541 m 6 X s [] 0 sd 1 lw 584 541 m20 [] 0 sd 1 lw [] 0 sd 1 lw 596 243 m 119 Y s [] 0 sd 1 lw 596 362 m 118 Y s
 [] 0 sd 1 lw 590 362 m 6 X s [] 0 sd 1 lw 596 362 m 5 X s [] 0 sd 1 lw 596 362 m20 [] 0 sd 1 lw [] 0 sd 1 lw 607 311 m
 159 Y s [] 0 sd 1 lw 607 470 m 159 Y s [] 0 sd 1 lw 601 470 m 6 X s [] 0 sd 1 lw 607 470 m 6 X s [] 0 sd 1 lw 607 470
 m20 [] 0 sd 1 lw [] 0 sd 1 lw 619 312 m 160 Y s [] 0 sd 1 lw 619 472 m 161 Y s [] 0 sd 1 lw 613 472 m 6 X s [] 0 sd 1
 lw 619 472 m 6 X s [] 0 sd 1 lw 619 472 m20 [] 0 sd 1 lw [] 0 sd 1 lw 631 309 m 157 Y s [] 0 sd 1 lw 631 466 m 156 Y s
 [] 0 sd 1 lw 625 466 m 6 X s [] 0 sd 1 lw 631 466 m 6 X s [] 0 sd 1 lw 631 466 m20 [] 0 sd 1 lw [] 0 sd 1 lw 643 194 m
 93 Y s [] 0 sd 1 lw 643 287 m 94 Y s [] 0 sd 1 lw 637 287 m 6 X s [] 0 sd 1 lw 643 287 m 6 X s [] 0 sd 1 lw 643 287 m20
 [] 0 sd 1 lw [] 0 sd 1 lw 654 247 m 129 Y s [] 0 sd 1 lw 654 376 m 128 Y s [] 0 sd 1 lw 649 376 m 5 X s [] 0 sd 1 lw
 654 376 m 6 X s [] 0 sd 1 lw 654 376 m20 [] 0 sd 1 lw [] 0 sd 1 lw 666 248 m 130 Y s [] 0 sd 1 lw 666 378 m 130 Y s
 [] 0 sd 1 lw 660 378 m 6 X s [] 0 sd 1 lw 666 378 m 6 X s [] 0 sd 1 lw 666 378 m20 [] 0 sd 1 lw [] 0 sd 1 lw 672 194 m
 6 X s [] 0 sd 1 lw 678 194 m 6 X s [] 0 sd 1 lw 690 390 m 196 Y s [] 0 sd 1 lw 690 586 m 196 Y s [] 0 sd 1 lw 684 586 m
 6 X s [] 0 sd 1 lw 690 586 m 6 X s [] 0 sd 1 lw 690 586 m20 [] 0 sd 1 lw [] 0 sd 1 lw 702 250 m 135 Y s [] 0 sd 1 lw
 702 385 m 135 Y s [] 0 sd 1 lw 696 385 m 6 X s [] 0 sd 1 lw 702 385 m 6 X s [] 0 sd 1 lw 702 385 m20 [] 0 sd 1 lw
 [] 0 sd 1 lw 713 386 m 193 Y s [] 0 sd 1 lw 713 579 m 192 Y s [] 0 sd 1 lw 708 579 m 5 X s [] 0 sd 1 lw 713 579 m 6 X s
 [] 0 sd 1 lw 713 579 m20 [] 0 sd 1 lw [] 0 sd 1 lw 725 387 m 193 Y s [] 0 sd 1 lw 725 580 m 193 Y s [] 0 sd 1 lw 719
 580 m 6 X s [] 0 sd 1 lw 725 580 m 6 X s [] 0 sd 1 lw 725 580 m20 [] 0 sd 1 lw [] 0 sd 1 lw 737 528 m 231 Y s [] 0 sd 1
 lw 737 759 m 230 Y s [] 0 sd 1 lw 731 759 m 6 X s [] 0 sd 1 lw 737 759 m 6 X s [] 0 sd 1 lw 737 759 m20 [] 0 sd 1 lw
 [] 0 sd 1 lw 749 194 m 101 Y s [] 0 sd 1 lw 749 295 m 101 Y s [] 0 sd 1 lw 743 295 m 6 X s [] 0 sd 1 lw 749 295 m 6 X s
 [] 0 sd 1 lw 749 295 m20 [] 0 sd 1 lw [] 0 sd 1 lw 761 465 m 219 Y s [] 0 sd 1 lw 761 684 m 219 Y s [] 0 sd 1 lw 755
 684 m 6 X s [] 0 sd 1 lw 761 684 m 5 X s [] 0 sd 1 lw 761 684 m20 [] 0 sd 1 lw [] 0 sd 1 lw 772 194 m 99 Y s [] 0 sd 1
 lw 772 293 m 99 Y s [] 0 sd 1 lw 766 293 m 6 X s [] 0 sd 1 lw 772 293 m 6 X s [] 0 sd 1 lw 772 293 m20 [] 0 sd 1 lw
 [] 0 sd 1 lw 784 394 m 199 Y s [] 0 sd 1 lw 784 593 m 199 Y s [] 0 sd 1 lw 778 593 m 6 X s [] 0 sd 1 lw 784 593 m 6 X s
 [] 0 sd 1 lw 784 593 m20 [] 0 sd 1 lw [] 0 sd 1 lw 790 194 m 6 X s [] 0 sd 1 lw 796 194 m 6 X s [] 0 sd 1 lw 808 256 m
 147 Y s [] 0 sd 1 lw 808 403 m 148 Y s [] 0 sd 1 lw 802 403 m 6 X s [] 0 sd 1 lw 808 403 m 6 X s [] 0 sd 1 lw 808 403
 m20 [] 0 sd 1 lw [] 0 sd 1 lw 820 474 m 227 Y s [] 0 sd 1 lw 820 701 m 227 Y s [] 0 sd 1 lw 814 701 m 6 X s [] 0 sd 1
 lw 820 701 m 5 X s [] 0 sd 1 lw 820 701 m20 [] 0 sd 1 lw [] 0 sd 1 lw 831 327 m 182 Y s [] 0 sd 1 lw 831 509 m 181 Y s
 [] 0 sd 1 lw 825 509 m 6 X s [] 0 sd 1 lw 831 509 m 6 X s [] 0 sd 1 lw 831 509 m20 [] 0 sd 1 lw [] 0 sd 1 lw 843 253 m
 141 Y s [] 0 sd 1 lw 843 394 m 141 Y s [] 0 sd 1 lw 837 394 m 6 X s [] 0 sd 1 lw 843 394 m 6 X s [] 0 sd 1 lw 843 394
 m20 [] 0 sd 1 lw [] 0 sd 1 lw 855 255 m 147 Y s [] 0 sd 1 lw 855 402 m 148 Y s [] 0 sd 1 lw 849 402 m 6 X s [] 0 sd 1
 lw 855 402 m 6 X s [] 0 sd 1 lw 855 402 m20 [] 0 sd 1 lw [] 0 sd 1 lw 867 329 m 185 Y s [] 0 sd 1 lw 867 514 m 184 Y s
 [] 0 sd 1 lw 861 514 m 6 X s [] 0 sd 1 lw 867 514 m 6 X s [] 0 sd 1 lw 867 514 m20 [] 0 sd 1 lw [] 0 sd 1 lw 879 564 m
 256 Y s [] 0 sd 1 lw 879 820 m 255 Y s [] 0 sd 1 lw 873 820 m 6 X s [] 0 sd 1 lw 879 820 m 5 X s [] 0 sd 1 lw 879 820
 m20 [] 0 sd 1 lw [] 0 sd 1 lw 890 257 m 152 Y s [] 0 sd 1 lw 890 409 m 152 Y s [] 0 sd 1 lw 884 409 m 6 X s [] 0 sd 1
 lw 890 409 m 6 X s [] 0 sd 1 lw 890 409 m20 [] 0 sd 1 lw [] 0 sd 1 lw 902 259 m 155 Y s [] 0 sd 1 lw 902 414 m 155 Y s
 [] 0 sd 1 lw 896 414 m 6 X s [] 0 sd 1 lw 902 414 m 6 X s [] 0 sd 1 lw 902 414 m20 [] 0 sd 1 lw [] 0 sd 1 lw 914 194 m
 102 Y s [] 0 sd 1 lw 914 296 m 101 Y s [] 0 sd 1 lw 908 296 m 6 X s [] 0 sd 1 lw 914 296 m 6 X s [] 0 sd 1 lw 914 296
 m20 [] 0 sd 1 lw [] 0 sd 1 lw 926 336 m 194 Y s [] 0 sd 1 lw 926 530 m 193 Y s [] 0 sd 1 lw 920 530 m 6 X s [] 0 sd 1
 lw 926 530 m 6 X s [] 0 sd 1 lw 926 530 m20 [] 0 sd 1 lw [] 0 sd 1 lw 937 427 m 232 Y s [] 0 sd 1 lw 937 659 m 232 Y s
 [] 0 sd 1 lw 932 659 m 5 X s [] 0 sd 1 lw 937 659 m 6 X s [] 0 sd 1 lw 937 659 m20 [] 0 sd 1 lw [] 0 sd 1 lw 949 194 m
 109 Y s [] 0 sd 1 lw 949 303 m 109 Y s [] 0 sd 1 lw 943 303 m 6 X s [] 0 sd 1 lw 949 303 m 6 X s [] 0 sd 1 lw 949 303
 m20 [] 0 sd 1 lw [] 0 sd 1 lw 961 260 m 159 Y s [] 0 sd 1 lw 961 419 m 158 Y s [] 0 sd 1 lw 955 419 m 6 X s [] 0 sd 1
 lw 961 419 m 6 X s [] 0 sd 1 lw 961 419 m20 [] 0 sd 1 lw [] 0 sd 1 lw 973 258 m 154 Y s [] 0 sd 1 lw 973 412 m 153 Y s
 [] 0 sd 1 lw 967 412 m 6 X s [] 0 sd 1 lw 973 412 m 6 X s [] 0 sd 1 lw 973 412 m20 [] 0 sd 1 lw [] 0 sd 1 lw 985 261 m
 162 Y s [] 0 sd 1 lw 985 423 m 161 Y s [] 0 sd 1 lw 979 423 m 6 X s [] 0 sd 1 lw 985 423 m 6 X s [] 0 sd 1 lw 985 423
 m20 [] 0 sd 1 lw [] 0 sd 1 lw 996 194 m 110 Y s [] 0 sd 1 lw 996 304 m 110 Y s [] 0 sd 1 lw 991 304 m 5 X s [] 0 sd 1
 lw 996 304 m 6 X s [] 0 sd 1 lw 996 304 m20 [] 0 sd 1 lw [] 0 sd 1 lw 1008 425 m 231 Y s [] 0 sd 1 lw 1008 656 m 231 Y
 s [] 0 sd 1 lw 1002 656 m 6 X s [] 0 sd 1 lw 1008 656 m 6 X s [] 0 sd 1 lw 1008 656 m20 [] 0 sd 1 lw [] 0 sd 1 lw 1020
 704 m 310 Y s [] 0 sd 1 lw 1020 1014 m 310 Y s [] 0 sd 1 lw 1014 1014 m 6 X s [] 0 sd 1 lw 1020 1014 m 6 X s [] 0 sd 1
 lw 1020 1014 m20 [] 0 sd 1 lw [] 0 sd 1 lw 1032 524 m 268 Y s [] 0 sd 1 lw 1032 792 m 267 Y s [] 0 sd 1 lw 1026 792 m 6
 X s [] 0 sd 1 lw 1032 792 m 6 X s [] 0 sd 1 lw 1032 792 m20 [] 0 sd 1 lw [] 0 sd 1 lw 1044 259 m 158 Y s [] 0 sd 1 lw
 1044 417 m 157 Y s [] 0 sd 1 lw 1038 417 m 6 X s [] 0 sd 1 lw 1044 417 m 5 X s [] 0 sd 1 lw 1044 417 m20 [] 0 sd 1 lw
 [] 0 sd 1 lw 1055 425 m 231 Y s [] 0 sd 1 lw 1055 656 m 231 Y s [] 0 sd 1 lw 1049 656 m 6 X s [] 0 sd 1 lw 1055 656 m 6
 X s [] 0 sd 1 lw 1055 656 m20 [] 0 sd 1 lw [] 0 sd 1 lw 1067 194 m 130 Y s [] 0 sd 1 lw 1067 324 m 129 Y s [] 0 sd 1 lw
 1061 324 m 6 X s [] 0 sd 1 lw 1067 324 m 6 X s [] 0 sd 1 lw 1067 324 m20 [] 0 sd 1 lw [] 0 sd 1 lw 1079 436 m 242 Y s
 [] 0 sd 1 lw 1079 678 m 242 Y s [] 0 sd 1 lw 1073 678 m 6 X s [] 0 sd 1 lw 1079 678 m 6 X s [] 0 sd 1 lw 1079 678 m20
 [] 0 sd 1 lw [] 0 sd 1 lw 1091 532 m 274 Y s [] 0 sd 1 lw 1091 806 m 273 Y s [] 0 sd 1 lw 1085 806 m 6 X s [] 0 sd 1 lw
 1091 806 m 6 X s [] 0 sd 1 lw 1091 806 m20 [] 0 sd 1 lw [] 0 sd 1 lw 1103 194 m 133 Y s [] 0 sd 1 lw 1103 327 m 132 Y s
 [] 0 sd 1 lw 1097 327 m 6 X s [] 0 sd 1 lw 1103 327 m 5 X s [] 0 sd 1 lw 1103 327 m20 [] 0 sd 1 lw [] 0 sd 1 lw 1114
 194 m 133 Y s [] 0 sd 1 lw 1114 327 m 132 Y s [] 0 sd 1 lw 1108 327 m 6 X s [] 0 sd 1 lw 1114 327 m 6 X s [] 0 sd 1 lw
 1114 327 m20 [] 0 sd 1 lw [] 0 sd 1 lw 1126 460 m 265 Y s [] 0 sd 1 lw 1126 725 m 266 Y s [] 0 sd 1 lw 1120 725 m 6 X s
 [] 0 sd 1 lw 1126 725 m 6 X s [] 0 sd 1 lw 1126 725 m20 [] 0 sd 1 lw [] 0 sd 1 lw 1138 444 m 249 Y s [] 0 sd 1 lw 1138
 693 m 250 Y s [] 0 sd 1 lw 1132 693 m 6 X s [] 0 sd 1 lw 1138 693 m 6 X s [] 0 sd 1 lw 1138 693 m20 [] 0 sd 1 lw
 [] 0 sd 1 lw 1150 194 m 123 Y s [] 0 sd 1 lw 1150 317 m 123 Y s [] 0 sd 1 lw 1144 317 m 6 X s [] 0 sd 1 lw 1150 317 m 6
 X s [] 0 sd 1 lw 1150 317 m20 [] 0 sd 1 lw [] 0 sd 1 lw 1162 268 m 177 Y s [] 0 sd 1 lw 1162 445 m 177 Y s [] 0 sd 1 lw
 1156 445 m 6 X s [] 0 sd 1 lw 1162 445 m 5 X s [] 0 sd 1 lw 1162 445 m20 [] 0 sd 1 lw [] 0 sd 1 lw 1173 271 m 185 Y s
 [] 0 sd 1 lw 1173 456 m 184 Y s [] 0 sd 1 lw 1167 456 m 6 X s [] 0 sd 1 lw 1173 456 m 6 X s [] 0 sd 1 lw 1173 456 m20
 [] 0 sd 1 lw [] 0 sd 1 lw 1185 353 m 217 Y s [] 0 sd 1 lw 1185 570 m 217 Y s [] 0 sd 1 lw 1179 570 m 6 X s [] 0 sd 1 lw
 1185 570 m 6 X s [] 0 sd 1 lw 1185 570 m20 [] 0 sd 1 lw [] 0 sd 1 lw 1197 267 m 176 Y s [] 0 sd 1 lw 1197 443 m 176 Y s
 [] 0 sd 1 lw 1191 443 m 6 X s [] 0 sd 1 lw 1197 443 m 6 X s [] 0 sd 1 lw 1197 443 m20 [] 0 sd 1 lw [] 0 sd 1 lw 1209
 273 m 189 Y s [] 0 sd 1 lw 1209 462 m 189 Y s [] 0 sd 1 lw 1203 462 m 6 X s [] 0 sd 1 lw 1209 462 m 6 X s [] 0 sd 1 lw
 1209 462 m20 [] 0 sd 1 lw [] 0 sd 1 lw 1220 194 m 135 Y s [] 0 sd 1 lw 1220 329 m 134 Y s [] 0 sd 1 lw 1215 329 m 5 X s
 [] 0 sd 1 lw 1220 329 m 6 X s [] 0 sd 1 lw 1220 329 m20 [] 0 sd 1 lw [] 0 sd 1 lw 1232 194 m 123 Y s [] 0 sd 1 lw 1232
 317 m 123 Y s [] 0 sd 1 lw 1226 317 m 6 X s [] 0 sd 1 lw 1232 317 m 6 X s [] 0 sd 1 lw 1232 317 m20 [] 0 sd 1 lw
 [] 0 sd 1 lw 1244 562 m 297 Y s [] 0 sd 1 lw 1244 859 m 298 Y s [] 0 sd 1 lw 1238 859 m 6 X s [] 0 sd 1 lw 1244 859 m 6
 X s [] 0 sd 1 lw 1244 859 m20 [] 0 sd 1 lw [] 0 sd 1 lw 1256 194 m 127 Y s [] 0 sd 1 lw 1256 321 m 126 Y s [] 0 sd 1 lw
 1250 321 m 6 X s [] 0 sd 1 lw 1256 321 m 6 X s [] 0 sd 1 lw 1256 321 m20 [] 0 sd 1 lw [] 0 sd 1 lw 1268 194 m 141 Y s
 [] 0 sd 1 lw 1268 335 m 140 Y s [] 0 sd 1 lw 1262 335 m 6 X s [] 0 sd 1 lw 1268 335 m 6 X s [] 0 sd 1 lw 1268 335 m20
 [] 0 sd 1 lw [] 0 sd 1 lw 1279 272 m 188 Y s [] 0 sd 1 lw 1279 460 m 187 Y s [] 0 sd 1 lw 1274 460 m 5 X s [] 0 sd 1 lw
 1279 460 m 6 X s [] 0 sd 1 lw 1279 460 m20 [] 0 sd 1 lw [] 0 sd 1 lw 1291 194 m 137 Y s [] 0 sd 1 lw 1291 331 m 137 Y s
 [] 0 sd 1 lw 1285 331 m 6 X s [] 0 sd 1 lw 1291 331 m 6 X s [] 0 sd 1 lw 1291 331 m20 [] 0 sd 1 lw [] 0 sd 1 lw 1303
 277 m 200 Y s [] 0 sd 1 lw 1303 477 m 200 Y s [] 0 sd 1 lw 1297 477 m 6 X s [] 0 sd 1 lw 1303 477 m 6 X s [] 0 sd 1 lw
 1303 477 m20 [] 0 sd 1 lw [] 0 sd 1 lw 1315 194 m 137 Y s [] 0 sd 1 lw 1315 331 m 137 Y s [] 0 sd 1 lw 1309 331 m 6 X s
 [] 0 sd 1 lw 1315 331 m 6 X s [] 0 sd 1 lw 1315 331 m20 [] 0 sd 1 lw [] 0 sd 1 lw 1327 364 m 233 Y s [] 0 sd 1 lw 1327
 597 m 232 Y s [] 0 sd 1 lw 1321 597 m 6 X s [] 0 sd 1 lw 1327 597 m 6 X s [] 0 sd 1 lw 1327 597 m20 [] 0 sd 1 lw
 [] 0 sd 1 lw 1338 194 m 131 Y s [] 0 sd 1 lw 1338 325 m 131 Y s [] 0 sd 1 lw 1333 325 m 5 X s [] 0 sd 1 lw 1338 325 m 6
 X s [] 0 sd 1 lw 1338 325 m20 [] 0 sd 1 lw [] 0 sd 1 lw 1350 270 m 181 Y s [] 0 sd 1 lw 1350 451 m 182 Y s [] 0 sd 1 lw
 1344 451 m 6 X s [] 0 sd 1 lw 1350 451 m 6 X s [] 0 sd 1 lw 1350 451 m20 [] 0 sd 1 lw [] 0 sd 1 lw 1362 194 m 143 Y s
 [] 0 sd 1 lw 1362 337 m 143 Y s [] 0 sd 1 lw 1356 337 m 6 X s [] 0 sd 1 lw 1362 337 m 6 X s [] 0 sd 1 lw 1362 337 m20
 [] 0 sd 1 lw [] 0 sd 1 lw 1374 369 m 239 Y s [] 0 sd 1 lw 1374 608 m 239 Y s [] 0 sd 1 lw 1368 608 m 6 X s [] 0 sd 1 lw
 1374 608 m 6 X s [] 0 sd 1 lw 1374 608 m20 [] 0 sd 1 lw [] 0 sd 1 lw 1386 362 m 230 Y s [] 0 sd 1 lw 1386 592 m 229 Y s
 [] 0 sd 1 lw 1380 592 m 6 X s [] 0 sd 1 lw 1386 592 m 5 X s [] 0 sd 1 lw 1386 592 m20 [] 0 sd 1 lw [] 0 sd 1 lw 1397
 570 m 303 Y s [] 0 sd 1 lw 1397 873 m 304 Y s [] 0 sd 1 lw 1391 873 m 6 X s [] 0 sd 1 lw 1397 873 m 6 X s [] 0 sd 1 lw
 1397 873 m20 [] 0 sd 1 lw [] 0 sd 1 lw 1409 477 m 282 Y s [] 0 sd 1 lw 1409 759 m 283 Y s [] 0 sd 1 lw 1403 759 m 6 X s
 [] 0 sd 1 lw 1409 759 m 6 X s [] 0 sd 1 lw 1409 759 m20 [] 0 sd 1 lw [] 0 sd 1 lw 1421 194 m 130 Y s [] 0 sd 1 lw 1421
 324 m 130 Y s [] 0 sd 1 lw 1415 324 m 6 X s [] 0 sd 1 lw 1421 324 m 6 X s [] 0 sd 1 lw 1421 324 m20 [] 0 sd 1 lw
 [] 0 sd 1 lw 1433 472 m 278 Y s [] 0 sd 1 lw 1433 750 m 277 Y s [] 0 sd 1 lw 1427 750 m 6 X s [] 0 sd 1 lw 1433 750 m 6
 X s [] 0 sd 1 lw 1433 750 m20 [] 0 sd 1 lw [] 0 sd 1 lw 1445 461 m 266 Y s [] 0 sd 1 lw 1445 727 m 267 Y s [] 0 sd 1 lw
 1439 727 m 6 X s [] 0 sd 1 lw 1445 727 m 5 X s [] 0 sd 1 lw 1445 727 m20 [] 0 sd 1 lw [] 0 sd 1 lw 1456 194 m 145 Y s
 [] 0 sd 1 lw 1456 339 m 145 Y s [] 0 sd 1 lw 1450 339 m 6 X s [] 0 sd 1 lw 1456 339 m 6 X s [] 0 sd 1 lw 1456 339 m20
 [] 0 sd 1 lw [] 0 sd 1 lw 1468 458 m 265 Y s [] 0 sd 1 lw 1468 723 m 264 Y s [] 0 sd 1 lw 1462 723 m 6 X s [] 0 sd 1 lw
 1468 723 m 6 X s [] 0 sd 1 lw 1468 723 m20 [] 0 sd 1 lw [] 0 sd 1 lw 1480 901 m 387 Y s [] 0 sd 1 lw 1480 1288 m 387 Y
 s [] 0 sd 1 lw 1474 1288 m 6 X s [] 0 sd 1 lw 1480 1288 m 6 X s [] 0 sd 1 lw 1480 1288 m20 [] 0 sd 1 lw [] 0 sd 1 lw
 1486 194 m 6 X s [] 0 sd 1 lw 1492 194 m 6 X s [] 0 sd 1 lw 1503 565 m 301 Y s [] 0 sd 1 lw 1503 866 m 301 Y s [] 0 sd
 1 lw 1498 866 m 5 X s [] 0 sd 1 lw 1503 866 m 6 X s [] 0 sd 1 lw 1503 866 m20 [] 0 sd 1 lw [] 0 sd 1 lw 1515 561 m 298
 Y s [] 0 sd 1 lw 1515 859 m 297 Y s [] 0 sd 1 lw 1509 859 m 6 X s [] 0 sd 1 lw 1515 859 m 6 X s [] 0 sd 1 lw 1515 859
 m20 [] 0 sd 1 lw [] 0 sd 1 lw 1527 194 m 138 Y s [] 0 sd 1 lw 1527 332 m 138 Y s [] 0 sd 1 lw 1521 332 m 6 X s [] 0 sd
 1 lw 1527 332 m 6 X s [] 0 sd 1 lw 1527 332 m20 [] 0 sd 1 lw [] 0 sd 1 lw 1539 452 m 257 Y s [] 0 sd 1 lw 1539 709 m
 258 Y s [] 0 sd 1 lw 1533 709 m 6 X s [] 0 sd 1 lw 1539 709 m 6 X s [] 0 sd 1 lw 1539 709 m20 [] 0 sd 1 lw [] 0 sd 1 lw
 1551 273 m 189 Y s [] 0 sd 1 lw 1551 462 m 190 Y s [] 0 sd 1 lw 1545 462 m 6 X s [] 0 sd 1 lw 1551 462 m 6 X s [] 0 sd
 1 lw 1551 462 m20 [] 0 sd 1 lw [] 0 sd 1 lw 1562 359 m 226 Y s [] 0 sd 1 lw 1562 585 m 226 Y s [] 0 sd 1 lw 1557 585 m
 5 X s [] 0 sd 1 lw 1562 585 m 6 X s [] 0 sd 1 lw 1562 585 m20 [] 0 sd 1 lw [] 0 sd 1 lw 1568 194 m 6 X s [] 0 sd 1 lw
 1574 194 m 6 X s [] 0 sd 1 lw 1586 564 m 299 Y s [] 0 sd 1 lw 1586 863 m 299 Y s [] 0 sd 1 lw 1580 863 m 6 X s [] 0 sd
 1 lw 1586 863 m 6 X s [] 0 sd 1 lw 1586 863 m20 [] 0 sd 1 lw [] 0 sd 1 lw 1592 194 m 6 X s [] 0 sd 1 lw 1598 194 m 6 X
 s [] 0 sd 1 lw 1610 362 m 229 Y s [] 0 sd 1 lw 1610 591 m 229 Y s [] 0 sd 1 lw 1604 591 m 6 X s [] 0 sd 1 lw 1610 591 m
 6 X s [] 0 sd 1 lw 1610 591 m20 [] 0 sd 1 lw [] 0 sd 1 lw 1621 194 m 124 Y s [] 0 sd 1 lw 1621 318 m 124 Y s [] 0 sd 1
 lw 1616 318 m 5 X s [] 0 sd 1 lw 1621 318 m 6 X s [] 0 sd 1 lw 1621 318 m20 [] 0 sd 1 lw [] 0 sd 1 lw 1633 271 m 185 Y
 s [] 0 sd 1 lw 1633 456 m 185 Y s [] 0 sd 1 lw 1627 456 m 6 X s [] 0 sd 1 lw 1633 456 m 6 X s [] 0 sd 1 lw 1633 456 m20
 [] 0 sd 1 lw [] 0 sd 1 lw 1645 194 m 123 Y s [] 0 sd 1 lw 1645 317 m 122 Y s [] 0 sd 1 lw 1639 317 m 6 X s [] 0 sd 1 lw
 1645 317 m 6 X s [] 0 sd 1 lw 1645 317 m20 [] 0 sd 1 lw [] 0 sd 1 lw 1657 275 m 195 Y s [] 0 sd 1 lw 1657 470 m 195 Y s
 [] 0 sd 1 lw 1651 470 m 6 X s [] 0 sd 1 lw 1657 470 m 6 X s [] 0 sd 1 lw 1657 470 m20 [] 0 sd 1 lw [] 0 sd 1 lw 1669
 268 m 178 Y s [] 0 sd 1 lw 1669 446 m 178 Y s [] 0 sd 1 lw 1663 446 m 6 X s [] 0 sd 1 lw 1669 446 m 5 X s [] 0 sd 1 lw
 1669 446 m20 [] 0 sd 1 lw [] 0 sd 1 lw 1680 358 m 224 Y s [] 0 sd 1 lw 1680 582 m 224 Y s [] 0 sd 1 lw 1674 582 m 6 X s
 [] 0 sd 1 lw 1680 582 m 6 X s [] 0 sd 1 lw 1680 582 m20 [] 0 sd 1 lw [] 0 sd 1 lw 1692 541 m 281 Y s [] 0 sd 1 lw 1692
 822 m 280 Y s [] 0 sd 1 lw 1686 822 m 6 X s [] 0 sd 1 lw 1692 822 m 6 X s [] 0 sd 1 lw 1692 822 m20 [] 0 sd 1 lw
 [] 0 sd 1 lw 1704 194 m 136 Y s [] 0 sd 1 lw 1704 330 m 135 Y s [] 0 sd 1 lw 1698 330 m 6 X s [] 0 sd 1 lw 1704 330 m 6
 X s [] 0 sd 1 lw 1704 330 m20 [] 0 sd 1 lw [] 0 sd 1 lw 1716 652 m 317 Y s [] 0 sd 1 lw 1716 969 m 316 Y s [] 0 sd 1 lw
 1710 969 m 6 X s [] 0 sd 1 lw 1716 969 m 6 X s [] 0 sd 1 lw 1716 969 m20 [] 0 sd 1 lw [] 0 sd 1 lw 1728 194 m 135 Y s
 [] 0 sd 1 lw 1728 329 m 134 Y s [] 0 sd 1 lw 1722 329 m 6 X s [] 0 sd 1 lw 1728 329 m 5 X s [] 0 sd 1 lw 1728 329 m20
 [] 0 sd 1 lw [] 0 sd 1 lw 1739 194 m 134 Y s [] 0 sd 1 lw 1739 328 m 134 Y s [] 0 sd 1 lw 1733 328 m 6 X s [] 0 sd 1 lw
 1739 328 m 6 X s [] 0 sd 1 lw 1739 328 m20 [] 0 sd 1 lw [] 0 sd 1 lw 1751 740 m 331 Y s [] 0 sd 1 lw 1751 1071 m 332 Y
 s [] 0 sd 1 lw 1745 1071 m 6 X s [] 0 sd 1 lw 1751 1071 m 6 X s [] 0 sd 1 lw 1751 1071 m20 [] 0 sd 1 lw [] 0 sd 1 lw
 1757 194 m 6 X s [] 0 sd 1 lw 1763 194 m 6 X s [] 0 sd 1 lw 1775 357 m 224 Y s [] 0 sd 1 lw 1775 581 m 223 Y s [] 0 sd
 1 lw 1769 581 m 6 X s [] 0 sd 1 lw 1775 581 m 6 X s [] 0 sd 1 lw 1775 581 m20 [] 0 sd 1 lw [] 0 sd 1 lw 1787 194 m 128
 Y s [] 0 sd 1 lw 1787 322 m 128 Y s [] 0 sd 1 lw 1781 322 m 6 X s [] 0 sd 1 lw 1787 322 m 5 X s [] 0 sd 1 lw 1787 322
 m20 [] 0 sd 1 lw [] 0 sd 1 lw 1798 836 m 351 Y s [] 0 sd 1 lw 1798 1187 m 351 Y s [] 0 sd 1 lw 1792 1187 m 6 X s
 [] 0 sd 1 lw 1798 1187 m 6 X s [] 0 sd 1 lw 1798 1187 m20 [] 0 sd 1 lw [] 0 sd 1 lw 1810 344 m 205 Y s [] 0 sd 1 lw
 1810 549 m 205 Y s [] 0 sd 1 lw 1804 549 m 6 X s [] 0 sd 1 lw 1810 549 m 6 X s [] 0 sd 1 lw 1810 549 m20 [] 0 sd 1 lw
 [] 0 sd 1 lw 1816 194 m 6 X s [] 0 sd 1 lw 1822 194 m 6 X s [] 0 sd 1 lw 1834 441 m 246 Y s [] 0 sd 1 lw 1834 687 m 246
 Y s [] 0 sd 1 lw 1828 687 m 6 X s [] 0 sd 1 lw 1834 687 m 6 X s [] 0 sd 1 lw 1834 687 m20 [] 0 sd 1 lw [] 0 sd 1 lw
 1845 194 m 118 Y s [] 0 sd 1 lw 1845 312 m 117 Y s [] 0 sd 1 lw 1840 312 m 5 X s [] 0 sd 1 lw 1845 312 m 6 X s [] 0 sd
 1 lw 1845 312 m20 [] 0 sd 1 lw [] 0 sd 1 lw 1857 267 m 175 Y s [] 0 sd 1 lw 1857 442 m 176 Y s [] 0 sd 1 lw 1851 442 m
 6 X s [] 0 sd 1 lw 1857 442 m 6 X s [] 0 sd 1 lw 1857 442 m20 [] 0 sd 1 lw [] 0 sd 1 lw 1869 444 m 249 Y s [] 0 sd 1 lw
 1869 693 m 249 Y s [] 0 sd 1 lw 1863 693 m 6 X s [] 0 sd 1 lw 1869 693 m 6 X s [] 0 sd 1 lw 1869 693 m20 [] 0 sd 1 lw
 [] 0 sd 1 lw 1881 448 m 253 Y s [] 0 sd 1 lw 1881 701 m 253 Y s [] 0 sd 1 lw 1875 701 m 6 X s [] 0 sd 1 lw 1881 701 m 6
 X s [] 0 sd 1 lw 1881 701 m20 [] 0 sd 1 lw [] 0 sd 1 lw 1893 440 m 245 Y s [] 0 sd 1 lw 1893 685 m 246 Y s [] 0 sd 1 lw
 1887 685 m 6 X s [] 0 sd 1 lw 1893 685 m 6 X s [] 0 sd 1 lw 1893 685 m20 [] 0 sd 1 lw [] 0 sd 1 lw 1904 352 m 216 Y s
 [] 0 sd 1 lw 1904 568 m 216 Y s [] 0 sd 1 lw 1899 568 m 5 X s [] 0 sd 1 lw 1904 568 m 6 X s [] 0 sd 1 lw 1904 568 m20
 [] 0 sd 1 lw [] 0 sd 1 lw 1916 194 m 118 Y s [] 0 sd 1 lw 1916 312 m 117 Y s [] 0 sd 1 lw 1910 312 m 6 X s [] 0 sd 1 lw
 1916 312 m 6 X s [] 0 sd 1 lw 1916 312 m20 [] 0 sd 1 lw [] 0 sd 1 lw 1928 348 m 210 Y s [] 0 sd 1 lw 1928 558 m 210 Y s
 [] 0 sd 1 lw 1922 558 m 6 X s [] 0 sd 1 lw 1928 558 m 6 X s [] 0 sd 1 lw 1928 558 m20 [] 0 sd 1 lw [] 0 sd 1 lw 1934
 194 m 6 X s [] 0 sd 1 lw 1940 194 m 6 X s [] 0 sd 1 lw 1952 264 m 167 Y s [] 0 sd 1 lw 1952 431 m 167 Y s [] 0 sd 1 lw
 1946 431 m 6 X s [] 0 sd 1 lw 1952 431 m 5 X s [] 0 sd 1 lw 1952 431 m20 [] 0 sd 1 lw [] 0 sd 1 lw 1963 260 m 160 Y s
 [] 0 sd 1 lw 1963 420 m 159 Y s [] 0 sd 1 lw 1957 420 m 6 X s [] 0 sd 1 lw 1963 420 m 6 X s [] 0 sd 1 lw 1963 420 m20
 [] 0 sd 1 lw [] 0 sd 1 lw 1975 423 m 229 Y s [] 0 sd 1 lw 1975 652 m 228 Y s [] 0 sd 1 lw 1969 652 m 6 X s [] 0 sd 1 lw
 1975 652 m 6 X s [] 0 sd 1 lw 1975 652 m20 [] 0 sd 1 lw [] 0 sd 1 lw 1987 344 m 206 Y s [] 0 sd 1 lw 1987 550 m 205 Y s
 [] 0 sd 1 lw 1981 550 m 6 X s [] 0 sd 1 lw 1987 550 m 6 X s [] 0 sd 1 lw 1987 550 m20 [] 0 sd 1 lw [] 0 sd 1 lw 1999
 194 m 117 Y s [] 0 sd 1 lw 1999 311 m 117 Y s [] 0 sd 1 lw 1993 311 m 6 X s [] 0 sd 1 lw 1999 311 m 6 X s [] 0 sd 1 lw
 1999 311 m20 [] 0 sd 1 lw [] 0 sd 1 lw 2011 258 m 154 Y s [] 0 sd 1 lw 2011 412 m 154 Y s [] 0 sd 1 lw 2005 412 m 6 X s
 [] 0 sd 1 lw 2011 412 m 5 X s [] 0 sd 1 lw 2011 412 m20 [] 0 sd 1 lw [] 0 sd 1 lw 2022 257 m 152 Y s [] 0 sd 1 lw 2022
 409 m 152 Y s [] 0 sd 1 lw 2016 409 m 6 X s [] 0 sd 1 lw 2022 409 m 6 X s [] 0 sd 1 lw 2022 409 m20 [] 0 sd 1 lw
 [] 0 sd 1 lw 2028 194 m 6 X s [] 0 sd 1 lw 2034 194 m 6 X s [] 0 sd 1 lw 2046 263 m 166 Y s [] 0 sd 1 lw 2046 429 m 166
 Y s [] 0 sd 1 lw 2040 429 m 6 X s [] 0 sd 1 lw 2046 429 m 6 X s [] 0 sd 1 lw 2046 429 m20 [] 0 sd 1 lw [] 0 sd 1 lw
 2058 194 m 117 Y s [] 0 sd 1 lw 2058 311 m 116 Y s [] 0 sd 1 lw 2052 311 m 6 X s [] 0 sd 1 lw 2058 311 m 6 X s [] 0 sd
 1 lw 2058 311 m20 [] 0 sd 1 lw [] 0 sd 1 lw 2070 330 m 185 Y s [] 0 sd 1 lw 2070 515 m 185 Y s [] 0 sd 1 lw 2064 515 m
 6 X s [] 0 sd 1 lw 2070 515 m 5 X s [] 0 sd 1 lw 2070 515 m20 [] 0 sd 1 lw [] 0 sd 1 lw 2081 261 m 159 Y s [] 0 sd 1 lw
 2081 420 m 160 Y s [] 0 sd 1 lw 2075 420 m 6 X s [] 0 sd 1 lw 2081 420 m 6 X s [] 0 sd 1 lw 2081 420 m20 [] 0 sd 1 lw
 [] 0 sd 1 lw 2093 194 m 101 Y s [] 0 sd 1 lw 2093 295 m 102 Y s [] 0 sd 1 lw 2087 295 m 6 X s [] 0 sd 1 lw 2093 295 m 6
 X s [] 0 sd 1 lw 2093 295 m20 [] 0 sd 1 lw [] 0 sd 1 lw 2105 260 m 159 Y s [] 0 sd 1 lw 2105 419 m 159 Y s [] 0 sd 1 lw
 2099 419 m 6 X s [] 0 sd 1 lw 2105 419 m 6 X s [] 0 sd 1 lw 2105 419 m20 [] 0 sd 1 lw [] 0 sd 1 lw 2117 258 m 153 Y s
 [] 0 sd 1 lw 2117 411 m 154 Y s [] 0 sd 1 lw 2111 411 m 6 X s [] 0 sd 1 lw 2117 411 m 6 X s [] 0 sd 1 lw 2117 411 m20
 [] 0 sd 1 lw [] 0 sd 1 lw 2128 328 m 182 Y s [] 0 sd 1 lw 2128 510 m 182 Y s [] 0 sd 1 lw 2123 510 m 5 X s [] 0 sd 1 lw
 2128 510 m 6 X s [] 0 sd 1 lw 2128 510 m20 [] 0 sd 1 lw [] 0 sd 1 lw 2140 403 m 210 Y s [] 0 sd 1 lw 2140 613 m 209 Y s
 [] 0 sd 1 lw 2134 613 m 6 X s [] 0 sd 1 lw 2140 613 m 6 X s [] 0 sd 1 lw 2140 613 m20 [] 0 sd 1 lw [] 0 sd 1 lw 2152
 396 m 202 Y s [] 0 sd 1 lw 2152 598 m 203 Y s [] 0 sd 1 lw 2146 598 m 6 X s [] 0 sd 1 lw 2152 598 m 6 X s [] 0 sd 1 lw
 2152 598 m20 [] 0 sd 1 lw [] 0 sd 1 lw 2164 254 m 143 Y s [] 0 sd 1 lw 2164 397 m 144 Y s [] 0 sd 1 lw 2158 397 m 6 X s
 [] 0 sd 1 lw 2164 397 m 6 X s [] 0 sd 1 lw 2164 397 m20 [] 0 sd 1 lw [] 0 sd 1 lw 2176 256 m 149 Y s [] 0 sd 1 lw 2176
 405 m 149 Y s [] 0 sd 1 lw 2170 405 m 6 X s [] 0 sd 1 lw 2176 405 m 6 X s [] 0 sd 1 lw 2176 405 m20 [] 0 sd 1 lw
 [] 0 sd 1 lw 2187 394 m 199 Y s [] 0 sd 1 lw 2187 593 m 200 Y s [] 0 sd 1 lw 2182 593 m 5 X s [] 0 sd 1 lw 2187 593 m 6
 X s [] 0 sd 1 lw 2187 593 m20 [] 0 sd 1 lw [] 0 sd 1 lw 2199 553 m 247 Y s [] 0 sd 1 lw 2199 800 m 247 Y s [] 0 sd 1 lw
 2193 800 m 6 X s [] 0 sd 1 lw 2199 800 m 6 X s [] 0 sd 1 lw 2199 800 m20 [] 0 sd 1 lw [] 0 sd 1 lw 2211 194 m 91 Y s
 [] 0 sd 1 lw 2211 285 m 91 Y s [] 0 sd 1 lw 2205 285 m 6 X s [] 0 sd 1 lw 2211 285 m 6 X s [] 0 sd 1 lw 2211 285 m20
 [] 0 sd 1 lw [] 0 sd 1 lw 2223 391 m 197 Y s [] 0 sd 1 lw 2223 588 m 197 Y s [] 0 sd 1 lw 2217 588 m 6 X s [] 0 sd 1 lw
 2223 588 m 6 X s [] 0 sd 1 lw 2223 588 m20 [] 0 sd 1 lw [] 0 sd 1 lw 2235 194 m 92 Y s [] 0 sd 1 lw 2235 286 m 92 Y s
 [] 0 sd 1 lw 2229 286 m 6 X s [] 0 sd 1 lw 2235 286 m 6 X s [] 0 sd 1 lw 2235 286 m20 [] 0 sd 1 lw [] 0 sd 1 lw 2246
 313 m 163 Y s [] 0 sd 1 lw 2246 476 m 162 Y s [] 0 sd 1 lw 2241 476 m 5 X s [] 0 sd 1 lw 2246 476 m 6 X s [] 0 sd 1 lw
 2246 476 m20 [] 0 sd 1 lw [] 0 sd 1 lw 2258 249 m 131 Y s [] 0 sd 1 lw 2258 380 m 131 Y s [] 0 sd 1 lw 2252 380 m 6 X s
 [] 0 sd 1 lw 2258 380 m 6 X s [] 0 sd 1 lw 2258 380 m20 [] 0 sd 1 lw [] 0 sd 1 lw 2270 583 m 237 Y s [] 0 sd 1 lw 2270
 820 m 237 Y s [] 0 sd 1 lw 2264 820 m 6 X s [] 0 sd 1 lw 2270 820 m 6 X s [] 0 sd 1 lw 2270 820 m20 [] 0 sd 1 lw
 [] 0 sd 1 lw 2282 310 m 159 Y s [] 0 sd 1 lw 2282 469 m 158 Y s [] 0 sd 1 lw 2276 469 m 6 X s [] 0 sd 1 lw 2282 469 m 6
 X s [] 0 sd 1 lw 2282 469 m20 [] 0 sd 1 lw [] 0 sd 1 lw 2294 194 m 94 Y s [] 0 sd 1 lw 2294 288 m 94 Y s [] 0 sd 1 lw
 2288 288 m 6 X s [] 0 sd 1 lw 2294 288 m 5 X s [] 0 sd 1 lw 2294 288 m20 [] 0 sd 1 lw [] 0 sd 1 lw 2305 244 m 120 Y s
 [] 0 sd 1 lw 2305 364 m 120 Y s [] 0 sd 1 lw 2299 364 m 6 X s [] 0 sd 1 lw 2305 364 m 6 X s [] 0 sd 1 lw 2305 364 m20
 [] 0 sd 1 lw [] 0 sd 1 lw 2317 307 m 155 Y s [] 0 sd 1 lw 2317 462 m 155 Y s [] 0 sd 1 lw 2311 462 m 6 X s [] 0 sd 1 lw
 2317 462 m 6 X s [] 0 sd 1 lw 2317 462 m20 [] 0 sd 1 lw [] 0 sd 1 lw 2329 194 m 89 Y s [] 0 sd 1 lw 2329 283 m 89 Y s
 [] 0 sd 1 lw 2323 283 m 6 X s [] 0 sd 1 lw 2329 283 m 6 X s [] 0 sd 1 lw 2329 283 m20 [] 0 sd 1 lw [] 0 sd 1 lw 2341
 243 m 118 Y s [] 0 sd 1 lw 2341 361 m 119 Y s [] 0 sd 1 lw 2335 361 m 6 X s [] 0 sd 1 lw 2341 361 m 6 X s [] 0 sd 1 lw
 2341 361 m20 [] 0 sd 1 lw [] 0 sd 1 lw 2353 243 m 118 Y s [] 0 sd 1 lw 2353 361 m 119 Y s [] 0 sd 1 lw 2347 361 m 6 X s
 [] 0 sd 1 lw 2353 361 m 5 X s [] 0 sd 1 lw 2353 361 m20 [] 0 sd 1 lw [] 0 sd 1 lw 2358 194 m 6 X s [] 0 sd 1 lw 2364
 194 m 6 X s [] 0 sd 1 lw 2376 244 m 121 Y s [] 0 sd 1 lw 2376 365 m 120 Y s [] 0 sd 1 lw 2370 365 m 6 X s [] 0 sd 1 lw
 2376 365 m 6 X s [] 0 sd 1 lw 2376 365 m20 [] 0 sd 1 lw [] 0 sd 1 lw 2388 294 m 137 Y s [] 0 sd 1 lw 2388 431 m 136 Y s
 [] 0 sd 1 lw 2382 431 m 6 X s [] 0 sd 1 lw 2388 431 m 6 X s [] 0 sd 1 lw 2388 431 m20 [] 0 sd 1 lw [] 0 sd 1 lw 2394
 194 m 6 X s [] 0 sd 1 lw 2400 194 m 6 X s [] 0 sd 1 lw 2411 194 m 84 Y s [] 0 sd 1 lw 2411 278 m 84 Y s [] 0 sd 1 lw
 2406 278 m 5 X s [] 0 sd 1 lw 2411 278 m 6 X s [] 0 sd 1 lw 2411 278 m20 [] 0 sd 1 lw [] 0 sd 1 lw 2423 349 m 154 Y s
 [] 0 sd 1 lw 2423 503 m 154 Y s [] 0 sd 1 lw 2417 503 m 6 X s [] 0 sd 1 lw 2423 503 m 6 X s [] 0 sd 1 lw 2423 503 m20
 [] 0 sd 1 lw [] 0 sd 1 lw 2435 194 m 83 Y s [] 0 sd 1 lw 2435 277 m 84 Y s [] 0 sd 1 lw 2429 277 m 6 X s [] 0 sd 1 lw
 2435 277 m 6 X s [] 0 sd 1 lw 2435 277 m20 [] 0 sd 1 lw [] 0 sd 1 lw 2447 194 m 76 Y s [] 0 sd 1 lw 2447 270 m 75 Y s
 [] 0 sd 1 lw 2441 270 m 6 X s [] 0 sd 1 lw 2447 270 m 6 X s [] 0 sd 1 lw 2447 270 m20 [] 0 sd 1 lw [] 0 sd 1 lw 2453
 194 m 6 X s [] 0 sd 1 lw 2459 194 m 6 X s [] 0 sd 1 lw 2465 194 m 5 X s [] 0 sd 1 lw 2470 194 m 6 X s [] 0 sd 1 lw 2482
 349 m 155 Y s [] 0 sd 1 lw 2482 504 m 154 Y s [] 0 sd 1 lw 2476 504 m 6 X s [] 0 sd 1 lw 2482 504 m 6 X s [] 0 sd 1 lw
 2482 504 m20 [] 0 sd 1 lw [] 0 sd 1 lw 2494 194 m 78 Y s [] 0 sd 1 lw 2494 272 m 78 Y s [] 0 sd 1 lw 2488 272 m 6 X s
 [] 0 sd 1 lw 2494 272 m 6 X s [] 0 sd 1 lw 2494 272 m20 [] 0 sd 1 lw [] 0 sd 1 lw 2500 194 m 6 X s [] 0 sd 1 lw 2506
 194 m 6 X s [] 0 sd 1 lw 2512 194 m 6 X s [] 0 sd 1 lw 2518 194 m 6 X s [] 0 sd 1 lw 2524 194 m 5 X s [] 0 sd 1 lw 2529
 194 m 6 X s [] 0 sd 1 lw 2535 194 m 6 X s [] 0 sd 1 lw 2541 194 m 6 X s [] 0 sd 1 lw 2547 194 m 6 X s [] 0 sd 1 lw 2553
 194 m 6 X s [] 0 sd 1 lw 2559 194 m 6 X s [] 0 sd 1 lw 2565 194 m 6 X s [] 0 sd 1 lw 2571 194 m 6 X s [] 0 sd 1 lw 2577
 194 m 5 X s [] 0 sd 1 lw 2582 194 m 6 X s [] 0 sd 1 lw 2588 194 m 6 X s [] 0 sd 1 lw 2594 194 m 6 X s [] 0 sd 1 lw 2600
 194 m 6 X s [] 0 sd 1 lw 2606 194 m 6 X s [] 0 sd 1 lw 2612 194 m 6 X s [] 0 sd 1 lw 2618 194 m 6 X s [] 0 sd 1 lw 2624
 194 m 6 X s [] 0 sd 1 lw 2630 194 m 6 X s [] 0 sd 1 lw 2636 194 m 5 X s [] 0 sd 1 lw 2641 194 m 6 X s [] 0 sd 1 lw 2647
 194 m 6 X s [] 0 sd 1 lw [] 0 sd 1 lw 295 194 m 2358 X s s
 /xs 0 def (Pseudorapidity) /Helvetica-Bold 72 stwn  gsave  2653 49
 t 0 r  xs neg 0 t 0 0 m /Helvetica-Bold findfont 72 sf 0 0 m (Pseudorapidity) show  gr  [] 0 sd 1 lw [] 0 sd 1 lw 618
 241 m -47 Y s s [] 0 sd 1 lw [] 0 sd 1 lw 704 218 m -24 Y s s [] 0 sd 1 lw [] 0 sd 1 lw 789 218 m -24 Y s s [] 0 sd 1
 lw [] 0 sd 1 lw 875 218 m -24 Y s s [] 0 sd 1 lw [] 0 sd 1 lw 960 218 m -24 Y s s [] 0 sd 1 lw [] 0 sd 1 lw 1046 241 m
 -47 Y s s [] 0 sd 1 lw [] 0 sd 1 lw 1132 218 m -24 Y s s [] 0 sd 1 lw [] 0 sd 1 lw 1217 218 m -24 Y s s [] 0 sd 1 lw
 [] 0 sd 1 lw 1303 218 m -24 Y s s [] 0 sd 1 lw [] 0 sd 1 lw 1388 218 m -24 Y s s [] 0 sd 1 lw [] 0 sd 1 lw 1474 241 m
 -47 Y s s [] 0 sd 1 lw [] 0 sd 1 lw 1560 218 m -24 Y s s [] 0 sd 1 lw [] 0 sd 1 lw 1645 218 m -24 Y s s [] 0 sd 1 lw
 [] 0 sd 1 lw 1731 218 m -24 Y s s [] 0 sd 1 lw [] 0 sd 1 lw 1816 218 m -24 Y s s [] 0 sd 1 lw [] 0 sd 1 lw 1902 241 m
 -47 Y s s [] 0 sd 1 lw [] 0 sd 1 lw 1988 218 m -24 Y s s [] 0 sd 1 lw [] 0 sd 1 lw 2073 218 m -24 Y s s [] 0 sd 1 lw
 [] 0 sd 1 lw 2159 218 m -24 Y s s [] 0 sd 1 lw [] 0 sd 1 lw 2244 218 m -24 Y s s [] 0 sd 1 lw [] 0 sd 1 lw 2330 241 m
 -47 Y s s [] 0 sd 1 lw [] 0 sd 1 lw 618 241 m -47 Y s s [] 0 sd 1 lw [] 0 sd 1 lw 532 218 m -24 Y s s [] 0 sd 1 lw
 [] 0 sd 1 lw 447 218 m -24 Y s s [] 0 sd 1 lw [] 0 sd 1 lw 361 218 m -24 Y s s [] 0 sd 1 lw [] 0 sd 1 lw 2330 241 m -47
 Y s s [] 0 sd 1 lw [] 0 sd 1 lw 2416 218 m -24 Y s s [] 0 sd 1 lw [] 0 sd 1 lw 2501 218 m -24 Y s s [] 0 sd 1 lw
 [] 0 sd 1 lw 2587 218 m -24 Y s s
 /xs 0 def (-1) /Helvetica-Bold 72 stwn  gsave  618 107
 t 0 r xs 2 div neg 0 t 0 0 m /Helvetica-Bold findfont 72 sf 0 0 m (-1) show  gr 
 /xs 0 def (-0.5) /Helvetica-Bold 72 stwn  gsave  1046 107
 t 0 r xs 2 div neg 0 t 0 0 m /Helvetica-Bold findfont 72 sf 0 0 m (-0.5) show  gr 
 /xs 0 def (0) /Helvetica-Bold 72 stwn  gsave  1474 107
 t 0 r xs 2 div neg 0 t 0 0 m /Helvetica-Bold findfont 72 sf 0 0 m (0) show  gr 
 /xs 0 def (0.5) /Helvetica-Bold 72 stwn  gsave  1902 107
 t 0 r xs 2 div neg 0 t 0 0 m /Helvetica-Bold findfont 72 sf 0 0 m (0.5) show  gr 
 /xs 0 def (1) /Helvetica-Bold 72 stwn  gsave  2330 107
 t 0 r xs 2 div neg 0 t 0 0 m /Helvetica-Bold findfont 72 sf 0 0 m (1) show  gr  [] 0 sd 1 lw [] 0 sd 1 lw 295 194 m
 1556 Y s s
 /xs 0 def (Number of Hits \(cm) /Helvetica-Bold 72 stwn (-2\)) /Helvetica-Bold 50 stwn  gsave  136 1750
 t 90 r  xs neg 0 t 0 0 m /Helvetica-Bold findfont 72 sf 0 0 m (Number of Hits \(cm) show  currentpoint pop 0 t 
 /Helvetica-Bold findfont 50 sf 0 36 m (-2\)) show  gr  [] 0 sd 1 lw [] 0 sd 1 lw 366 194 m -71 X s s [] 0 sd 1 lw
 [] 0 sd 1 lw 330 238 m -35 X s s [] 0 sd 1 lw [] 0 sd 1 lw 330 283 m -35 X s s [] 0 sd 1 lw [] 0 sd 1 lw 330 327 m -35
 X s s [] 0 sd 1 lw [] 0 sd 1 lw 330 371 m -35 X s s [] 0 sd 1 lw [] 0 sd 1 lw 366 415 m -71 X s s [] 0 sd 1 lw [] 0 sd
 1 lw 330 459 m -35 X s s [] 0 sd 1 lw [] 0 sd 1 lw 330 503 m -35 X s s [] 0 sd 1 lw [] 0 sd 1 lw 330 547 m -35 X s s
 [] 0 sd 1 lw [] 0 sd 1 lw 330 591 m -35 X s s [] 0 sd 1 lw [] 0 sd 1 lw 366 635 m -71 X s s [] 0 sd 1 lw [] 0 sd 1 lw
 330 679 m -35 X s s [] 0 sd 1 lw [] 0 sd 1 lw 330 723 m -35 X s s [] 0 sd 1 lw [] 0 sd 1 lw 330 768 m -35 X s s [] 0 sd
 1 lw [] 0 sd 1 lw 330 812 m -35 X s s [] 0 sd 1 lw [] 0 sd 1 lw 366 856 m -71 X s s [] 0 sd 1 lw [] 0 sd 1 lw 330 900 m
 -35 X s s [] 0 sd 1 lw [] 0 sd 1 lw 330 944 m -35 X s s [] 0 sd 1 lw [] 0 sd 1 lw 330 988 m -35 X s s [] 0 sd 1 lw
 [] 0 sd 1 lw 330 1032 m -35 X s s [] 0 sd 1 lw [] 0 sd 1 lw 366 1076 m -71 X s s [] 0 sd 1 lw [] 0 sd 1 lw 330 1120 m
 -35 X s s [] 0 sd 1 lw [] 0 sd 1 lw 330 1164 m -35 X s s [] 0 sd 1 lw [] 0 sd 1 lw 330 1208 m -35 X s s [] 0 sd 1 lw
 [] 0 sd 1 lw 330 1253 m -35 X s s [] 0 sd 1 lw [] 0 sd 1 lw 366 1297 m -71 X s s [] 0 sd 1 lw [] 0 sd 1 lw 330 1341 m
 -35 X s s [] 0 sd 1 lw [] 0 sd 1 lw 330 1385 m -35 X s s [] 0 sd 1 lw [] 0 sd 1 lw 330 1429 m -35 X s s [] 0 sd 1 lw
 [] 0 sd 1 lw 330 1473 m -35 X s s [] 0 sd 1 lw [] 0 sd 1 lw 366 1517 m -71 X s s [] 0 sd 1 lw [] 0 sd 1 lw 330 1561 m
 -35 X s s [] 0 sd 1 lw [] 0 sd 1 lw 330 1605 m -35 X s s [] 0 sd 1 lw [] 0 sd 1 lw 330 1649 m -35 X s s [] 0 sd 1 lw
 [] 0 sd 1 lw 330 1693 m -35 X s s [] 0 sd 1 lw [] 0 sd 1 lw 366 1737 m -71 X s s [] 0 sd 1 lw [] 0 sd 1 lw 366 1737 m
 -71 X s s
 /xs 0 def (0) /Helvetica-Bold 72 stwn  gsave  280 174
 t 0 r  xs neg 0 t 0 0 m /Helvetica-Bold findfont 72 sf 0 0 m (0) show  gr 
 /xs 0 def (1) /Helvetica-Bold 72 stwn  gsave  280 394
 t 0 r  xs neg 0 t 0 0 m /Helvetica-Bold findfont 72 sf 0 0 m (1) show  gr 
 /xs 0 def (2) /Helvetica-Bold 72 stwn  gsave  280 615
 t 0 r  xs neg 0 t 0 0 m /Helvetica-Bold findfont 72 sf 0 0 m (2) show  gr 
 /xs 0 def (3) /Helvetica-Bold 72 stwn  gsave  280 835
 t 0 r  xs neg 0 t 0 0 m /Helvetica-Bold findfont 72 sf 0 0 m (3) show  gr 
 /xs 0 def (4) /Helvetica-Bold 72 stwn  gsave  280 1055
 t 0 r  xs neg 0 t 0 0 m /Helvetica-Bold findfont 72 sf 0 0 m (4) show  gr 
 /xs 0 def (5) /Helvetica-Bold 72 stwn  gsave  280 1276
 t 0 r  xs neg 0 t 0 0 m /Helvetica-Bold findfont 72 sf 0 0 m (5) show  gr 
 /xs 0 def (6) /Helvetica-Bold 72 stwn  gsave  280 1496
 t 0 r  xs neg 0 t 0 0 m /Helvetica-Bold findfont 72 sf 0 0 m (6) show  gr 
 /xs 0 def (7) /Helvetica-Bold 72 stwn  gsave  280 1717
 t 0 r  xs neg 0 t 0 0 m /Helvetica-Bold findfont 72 sf 0 0 m (7) show  gr  [] 0 sd 1 lw 0.95 0.95 0.95 c 1165 97 29
 1837 bf black [] 0 sd 1 lw 49 1837 m -13 Y 1158 X 91 Y -13 X -78 Y f [] 0 sd 1 lw 29 1837 m 97 Y s [] 0 sd 1 lw 29 1934
 m 1165 X s [] 0 sd 1 lw 1194 1934 m -97 Y s [] 0 sd 1 lw 1194 1837 m -1165 X s
 /xs 0 def (Hits for Layer 3 by Eta) /Helvetica-Bold 76 stwn  gsave  612 1864
 t 0 r xs 2 div neg 0 t 0 0 m /Helvetica-Bold findfont 76 sf 0 0 m (Hits for Layer 3 by Eta) show  gr  [] 0 sd 1 lw 0.95
 0.95 0.95 c 590 311 2299 1594 bf black [] 0 sd 1 lw 2319 1594 m -13 Y 583 X 305 Y -13 X -292 Y f [] 0 sd 1 lw 2299 1594
 m 311 Y s [] 0 sd 1 lw 2299 1905 m 590 X s [] 0 sd 1 lw 2889 1905 m -311 Y s [] 0 sd 1 lw 2889 1594 m -590 X s
 gsave  2329 1849
 t 0 r 0 0 m /Helvetica-Bold findfont 64 sf 0 0 m (hEtaEtapden_Eta3) show  gr 
 gsave  2329 1771
 t 0 r 0 0 m /Helvetica-Bold findfont 64 sf 0 0 m (Nent = 220   \040) show  gr 
 gsave  2329 1693
 t 0 r 0 0 m /Helvetica-Bold findfont 64 sf 0 0 m (Mean  = -0.02357) show  gr 
 gsave  2329 1615
 t 0 r 0 0 m /Helvetica-Bold findfont 64 sf 0 0 m (RMS   = 0.6134) show  gr  1 1 0 c gr 
showpage gr
 gr 
%%Trailer
%%Pages:  1
%%EOF
