%!PS-Adobe-2.0
%%Title: ITShitDensity_1_Eta.ps (Landscape A 4)
%%Pages: (atend)
%%Creator: ROOT Version 2.22/09
%%CreationDate:Sat Sep 18 07:10:18 1999
%%EndComments
%%BeginProlog
/s {stroke} def /l {lineto} def /m {moveto} def /t {translate} def
/sw {stringwidth} def /r {rotate} def /rl {roll}  def /R {repeat} def
/d {rlineto} def /rm {rmoveto} def /gr {grestore} def /f {eofill} def
/c {setrgbcolor} def /lw {setlinewidth} def /sd {setdash} def
/cl {closepath} def /sf {scalefont setfont} def /black {0 setgray} def
/box {m dup 0 exch d exch 0 d 0 exch neg d cl} def
/NC{systemdict begin initclip end}def/C{NC box clip newpath}def
/bl {box s} def /bf {box f} def /Y { 0 exch d} def /X { 0 d} def 
/mp {newpath /y exch def /x exch def} def
/side {[w .77 mul w .23 mul] .385 w mul sd w 0 l currentpoint t -144 r} def
/mr {mp x y w2 0 360 arc} def /m24 {mr s} def /m20 {mr f} def
/mb {mp x y w2 add m w2 neg 0 d 0 w neg d w 0 d 0 w d cl} def
/mt {mp x y w2 add m w2 neg w neg d w 0 d cl} def
/m21 {mb f} def /m25 {mb s} def /m22 {mt f} def /m26{mt s} def
/m23 {mp x y w2 sub m w2 w d w neg 0 d cl f} def
/m27 {mp x y w2 add m w3 neg w2 neg d w3 w2 neg d w3 w2 d cl s} def
/m28 {mp x w2 sub y w2 sub w3 add m w3 0 d  0 w3 neg d w3 0 d 0 w3 d w3 0 d  0 w3 d w3 neg 0 d 0 w3 d w3 neg 0 d
 0 w3 neg d w3 neg 0 d cl s } def
/m29 {mp gsave x w2 sub y w2 add w3 sub m currentpoint t
 4 {side} repeat cl fill gr} def
/m30 {mp gsave x w2 sub y w2 add w3 sub m currentpoint t
 5 {side} repeat s gr} def
/m31 {mp x y w2 sub m 0 w d x w2 sub y m w 0 d x w2 sub y w2 add m w w neg d x w2 sub y w2
 sub m w w d s} def
/m2 {mp x y w2 sub m 0 w d x w2 sub y m w 0 d s} def
/m5 {mp x w2 sub y w2 sub m w w d x w2 sub y w2 add m w w neg d s} def
/DP {/PT exch def gsave 47.2 47.2 scale PT 1  eq { 16 16 1 [ 16 0 0 16 neg 0 16
] { < AA AA 55 55 AA AA 55 55 AA AA 55 55 AA AA 55 55 AA AA 55 55 AA AA 55 55
AA AA 55 55 AA AA 55 55 > } image } if PT 2 eq { 16 16 1 [ 16 0 0 16 neg 0 16
] { < BB BB EE EE BB BB EE EE BB BB EE EE BB BB EE EE BB BB EE EE BB BB EE EE
BB BB EE EE BB BB EE EE > } image } if PT 3 eq { 16 16 1 [ 16 0 0 16 neg 0 16
] { < FF FF BB BB FF FF EE EE FF FF BB BB FF FF EE EE FF FF BB BB FF FF EE EE
FF FF BB BB FF FF EE EE > } image } if PT 4 eq { 16 16 1 [ 16 0 0 16 neg 0 16
] { < DF DF BF BF 7F 7F FE FE FD FD FB FB F7 F7 EF EF DF DF BF BF 7F 7F FE FE
FD FD FB FB F7 F7 EF EF > } image } if PT 5 eq { 16 16 1 [ 16 0 0 16 neg 0 16
] { < 7F 7F BF B F DF DF EF EF F7 F7 FB FB FD FD FE FE 7F 7F BF BF DF DF EF
EF F7 F7 FB FB FD FD FE FE > } image } if PT 6 eq { 16 16 1 [ 16 0 0 16 neg 0
16 ] { < BB BB BB BB BB BB BB BB BB BB BB BB BB BB BB BB BB BB BB BB BB BB BB
BB BB BB BB BB BB BB BB BB > } image } if PT 7 eq { 16 16 1 [ 16 0 0 16 neg 0
16 ] { < FF FF FF FF FF FF 00 00 FF FF FF FF FF FF 00 00 FF FF FF FF FF FF 00
00 FF FF FF FF FF FF 00 00 > } image } if PT 8 eq { 16 16 1 [ 16 0 0 16 neg 0
16 ] { < EE EE 47 47 83 83 C5 C5 EE EE 5C 5C 38 38 74 74 EE EE 47 47 83 83 C5
C5 EE EE 5C 5C 38 38 74 74 > } image } if PT 9 eq { 16 16 1 [ 16 0 0 16 neg 0
16 ] { < EF EF EF EF D7 D7 38 38 FE FE FE FE 7D 7D 83 83 EF EF EF EF D7 D7 38
38  FE FE FE FE 7D 7D 83 83 > } image } if PT 10 eq { 16 16 1 [ 16 0 0 16 neg
0 16 ] { <  EF EF EF EF EF EF 00 00 FE FE FE FE FE FE 00 00 EF EF EF EF EF EF
00 00 FE FE FE FE FE FE 00 00 > } image } if PT 11 eq { 16 16 1 [ 16 0 0 16
neg 0 16 ] { < F7 F7 B6 B6 D5 D5 E3 E3 D5 D5 B6 B6 F7 F7 FF FF 7F 7F 6B 6B 5D
5D 3E 3E 5D 5D 6B 6B 7F 7F FF FF > } image } if PT 12 eq { 16 16 1 [ 16 0 0
16 neg 0 16 ] { < E3 E3 DD DD BE BE BE BE BE BE DD DD E3 E3 FF FF 3E 3E DD DD
EB EB EB EB EB EB DD DD 3E 3E FF FF > } image } if PT 13 eq { 16 16 1 [ 16 0
0 16 neg 0 16 ] { <  FE FE 7D 7D BB BB D7 D7 EF EF D7 D7 BB BB 7D 7D FE FE 7D
7D BB BB D7 D7 EF EF D7 D7 BB BB 7D 7D > } image } if PT 14 eq { 16 16 1 [ 16
0 0 16 neg 0 16 ] { < 00 00 EE EF EE EF EE EF 0E E0 EE EE EE EE EE EE 00 EE
FE EE FE EE FE EE 00 00 FE EF FE EF FE EF > } image } if PT 15 eq { 16 16 1 [
16 0 0 16 neg 0 16 ] { < DD DD AA AA DD DD FF FF 77 77 AA AA 77 77 FF FF DD
DD AA AA DD DD FF FF 77 77 AA AA 77 77 FF FF > } image } if PT 16 eq { 16 16
1 [ 16 0 0 16 neg 0 16 ] { <  F1 F1 EE EE 1F 1F FF FF F1 F1 EE EE 1F 1F FF FF
F1 F1 EE EE 1F 1F FF FF F1 F1 EE EE 1F 1F FF FF > } image } if PT 17 eq { 16
16 1 [ 16 0 0 16 neg 0 16 ] { <  EE EE DD DD BB BB FF FF EE EE DD DD BB BB FF
 FF EE EE DD DD BB BB FF FF EE EE DD DD BB BB FF FF > } image } if PT 18 eq {
16 16 1 [ 16 0 0 16 neg 0 16 ] { <  BB BB DD DD EE EE FF FF BB BB DD DD EE EE
FF FF BB BB DD DD EE EE FF FF BB BB DD DD EE EE FF FF > } image } if PT 19 eq
{ 16 16 1 [ 16 0 0 16 neg 0 16 ] { < 1F FC 67 F3 7B EF BD DE BD DE DE BD E6
B3 F8 0F E6 B3 DE BD BD DE BD DE 7B EF 67 F3 1F FC 7F FF > } image } if PT
20 eq { 16 16 1 [ 16 0 0 16 neg 0 16 ] { < DD DD EE EE EE EE EE EE DD DD BB
BB BB BB BB BB DD DD EE EE EE EE EE EE DD DD BB BB BB BB BB BB > } image }
if PT 21 eq { 16 16 1 [ 16 0 0 16 neg 0 16 ] { < 0E 0E EF EF EF EF EF EF E0
E0 FE FE FE FE FE FE 0E 0E EF EF EF EF EF EF E0 E0 FE FE FE FE FE FE > }
image }  if PT 22 eq { 16 16 1 [ 16 0 0 16 neg 0 16 ] { < 70 70 F7 F7 F7 F7 F7
F7 07 07 7F 7F 7F 7F 7F 7F 70 70 F7 F7 F7 F7 F7 F7 07 07 7F 7F 7F 7F 7F 7F >
} image } if PT 23 eq  { 16 16 1 [ 16 0 0 16 neg 0 16 ] { < AA AA 55 55 A9 A9
D1 D1 E1 E1 D1 D1 A9 A9 55 55 AA AA 55 55 A9 A9 D1 D1 E1 E1 D1 D1 A9 A9 55 55
> } image } if PT 24 eq { 16 16 1 [ 16 0 0 16 neg 0 16 ] { < FF FE FF FC EA
A8 D5 54 EA A8 D5 54 E8 28 D4 54 E8 E8 D4 D4 E8 EA 54 D5 A8 EA 54 D5 00 C0 00
80 > } image } if PT 25 eq {  16 16 1 [ 16 0 0 16 neg 0 16 ] { < FF FE FF FC
FF F8 FF F0 F0 00 F0 00 F0 20 F0 60 F0 E0 F1 E0 F3 E0 F0 00 E0 00 C0 00 80 00
00 00 > } image } if gr } def /FA { /PT exch def gsave clip 0 0 translate 1 1
74 { 1 sub 47.2 mul /Xcurr exch def 1 1 74 { 1 sub 47.2 mul /Ycurr exch def
gsave Xcurr Ycurr translate PT DP gr } for } for gr newpath } def
/reencdict 24 dict def /ReEncode {reencdict begin /nco&na exch def
/nfnam exch def /basefontname exch def /basefontdict basefontname findfont def
/newfont basefontdict maxlength dict def basefontdict {exch dup /FID ne
{dup /Encoding eq {exch dup length array copy newfont 3 1 roll put} {exch 
newfont 3 1 roll put} ifelse} {pop pop} ifelse } forall newfont
/FontName nfnam put nco&na aload pop nco&na length 2 idiv {newfont
/Encoding get 3 1 roll put} repeat nfnam newfont definefont pop end } def
/accvec [ 176 /agrave 181 /Agrave 190 /acircumflex 192 /Acircumflex
201 /adieresis 204 /Adieresis 209 /ccedilla 210 /Ccedilla 211 /eacute
212 /Eacute 213 /egrave 214 /Egrave 215 /ecircumflex 216 /Ecircumflex
217 /edieresis 218 /Edieresis 219 /icircumflex 220 /Icircumflex
221 /idieresis 222 /Idieresis 223 /ntilde 224 /Ntilde 226 /ocircumflex
228 /Ocircumflex 229 /odieresis 230 /Odieresis 231 /ucircumflex 236 /Ucircumflex
237 /udieresis 238 /Udieresis 239 /aring 242 /Aring 243 /ydieresis
244 /Ydieresis 246 /aacute 247 /Aacute 252 /ugrave 253 /Ugrave] def
/Times-Roman /Times-Roman accvec ReEncode
/Times-Italic /Times-Italic accvec ReEncode
/Times-Bold /Times-Bold accvec ReEncode
/Times-BoldItalic /Times-BoldItalic accvec ReEncode
/Helvetica /Helvetica accvec ReEncode
/Helvetica-Oblique /Helvetica-Oblique accvec ReEncode
/Helvetica-Bold /Helvetica-Bold accvec ReEncode
/Helvetica-BoldOblique /Helvetica-BoldOblique  accvec ReEncode
/Courier /Courier accvec ReEncode
/Courier-Oblique /Courier-Oblique accvec ReEncode
/Courier-Bold /Courier-Bold accvec ReEncode
/Courier-BoldOblique /Courier-BoldOblique accvec ReEncode
/oshow {gsave [] 0 sd true charpath stroke gr} def
/stwn { /fs exch def /fn exch def /text exch def fn findfont fs sf
 text sw pop xs add /xs exch def} def
/stwb { /fs exch def /fn exch def /nbas exch def /textf exch def
textf length /tlen exch def nbas tlen gt {/nbas tlendef} if
fn findfont fs sf textf dup length nbas sub nbas getinterval sw
pop neg xs add /xs exch def} def
/accspe [ 65 /plusminus  66 /bar  67 /existential  68 /universal 
69 /exclam  70 /numbersign 71 /greater  72 /question  73 /integral 
74 /colon  75 /semicolon  76 /less  77 /bracketleft  78 /bracketright
79 /greaterequal 80 /braceleft 81 /braceright 82 /radical
83 /spade 84 /heart 85 /diamond 86 /club 87 /lessequal
88 /multiply 89 /percent 90 /infinity 48 /circlemultiply 49 /circleplus
50 /emptyset  51 /lozenge 52 /bullet 53 /arrowright 54 /arrowup
55 /arrowleft 56 /arrowdown 57 /arrowboth 48 /degree 44 /comma 43 /plus 45 /angle 42 /angleleft 47 /divide 61 /notequal
 40 /equivalence 41 /second 97 /approxequal 98 /congruent 99 /perpendicular 100 /partialdiff 101 /florin
 102 /intersection 103 /union 104 /propersuperset 105 /reflexsuperset 106 /notsubset 107 /propersubset 108 /reflexsubset
 109 /element 110 /notelement 111 /gradient 112 /logicaland 113 /logicalor 114 /arrowdblboth 115 /arrowdblleft
 116 /arrowdblup 117 /arrowdblright 118 /arrowdbldown 119 /ampersand 120 /omega1 121 /similar 122 /aleph ] def
/Symbol /Special accspe ReEncode
/Zone {/iy exch def /ix exch def  ix 1 sub  3144 mul  1 iy sub  2224
 mul t} def
%%EndProlog
 gsave  90 r 0 -594 t  28 20 t .25 .25 scale  gsave 
%%Page: number 1
 black [] 0 sd 1 lw 0.95 0.95 0.95 c 2948 1944 0 0 bf 0.8 0.8 0.8 c 0 0 m 2 2 d 1940 Y 2944 X 2 2 d -2948 X -1944 Y f
 0.3 0.3 0.3 c 0 0 m 2 2 d 2944 X 1940 Y 2 2 d -1944 Y -2948 X f black [] 0 sd 1 lw 0.95 0.95 0.95 c 2358 1556 295 194
 bf 0.8 0.8 0.8 c 295 194 m 1 1 d 1554 Y 2356 X 1 1 d -2358 X -1556 Y f 0.3 0.3 0.3 c 295 194 m 1 1 d 2356 X 1554 Y 1 1
 d -1556 Y -2358 X f [] 0 sd 1 lw black 295 194 m 2358 X s [] 0 sd 1 lw 2653 194 m 1556 Y s [] 0 sd 1 lw 2653 1750 m
 -2358 X s [] 0 sd 1 lw 295 1750 m -1556 Y s [] 0 sd 1 lw 1 1 1 c black [] 0 sd 1 lw 295 194 m 6 X s [] 0 sd 1 lw 301
 194 m 6 X s [] 0 sd 1 lw 307 194 m 5 X s [] 0 sd 1 lw 312 194 m 6 X s [] 0 sd 1 lw 318 194 m 6 X s [] 0 sd 1 lw 324 194
 m 6 X s [] 0 sd 1 lw 330 194 m 6 X s [] 0 sd 1 lw 336 194 m 6 X s [] 0 sd 1 lw 342 194 m 6 X s [] 0 sd 1 lw 348 194 m 6
 X s [] 0 sd 1 lw 354 194 m 6 X s [] 0 sd 1 lw 360 194 m 6 X s [] 0 sd 1 lw 366 194 m 5 X s [] 0 sd 1 lw 371 194 m 6 X s
 [] 0 sd 1 lw 377 194 m 6 X s [] 0 sd 1 lw 383 194 m 6 X s [] 0 sd 1 lw 395 235 m 56 Y s [] 0 sd 1 lw 395 291 m 56 Y s
 [] 0 sd 1 lw 389 291 m 6 X s [] 0 sd 1 lw 395 291 m 6 X s [] 0 sd 1 lw /w 2 def /w2 {w 2 div} def /w3 {w 3 div} def 395
 291 m20 [] 0 sd 1 lw [] 0 sd 1 lw 407 215 m 49 Y s [] 0 sd 1 lw 407 264 m 49 Y s [] 0 sd 1 lw 401 264 m 6 X s [] 0 sd 1
 lw 407 264 m 6 X s [] 0 sd 1 lw 407 264 m20 [] 0 sd 1 lw [] 0 sd 1 lw 413 194 m 6 X s [] 0 sd 1 lw 419 194 m 6 X s
 [] 0 sd 1 lw 430 318 m 86 Y s [] 0 sd 1 lw 430 404 m 85 Y s [] 0 sd 1 lw 425 404 m 5 X s [] 0 sd 1 lw 430 404 m 6 X s
 [] 0 sd 1 lw 430 404 m20 [] 0 sd 1 lw [] 0 sd 1 lw 442 239 m 62 Y s [] 0 sd 1 lw 442 301 m 61 Y s [] 0 sd 1 lw 436 301
 m 6 X s [] 0 sd 1 lw 442 301 m 6 X s [] 0 sd 1 lw 442 301 m20 [] 0 sd 1 lw [] 0 sd 1 lw 454 242 m 66 Y s [] 0 sd 1 lw
 454 308 m 65 Y s [] 0 sd 1 lw 448 308 m 6 X s [] 0 sd 1 lw 454 308 m 6 X s [] 0 sd 1 lw 454 308 m20 [] 0 sd 1 lw
 [] 0 sd 1 lw 466 194 m 40 Y s [] 0 sd 1 lw 466 234 m 39 Y s [] 0 sd 1 lw 460 234 m 6 X s [] 0 sd 1 lw 466 234 m 6 X s
 [] 0 sd 1 lw 466 234 m20 [] 0 sd 1 lw [] 0 sd 1 lw 478 296 m 83 Y s [] 0 sd 1 lw 478 379 m 83 Y s [] 0 sd 1 lw 472 379
 m 6 X s [] 0 sd 1 lw 478 379 m 5 X s [] 0 sd 1 lw 478 379 m20 [] 0 sd 1 lw [] 0 sd 1 lw 489 218 m 57 Y s [] 0 sd 1 lw
 489 275 m 58 Y s [] 0 sd 1 lw 483 275 m 6 X s [] 0 sd 1 lw 489 275 m 6 X s [] 0 sd 1 lw 489 275 m20 [] 0 sd 1 lw
 [] 0 sd 1 lw 501 275 m 80 Y s [] 0 sd 1 lw 501 355 m 80 Y s [] 0 sd 1 lw 495 355 m 6 X s [] 0 sd 1 lw 501 355 m 6 X s
 [] 0 sd 1 lw 501 355 m20 [] 0 sd 1 lw [] 0 sd 1 lw 513 303 m 88 Y s [] 0 sd 1 lw 513 391 m 89 Y s [] 0 sd 1 lw 507 391
 m 6 X s [] 0 sd 1 lw 513 391 m 6 X s [] 0 sd 1 lw 513 391 m20 [] 0 sd 1 lw [] 0 sd 1 lw 525 194 m 38 Y s [] 0 sd 1 lw
 525 232 m 38 Y s [] 0 sd 1 lw 519 232 m 6 X s [] 0 sd 1 lw 525 232 m 6 X s [] 0 sd 1 lw 525 232 m20 [] 0 sd 1 lw
 [] 0 sd 1 lw 537 194 m 39 Y s [] 0 sd 1 lw 537 233 m 38 Y s [] 0 sd 1 lw 531 233 m 6 X s [] 0 sd 1 lw 537 233 m 5 X s
 [] 0 sd 1 lw 537 233 m20 [] 0 sd 1 lw [] 0 sd 1 lw 548 279 m 84 Y s [] 0 sd 1 lw 548 363 m 85 Y s [] 0 sd 1 lw 542 363
 m 6 X s [] 0 sd 1 lw 548 363 m 6 X s [] 0 sd 1 lw 548 363 m20 [] 0 sd 1 lw [] 0 sd 1 lw 560 315 m 98 Y s [] 0 sd 1 lw
 560 413 m 98 Y s [] 0 sd 1 lw 554 413 m 6 X s [] 0 sd 1 lw 560 413 m 6 X s [] 0 sd 1 lw 560 413 m20 [] 0 sd 1 lw
 [] 0 sd 1 lw 572 315 m 97 Y s [] 0 sd 1 lw 572 412 m 98 Y s [] 0 sd 1 lw 566 412 m 6 X s [] 0 sd 1 lw 572 412 m 6 X s
 [] 0 sd 1 lw 572 412 m20 [] 0 sd 1 lw [] 0 sd 1 lw 584 428 m 128 Y s [] 0 sd 1 lw 584 556 m 128 Y s [] 0 sd 1 lw 578
 556 m 6 X s [] 0 sd 1 lw 584 556 m 6 X s [] 0 sd 1 lw 584 556 m20 [] 0 sd 1 lw [] 0 sd 1 lw 596 251 m 79 Y s [] 0 sd 1
 lw 596 330 m 78 Y s [] 0 sd 1 lw 590 330 m 6 X s [] 0 sd 1 lw 596 330 m 5 X s [] 0 sd 1 lw 596 330 m20 [] 0 sd 1 lw
 [] 0 sd 1 lw 607 254 m 81 Y s [] 0 sd 1 lw 607 335 m 82 Y s [] 0 sd 1 lw 601 335 m 6 X s [] 0 sd 1 lw 607 335 m 6 X s
 [] 0 sd 1 lw 607 335 m20 [] 0 sd 1 lw [] 0 sd 1 lw 619 363 m 117 Y s [] 0 sd 1 lw 619 480 m 117 Y s [] 0 sd 1 lw 613
 480 m 6 X s [] 0 sd 1 lw 619 480 m 6 X s [] 0 sd 1 lw 619 480 m20 [] 0 sd 1 lw [] 0 sd 1 lw 625 194 m 6 X s [] 0 sd 1
 lw 631 194 m 6 X s [] 0 sd 1 lw 643 258 m 87 Y s [] 0 sd 1 lw 643 345 m 87 Y s [] 0 sd 1 lw 637 345 m 6 X s [] 0 sd 1
 lw 643 345 m 6 X s [] 0 sd 1 lw 643 345 m20 [] 0 sd 1 lw [] 0 sd 1 lw 654 259 m 88 Y s [] 0 sd 1 lw 654 347 m 89 Y s
 [] 0 sd 1 lw 649 347 m 5 X s [] 0 sd 1 lw 654 347 m 6 X s [] 0 sd 1 lw 654 347 m20 [] 0 sd 1 lw [] 0 sd 1 lw 666 346 m
 123 Y s [] 0 sd 1 lw 666 469 m 123 Y s [] 0 sd 1 lw 660 469 m 6 X s [] 0 sd 1 lw 666 469 m 6 X s [] 0 sd 1 lw 666 469
 m20 [] 0 sd 1 lw [] 0 sd 1 lw 678 430 m 144 Y s [] 0 sd 1 lw 678 574 m 144 Y s [] 0 sd 1 lw 672 574 m 6 X s [] 0 sd 1
 lw 678 574 m 6 X s [] 0 sd 1 lw 678 574 m20 [] 0 sd 1 lw [] 0 sd 1 lw 690 300 m 106 Y s [] 0 sd 1 lw 690 406 m 105 Y s
 [] 0 sd 1 lw 684 406 m 6 X s [] 0 sd 1 lw 690 406 m 6 X s [] 0 sd 1 lw 690 406 m20 [] 0 sd 1 lw [] 0 sd 1 lw 702 228 m
 80 Y s [] 0 sd 1 lw 702 308 m 81 Y s [] 0 sd 1 lw 696 308 m 6 X s [] 0 sd 1 lw 702 308 m 6 X s [] 0 sd 1 lw 702 308 m20
 [] 0 sd 1 lw [] 0 sd 1 lw 713 228 m 81 Y s [] 0 sd 1 lw 713 309 m 81 Y s [] 0 sd 1 lw 708 309 m 5 X s [] 0 sd 1 lw 713
 309 m 6 X s [] 0 sd 1 lw 713 309 m20 [] 0 sd 1 lw [] 0 sd 1 lw 725 268 m 102 Y s [] 0 sd 1 lw 725 370 m 101 Y s [] 0 sd
 1 lw 719 370 m 6 X s [] 0 sd 1 lw 725 370 m 6 X s [] 0 sd 1 lw 725 370 m20 [] 0 sd 1 lw [] 0 sd 1 lw 737 465 m 165 Y s
 [] 0 sd 1 lw 737 630 m 164 Y s [] 0 sd 1 lw 731 630 m 6 X s [] 0 sd 1 lw 737 630 m 6 X s [] 0 sd 1 lw 737 630 m20
 [] 0 sd 1 lw [] 0 sd 1 lw 749 316 m 122 Y s [] 0 sd 1 lw 749 438 m 122 Y s [] 0 sd 1 lw 743 438 m 6 X s [] 0 sd 1 lw
 749 438 m 6 X s [] 0 sd 1 lw 749 438 m20 [] 0 sd 1 lw [] 0 sd 1 lw 761 278 m 115 Y s [] 0 sd 1 lw 761 393 m 115 Y s
 [] 0 sd 1 lw 755 393 m 6 X s [] 0 sd 1 lw 761 393 m 5 X s [] 0 sd 1 lw 761 393 m20 [] 0 sd 1 lw [] 0 sd 1 lw 772 233 m
 94 Y s [] 0 sd 1 lw 772 327 m 93 Y s [] 0 sd 1 lw 766 327 m 6 X s [] 0 sd 1 lw 772 327 m 6 X s [] 0 sd 1 lw 772 327 m20
 [] 0 sd 1 lw [] 0 sd 1 lw 784 194 m 68 Y s [] 0 sd 1 lw 784 262 m 69 Y s [] 0 sd 1 lw 778 262 m 6 X s [] 0 sd 1 lw 784
 262 m 6 X s [] 0 sd 1 lw 784 262 m20 [] 0 sd 1 lw [] 0 sd 1 lw 796 194 m 61 Y s [] 0 sd 1 lw 796 255 m 62 Y s [] 0 sd 1
 lw 790 255 m 6 X s [] 0 sd 1 lw 796 255 m 6 X s [] 0 sd 1 lw 796 255 m20 [] 0 sd 1 lw [] 0 sd 1 lw 808 233 m 95 Y s
 [] 0 sd 1 lw 808 328 m 94 Y s [] 0 sd 1 lw 802 328 m 6 X s [] 0 sd 1 lw 808 328 m 6 X s [] 0 sd 1 lw 808 328 m20
 [] 0 sd 1 lw [] 0 sd 1 lw 814 194 m 6 X s [] 0 sd 1 lw 820 194 m 5 X s [] 0 sd 1 lw 831 512 m 193 Y s [] 0 sd 1 lw 831
 705 m 194 Y s [] 0 sd 1 lw 825 705 m 6 X s [] 0 sd 1 lw 831 705 m 6 X s [] 0 sd 1 lw 831 705 m20 [] 0 sd 1 lw [] 0 sd 1
 lw 843 444 m 173 Y s [] 0 sd 1 lw 843 617 m 173 Y s [] 0 sd 1 lw 837 617 m 6 X s [] 0 sd 1 lw 843 617 m 6 X s [] 0 sd 1
 lw 843 617 m20 [] 0 sd 1 lw [] 0 sd 1 lw 855 393 m 161 Y s [] 0 sd 1 lw 855 554 m 161 Y s [] 0 sd 1 lw 849 554 m 6 X s
 [] 0 sd 1 lw 855 554 m 6 X s [] 0 sd 1 lw 855 554 m20 [] 0 sd 1 lw [] 0 sd 1 lw 867 401 m 167 Y s [] 0 sd 1 lw 867 568
 m 168 Y s [] 0 sd 1 lw 861 568 m 6 X s [] 0 sd 1 lw 867 568 m 6 X s [] 0 sd 1 lw 867 568 m20 [] 0 sd 1 lw [] 0 sd 1 lw
 879 285 m 123 Y s [] 0 sd 1 lw 879 408 m 124 Y s [] 0 sd 1 lw 873 408 m 6 X s [] 0 sd 1 lw 879 408 m 5 X s [] 0 sd 1 lw
 879 408 m20 [] 0 sd 1 lw [] 0 sd 1 lw 890 240 m 111 Y s [] 0 sd 1 lw 890 351 m 110 Y s [] 0 sd 1 lw 884 351 m 6 X s
 [] 0 sd 1 lw 890 351 m 6 X s [] 0 sd 1 lw 890 351 m20 [] 0 sd 1 lw [] 0 sd 1 lw 902 194 m 85 Y s [] 0 sd 1 lw 902 279 m
 85 Y s [] 0 sd 1 lw 896 279 m 6 X s [] 0 sd 1 lw 902 279 m 6 X s [] 0 sd 1 lw 902 279 m20 [] 0 sd 1 lw [] 0 sd 1 lw 914
 362 m 169 Y s [] 0 sd 1 lw 914 531 m 168 Y s [] 0 sd 1 lw 908 531 m 6 X s [] 0 sd 1 lw 914 531 m 6 X s [] 0 sd 1 lw 914
 531 m20 [] 0 sd 1 lw [] 0 sd 1 lw 926 358 m 164 Y s [] 0 sd 1 lw 926 522 m 164 Y s [] 0 sd 1 lw 920 522 m 6 X s [] 0 sd
 1 lw 926 522 m 6 X s [] 0 sd 1 lw 926 522 m20 [] 0 sd 1 lw [] 0 sd 1 lw 937 360 m 166 Y s [] 0 sd 1 lw 937 526 m 167 Y
 s [] 0 sd 1 lw 932 526 m 5 X s [] 0 sd 1 lw 937 526 m 6 X s [] 0 sd 1 lw 937 526 m20 [] 0 sd 1 lw [] 0 sd 1 lw 949 504
 m 215 Y s [] 0 sd 1 lw 949 719 m 214 Y s [] 0 sd 1 lw 943 719 m 6 X s [] 0 sd 1 lw 949 719 m 6 X s [] 0 sd 1 lw 949 719
 m20 [] 0 sd 1 lw [] 0 sd 1 lw 961 297 m 140 Y s [] 0 sd 1 lw 961 437 m 140 Y s [] 0 sd 1 lw 955 437 m 6 X s [] 0 sd 1
 lw 961 437 m 6 X s [] 0 sd 1 lw 961 437 m20 [] 0 sd 1 lw [] 0 sd 1 lw 973 364 m 169 Y s [] 0 sd 1 lw 973 533 m 170 Y s
 [] 0 sd 1 lw 967 533 m 6 X s [] 0 sd 1 lw 973 533 m 6 X s [] 0 sd 1 lw 973 533 m20 [] 0 sd 1 lw [] 0 sd 1 lw 985 194 m
 95 Y s [] 0 sd 1 lw 985 289 m 95 Y s [] 0 sd 1 lw 979 289 m 6 X s [] 0 sd 1 lw 985 289 m 6 X s [] 0 sd 1 lw 985 289 m20
 [] 0 sd 1 lw [] 0 sd 1 lw 996 248 m 131 Y s [] 0 sd 1 lw 996 379 m 131 Y s [] 0 sd 1 lw 991 379 m 5 X s [] 0 sd 1 lw
 996 379 m 6 X s [] 0 sd 1 lw 996 379 m20 [] 0 sd 1 lw [] 0 sd 1 lw 1008 311 m 160 Y s [] 0 sd 1 lw 1008 471 m 160 Y s
 [] 0 sd 1 lw 1002 471 m 6 X s [] 0 sd 1 lw 1008 471 m 6 X s [] 0 sd 1 lw 1008 471 m20 [] 0 sd 1 lw [] 0 sd 1 lw 1020
 749 m 279 Y s [] 0 sd 1 lw 1020 1028 m 278 Y s [] 0 sd 1 lw 1014 1028 m 6 X s [] 0 sd 1 lw 1020 1028 m 6 X s [] 0 sd 1
 lw 1020 1028 m20 [] 0 sd 1 lw [] 0 sd 1 lw 1032 319 m 170 Y s [] 0 sd 1 lw 1032 489 m 171 Y s [] 0 sd 1 lw 1026 489 m 6
 X s [] 0 sd 1 lw 1032 489 m 6 X s [] 0 sd 1 lw 1032 489 m20 [] 0 sd 1 lw [] 0 sd 1 lw 1044 459 m 215 Y s [] 0 sd 1 lw
 1044 674 m 215 Y s [] 0 sd 1 lw 1038 674 m 6 X s [] 0 sd 1 lw 1044 674 m 5 X s [] 0 sd 1 lw 1044 674 m20 [] 0 sd 1 lw
 [] 0 sd 1 lw 1055 252 m 140 Y s [] 0 sd 1 lw 1055 392 m 140 Y s [] 0 sd 1 lw 1049 392 m 6 X s [] 0 sd 1 lw 1055 392 m 6
 X s [] 0 sd 1 lw 1055 392 m20 [] 0 sd 1 lw [] 0 sd 1 lw 1067 394 m 200 Y s [] 0 sd 1 lw 1067 594 m 200 Y s [] 0 sd 1 lw
 1061 594 m 6 X s [] 0 sd 1 lw 1067 594 m 6 X s [] 0 sd 1 lw 1067 594 m20 [] 0 sd 1 lw [] 0 sd 1 lw 1079 482 m 233 Y s
 [] 0 sd 1 lw 1079 715 m 233 Y s [] 0 sd 1 lw 1073 715 m 6 X s [] 0 sd 1 lw 1079 715 m 6 X s [] 0 sd 1 lw 1079 715 m20
 [] 0 sd 1 lw [] 0 sd 1 lw 1091 485 m 235 Y s [] 0 sd 1 lw 1091 720 m 236 Y s [] 0 sd 1 lw 1085 720 m 6 X s [] 0 sd 1 lw
 1091 720 m 6 X s [] 0 sd 1 lw 1091 720 m20 [] 0 sd 1 lw [] 0 sd 1 lw 1097 194 m 6 X s [] 0 sd 1 lw 1103 194 m 5 X s
 [] 0 sd 1 lw 1114 741 m 301 Y s [] 0 sd 1 lw 1114 1042 m 300 Y s [] 0 sd 1 lw 1108 1042 m 6 X s [] 0 sd 1 lw 1114 1042
 m 6 X s [] 0 sd 1 lw 1114 1042 m20 [] 0 sd 1 lw [] 0 sd 1 lw 1126 594 m 276 Y s [] 0 sd 1 lw 1126 870 m 276 Y s [] 0 sd
 1 lw 1120 870 m 6 X s [] 0 sd 1 lw 1126 870 m 6 X s [] 0 sd 1 lw 1126 870 m20 [] 0 sd 1 lw [] 0 sd 1 lw 1138 501 m 248
 Y s [] 0 sd 1 lw 1138 749 m 248 Y s [] 0 sd 1 lw 1132 749 m 6 X s [] 0 sd 1 lw 1138 749 m 6 X s [] 0 sd 1 lw 1138 749
 m20 [] 0 sd 1 lw [] 0 sd 1 lw 1150 777 m 320 Y s [] 0 sd 1 lw 1150 1097 m 319 Y s [] 0 sd 1 lw 1144 1097 m 6 X s
 [] 0 sd 1 lw 1150 1097 m 6 X s [] 0 sd 1 lw 1150 1097 m20 [] 0 sd 1 lw [] 0 sd 1 lw 1162 419 m 225 Y s [] 0 sd 1 lw
 1162 644 m 225 Y s [] 0 sd 1 lw 1156 644 m 6 X s [] 0 sd 1 lw 1162 644 m 5 X s [] 0 sd 1 lw 1162 644 m20 [] 0 sd 1 lw
 [] 0 sd 1 lw 1173 490 m 239 Y s [] 0 sd 1 lw 1173 729 m 239 Y s [] 0 sd 1 lw 1167 729 m 6 X s [] 0 sd 1 lw 1173 729 m 6
 X s [] 0 sd 1 lw 1173 729 m20 [] 0 sd 1 lw [] 0 sd 1 lw 1185 261 m 161 Y s [] 0 sd 1 lw 1185 422 m 161 Y s [] 0 sd 1 lw
 1179 422 m 6 X s [] 0 sd 1 lw 1185 422 m 6 X s [] 0 sd 1 lw 1185 422 m20 [] 0 sd 1 lw [] 0 sd 1 lw 1197 711 m 315 Y s
 [] 0 sd 1 lw 1197 1026 m 314 Y s [] 0 sd 1 lw 1191 1026 m 6 X s [] 0 sd 1 lw 1197 1026 m 6 X s [] 0 sd 1 lw 1197 1026
 m20 [] 0 sd 1 lw [] 0 sd 1 lw 1209 935 m 370 Y s [] 0 sd 1 lw 1209 1305 m 370 Y s [] 0 sd 1 lw 1203 1305 m 6 X s
 [] 0 sd 1 lw 1209 1305 m 6 X s [] 0 sd 1 lw 1209 1305 m20 [] 0 sd 1 lw [] 0 sd 1 lw 1220 347 m 209 Y s [] 0 sd 1 lw
 1220 556 m 210 Y s [] 0 sd 1 lw 1215 556 m 5 X s [] 0 sd 1 lw 1220 556 m 6 X s [] 0 sd 1 lw 1220 556 m20 [] 0 sd 1 lw
 [] 0 sd 1 lw 1232 194 m 110 Y s [] 0 sd 1 lw 1232 304 m 109 Y s [] 0 sd 1 lw 1226 304 m 6 X s [] 0 sd 1 lw 1232 304 m 6
 X s [] 0 sd 1 lw 1232 304 m20 [] 0 sd 1 lw [] 0 sd 1 lw 1244 811 m 338 Y s [] 0 sd 1 lw 1244 1149 m 339 Y s [] 0 sd 1
 lw 1238 1149 m 6 X s [] 0 sd 1 lw 1244 1149 m 6 X s [] 0 sd 1 lw 1244 1149 m20 [] 0 sd 1 lw [] 0 sd 1 lw 1256 265 m 172
 Y s [] 0 sd 1 lw 1256 437 m 172 Y s [] 0 sd 1 lw 1250 437 m 6 X s [] 0 sd 1 lw 1256 437 m 6 X s [] 0 sd 1 lw 1256 437
 m20 [] 0 sd 1 lw [] 0 sd 1 lw 1268 549 m 287 Y s [] 0 sd 1 lw 1268 836 m 288 Y s [] 0 sd 1 lw 1262 836 m 6 X s [] 0 sd
 1 lw 1268 836 m 6 X s [] 0 sd 1 lw 1268 836 m20 [] 0 sd 1 lw [] 0 sd 1 lw 1279 634 m 304 Y s [] 0 sd 1 lw 1279 938 m
 304 Y s [] 0 sd 1 lw 1274 938 m 5 X s [] 0 sd 1 lw 1279 938 m 6 X s [] 0 sd 1 lw 1279 938 m20 [] 0 sd 1 lw [] 0 sd 1 lw
 1291 648 m 313 Y s [] 0 sd 1 lw 1291 961 m 314 Y s [] 0 sd 1 lw 1285 961 m 6 X s [] 0 sd 1 lw 1291 961 m 6 X s [] 0 sd
 1 lw 1291 961 m20 [] 0 sd 1 lw [] 0 sd 1 lw 1303 352 m 217 Y s [] 0 sd 1 lw 1303 569 m 217 Y s [] 0 sd 1 lw 1297 569 m
 6 X s [] 0 sd 1 lw 1303 569 m 6 X s [] 0 sd 1 lw 1303 569 m20 [] 0 sd 1 lw [] 0 sd 1 lw 1315 275 m 194 Y s [] 0 sd 1 lw
 1315 469 m 194 Y s [] 0 sd 1 lw 1309 469 m 6 X s [] 0 sd 1 lw 1315 469 m 6 X s [] 0 sd 1 lw 1315 469 m20 [] 0 sd 1 lw
 [] 0 sd 1 lw 1327 194 m 138 Y s [] 0 sd 1 lw 1327 332 m 139 Y s [] 0 sd 1 lw 1321 332 m 6 X s [] 0 sd 1 lw 1327 332 m 6
 X s [] 0 sd 1 lw 1327 332 m20 [] 0 sd 1 lw [] 0 sd 1 lw 1338 658 m 322 Y s [] 0 sd 1 lw 1338 980 m 321 Y s [] 0 sd 1 lw
 1333 980 m 5 X s [] 0 sd 1 lw 1338 980 m 6 X s [] 0 sd 1 lw 1338 980 m20 [] 0 sd 1 lw [] 0 sd 1 lw 1350 276 m 195 Y s
 [] 0 sd 1 lw 1350 471 m 196 Y s [] 0 sd 1 lw 1344 471 m 6 X s [] 0 sd 1 lw 1350 471 m 6 X s [] 0 sd 1 lw 1350 471 m20
 [] 0 sd 1 lw [] 0 sd 1 lw 1362 277 m 199 Y s [] 0 sd 1 lw 1362 476 m 199 Y s [] 0 sd 1 lw 1356 476 m 6 X s [] 0 sd 1 lw
 1362 476 m 6 X s [] 0 sd 1 lw 1362 476 m20 [] 0 sd 1 lw [] 0 sd 1 lw 1374 544 m 282 Y s [] 0 sd 1 lw 1374 826 m 283 Y s
 [] 0 sd 1 lw 1368 826 m 6 X s [] 0 sd 1 lw 1374 826 m 6 X s [] 0 sd 1 lw 1374 826 m20 [] 0 sd 1 lw [] 0 sd 1 lw 1386
 470 m 277 Y s [] 0 sd 1 lw 1386 747 m 277 Y s [] 0 sd 1 lw 1380 747 m 6 X s [] 0 sd 1 lw 1386 747 m 5 X s [] 0 sd 1 lw
 1386 747 m20 [] 0 sd 1 lw [] 0 sd 1 lw 1397 360 m 228 Y s [] 0 sd 1 lw 1397 588 m 228 Y s [] 0 sd 1 lw 1391 588 m 6 X s
 [] 0 sd 1 lw 1397 588 m 6 X s [] 0 sd 1 lw 1397 588 m20 [] 0 sd 1 lw [] 0 sd 1 lw 1409 358 m 224 Y s [] 0 sd 1 lw 1409
 582 m 225 Y s [] 0 sd 1 lw 1403 582 m 6 X s [] 0 sd 1 lw 1409 582 m 6 X s [] 0 sd 1 lw 1409 582 m20 [] 0 sd 1 lw
 [] 0 sd 1 lw 1421 567 m 303 Y s [] 0 sd 1 lw 1421 870 m 302 Y s [] 0 sd 1 lw 1415 870 m 6 X s [] 0 sd 1 lw 1421 870 m 6
 X s [] 0 sd 1 lw 1421 870 m20 [] 0 sd 1 lw [] 0 sd 1 lw 1433 675 m 333 Y s [] 0 sd 1 lw 1433 1008 m 333 Y s [] 0 sd 1
 lw 1427 1008 m 6 X s [] 0 sd 1 lw 1433 1008 m 6 X s [] 0 sd 1 lw 1433 1008 m20 [] 0 sd 1 lw [] 0 sd 1 lw 1445 455 m 262
 Y s [] 0 sd 1 lw 1445 717 m 262 Y s [] 0 sd 1 lw 1439 717 m 6 X s [] 0 sd 1 lw 1445 717 m 5 X s [] 0 sd 1 lw 1445 717
 m20 [] 0 sd 1 lw [] 0 sd 1 lw 1456 446 m 251 Y s [] 0 sd 1 lw 1456 697 m 252 Y s [] 0 sd 1 lw 1450 697 m 6 X s [] 0 sd
 1 lw 1456 697 m 6 X s [] 0 sd 1 lw 1456 697 m20 [] 0 sd 1 lw [] 0 sd 1 lw 1468 274 m 192 Y s [] 0 sd 1 lw 1468 466 m
 193 Y s [] 0 sd 1 lw 1462 466 m 6 X s [] 0 sd 1 lw 1468 466 m 6 X s [] 0 sd 1 lw 1468 466 m20 [] 0 sd 1 lw [] 0 sd 1 lw
 1480 194 m 128 Y s [] 0 sd 1 lw 1480 322 m 127 Y s [] 0 sd 1 lw 1474 322 m 6 X s [] 0 sd 1 lw 1480 322 m 6 X s [] 0 sd
 1 lw 1480 322 m20 [] 0 sd 1 lw [] 0 sd 1 lw 1492 660 m 322 Y s [] 0 sd 1 lw 1492 982 m 322 Y s [] 0 sd 1 lw 1486 982 m
 6 X s [] 0 sd 1 lw 1492 982 m 6 X s [] 0 sd 1 lw 1492 982 m20 [] 0 sd 1 lw [] 0 sd 1 lw 1503 359 m 226 Y s [] 0 sd 1 lw
 1503 585 m 226 Y s [] 0 sd 1 lw 1498 585 m 5 X s [] 0 sd 1 lw 1503 585 m 6 X s [] 0 sd 1 lw 1503 585 m20 [] 0 sd 1 lw
 [] 0 sd 1 lw 1515 369 m 240 Y s [] 0 sd 1 lw 1515 609 m 240 Y s [] 0 sd 1 lw 1509 609 m 6 X s [] 0 sd 1 lw 1515 609 m 6
 X s [] 0 sd 1 lw 1515 609 m20 [] 0 sd 1 lw [] 0 sd 1 lw 1527 278 m 202 Y s [] 0 sd 1 lw 1527 480 m 202 Y s [] 0 sd 1 lw
 1521 480 m 6 X s [] 0 sd 1 lw 1527 480 m 6 X s [] 0 sd 1 lw 1527 480 m20 [] 0 sd 1 lw [] 0 sd 1 lw 1539 673 m 331 Y s
 [] 0 sd 1 lw 1539 1004 m 331 Y s [] 0 sd 1 lw 1533 1004 m 6 X s [] 0 sd 1 lw 1539 1004 m 6 X s [] 0 sd 1 lw 1539 1004
 m20 [] 0 sd 1 lw [] 0 sd 1 lw 1551 277 m 198 Y s [] 0 sd 1 lw 1551 475 m 199 Y s [] 0 sd 1 lw 1545 475 m 6 X s [] 0 sd
 1 lw 1551 475 m 6 X s [] 0 sd 1 lw 1551 475 m20 [] 0 sd 1 lw [] 0 sd 1 lw 1557 194 m 5 X s [] 0 sd 1 lw 1562 194 m 6 X
 s [] 0 sd 1 lw 1574 465 m 271 Y s [] 0 sd 1 lw 1574 736 m 271 Y s [] 0 sd 1 lw 1568 736 m 6 X s [] 0 sd 1 lw 1574 736 m
 6 X s [] 0 sd 1 lw 1574 736 m20 [] 0 sd 1 lw [] 0 sd 1 lw 1586 271 m 187 Y s [] 0 sd 1 lw 1586 458 m 186 Y s [] 0 sd 1
 lw 1580 458 m 6 X s [] 0 sd 1 lw 1586 458 m 6 X s [] 0 sd 1 lw 1586 458 m20 [] 0 sd 1 lw [] 0 sd 1 lw 1598 657 m 320 Y
 s [] 0 sd 1 lw 1598 977 m 320 Y s [] 0 sd 1 lw 1592 977 m 6 X s [] 0 sd 1 lw 1598 977 m 6 X s [] 0 sd 1 lw 1598 977 m20
 [] 0 sd 1 lw [] 0 sd 1 lw 1610 364 m 233 Y s [] 0 sd 1 lw 1610 597 m 232 Y s [] 0 sd 1 lw 1604 597 m 6 X s [] 0 sd 1 lw
 1610 597 m 6 X s [] 0 sd 1 lw 1610 597 m20 [] 0 sd 1 lw [] 0 sd 1 lw 1621 463 m 269 Y s [] 0 sd 1 lw 1621 732 m 269 Y s
 [] 0 sd 1 lw 1616 732 m 5 X s [] 0 sd 1 lw 1621 732 m 6 X s [] 0 sd 1 lw 1621 732 m20 [] 0 sd 1 lw [] 0 sd 1 lw 1633
 269 m 181 Y s [] 0 sd 1 lw 1633 450 m 182 Y s [] 0 sd 1 lw 1627 450 m 6 X s [] 0 sd 1 lw 1633 450 m 6 X s [] 0 sd 1 lw
 1633 450 m20 [] 0 sd 1 lw [] 0 sd 1 lw 1645 357 m 223 Y s [] 0 sd 1 lw 1645 580 m 222 Y s [] 0 sd 1 lw 1639 580 m 6 X s
 [] 0 sd 1 lw 1645 580 m 6 X s [] 0 sd 1 lw 1645 580 m20 [] 0 sd 1 lw [] 0 sd 1 lw 1657 547 m 287 Y s [] 0 sd 1 lw 1657
 834 m 286 Y s [] 0 sd 1 lw 1651 834 m 6 X s [] 0 sd 1 lw 1657 834 m 6 X s [] 0 sd 1 lw 1657 834 m20 [] 0 sd 1 lw
 [] 0 sd 1 lw 1669 856 m 362 Y s [] 0 sd 1 lw 1669 1218 m 363 Y s [] 0 sd 1 lw 1663 1218 m 6 X s [] 0 sd 1 lw 1669 1218
 m 5 X s [] 0 sd 1 lw 1669 1218 m20 [] 0 sd 1 lw [] 0 sd 1 lw 1680 271 m 186 Y s [] 0 sd 1 lw 1680 457 m 186 Y s [] 0 sd
 1 lw 1674 457 m 6 X s [] 0 sd 1 lw 1680 457 m 6 X s [] 0 sd 1 lw 1680 457 m20 [] 0 sd 1 lw [] 0 sd 1 lw 1692 454 m 260
 Y s [] 0 sd 1 lw 1692 714 m 260 Y s [] 0 sd 1 lw 1686 714 m 6 X s [] 0 sd 1 lw 1692 714 m 6 X s [] 0 sd 1 lw 1692 714
 m20 [] 0 sd 1 lw [] 0 sd 1 lw 1704 266 m 175 Y s [] 0 sd 1 lw 1704 441 m 175 Y s [] 0 sd 1 lw 1698 441 m 6 X s [] 0 sd
 1 lw 1704 441 m 6 X s [] 0 sd 1 lw 1704 441 m20 [] 0 sd 1 lw [] 0 sd 1 lw 1716 717 m 319 Y s [] 0 sd 1 lw 1716 1036 m
 318 Y s [] 0 sd 1 lw 1710 1036 m 6 X s [] 0 sd 1 lw 1716 1036 m 6 X s [] 0 sd 1 lw 1716 1036 m20 [] 0 sd 1 lw [] 0 sd 1
 lw 1728 425 m 232 Y s [] 0 sd 1 lw 1728 657 m 232 Y s [] 0 sd 1 lw 1722 657 m 6 X s [] 0 sd 1 lw 1728 657 m 5 X s
 [] 0 sd 1 lw 1728 657 m20 [] 0 sd 1 lw [] 0 sd 1 lw 1739 519 m 263 Y s [] 0 sd 1 lw 1739 782 m 263 Y s [] 0 sd 1 lw
 1733 782 m 6 X s [] 0 sd 1 lw 1739 782 m 6 X s [] 0 sd 1 lw 1739 782 m20 [] 0 sd 1 lw [] 0 sd 1 lw 1751 263 m 166 Y s
 [] 0 sd 1 lw 1751 429 m 166 Y s [] 0 sd 1 lw 1745 429 m 6 X s [] 0 sd 1 lw 1751 429 m 6 X s [] 0 sd 1 lw 1751 429 m20
 [] 0 sd 1 lw [] 0 sd 1 lw 1763 344 m 204 Y s [] 0 sd 1 lw 1763 548 m 204 Y s [] 0 sd 1 lw 1757 548 m 6 X s [] 0 sd 1 lw
 1763 548 m 6 X s [] 0 sd 1 lw 1763 548 m20 [] 0 sd 1 lw [] 0 sd 1 lw 1775 421 m 227 Y s [] 0 sd 1 lw 1775 648 m 227 Y s
 [] 0 sd 1 lw 1769 648 m 6 X s [] 0 sd 1 lw 1775 648 m 6 X s [] 0 sd 1 lw 1775 648 m20 [] 0 sd 1 lw [] 0 sd 1 lw 1787
 194 m 116 Y s [] 0 sd 1 lw 1787 310 m 116 Y s [] 0 sd 1 lw 1781 310 m 6 X s [] 0 sd 1 lw 1787 310 m 5 X s [] 0 sd 1 lw
 1787 310 m20 [] 0 sd 1 lw [] 0 sd 1 lw 1798 404 m 209 Y s [] 0 sd 1 lw 1798 613 m 209 Y s [] 0 sd 1 lw 1792 613 m 6 X s
 [] 0 sd 1 lw 1798 613 m 6 X s [] 0 sd 1 lw 1798 613 m20 [] 0 sd 1 lw [] 0 sd 1 lw 1810 194 m 104 Y s [] 0 sd 1 lw 1810
 298 m 104 Y s [] 0 sd 1 lw 1804 298 m 6 X s [] 0 sd 1 lw 1810 298 m 6 X s [] 0 sd 1 lw 1810 298 m20 [] 0 sd 1 lw
 [] 0 sd 1 lw 1822 258 m 155 Y s [] 0 sd 1 lw 1822 413 m 154 Y s [] 0 sd 1 lw 1816 413 m 6 X s [] 0 sd 1 lw 1822 413 m 6
 X s [] 0 sd 1 lw 1822 413 m20 [] 0 sd 1 lw [] 0 sd 1 lw 1834 399 m 205 Y s [] 0 sd 1 lw 1834 604 m 205 Y s [] 0 sd 1 lw
 1828 604 m 6 X s [] 0 sd 1 lw 1834 604 m 6 X s [] 0 sd 1 lw 1834 604 m20 [] 0 sd 1 lw [] 0 sd 1 lw 1845 395 m 202 Y s
 [] 0 sd 1 lw 1845 597 m 201 Y s [] 0 sd 1 lw 1840 597 m 5 X s [] 0 sd 1 lw 1845 597 m 6 X s [] 0 sd 1 lw 1845 597 m20
 [] 0 sd 1 lw [] 0 sd 1 lw 1857 481 m 234 Y s [] 0 sd 1 lw 1857 715 m 233 Y s [] 0 sd 1 lw 1851 715 m 6 X s [] 0 sd 1 lw
 1857 715 m 6 X s [] 0 sd 1 lw 1857 715 m20 [] 0 sd 1 lw [] 0 sd 1 lw 1869 332 m 188 Y s [] 0 sd 1 lw 1869 520 m 188 Y s
 [] 0 sd 1 lw 1863 520 m 6 X s [] 0 sd 1 lw 1869 520 m 6 X s [] 0 sd 1 lw 1869 520 m20 [] 0 sd 1 lw [] 0 sd 1 lw 1881
 713 m 285 Y s [] 0 sd 1 lw 1881 998 m 285 Y s [] 0 sd 1 lw 1875 998 m 6 X s [] 0 sd 1 lw 1881 998 m 6 X s [] 0 sd 1 lw
 1881 998 m20 [] 0 sd 1 lw [] 0 sd 1 lw 1893 472 m 226 Y s [] 0 sd 1 lw 1893 698 m 226 Y s [] 0 sd 1 lw 1887 698 m 6 X s
 [] 0 sd 1 lw 1893 698 m 6 X s [] 0 sd 1 lw 1893 698 m20 [] 0 sd 1 lw [] 0 sd 1 lw 1904 603 m 249 Y s [] 0 sd 1 lw 1904
 852 m 249 Y s [] 0 sd 1 lw 1899 852 m 5 X s [] 0 sd 1 lw 1904 852 m 6 X s [] 0 sd 1 lw 1904 852 m20 [] 0 sd 1 lw
 [] 0 sd 1 lw 1916 318 m 168 Y s [] 0 sd 1 lw 1916 486 m 169 Y s [] 0 sd 1 lw 1910 486 m 6 X s [] 0 sd 1 lw 1916 486 m 6
 X s [] 0 sd 1 lw 1916 486 m20 [] 0 sd 1 lw [] 0 sd 1 lw 1928 388 m 195 Y s [] 0 sd 1 lw 1928 583 m 194 Y s [] 0 sd 1 lw
 1922 583 m 6 X s [] 0 sd 1 lw 1928 583 m 6 X s [] 0 sd 1 lw 1928 583 m20 [] 0 sd 1 lw [] 0 sd 1 lw 1940 385 m 192 Y s
 [] 0 sd 1 lw 1940 577 m 192 Y s [] 0 sd 1 lw 1934 577 m 6 X s [] 0 sd 1 lw 1940 577 m 6 X s [] 0 sd 1 lw 1940 577 m20
 [] 0 sd 1 lw [] 0 sd 1 lw 1952 389 m 194 Y s [] 0 sd 1 lw 1952 583 m 194 Y s [] 0 sd 1 lw 1946 583 m 6 X s [] 0 sd 1 lw
 1952 583 m 5 X s [] 0 sd 1 lw 1952 583 m20 [] 0 sd 1 lw [] 0 sd 1 lw 1963 380 m 186 Y s [] 0 sd 1 lw 1963 566 m 186 Y s
 [] 0 sd 1 lw 1957 566 m 6 X s [] 0 sd 1 lw 1963 566 m 6 X s [] 0 sd 1 lw 1963 566 m20 [] 0 sd 1 lw [] 0 sd 1 lw 1975
 359 m 165 Y s [] 0 sd 1 lw 1975 524 m 166 Y s [] 0 sd 1 lw 1969 524 m 6 X s [] 0 sd 1 lw 1975 524 m 6 X s [] 0 sd 1 lw
 1975 524 m20 [] 0 sd 1 lw [] 0 sd 1 lw 1981 194 m 6 X s [] 0 sd 1 lw 1987 194 m 6 X s [] 0 sd 1 lw 1999 309 m 157 Y s
 [] 0 sd 1 lw 1999 466 m 157 Y s [] 0 sd 1 lw 1993 466 m 6 X s [] 0 sd 1 lw 1999 466 m 6 X s [] 0 sd 1 lw 1999 466 m20
 [] 0 sd 1 lw [] 0 sd 1 lw 2011 243 m 120 Y s [] 0 sd 1 lw 2011 363 m 119 Y s [] 0 sd 1 lw 2005 363 m 6 X s [] 0 sd 1 lw
 2011 363 m 5 X s [] 0 sd 1 lw 2011 363 m20 [] 0 sd 1 lw [] 0 sd 1 lw 2022 194 m 78 Y s [] 0 sd 1 lw 2022 272 m 77 Y s
 [] 0 sd 1 lw 2016 272 m 6 X s [] 0 sd 1 lw 2022 272 m 6 X s [] 0 sd 1 lw 2022 272 m20 [] 0 sd 1 lw [] 0 sd 1 lw 2034
 354 m 159 Y s [] 0 sd 1 lw 2034 513 m 160 Y s [] 0 sd 1 lw 2028 513 m 6 X s [] 0 sd 1 lw 2034 513 m 6 X s [] 0 sd 1 lw
 2034 513 m20 [] 0 sd 1 lw [] 0 sd 1 lw 2046 291 m 134 Y s [] 0 sd 1 lw 2046 425 m 133 Y s [] 0 sd 1 lw 2040 425 m 6 X s
 [] 0 sd 1 lw 2046 425 m 6 X s [] 0 sd 1 lw 2046 425 m20 [] 0 sd 1 lw [] 0 sd 1 lw 2052 194 m 6 X s [] 0 sd 1 lw 2058
 194 m 6 X s [] 0 sd 1 lw 2070 345 m 151 Y s [] 0 sd 1 lw 2070 496 m 151 Y s [] 0 sd 1 lw 2064 496 m 6 X s [] 0 sd 1 lw
 2070 496 m 5 X s [] 0 sd 1 lw 2070 496 m20 [] 0 sd 1 lw [] 0 sd 1 lw 2081 522 m 200 Y s [] 0 sd 1 lw 2081 722 m 200 Y s
 [] 0 sd 1 lw 2075 722 m 6 X s [] 0 sd 1 lw 2081 722 m 6 X s [] 0 sd 1 lw 2081 722 m20 [] 0 sd 1 lw [] 0 sd 1 lw 2093
 238 m 105 Y s [] 0 sd 1 lw 2093 343 m 106 Y s [] 0 sd 1 lw 2087 343 m 6 X s [] 0 sd 1 lw 2093 343 m 6 X s [] 0 sd 1 lw
 2093 343 m20 [] 0 sd 1 lw [] 0 sd 1 lw 2105 390 m 159 Y s [] 0 sd 1 lw 2105 549 m 158 Y s [] 0 sd 1 lw 2099 549 m 6 X s
 [] 0 sd 1 lw 2105 549 m 6 X s [] 0 sd 1 lw 2105 549 m20 [] 0 sd 1 lw [] 0 sd 1 lw 2117 333 m 139 Y s [] 0 sd 1 lw 2117
 472 m 139 Y s [] 0 sd 1 lw 2111 472 m 6 X s [] 0 sd 1 lw 2117 472 m 6 X s [] 0 sd 1 lw 2117 472 m20 [] 0 sd 1 lw
 [] 0 sd 1 lw 2128 380 m 150 Y s [] 0 sd 1 lw 2128 530 m 150 Y s [] 0 sd 1 lw 2123 530 m 5 X s [] 0 sd 1 lw 2128 530 m 6
 X s [] 0 sd 1 lw 2128 530 m20 [] 0 sd 1 lw [] 0 sd 1 lw 2140 281 m 119 Y s [] 0 sd 1 lw 2140 400 m 118 Y s [] 0 sd 1 lw
 2134 400 m 6 X s [] 0 sd 1 lw 2140 400 m 6 X s [] 0 sd 1 lw 2140 400 m20 [] 0 sd 1 lw [] 0 sd 1 lw 2152 443 m 172 Y s
 [] 0 sd 1 lw 2152 615 m 172 Y s [] 0 sd 1 lw 2146 615 m 6 X s [] 0 sd 1 lw 2152 615 m 6 X s [] 0 sd 1 lw 2152 615 m20
 [] 0 sd 1 lw [] 0 sd 1 lw 2164 194 m 69 Y s [] 0 sd 1 lw 2164 263 m 68 Y s [] 0 sd 1 lw 2158 263 m 6 X s [] 0 sd 1 lw
 2164 263 m 6 X s [] 0 sd 1 lw 2164 263 m20 [] 0 sd 1 lw [] 0 sd 1 lw 2176 194 m 68 Y s [] 0 sd 1 lw 2176 262 m 68 Y s
 [] 0 sd 1 lw 2170 262 m 6 X s [] 0 sd 1 lw 2176 262 m 6 X s [] 0 sd 1 lw 2176 262 m20 [] 0 sd 1 lw [] 0 sd 1 lw 2187
 316 m 123 Y s [] 0 sd 1 lw 2187 439 m 122 Y s [] 0 sd 1 lw 2182 439 m 5 X s [] 0 sd 1 lw 2187 439 m 6 X s [] 0 sd 1 lw
 2187 439 m20 [] 0 sd 1 lw [] 0 sd 1 lw 2199 313 m 120 Y s [] 0 sd 1 lw 2199 433 m 119 Y s [] 0 sd 1 lw 2193 433 m 6 X s
 [] 0 sd 1 lw 2199 433 m 6 X s [] 0 sd 1 lw 2199 433 m20 [] 0 sd 1 lw [] 0 sd 1 lw 2211 362 m 136 Y s [] 0 sd 1 lw 2211
 498 m 137 Y s [] 0 sd 1 lw 2205 498 m 6 X s [] 0 sd 1 lw 2211 498 m 6 X s [] 0 sd 1 lw 2211 498 m20 [] 0 sd 1 lw
 [] 0 sd 1 lw 2223 357 m 133 Y s [] 0 sd 1 lw 2223 490 m 132 Y s [] 0 sd 1 lw 2217 490 m 6 X s [] 0 sd 1 lw 2223 490 m 6
 X s [] 0 sd 1 lw 2223 490 m20 [] 0 sd 1 lw [] 0 sd 1 lw 2235 194 m 54 Y s [] 0 sd 1 lw 2235 248 m 53 Y s [] 0 sd 1 lw
 2229 248 m 6 X s [] 0 sd 1 lw 2235 248 m 6 X s [] 0 sd 1 lw 2235 248 m20 [] 0 sd 1 lw [] 0 sd 1 lw 2246 229 m 84 Y s
 [] 0 sd 1 lw 2246 313 m 84 Y s [] 0 sd 1 lw 2241 313 m 5 X s [] 0 sd 1 lw 2246 313 m 6 X s [] 0 sd 1 lw 2246 313 m20
 [] 0 sd 1 lw [] 0 sd 1 lw 2258 265 m 98 Y s [] 0 sd 1 lw 2258 363 m 97 Y s [] 0 sd 1 lw 2252 363 m 6 X s [] 0 sd 1 lw
 2258 363 m 6 X s [] 0 sd 1 lw 2258 363 m20 [] 0 sd 1 lw [] 0 sd 1 lw 2270 194 m 58 Y s [] 0 sd 1 lw 2270 252 m 58 Y s
 [] 0 sd 1 lw 2264 252 m 6 X s [] 0 sd 1 lw 2270 252 m 6 X s [] 0 sd 1 lw 2270 252 m20 [] 0 sd 1 lw [] 0 sd 1 lw 2282
 300 m 107 Y s [] 0 sd 1 lw 2282 407 m 106 Y s [] 0 sd 1 lw 2276 407 m 6 X s [] 0 sd 1 lw 2282 407 m 6 X s [] 0 sd 1 lw
 2282 407 m20 [] 0 sd 1 lw [] 0 sd 1 lw 2294 298 m 104 Y s [] 0 sd 1 lw 2294 402 m 104 Y s [] 0 sd 1 lw 2288 402 m 6 X s
 [] 0 sd 1 lw 2294 402 m 5 X s [] 0 sd 1 lw 2294 402 m20 [] 0 sd 1 lw [] 0 sd 1 lw 2305 260 m 90 Y s [] 0 sd 1 lw 2305
 350 m 91 Y s [] 0 sd 1 lw 2299 350 m 6 X s [] 0 sd 1 lw 2305 350 m 6 X s [] 0 sd 1 lw 2305 350 m20 [] 0 sd 1 lw [] 0 sd
 1 lw 2311 194 m 6 X s [] 0 sd 1 lw 2317 194 m 6 X s [] 0 sd 1 lw 2329 221 m 65 Y s [] 0 sd 1 lw 2329 286 m 65 Y s
 [] 0 sd 1 lw 2323 286 m 6 X s [] 0 sd 1 lw 2329 286 m 6 X s [] 0 sd 1 lw 2329 286 m20 [] 0 sd 1 lw [] 0 sd 1 lw 2341
 221 m 63 Y s [] 0 sd 1 lw 2341 284 m 64 Y s [] 0 sd 1 lw 2335 284 m 6 X s [] 0 sd 1 lw 2341 284 m 6 X s [] 0 sd 1 lw
 2341 284 m20 [] 0 sd 1 lw [] 0 sd 1 lw 2353 254 m 83 Y s [] 0 sd 1 lw 2353 337 m 83 Y s [] 0 sd 1 lw 2347 337 m 6 X s
 [] 0 sd 1 lw 2353 337 m 5 X s [] 0 sd 1 lw 2353 337 m20 [] 0 sd 1 lw [] 0 sd 1 lw 2364 194 m 49 Y s [] 0 sd 1 lw 2364
 243 m 48 Y s [] 0 sd 1 lw 2358 243 m 6 X s [] 0 sd 1 lw 2364 243 m 6 X s [] 0 sd 1 lw 2364 243 m20 [] 0 sd 1 lw [] 0 sd
 1 lw 2376 278 m 83 Y s [] 0 sd 1 lw 2376 361 m 83 Y s [] 0 sd 1 lw 2370 361 m 6 X s [] 0 sd 1 lw 2376 361 m 6 X s
 [] 0 sd 1 lw 2376 361 m20 [] 0 sd 1 lw [] 0 sd 1 lw 2388 282 m 88 Y s [] 0 sd 1 lw 2388 370 m 88 Y s [] 0 sd 1 lw 2382
 370 m 6 X s [] 0 sd 1 lw 2388 370 m 6 X s [] 0 sd 1 lw 2388 370 m20 [] 0 sd 1 lw [] 0 sd 1 lw 2400 221 m 63 Y s [] 0 sd
 1 lw 2400 284 m 63 Y s [] 0 sd 1 lw 2394 284 m 6 X s [] 0 sd 1 lw 2400 284 m 6 X s [] 0 sd 1 lw 2400 284 m20 [] 0 sd 1
 lw [] 0 sd 1 lw 2411 246 m 70 Y s [] 0 sd 1 lw 2411 316 m 70 Y s [] 0 sd 1 lw 2406 316 m 5 X s [] 0 sd 1 lw 2411 316 m
 6 X s [] 0 sd 1 lw 2411 316 m20 [] 0 sd 1 lw [] 0 sd 1 lw 2423 194 m 38 Y s [] 0 sd 1 lw 2423 232 m 37 Y s [] 0 sd 1 lw
 2417 232 m 6 X s [] 0 sd 1 lw 2423 232 m 6 X s [] 0 sd 1 lw 2423 232 m20 [] 0 sd 1 lw [] 0 sd 1 lw 2435 194 m 43 Y s
 [] 0 sd 1 lw 2435 237 m 42 Y s [] 0 sd 1 lw 2429 237 m 6 X s [] 0 sd 1 lw 2435 237 m 6 X s [] 0 sd 1 lw 2435 237 m20
 [] 0 sd 1 lw [] 0 sd 1 lw 2447 245 m 69 Y s [] 0 sd 1 lw 2447 314 m 69 Y s [] 0 sd 1 lw 2441 314 m 6 X s [] 0 sd 1 lw
 2447 314 m 6 X s [] 0 sd 1 lw 2447 314 m20 [] 0 sd 1 lw [] 0 sd 1 lw 2453 194 m 6 X s [] 0 sd 1 lw 2459 194 m 6 X s
 [] 0 sd 1 lw 2470 194 m 40 Y s [] 0 sd 1 lw 2470 234 m 40 Y s [] 0 sd 1 lw 2465 234 m 5 X s [] 0 sd 1 lw 2470 234 m 6 X
 s [] 0 sd 1 lw 2470 234 m20 [] 0 sd 1 lw [] 0 sd 1 lw 2482 194 m 34 Y s [] 0 sd 1 lw 2482 228 m 33 Y s [] 0 sd 1 lw
 2476 228 m 6 X s [] 0 sd 1 lw 2482 228 m 6 X s [] 0 sd 1 lw 2482 228 m20 [] 0 sd 1 lw [] 0 sd 1 lw 2488 194 m 6 X s
 [] 0 sd 1 lw 2494 194 m 6 X s [] 0 sd 1 lw 2506 267 m 72 Y s [] 0 sd 1 lw 2506 339 m 73 Y s [] 0 sd 1 lw 2500 339 m 6 X
 s [] 0 sd 1 lw 2506 339 m 6 X s [] 0 sd 1 lw 2506 339 m20 [] 0 sd 1 lw [] 0 sd 1 lw 2518 291 m 78 Y s [] 0 sd 1 lw 2518
 369 m 78 Y s [] 0 sd 1 lw 2512 369 m 6 X s [] 0 sd 1 lw 2518 369 m 6 X s [] 0 sd 1 lw 2518 369 m20 [] 0 sd 1 lw [] 0 sd
 1 lw 2524 194 m 5 X s [] 0 sd 1 lw 2529 194 m 6 X s [] 0 sd 1 lw 2541 194 m 30 Y s [] 0 sd 1 lw 2541 224 m 30 Y s
 [] 0 sd 1 lw 2535 224 m 6 X s [] 0 sd 1 lw 2541 224 m 6 X s [] 0 sd 1 lw 2541 224 m20 [] 0 sd 1 lw [] 0 sd 1 lw 2553
 213 m 46 Y s [] 0 sd 1 lw 2553 259 m 45 Y s [] 0 sd 1 lw 2547 259 m 6 X s [] 0 sd 1 lw 2553 259 m 6 X s [] 0 sd 1 lw
 2553 259 m20 [] 0 sd 1 lw [] 0 sd 1 lw 2565 194 m 34 Y s [] 0 sd 1 lw 2565 228 m 34 Y s [] 0 sd 1 lw 2559 228 m 6 X s
 [] 0 sd 1 lw 2565 228 m 6 X s [] 0 sd 1 lw 2565 228 m20 [] 0 sd 1 lw [] 0 sd 1 lw 2577 235 m 57 Y s [] 0 sd 1 lw 2577
 292 m 56 Y s [] 0 sd 1 lw 2571 292 m 6 X s [] 0 sd 1 lw 2577 292 m 5 X s [] 0 sd 1 lw 2577 292 m20 [] 0 sd 1 lw [] 0 sd
 1 lw 2582 194 m 6 X s [] 0 sd 1 lw 2588 194 m 6 X s [] 0 sd 1 lw 2594 194 m 6 X s [] 0 sd 1 lw 2600 194 m 6 X s [] 0 sd
 1 lw 2606 194 m 6 X s [] 0 sd 1 lw 2612 194 m 6 X s [] 0 sd 1 lw 2618 194 m 6 X s [] 0 sd 1 lw 2624 194 m 6 X s [] 0 sd
 1 lw 2630 194 m 6 X s [] 0 sd 1 lw 2636 194 m 5 X s [] 0 sd 1 lw 2641 194 m 6 X s [] 0 sd 1 lw 2647 194 m 6 X s [] 0 sd
 1 lw [] 0 sd 1 lw 295 194 m 2358 X s s
 /xs 0 def (Pseudorapidity) /Helvetica-Bold 72 stwn  gsave  2653 49
 t 0 r  xs neg 0 t 0 0 m /Helvetica-Bold findfont 72 sf 0 0 m (Pseudorapidity) show  gr  [] 0 sd 1 lw [] 0 sd 1 lw 457
 241 m -47 Y s s [] 0 sd 1 lw [] 0 sd 1 lw 507 218 m -24 Y s s [] 0 sd 1 lw [] 0 sd 1 lw 558 218 m -24 Y s s [] 0 sd 1
 lw [] 0 sd 1 lw 609 218 m -24 Y s s [] 0 sd 1 lw [] 0 sd 1 lw 660 218 m -24 Y s s [] 0 sd 1 lw [] 0 sd 1 lw 711 241 m
 -47 Y s s [] 0 sd 1 lw [] 0 sd 1 lw 762 218 m -24 Y s s [] 0 sd 1 lw [] 0 sd 1 lw 813 218 m -24 Y s s [] 0 sd 1 lw
 [] 0 sd 1 lw 864 218 m -24 Y s s [] 0 sd 1 lw [] 0 sd 1 lw 914 218 m -24 Y s s [] 0 sd 1 lw [] 0 sd 1 lw 965 241 m -47
 Y s s [] 0 sd 1 lw [] 0 sd 1 lw 1016 218 m -24 Y s s [] 0 sd 1 lw [] 0 sd 1 lw 1067 218 m -24 Y s s [] 0 sd 1 lw
 [] 0 sd 1 lw 1118 218 m -24 Y s s [] 0 sd 1 lw [] 0 sd 1 lw 1169 218 m -24 Y s s [] 0 sd 1 lw [] 0 sd 1 lw 1220 241 m
 -47 Y s s [] 0 sd 1 lw [] 0 sd 1 lw 1271 218 m -24 Y s s [] 0 sd 1 lw [] 0 sd 1 lw 1321 218 m -24 Y s s [] 0 sd 1 lw
 [] 0 sd 1 lw 1372 218 m -24 Y s s [] 0 sd 1 lw [] 0 sd 1 lw 1423 218 m -24 Y s s [] 0 sd 1 lw [] 0 sd 1 lw 1474 241 m
 -47 Y s s [] 0 sd 1 lw [] 0 sd 1 lw 1525 218 m -24 Y s s [] 0 sd 1 lw [] 0 sd 1 lw 1576 218 m -24 Y s s [] 0 sd 1 lw
 [] 0 sd 1 lw 1627 218 m -24 Y s s [] 0 sd 1 lw [] 0 sd 1 lw 1678 218 m -24 Y s s [] 0 sd 1 lw [] 0 sd 1 lw 1728 241 m
 -47 Y s s [] 0 sd 1 lw [] 0 sd 1 lw 1779 218 m -24 Y s s [] 0 sd 1 lw [] 0 sd 1 lw 1830 218 m -24 Y s s [] 0 sd 1 lw
 [] 0 sd 1 lw 1881 218 m -24 Y s s [] 0 sd 1 lw [] 0 sd 1 lw 1932 218 m -24 Y s s [] 0 sd 1 lw [] 0 sd 1 lw 1983 241 m
 -47 Y s s [] 0 sd 1 lw [] 0 sd 1 lw 2034 218 m -24 Y s s [] 0 sd 1 lw [] 0 sd 1 lw 2085 218 m -24 Y s s [] 0 sd 1 lw
 [] 0 sd 1 lw 2135 218 m -24 Y s s [] 0 sd 1 lw [] 0 sd 1 lw 2186 218 m -24 Y s s [] 0 sd 1 lw [] 0 sd 1 lw 2237 241 m
 -47 Y s s [] 0 sd 1 lw [] 0 sd 1 lw 2288 218 m -24 Y s s [] 0 sd 1 lw [] 0 sd 1 lw 2339 218 m -24 Y s s [] 0 sd 1 lw
 [] 0 sd 1 lw 2390 218 m -24 Y s s [] 0 sd 1 lw [] 0 sd 1 lw 2441 218 m -24 Y s s [] 0 sd 1 lw [] 0 sd 1 lw 2491 241 m
 -47 Y s s [] 0 sd 1 lw [] 0 sd 1 lw 457 241 m -47 Y s s [] 0 sd 1 lw [] 0 sd 1 lw 406 218 m -24 Y s s [] 0 sd 1 lw
 [] 0 sd 1 lw 355 218 m -24 Y s s [] 0 sd 1 lw [] 0 sd 1 lw 304 218 m -24 Y s s [] 0 sd 1 lw [] 0 sd 1 lw 2491 241 m -47
 Y s s [] 0 sd 1 lw [] 0 sd 1 lw 2542 218 m -24 Y s s [] 0 sd 1 lw [] 0 sd 1 lw 2593 218 m -24 Y s s [] 0 sd 1 lw
 [] 0 sd 1 lw 2644 218 m -24 Y s s
 /xs 0 def (-2) /Helvetica-Bold 72 stwn  gsave  457 107
 t 0 r xs 2 div neg 0 t 0 0 m /Helvetica-Bold findfont 72 sf 0 0 m (-2) show  gr 
 /xs 0 def (-1.5) /Helvetica-Bold 72 stwn  gsave  711 107
 t 0 r xs 2 div neg 0 t 0 0 m /Helvetica-Bold findfont 72 sf 0 0 m (-1.5) show  gr 
 /xs 0 def (-1) /Helvetica-Bold 72 stwn  gsave  965 107
 t 0 r xs 2 div neg 0 t 0 0 m /Helvetica-Bold findfont 72 sf 0 0 m (-1) show  gr 
 /xs 0 def (-0.5) /Helvetica-Bold 72 stwn  gsave  1220 107
 t 0 r xs 2 div neg 0 t 0 0 m /Helvetica-Bold findfont 72 sf 0 0 m (-0.5) show  gr 
 /xs 0 def (0) /Helvetica-Bold 72 stwn  gsave  1474 107
 t 0 r xs 2 div neg 0 t 0 0 m /Helvetica-Bold findfont 72 sf 0 0 m (0) show  gr 
 /xs 0 def (0.5) /Helvetica-Bold 72 stwn  gsave  1728 107
 t 0 r xs 2 div neg 0 t 0 0 m /Helvetica-Bold findfont 72 sf 0 0 m (0.5) show  gr 
 /xs 0 def (1) /Helvetica-Bold 72 stwn  gsave  1983 107
 t 0 r xs 2 div neg 0 t 0 0 m /Helvetica-Bold findfont 72 sf 0 0 m (1) show  gr 
 /xs 0 def (1.5) /Helvetica-Bold 72 stwn  gsave  2237 107
 t 0 r xs 2 div neg 0 t 0 0 m /Helvetica-Bold findfont 72 sf 0 0 m (1.5) show  gr 
 /xs 0 def (2) /Helvetica-Bold 72 stwn  gsave  2491 107
 t 0 r xs 2 div neg 0 t 0 0 m /Helvetica-Bold findfont 72 sf 0 0 m (2) show  gr  [] 0 sd 1 lw [] 0 sd 1 lw 295 194 m
 1556 Y s s
 /xs 0 def (Number of Hits \(cm) /Helvetica-Bold 72 stwn (-2\)) /Helvetica-Bold 50 stwn  gsave  136 1750
 t 90 r  xs neg 0 t 0 0 m /Helvetica-Bold findfont 72 sf 0 0 m (Number of Hits \(cm) show  currentpoint pop 0 t 
 /Helvetica-Bold findfont 50 sf 0 36 m (-2\)) show  gr  [] 0 sd 1 lw [] 0 sd 1 lw 366 194 m -71 X s s [] 0 sd 1 lw
 [] 0 sd 1 lw 330 246 m -35 X s s [] 0 sd 1 lw [] 0 sd 1 lw 330 297 m -35 X s s [] 0 sd 1 lw [] 0 sd 1 lw 330 348 m -35
 X s s [] 0 sd 1 lw [] 0 sd 1 lw 330 399 m -35 X s s [] 0 sd 1 lw [] 0 sd 1 lw 366 450 m -71 X s s [] 0 sd 1 lw [] 0 sd
 1 lw 330 501 m -35 X s s [] 0 sd 1 lw [] 0 sd 1 lw 330 552 m -35 X s s [] 0 sd 1 lw [] 0 sd 1 lw 330 604 m -35 X s s
 [] 0 sd 1 lw [] 0 sd 1 lw 330 655 m -35 X s s [] 0 sd 1 lw [] 0 sd 1 lw 366 706 m -71 X s s [] 0 sd 1 lw [] 0 sd 1 lw
 330 757 m -35 X s s [] 0 sd 1 lw [] 0 sd 1 lw 330 808 m -35 X s s [] 0 sd 1 lw [] 0 sd 1 lw 330 859 m -35 X s s [] 0 sd
 1 lw [] 0 sd 1 lw 330 910 m -35 X s s [] 0 sd 1 lw [] 0 sd 1 lw 366 962 m -71 X s s [] 0 sd 1 lw [] 0 sd 1 lw 330 1013
 m -35 X s s [] 0 sd 1 lw [] 0 sd 1 lw 330 1064 m -35 X s s [] 0 sd 1 lw [] 0 sd 1 lw 330 1115 m -35 X s s [] 0 sd 1 lw
 [] 0 sd 1 lw 330 1166 m -35 X s s [] 0 sd 1 lw [] 0 sd 1 lw 366 1217 m -71 X s s [] 0 sd 1 lw [] 0 sd 1 lw 330 1268 m
 -35 X s s [] 0 sd 1 lw [] 0 sd 1 lw 330 1320 m -35 X s s [] 0 sd 1 lw [] 0 sd 1 lw 330 1371 m -35 X s s [] 0 sd 1 lw
 [] 0 sd 1 lw 330 1422 m -35 X s s [] 0 sd 1 lw [] 0 sd 1 lw 366 1473 m -71 X s s [] 0 sd 1 lw [] 0 sd 1 lw 330 1524 m
 -35 X s s [] 0 sd 1 lw [] 0 sd 1 lw 330 1575 m -35 X s s [] 0 sd 1 lw [] 0 sd 1 lw 330 1626 m -35 X s s [] 0 sd 1 lw
 [] 0 sd 1 lw 330 1677 m -35 X s s [] 0 sd 1 lw [] 0 sd 1 lw 366 1729 m -71 X s s [] 0 sd 1 lw [] 0 sd 1 lw 366 1729 m
 -71 X s s
 /xs 0 def (0) /Helvetica-Bold 72 stwn  gsave  280 174
 t 0 r  xs neg 0 t 0 0 m /Helvetica-Bold findfont 72 sf 0 0 m (0) show  gr 
 /xs 0 def (10) /Helvetica-Bold 72 stwn  gsave  280 429
 t 0 r  xs neg 0 t 0 0 m /Helvetica-Bold findfont 72 sf 0 0 m (10) show  gr 
 /xs 0 def (20) /Helvetica-Bold 72 stwn  gsave  280 685
 t 0 r  xs neg 0 t 0 0 m /Helvetica-Bold findfont 72 sf 0 0 m (20) show  gr 
 /xs 0 def (30) /Helvetica-Bold 72 stwn  gsave  280 941
 t 0 r  xs neg 0 t 0 0 m /Helvetica-Bold findfont 72 sf 0 0 m (30) show  gr 
 /xs 0 def (40) /Helvetica-Bold 72 stwn  gsave  280 1197
 t 0 r  xs neg 0 t 0 0 m /Helvetica-Bold findfont 72 sf 0 0 m (40) show  gr 
 /xs 0 def (50) /Helvetica-Bold 72 stwn  gsave  280 1452
 t 0 r  xs neg 0 t 0 0 m /Helvetica-Bold findfont 72 sf 0 0 m (50) show  gr 
 /xs 0 def (60) /Helvetica-Bold 72 stwn  gsave  280 1708
 t 0 r  xs neg 0 t 0 0 m /Helvetica-Bold findfont 72 sf 0 0 m (60) show  gr  [] 0 sd 1 lw 0.95 0.95 0.95 c 1165 97 29
 1837 bf black [] 0 sd 1 lw 49 1837 m -13 Y 1158 X 91 Y -13 X -78 Y f [] 0 sd 1 lw 29 1837 m 97 Y s [] 0 sd 1 lw 29 1934
 m 1165 X s [] 0 sd 1 lw 1194 1934 m -97 Y s [] 0 sd 1 lw 1194 1837 m -1165 X s
 /xs 0 def (Hits for Layer 1 by Eta) /Helvetica-Bold 76 stwn  gsave  612 1864
 t 0 r xs 2 div neg 0 t 0 0 m /Helvetica-Bold findfont 76 sf 0 0 m (Hits for Layer 1 by Eta) show  gr  [] 0 sd 1 lw 0.95
 0.95 0.95 c 590 311 2299 1594 bf black [] 0 sd 1 lw 2319 1594 m -13 Y 583 X 305 Y -13 X -292 Y f [] 0 sd 1 lw 2299 1594
 m 311 Y s [] 0 sd 1 lw 2299 1905 m 590 X s [] 0 sd 1 lw 2889 1905 m -311 Y s [] 0 sd 1 lw 2889 1594 m -590 X s
 gsave  2329 1849
 t 0 r 0 0 m /Helvetica-Bold findfont 64 sf 0 0 m (hEtaEtapden_Eta1) show  gr 
 gsave  2329 1771
 t 0 r 0 0 m /Helvetica-Bold findfont 64 sf 0 0 m (Nent = 2216  \040) show  gr 
 gsave  2329 1693
 t 0 r 0 0 m /Helvetica-Bold findfont 64 sf 0 0 m (Mean  = -0.06991) show  gr 
 gsave  2329 1615
 t 0 r 0 0 m /Helvetica-Bold findfont 64 sf 0 0 m (RMS   = 0.9367) show  gr  1 1 0 c gr 
showpage gr
 gr 
%%Trailer
%%Pages:  1
%%EOF
