%!PS-Adobe-2.0
%%Title: ITSHitDen_5_z.ps (Landscape A 4)
%%Pages: (atend)
%%Creator: ROOT Version 2.22/09
%%CreationDate:Sat Sep 18 07:10:28 1999
%%EndComments
%%BeginProlog
/s {stroke} def /l {lineto} def /m {moveto} def /t {translate} def
/sw {stringwidth} def /r {rotate} def /rl {roll}  def /R {repeat} def
/d {rlineto} def /rm {rmoveto} def /gr {grestore} def /f {eofill} def
/c {setrgbcolor} def /lw {setlinewidth} def /sd {setdash} def
/cl {closepath} def /sf {scalefont setfont} def /black {0 setgray} def
/box {m dup 0 exch d exch 0 d 0 exch neg d cl} def
/NC{systemdict begin initclip end}def/C{NC box clip newpath}def
/bl {box s} def /bf {box f} def /Y { 0 exch d} def /X { 0 d} def 
/mp {newpath /y exch def /x exch def} def
/side {[w .77 mul w .23 mul] .385 w mul sd w 0 l currentpoint t -144 r} def
/mr {mp x y w2 0 360 arc} def /m24 {mr s} def /m20 {mr f} def
/mb {mp x y w2 add m w2 neg 0 d 0 w neg d w 0 d 0 w d cl} def
/mt {mp x y w2 add m w2 neg w neg d w 0 d cl} def
/m21 {mb f} def /m25 {mb s} def /m22 {mt f} def /m26{mt s} def
/m23 {mp x y w2 sub m w2 w d w neg 0 d cl f} def
/m27 {mp x y w2 add m w3 neg w2 neg d w3 w2 neg d w3 w2 d cl s} def
/m28 {mp x w2 sub y w2 sub w3 add m w3 0 d  0 w3 neg d w3 0 d 0 w3 d w3 0 d  0 w3 d w3 neg 0 d 0 w3 d w3 neg 0 d
 0 w3 neg d w3 neg 0 d cl s } def
/m29 {mp gsave x w2 sub y w2 add w3 sub m currentpoint t
 4 {side} repeat cl fill gr} def
/m30 {mp gsave x w2 sub y w2 add w3 sub m currentpoint t
 5 {side} repeat s gr} def
/m31 {mp x y w2 sub m 0 w d x w2 sub y m w 0 d x w2 sub y w2 add m w w neg d x w2 sub y w2
 sub m w w d s} def
/m2 {mp x y w2 sub m 0 w d x w2 sub y m w 0 d s} def
/m5 {mp x w2 sub y w2 sub m w w d x w2 sub y w2 add m w w neg d s} def
/DP {/PT exch def gsave 47.2 47.2 scale PT 1  eq { 16 16 1 [ 16 0 0 16 neg 0 16
] { < AA AA 55 55 AA AA 55 55 AA AA 55 55 AA AA 55 55 AA AA 55 55 AA AA 55 55
AA AA 55 55 AA AA 55 55 > } image } if PT 2 eq { 16 16 1 [ 16 0 0 16 neg 0 16
] { < BB BB EE EE BB BB EE EE BB BB EE EE BB BB EE EE BB BB EE EE BB BB EE EE
BB BB EE EE BB BB EE EE > } image } if PT 3 eq { 16 16 1 [ 16 0 0 16 neg 0 16
] { < FF FF BB BB FF FF EE EE FF FF BB BB FF FF EE EE FF FF BB BB FF FF EE EE
FF FF BB BB FF FF EE EE > } image } if PT 4 eq { 16 16 1 [ 16 0 0 16 neg 0 16
] { < DF DF BF BF 7F 7F FE FE FD FD FB FB F7 F7 EF EF DF DF BF BF 7F 7F FE FE
FD FD FB FB F7 F7 EF EF > } image } if PT 5 eq { 16 16 1 [ 16 0 0 16 neg 0 16
] { < 7F 7F BF B F DF DF EF EF F7 F7 FB FB FD FD FE FE 7F 7F BF BF DF DF EF
EF F7 F7 FB FB FD FD FE FE > } image } if PT 6 eq { 16 16 1 [ 16 0 0 16 neg 0
16 ] { < BB BB BB BB BB BB BB BB BB BB BB BB BB BB BB BB BB BB BB BB BB BB BB
BB BB BB BB BB BB BB BB BB > } image } if PT 7 eq { 16 16 1 [ 16 0 0 16 neg 0
16 ] { < FF FF FF FF FF FF 00 00 FF FF FF FF FF FF 00 00 FF FF FF FF FF FF 00
00 FF FF FF FF FF FF 00 00 > } image } if PT 8 eq { 16 16 1 [ 16 0 0 16 neg 0
16 ] { < EE EE 47 47 83 83 C5 C5 EE EE 5C 5C 38 38 74 74 EE EE 47 47 83 83 C5
C5 EE EE 5C 5C 38 38 74 74 > } image } if PT 9 eq { 16 16 1 [ 16 0 0 16 neg 0
16 ] { < EF EF EF EF D7 D7 38 38 FE FE FE FE 7D 7D 83 83 EF EF EF EF D7 D7 38
38  FE FE FE FE 7D 7D 83 83 > } image } if PT 10 eq { 16 16 1 [ 16 0 0 16 neg
0 16 ] { <  EF EF EF EF EF EF 00 00 FE FE FE FE FE FE 00 00 EF EF EF EF EF EF
00 00 FE FE FE FE FE FE 00 00 > } image } if PT 11 eq { 16 16 1 [ 16 0 0 16
neg 0 16 ] { < F7 F7 B6 B6 D5 D5 E3 E3 D5 D5 B6 B6 F7 F7 FF FF 7F 7F 6B 6B 5D
5D 3E 3E 5D 5D 6B 6B 7F 7F FF FF > } image } if PT 12 eq { 16 16 1 [ 16 0 0
16 neg 0 16 ] { < E3 E3 DD DD BE BE BE BE BE BE DD DD E3 E3 FF FF 3E 3E DD DD
EB EB EB EB EB EB DD DD 3E 3E FF FF > } image } if PT 13 eq { 16 16 1 [ 16 0
0 16 neg 0 16 ] { <  FE FE 7D 7D BB BB D7 D7 EF EF D7 D7 BB BB 7D 7D FE FE 7D
7D BB BB D7 D7 EF EF D7 D7 BB BB 7D 7D > } image } if PT 14 eq { 16 16 1 [ 16
0 0 16 neg 0 16 ] { < 00 00 EE EF EE EF EE EF 0E E0 EE EE EE EE EE EE 00 EE
FE EE FE EE FE EE 00 00 FE EF FE EF FE EF > } image } if PT 15 eq { 16 16 1 [
16 0 0 16 neg 0 16 ] { < DD DD AA AA DD DD FF FF 77 77 AA AA 77 77 FF FF DD
DD AA AA DD DD FF FF 77 77 AA AA 77 77 FF FF > } image } if PT 16 eq { 16 16
1 [ 16 0 0 16 neg 0 16 ] { <  F1 F1 EE EE 1F 1F FF FF F1 F1 EE EE 1F 1F FF FF
F1 F1 EE EE 1F 1F FF FF F1 F1 EE EE 1F 1F FF FF > } image } if PT 17 eq { 16
16 1 [ 16 0 0 16 neg 0 16 ] { <  EE EE DD DD BB BB FF FF EE EE DD DD BB BB FF
 FF EE EE DD DD BB BB FF FF EE EE DD DD BB BB FF FF > } image } if PT 18 eq {
16 16 1 [ 16 0 0 16 neg 0 16 ] { <  BB BB DD DD EE EE FF FF BB BB DD DD EE EE
FF FF BB BB DD DD EE EE FF FF BB BB DD DD EE EE FF FF > } image } if PT 19 eq
{ 16 16 1 [ 16 0 0 16 neg 0 16 ] { < 1F FC 67 F3 7B EF BD DE BD DE DE BD E6
B3 F8 0F E6 B3 DE BD BD DE BD DE 7B EF 67 F3 1F FC 7F FF > } image } if PT
20 eq { 16 16 1 [ 16 0 0 16 neg 0 16 ] { < DD DD EE EE EE EE EE EE DD DD BB
BB BB BB BB BB DD DD EE EE EE EE EE EE DD DD BB BB BB BB BB BB > } image }
if PT 21 eq { 16 16 1 [ 16 0 0 16 neg 0 16 ] { < 0E 0E EF EF EF EF EF EF E0
E0 FE FE FE FE FE FE 0E 0E EF EF EF EF EF EF E0 E0 FE FE FE FE FE FE > }
image }  if PT 22 eq { 16 16 1 [ 16 0 0 16 neg 0 16 ] { < 70 70 F7 F7 F7 F7 F7
F7 07 07 7F 7F 7F 7F 7F 7F 70 70 F7 F7 F7 F7 F7 F7 07 07 7F 7F 7F 7F 7F 7F >
} image } if PT 23 eq  { 16 16 1 [ 16 0 0 16 neg 0 16 ] { < AA AA 55 55 A9 A9
D1 D1 E1 E1 D1 D1 A9 A9 55 55 AA AA 55 55 A9 A9 D1 D1 E1 E1 D1 D1 A9 A9 55 55
> } image } if PT 24 eq { 16 16 1 [ 16 0 0 16 neg 0 16 ] { < FF FE FF FC EA
A8 D5 54 EA A8 D5 54 E8 28 D4 54 E8 E8 D4 D4 E8 EA 54 D5 A8 EA 54 D5 00 C0 00
80 > } image } if PT 25 eq {  16 16 1 [ 16 0 0 16 neg 0 16 ] { < FF FE FF FC
FF F8 FF F0 F0 00 F0 00 F0 20 F0 60 F0 E0 F1 E0 F3 E0 F0 00 E0 00 C0 00 80 00
00 00 > } image } if gr } def /FA { /PT exch def gsave clip 0 0 translate 1 1
74 { 1 sub 47.2 mul /Xcurr exch def 1 1 74 { 1 sub 47.2 mul /Ycurr exch def
gsave Xcurr Ycurr translate PT DP gr } for } for gr newpath } def
/reencdict 24 dict def /ReEncode {reencdict begin /nco&na exch def
/nfnam exch def /basefontname exch def /basefontdict basefontname findfont def
/newfont basefontdict maxlength dict def basefontdict {exch dup /FID ne
{dup /Encoding eq {exch dup length array copy newfont 3 1 roll put} {exch 
newfont 3 1 roll put} ifelse} {pop pop} ifelse } forall newfont
/FontName nfnam put nco&na aload pop nco&na length 2 idiv {newfont
/Encoding get 3 1 roll put} repeat nfnam newfont definefont pop end } def
/accvec [ 176 /agrave 181 /Agrave 190 /acircumflex 192 /Acircumflex
201 /adieresis 204 /Adieresis 209 /ccedilla 210 /Ccedilla 211 /eacute
212 /Eacute 213 /egrave 214 /Egrave 215 /ecircumflex 216 /Ecircumflex
217 /edieresis 218 /Edieresis 219 /icircumflex 220 /Icircumflex
221 /idieresis 222 /Idieresis 223 /ntilde 224 /Ntilde 226 /ocircumflex
228 /Ocircumflex 229 /odieresis 230 /Odieresis 231 /ucircumflex 236 /Ucircumflex
237 /udieresis 238 /Udieresis 239 /aring 242 /Aring 243 /ydieresis
244 /Ydieresis 246 /aacute 247 /Aacute 252 /ugrave 253 /Ugrave] def
/Times-Roman /Times-Roman accvec ReEncode
/Times-Italic /Times-Italic accvec ReEncode
/Times-Bold /Times-Bold accvec ReEncode
/Times-BoldItalic /Times-BoldItalic accvec ReEncode
/Helvetica /Helvetica accvec ReEncode
/Helvetica-Oblique /Helvetica-Oblique accvec ReEncode
/Helvetica-Bold /Helvetica-Bold accvec ReEncode
/Helvetica-BoldOblique /Helvetica-BoldOblique  accvec ReEncode
/Courier /Courier accvec ReEncode
/Courier-Oblique /Courier-Oblique accvec ReEncode
/Courier-Bold /Courier-Bold accvec ReEncode
/Courier-BoldOblique /Courier-BoldOblique accvec ReEncode
/oshow {gsave [] 0 sd true charpath stroke gr} def
/stwn { /fs exch def /fn exch def /text exch def fn findfont fs sf
 text sw pop xs add /xs exch def} def
/stwb { /fs exch def /fn exch def /nbas exch def /textf exch def
textf length /tlen exch def nbas tlen gt {/nbas tlendef} if
fn findfont fs sf textf dup length nbas sub nbas getinterval sw
pop neg xs add /xs exch def} def
/accspe [ 65 /plusminus  66 /bar  67 /existential  68 /universal 
69 /exclam  70 /numbersign 71 /greater  72 /question  73 /integral 
74 /colon  75 /semicolon  76 /less  77 /bracketleft  78 /bracketright
79 /greaterequal 80 /braceleft 81 /braceright 82 /radical
83 /spade 84 /heart 85 /diamond 86 /club 87 /lessequal
88 /multiply 89 /percent 90 /infinity 48 /circlemultiply 49 /circleplus
50 /emptyset  51 /lozenge 52 /bullet 53 /arrowright 54 /arrowup
55 /arrowleft 56 /arrowdown 57 /arrowboth 48 /degree 44 /comma 43 /plus 45 /angle 42 /angleleft 47 /divide 61 /notequal
 40 /equivalence 41 /second 97 /approxequal 98 /congruent 99 /perpendicular 100 /partialdiff 101 /florin
 102 /intersection 103 /union 104 /propersuperset 105 /reflexsuperset 106 /notsubset 107 /propersubset 108 /reflexsubset
 109 /element 110 /notelement 111 /gradient 112 /logicaland 113 /logicalor 114 /arrowdblboth 115 /arrowdblleft
 116 /arrowdblup 117 /arrowdblright 118 /arrowdbldown 119 /ampersand 120 /omega1 121 /similar 122 /aleph ] def
/Symbol /Special accspe ReEncode
/Zone {/iy exch def /ix exch def  ix 1 sub  3144 mul  1 iy sub  2224
 mul t} def
%%EndProlog
 gsave  90 r 0 -594 t  28 20 t .25 .25 scale  gsave 
%%Page: number 1
 black [] 0 sd 1 lw 0.95 0.95 0.95 c 2948 1944 0 0 bf 0.8 0.8 0.8 c 0 0 m 2 2 d 1940 Y 2944 X 2 2 d -2948 X -1944 Y f
 0.3 0.3 0.3 c 0 0 m 2 2 d 2944 X 1940 Y 2 2 d -1944 Y -2948 X f black [] 0 sd 1 lw 0.95 0.95 0.95 c 2358 1556 295 194
 bf 0.8 0.8 0.8 c 295 194 m 1 1 d 1554 Y 2356 X 1 1 d -2358 X -1556 Y f 0.3 0.3 0.3 c 295 194 m 1 1 d 2356 X 1554 Y 1 1
 d -1556 Y -2358 X f [] 0 sd 1 lw black 295 194 m 2358 X s [] 0 sd 1 lw 2653 194 m 1556 Y s [] 0 sd 1 lw 2653 1750 m
 -2358 X s [] 0 sd 1 lw 295 1750 m -1556 Y s [] 0 sd 1 lw 1 1 1 c black [] 0 sd 1 lw 295 194 m 6 X s [] 0 sd 1 lw 301
 194 m 6 X s [] 0 sd 1 lw 307 194 m 5 X s [] 0 sd 1 lw 312 194 m 6 X s [] 0 sd 1 lw 318 194 m 6 X s [] 0 sd 1 lw 324 194
 m 6 X s [] 0 sd 1 lw 330 194 m 6 X s [] 0 sd 1 lw 336 194 m 6 X s [] 0 sd 1 lw 342 194 m 6 X s [] 0 sd 1 lw 348 194 m 6
 X s [] 0 sd 1 lw 354 194 m 6 X s [] 0 sd 1 lw 360 194 m 6 X s [] 0 sd 1 lw 366 194 m 5 X s [] 0 sd 1 lw 371 194 m 6 X s
 [] 0 sd 1 lw 377 194 m 6 X s [] 0 sd 1 lw 383 194 m 6 X s [] 0 sd 1 lw 389 194 m 6 X s [] 0 sd 1 lw 395 194 m 6 X s
 [] 0 sd 1 lw 401 194 m 6 X s [] 0 sd 1 lw 407 194 m 6 X s [] 0 sd 1 lw 413 194 m 6 X s [] 0 sd 1 lw 419 194 m 6 X s
 [] 0 sd 1 lw 425 194 m 5 X s [] 0 sd 1 lw 430 194 m 6 X s [] 0 sd 1 lw 436 194 m 6 X s [] 0 sd 1 lw 442 194 m 6 X s
 [] 0 sd 1 lw 448 194 m 6 X s [] 0 sd 1 lw 454 194 m 6 X s [] 0 sd 1 lw 460 194 m 6 X s [] 0 sd 1 lw 466 194 m 6 X s
 [] 0 sd 1 lw 472 194 m 6 X s [] 0 sd 1 lw 478 194 m 5 X s [] 0 sd 1 lw 489 194 m 155 Y s [] 0 sd 1 lw 489 349 m 154 Y s
 [] 0 sd 1 lw 483 349 m 6 X s [] 0 sd 1 lw 489 349 m 6 X s [] 0 sd 1 lw /w 2 def /w2 {w 2 div} def /w3 {w 3 div} def 489
 349 m20 [] 0 sd 1 lw [] 0 sd 1 lw 495 194 m 6 X s [] 0 sd 1 lw 501 194 m 6 X s [] 0 sd 1 lw 507 194 m 6 X s [] 0 sd 1
 lw 513 194 m 6 X s [] 0 sd 1 lw 525 285 m 218 Y s [] 0 sd 1 lw 525 503 m 218 Y s [] 0 sd 1 lw 519 503 m 6 X s [] 0 sd 1
 lw 525 503 m 6 X s [] 0 sd 1 lw 525 503 m20 [] 0 sd 1 lw [] 0 sd 1 lw 537 284 m 217 Y s [] 0 sd 1 lw 537 501 m 217 Y s
 [] 0 sd 1 lw 531 501 m 6 X s [] 0 sd 1 lw 537 501 m 5 X s [] 0 sd 1 lw 537 501 m20 [] 0 sd 1 lw [] 0 sd 1 lw 548 194 m
 154 Y s [] 0 sd 1 lw 548 348 m 154 Y s [] 0 sd 1 lw 542 348 m 6 X s [] 0 sd 1 lw 548 348 m 6 X s [] 0 sd 1 lw 548 348
 m20 [] 0 sd 1 lw [] 0 sd 1 lw 554 194 m 6 X s [] 0 sd 1 lw 560 194 m 6 X s [] 0 sd 1 lw 572 285 m 217 Y s [] 0 sd 1 lw
 572 502 m 218 Y s [] 0 sd 1 lw 566 502 m 6 X s [] 0 sd 1 lw 572 502 m 6 X s [] 0 sd 1 lw 572 502 m20 [] 0 sd 1 lw
 [] 0 sd 1 lw 584 389 m 266 Y s [] 0 sd 1 lw 584 655 m 266 Y s [] 0 sd 1 lw 578 655 m 6 X s [] 0 sd 1 lw 584 655 m 6 X s
 [] 0 sd 1 lw 584 655 m20 [] 0 sd 1 lw [] 0 sd 1 lw 596 194 m 154 Y s [] 0 sd 1 lw 596 348 m 154 Y s [] 0 sd 1 lw 590
 348 m 6 X s [] 0 sd 1 lw 596 348 m 5 X s [] 0 sd 1 lw 596 348 m20 [] 0 sd 1 lw [] 0 sd 1 lw 607 389 m 265 Y s [] 0 sd 1
 lw 607 654 m 266 Y s [] 0 sd 1 lw 601 654 m 6 X s [] 0 sd 1 lw 607 654 m 6 X s [] 0 sd 1 lw 607 654 m20 [] 0 sd 1 lw
 [] 0 sd 1 lw 619 284 m 217 Y s [] 0 sd 1 lw 619 501 m 218 Y s [] 0 sd 1 lw 613 501 m 6 X s [] 0 sd 1 lw 619 501 m 6 X s
 [] 0 sd 1 lw 619 501 m20 [] 0 sd 1 lw [] 0 sd 1 lw 631 390 m 267 Y s [] 0 sd 1 lw 631 657 m 267 Y s [] 0 sd 1 lw 625
 657 m 6 X s [] 0 sd 1 lw 631 657 m 6 X s [] 0 sd 1 lw 631 657 m20 [] 0 sd 1 lw [] 0 sd 1 lw 643 389 m 266 Y s [] 0 sd 1
 lw 643 655 m 266 Y s [] 0 sd 1 lw 637 655 m 6 X s [] 0 sd 1 lw 643 655 m 6 X s [] 0 sd 1 lw 643 655 m20 [] 0 sd 1 lw
 [] 0 sd 1 lw 654 285 m 217 Y s [] 0 sd 1 lw 654 502 m 218 Y s [] 0 sd 1 lw 649 502 m 5 X s [] 0 sd 1 lw 654 502 m 6 X s
 [] 0 sd 1 lw 654 502 m20 [] 0 sd 1 lw [] 0 sd 1 lw 666 285 m 217 Y s [] 0 sd 1 lw 666 502 m 218 Y s [] 0 sd 1 lw 660
 502 m 6 X s [] 0 sd 1 lw 666 502 m 6 X s [] 0 sd 1 lw 666 502 m20 [] 0 sd 1 lw [] 0 sd 1 lw 678 503 m 308 Y s [] 0 sd 1
 lw 678 811 m 308 Y s [] 0 sd 1 lw 672 811 m 6 X s [] 0 sd 1 lw 678 811 m 6 X s [] 0 sd 1 lw 678 811 m20 [] 0 sd 1 lw
 [] 0 sd 1 lw 690 194 m 155 Y s [] 0 sd 1 lw 690 349 m 154 Y s [] 0 sd 1 lw 684 349 m 6 X s [] 0 sd 1 lw 690 349 m 6 X s
 [] 0 sd 1 lw 690 349 m20 [] 0 sd 1 lw [] 0 sd 1 lw 702 194 m 154 Y s [] 0 sd 1 lw 702 348 m 153 Y s [] 0 sd 1 lw 696
 348 m 6 X s [] 0 sd 1 lw 702 348 m 6 X s [] 0 sd 1 lw 702 348 m20 [] 0 sd 1 lw [] 0 sd 1 lw 713 194 m 155 Y s [] 0 sd 1
 lw 713 349 m 154 Y s [] 0 sd 1 lw 708 349 m 5 X s [] 0 sd 1 lw 713 349 m 6 X s [] 0 sd 1 lw 713 349 m20 [] 0 sd 1 lw
 [] 0 sd 1 lw 725 285 m 218 Y s [] 0 sd 1 lw 725 503 m 218 Y s [] 0 sd 1 lw 719 503 m 6 X s [] 0 sd 1 lw 725 503 m 6 X s
 [] 0 sd 1 lw 725 503 m20 [] 0 sd 1 lw [] 0 sd 1 lw 737 194 m 154 Y s [] 0 sd 1 lw 737 348 m 153 Y s [] 0 sd 1 lw 731
 348 m 6 X s [] 0 sd 1 lw 737 348 m 6 X s [] 0 sd 1 lw 737 348 m20 [] 0 sd 1 lw [] 0 sd 1 lw 749 620 m 345 Y s [] 0 sd 1
 lw 749 965 m 344 Y s [] 0 sd 1 lw 743 965 m 6 X s [] 0 sd 1 lw 749 965 m 6 X s [] 0 sd 1 lw 749 965 m20 [] 0 sd 1 lw
 [] 0 sd 1 lw 755 194 m 6 X s [] 0 sd 1 lw 761 194 m 5 X s [] 0 sd 1 lw 772 501 m 307 Y s [] 0 sd 1 lw 772 808 m 307 Y s
 [] 0 sd 1 lw 766 808 m 6 X s [] 0 sd 1 lw 772 808 m 6 X s [] 0 sd 1 lw 772 808 m20 [] 0 sd 1 lw [] 0 sd 1 lw 784 194 m
 155 Y s [] 0 sd 1 lw 784 349 m 154 Y s [] 0 sd 1 lw 778 349 m 6 X s [] 0 sd 1 lw 784 349 m 6 X s [] 0 sd 1 lw 784 349
 m20 [] 0 sd 1 lw [] 0 sd 1 lw 790 194 m 6 X s [] 0 sd 1 lw 796 194 m 6 X s [] 0 sd 1 lw 808 284 m 217 Y s [] 0 sd 1 lw
 808 501 m 217 Y s [] 0 sd 1 lw 802 501 m 6 X s [] 0 sd 1 lw 808 501 m 6 X s [] 0 sd 1 lw 808 501 m20 [] 0 sd 1 lw
 [] 0 sd 1 lw 820 863 m 406 Y s [] 0 sd 1 lw 820 1269 m 406 Y s [] 0 sd 1 lw 814 1269 m 6 X s [] 0 sd 1 lw 820 1269 m 5
 X s [] 0 sd 1 lw 820 1269 m20 [] 0 sd 1 lw [] 0 sd 1 lw 825 194 m 6 X s [] 0 sd 1 lw 831 194 m 6 X s [] 0 sd 1 lw 843
 390 m 267 Y s [] 0 sd 1 lw 843 657 m 266 Y s [] 0 sd 1 lw 837 657 m 6 X s [] 0 sd 1 lw 843 657 m 6 X s [] 0 sd 1 lw 843
 657 m20 [] 0 sd 1 lw [] 0 sd 1 lw 855 285 m 218 Y s [] 0 sd 1 lw 855 503 m 219 Y s [] 0 sd 1 lw 849 503 m 6 X s [] 0 sd
 1 lw 855 503 m 6 X s [] 0 sd 1 lw 855 503 m20 [] 0 sd 1 lw [] 0 sd 1 lw 867 194 m 154 Y s [] 0 sd 1 lw 867 348 m 153 Y
 s [] 0 sd 1 lw 861 348 m 6 X s [] 0 sd 1 lw 867 348 m 6 X s [] 0 sd 1 lw 867 348 m20 [] 0 sd 1 lw [] 0 sd 1 lw 879 285
 m 218 Y s [] 0 sd 1 lw 879 503 m 218 Y s [] 0 sd 1 lw 873 503 m 6 X s [] 0 sd 1 lw 879 503 m 5 X s [] 0 sd 1 lw 879 503
 m20 [] 0 sd 1 lw [] 0 sd 1 lw 890 389 m 267 Y s [] 0 sd 1 lw 890 656 m 266 Y s [] 0 sd 1 lw 884 656 m 6 X s [] 0 sd 1
 lw 890 656 m 6 X s [] 0 sd 1 lw 890 656 m20 [] 0 sd 1 lw [] 0 sd 1 lw 902 621 m 345 Y s [] 0 sd 1 lw 902 966 m 345 Y s
 [] 0 sd 1 lw 896 966 m 6 X s [] 0 sd 1 lw 902 966 m 6 X s [] 0 sd 1 lw 902 966 m20 [] 0 sd 1 lw [] 0 sd 1 lw 908 194 m
 6 X s [] 0 sd 1 lw 914 194 m 6 X s [] 0 sd 1 lw 926 194 m 155 Y s [] 0 sd 1 lw 926 349 m 154 Y s [] 0 sd 1 lw 920 349 m
 6 X s [] 0 sd 1 lw 926 349 m 6 X s [] 0 sd 1 lw 926 349 m20 [] 0 sd 1 lw [] 0 sd 1 lw 937 390 m 267 Y s [] 0 sd 1 lw
 937 657 m 266 Y s [] 0 sd 1 lw 932 657 m 5 X s [] 0 sd 1 lw 937 657 m 6 X s [] 0 sd 1 lw 937 657 m20 [] 0 sd 1 lw
 [] 0 sd 1 lw 949 284 m 218 Y s [] 0 sd 1 lw 949 502 m 217 Y s [] 0 sd 1 lw 943 502 m 6 X s [] 0 sd 1 lw 949 502 m 6 X s
 [] 0 sd 1 lw 949 502 m20 [] 0 sd 1 lw [] 0 sd 1 lw 961 194 m 154 Y s [] 0 sd 1 lw 961 348 m 154 Y s [] 0 sd 1 lw 955
 348 m 6 X s [] 0 sd 1 lw 961 348 m 6 X s [] 0 sd 1 lw 961 348 m20 [] 0 sd 1 lw [] 0 sd 1 lw 973 740 m 376 Y s [] 0 sd 1
 lw 973 1116 m 377 Y s [] 0 sd 1 lw 967 1116 m 6 X s [] 0 sd 1 lw 973 1116 m 6 X s [] 0 sd 1 lw 973 1116 m20 [] 0 sd 1
 lw [] 0 sd 1 lw 985 501 m 307 Y s [] 0 sd 1 lw 985 808 m 308 Y s [] 0 sd 1 lw 979 808 m 6 X s [] 0 sd 1 lw 985 808 m 6
 X s [] 0 sd 1 lw 985 808 m20 [] 0 sd 1 lw [] 0 sd 1 lw 996 390 m 267 Y s [] 0 sd 1 lw 996 657 m 267 Y s [] 0 sd 1 lw
 991 657 m 5 X s [] 0 sd 1 lw 996 657 m 6 X s [] 0 sd 1 lw 996 657 m20 [] 0 sd 1 lw [] 0 sd 1 lw 1008 620 m 345 Y s
 [] 0 sd 1 lw 1008 965 m 344 Y s [] 0 sd 1 lw 1002 965 m 6 X s [] 0 sd 1 lw 1008 965 m 6 X s [] 0 sd 1 lw 1008 965 m20
 [] 0 sd 1 lw [] 0 sd 1 lw 1020 621 m 344 Y s [] 0 sd 1 lw 1020 965 m 345 Y s [] 0 sd 1 lw 1014 965 m 6 X s [] 0 sd 1 lw
 1020 965 m 6 X s [] 0 sd 1 lw 1020 965 m20 [] 0 sd 1 lw [] 0 sd 1 lw 1032 284 m 217 Y s [] 0 sd 1 lw 1032 501 m 218 Y s
 [] 0 sd 1 lw 1026 501 m 6 X s [] 0 sd 1 lw 1032 501 m 6 X s [] 0 sd 1 lw 1032 501 m20 [] 0 sd 1 lw [] 0 sd 1 lw 1044
 194 m 155 Y s [] 0 sd 1 lw 1044 349 m 154 Y s [] 0 sd 1 lw 1038 349 m 6 X s [] 0 sd 1 lw 1044 349 m 5 X s [] 0 sd 1 lw
 1044 349 m20 [] 0 sd 1 lw [] 0 sd 1 lw 1055 390 m 266 Y s [] 0 sd 1 lw 1055 656 m 267 Y s [] 0 sd 1 lw 1049 656 m 6 X s
 [] 0 sd 1 lw 1055 656 m 6 X s [] 0 sd 1 lw 1055 656 m20 [] 0 sd 1 lw [] 0 sd 1 lw 1067 390 m 267 Y s [] 0 sd 1 lw 1067
 657 m 267 Y s [] 0 sd 1 lw 1061 657 m 6 X s [] 0 sd 1 lw 1067 657 m 6 X s [] 0 sd 1 lw 1067 657 m20 [] 0 sd 1 lw
 [] 0 sd 1 lw 1079 741 m 377 Y s [] 0 sd 1 lw 1079 1118 m 377 Y s [] 0 sd 1 lw 1073 1118 m 6 X s [] 0 sd 1 lw 1079 1118
 m 6 X s [] 0 sd 1 lw 1079 1118 m20 [] 0 sd 1 lw [] 0 sd 1 lw 1091 285 m 218 Y s [] 0 sd 1 lw 1091 503 m 218 Y s [] 0 sd
 1 lw 1085 503 m 6 X s [] 0 sd 1 lw 1091 503 m 6 X s [] 0 sd 1 lw 1091 503 m20 [] 0 sd 1 lw [] 0 sd 1 lw 1103 194 m 154
 Y s [] 0 sd 1 lw 1103 348 m 154 Y s [] 0 sd 1 lw 1097 348 m 6 X s [] 0 sd 1 lw 1103 348 m 5 X s [] 0 sd 1 lw 1103 348
 m20 [] 0 sd 1 lw [] 0 sd 1 lw 1114 194 m 155 Y s [] 0 sd 1 lw 1114 349 m 154 Y s [] 0 sd 1 lw 1108 349 m 6 X s [] 0 sd
 1 lw 1114 349 m 6 X s [] 0 sd 1 lw 1114 349 m20 [] 0 sd 1 lw [] 0 sd 1 lw 1126 618 m 344 Y s [] 0 sd 1 lw 1126 962 m
 343 Y s [] 0 sd 1 lw 1120 962 m 6 X s [] 0 sd 1 lw 1126 962 m 6 X s [] 0 sd 1 lw 1126 962 m20 [] 0 sd 1 lw [] 0 sd 1 lw
 1138 502 m 308 Y s [] 0 sd 1 lw 1138 810 m 308 Y s [] 0 sd 1 lw 1132 810 m 6 X s [] 0 sd 1 lw 1138 810 m 6 X s [] 0 sd
 1 lw 1138 810 m20 [] 0 sd 1 lw [] 0 sd 1 lw 1144 194 m 6 X s [] 0 sd 1 lw 1150 194 m 6 X s [] 0 sd 1 lw 1162 502 m 307
 Y s [] 0 sd 1 lw 1162 809 m 307 Y s [] 0 sd 1 lw 1156 809 m 6 X s [] 0 sd 1 lw 1162 809 m 5 X s [] 0 sd 1 lw 1162 809
 m20 [] 0 sd 1 lw [] 0 sd 1 lw 1173 285 m 218 Y s [] 0 sd 1 lw 1173 503 m 217 Y s [] 0 sd 1 lw 1167 503 m 6 X s [] 0 sd
 1 lw 1173 503 m 6 X s [] 0 sd 1 lw 1173 503 m20 [] 0 sd 1 lw [] 0 sd 1 lw 1185 194 m 155 Y s [] 0 sd 1 lw 1185 349 m
 154 Y s [] 0 sd 1 lw 1179 349 m 6 X s [] 0 sd 1 lw 1185 349 m 6 X s [] 0 sd 1 lw 1185 349 m20 [] 0 sd 1 lw [] 0 sd 1 lw
 1197 390 m 267 Y s [] 0 sd 1 lw 1197 657 m 266 Y s [] 0 sd 1 lw 1191 657 m 6 X s [] 0 sd 1 lw 1197 657 m 6 X s [] 0 sd
 1 lw 1197 657 m20 [] 0 sd 1 lw [] 0 sd 1 lw 1209 194 m 155 Y s [] 0 sd 1 lw 1209 349 m 154 Y s [] 0 sd 1 lw 1203 349 m
 6 X s [] 0 sd 1 lw 1209 349 m 6 X s [] 0 sd 1 lw 1209 349 m20 [] 0 sd 1 lw [] 0 sd 1 lw 1220 284 m 218 Y s [] 0 sd 1 lw
 1220 502 m 217 Y s [] 0 sd 1 lw 1215 502 m 5 X s [] 0 sd 1 lw 1220 502 m 6 X s [] 0 sd 1 lw 1220 502 m20 [] 0 sd 1 lw
 [] 0 sd 1 lw 1232 502 m 307 Y s [] 0 sd 1 lw 1232 809 m 308 Y s [] 0 sd 1 lw 1226 809 m 6 X s [] 0 sd 1 lw 1232 809 m 6
 X s [] 0 sd 1 lw 1232 809 m20 [] 0 sd 1 lw [] 0 sd 1 lw 1244 390 m 267 Y s [] 0 sd 1 lw 1244 657 m 267 Y s [] 0 sd 1 lw
 1238 657 m 6 X s [] 0 sd 1 lw 1244 657 m 6 X s [] 0 sd 1 lw 1244 657 m20 [] 0 sd 1 lw [] 0 sd 1 lw 1256 194 m 154 Y s
 [] 0 sd 1 lw 1256 348 m 153 Y s [] 0 sd 1 lw 1250 348 m 6 X s [] 0 sd 1 lw 1256 348 m 6 X s [] 0 sd 1 lw 1256 348 m20
 [] 0 sd 1 lw [] 0 sd 1 lw 1268 194 m 154 Y s [] 0 sd 1 lw 1268 348 m 154 Y s [] 0 sd 1 lw 1262 348 m 6 X s [] 0 sd 1 lw
 1268 348 m 6 X s [] 0 sd 1 lw 1268 348 m20 [] 0 sd 1 lw [] 0 sd 1 lw 1279 194 m 154 Y s [] 0 sd 1 lw 1279 348 m 155 Y s
 [] 0 sd 1 lw 1274 348 m 5 X s [] 0 sd 1 lw 1279 348 m 6 X s [] 0 sd 1 lw 1279 348 m20 [] 0 sd 1 lw [] 0 sd 1 lw 1291
 194 m 154 Y s [] 0 sd 1 lw 1291 348 m 153 Y s [] 0 sd 1 lw 1285 348 m 6 X s [] 0 sd 1 lw 1291 348 m 6 X s [] 0 sd 1 lw
 1291 348 m20 [] 0 sd 1 lw [] 0 sd 1 lw 1303 284 m 218 Y s [] 0 sd 1 lw 1303 502 m 218 Y s [] 0 sd 1 lw 1297 502 m 6 X s
 [] 0 sd 1 lw 1303 502 m 6 X s [] 0 sd 1 lw 1303 502 m20 [] 0 sd 1 lw [] 0 sd 1 lw 1315 389 m 266 Y s [] 0 sd 1 lw 1315
 655 m 266 Y s [] 0 sd 1 lw 1309 655 m 6 X s [] 0 sd 1 lw 1315 655 m 6 X s [] 0 sd 1 lw 1315 655 m20 [] 0 sd 1 lw
 [] 0 sd 1 lw 1327 194 m 154 Y s [] 0 sd 1 lw 1327 348 m 154 Y s [] 0 sd 1 lw 1321 348 m 6 X s [] 0 sd 1 lw 1327 348 m 6
 X s [] 0 sd 1 lw 1327 348 m20 [] 0 sd 1 lw [] 0 sd 1 lw 1338 194 m 155 Y s [] 0 sd 1 lw 1338 349 m 154 Y s [] 0 sd 1 lw
 1333 349 m 5 X s [] 0 sd 1 lw 1338 349 m 6 X s [] 0 sd 1 lw 1338 349 m20 [] 0 sd 1 lw [] 0 sd 1 lw 1350 194 m 154 Y s
 [] 0 sd 1 lw 1350 348 m 153 Y s [] 0 sd 1 lw 1344 348 m 6 X s [] 0 sd 1 lw 1350 348 m 6 X s [] 0 sd 1 lw 1350 348 m20
 [] 0 sd 1 lw [] 0 sd 1 lw 1362 194 m 154 Y s [] 0 sd 1 lw 1362 348 m 154 Y s [] 0 sd 1 lw 1356 348 m 6 X s [] 0 sd 1 lw
 1362 348 m 6 X s [] 0 sd 1 lw 1362 348 m20 [] 0 sd 1 lw [] 0 sd 1 lw 1374 284 m 218 Y s [] 0 sd 1 lw 1374 502 m 217 Y s
 [] 0 sd 1 lw 1368 502 m 6 X s [] 0 sd 1 lw 1374 502 m 6 X s [] 0 sd 1 lw 1374 502 m20 [] 0 sd 1 lw [] 0 sd 1 lw 1386
 503 m 309 Y s [] 0 sd 1 lw 1386 812 m 308 Y s [] 0 sd 1 lw 1380 812 m 6 X s [] 0 sd 1 lw 1386 812 m 5 X s [] 0 sd 1 lw
 1386 812 m20 [] 0 sd 1 lw [] 0 sd 1 lw 1397 284 m 218 Y s [] 0 sd 1 lw 1397 502 m 217 Y s [] 0 sd 1 lw 1391 502 m 6 X s
 [] 0 sd 1 lw 1397 502 m 6 X s [] 0 sd 1 lw 1397 502 m20 [] 0 sd 1 lw [] 0 sd 1 lw 1409 389 m 267 Y s [] 0 sd 1 lw 1409
 656 m 267 Y s [] 0 sd 1 lw 1403 656 m 6 X s [] 0 sd 1 lw 1409 656 m 6 X s [] 0 sd 1 lw 1409 656 m20 [] 0 sd 1 lw
 [] 0 sd 1 lw 1421 390 m 266 Y s [] 0 sd 1 lw 1421 656 m 267 Y s [] 0 sd 1 lw 1415 656 m 6 X s [] 0 sd 1 lw 1421 656 m 6
 X s [] 0 sd 1 lw 1421 656 m20 [] 0 sd 1 lw [] 0 sd 1 lw 1433 741 m 378 Y s [] 0 sd 1 lw 1433 1119 m 377 Y s [] 0 sd 1
 lw 1427 1119 m 6 X s [] 0 sd 1 lw 1433 1119 m 6 X s [] 0 sd 1 lw 1433 1119 m20 [] 0 sd 1 lw [] 0 sd 1 lw 1445 389 m 265
 Y s [] 0 sd 1 lw 1445 654 m 266 Y s [] 0 sd 1 lw 1439 654 m 6 X s [] 0 sd 1 lw 1445 654 m 5 X s [] 0 sd 1 lw 1445 654
 m20 [] 0 sd 1 lw [] 0 sd 1 lw 1456 389 m 267 Y s [] 0 sd 1 lw 1456 656 m 267 Y s [] 0 sd 1 lw 1450 656 m 6 X s [] 0 sd
 1 lw 1456 656 m 6 X s [] 0 sd 1 lw 1456 656 m20 [] 0 sd 1 lw [] 0 sd 1 lw 1468 389 m 266 Y s [] 0 sd 1 lw 1468 655 m
 265 Y s [] 0 sd 1 lw 1462 655 m 6 X s [] 0 sd 1 lw 1468 655 m 6 X s [] 0 sd 1 lw 1468 655 m20 [] 0 sd 1 lw [] 0 sd 1 lw
 1480 502 m 307 Y s [] 0 sd 1 lw 1480 809 m 307 Y s [] 0 sd 1 lw 1474 809 m 6 X s [] 0 sd 1 lw 1480 809 m 6 X s [] 0 sd
 1 lw 1480 809 m20 [] 0 sd 1 lw [] 0 sd 1 lw 1492 285 m 217 Y s [] 0 sd 1 lw 1492 502 m 218 Y s [] 0 sd 1 lw 1486 502 m
 6 X s [] 0 sd 1 lw 1492 502 m 6 X s [] 0 sd 1 lw 1492 502 m20 [] 0 sd 1 lw [] 0 sd 1 lw 1503 389 m 266 Y s [] 0 sd 1 lw
 1503 655 m 267 Y s [] 0 sd 1 lw 1498 655 m 5 X s [] 0 sd 1 lw 1503 655 m 6 X s [] 0 sd 1 lw 1503 655 m20 [] 0 sd 1 lw
 [] 0 sd 1 lw 1515 620 m 344 Y s [] 0 sd 1 lw 1515 964 m 344 Y s [] 0 sd 1 lw 1509 964 m 6 X s [] 0 sd 1 lw 1515 964 m 6
 X s [] 0 sd 1 lw 1515 964 m20 [] 0 sd 1 lw [] 0 sd 1 lw 1527 620 m 344 Y s [] 0 sd 1 lw 1527 964 m 344 Y s [] 0 sd 1 lw
 1521 964 m 6 X s [] 0 sd 1 lw 1527 964 m 6 X s [] 0 sd 1 lw 1527 964 m20 [] 0 sd 1 lw [] 0 sd 1 lw 1539 620 m 344 Y s
 [] 0 sd 1 lw 1539 964 m 344 Y s [] 0 sd 1 lw 1533 964 m 6 X s [] 0 sd 1 lw 1539 964 m 6 X s [] 0 sd 1 lw 1539 964 m20
 [] 0 sd 1 lw [] 0 sd 1 lw 1545 194 m 6 X s [] 0 sd 1 lw 1551 194 m 6 X s [] 0 sd 1 lw 1562 389 m 267 Y s [] 0 sd 1 lw
 1562 656 m 266 Y s [] 0 sd 1 lw 1557 656 m 5 X s [] 0 sd 1 lw 1562 656 m 6 X s [] 0 sd 1 lw 1562 656 m20 [] 0 sd 1 lw
 [] 0 sd 1 lw 1568 194 m 6 X s [] 0 sd 1 lw 1574 194 m 6 X s [] 0 sd 1 lw 1586 502 m 308 Y s [] 0 sd 1 lw 1586 810 m 308
 Y s [] 0 sd 1 lw 1580 810 m 6 X s [] 0 sd 1 lw 1586 810 m 6 X s [] 0 sd 1 lw 1586 810 m20 [] 0 sd 1 lw [] 0 sd 1 lw
 1598 390 m 267 Y s [] 0 sd 1 lw 1598 657 m 267 Y s [] 0 sd 1 lw 1592 657 m 6 X s [] 0 sd 1 lw 1598 657 m 6 X s [] 0 sd
 1 lw 1598 657 m20 [] 0 sd 1 lw [] 0 sd 1 lw 1610 285 m 218 Y s [] 0 sd 1 lw 1610 503 m 218 Y s [] 0 sd 1 lw 1604 503 m
 6 X s [] 0 sd 1 lw 1610 503 m 6 X s [] 0 sd 1 lw 1610 503 m20 [] 0 sd 1 lw [] 0 sd 1 lw 1621 194 m 154 Y s [] 0 sd 1 lw
 1621 348 m 154 Y s [] 0 sd 1 lw 1616 348 m 5 X s [] 0 sd 1 lw 1621 348 m 6 X s [] 0 sd 1 lw 1621 348 m20 [] 0 sd 1 lw
 [] 0 sd 1 lw 1633 194 m 154 Y s [] 0 sd 1 lw 1633 348 m 153 Y s [] 0 sd 1 lw 1627 348 m 6 X s [] 0 sd 1 lw 1633 348 m 6
 X s [] 0 sd 1 lw 1633 348 m20 [] 0 sd 1 lw [] 0 sd 1 lw 1645 284 m 218 Y s [] 0 sd 1 lw 1645 502 m 217 Y s [] 0 sd 1 lw
 1639 502 m 6 X s [] 0 sd 1 lw 1645 502 m 6 X s [] 0 sd 1 lw 1645 502 m20 [] 0 sd 1 lw [] 0 sd 1 lw 1657 194 m 155 Y s
 [] 0 sd 1 lw 1657 349 m 154 Y s [] 0 sd 1 lw 1651 349 m 6 X s [] 0 sd 1 lw 1657 349 m 6 X s [] 0 sd 1 lw 1657 349 m20
 [] 0 sd 1 lw [] 0 sd 1 lw 1669 284 m 217 Y s [] 0 sd 1 lw 1669 501 m 217 Y s [] 0 sd 1 lw 1663 501 m 6 X s [] 0 sd 1 lw
 1669 501 m 5 X s [] 0 sd 1 lw 1669 501 m20 [] 0 sd 1 lw [] 0 sd 1 lw 1680 285 m 218 Y s [] 0 sd 1 lw 1680 503 m 218 Y s
 [] 0 sd 1 lw 1674 503 m 6 X s [] 0 sd 1 lw 1680 503 m 6 X s [] 0 sd 1 lw 1680 503 m20 [] 0 sd 1 lw [] 0 sd 1 lw 1692
 742 m 377 Y s [] 0 sd 1 lw 1692 1119 m 378 Y s [] 0 sd 1 lw 1686 1119 m 6 X s [] 0 sd 1 lw 1692 1119 m 6 X s [] 0 sd 1
 lw 1692 1119 m20 [] 0 sd 1 lw [] 0 sd 1 lw 1704 194 m 154 Y s [] 0 sd 1 lw 1704 348 m 155 Y s [] 0 sd 1 lw 1698 348 m 6
 X s [] 0 sd 1 lw 1704 348 m 6 X s [] 0 sd 1 lw 1704 348 m20 [] 0 sd 1 lw [] 0 sd 1 lw 1716 502 m 309 Y s [] 0 sd 1 lw
 1716 811 m 308 Y s [] 0 sd 1 lw 1710 811 m 6 X s [] 0 sd 1 lw 1716 811 m 6 X s [] 0 sd 1 lw 1716 811 m20 [] 0 sd 1 lw
 [] 0 sd 1 lw 1728 621 m 344 Y s [] 0 sd 1 lw 1728 965 m 345 Y s [] 0 sd 1 lw 1722 965 m 6 X s [] 0 sd 1 lw 1728 965 m 5
 X s [] 0 sd 1 lw 1728 965 m20 [] 0 sd 1 lw [] 0 sd 1 lw 1739 194 m 154 Y s [] 0 sd 1 lw 1739 348 m 154 Y s [] 0 sd 1 lw
 1733 348 m 6 X s [] 0 sd 1 lw 1739 348 m 6 X s [] 0 sd 1 lw 1739 348 m20 [] 0 sd 1 lw [] 0 sd 1 lw 1751 285 m 217 Y s
 [] 0 sd 1 lw 1751 502 m 218 Y s [] 0 sd 1 lw 1745 502 m 6 X s [] 0 sd 1 lw 1751 502 m 6 X s [] 0 sd 1 lw 1751 502 m20
 [] 0 sd 1 lw [] 0 sd 1 lw 1763 194 m 154 Y s [] 0 sd 1 lw 1763 348 m 154 Y s [] 0 sd 1 lw 1757 348 m 6 X s [] 0 sd 1 lw
 1763 348 m 6 X s [] 0 sd 1 lw 1763 348 m20 [] 0 sd 1 lw [] 0 sd 1 lw 1775 194 m 154 Y s [] 0 sd 1 lw 1775 348 m 154 Y s
 [] 0 sd 1 lw 1769 348 m 6 X s [] 0 sd 1 lw 1775 348 m 6 X s [] 0 sd 1 lw 1775 348 m20 [] 0 sd 1 lw [] 0 sd 1 lw 1787
 389 m 267 Y s [] 0 sd 1 lw 1787 656 m 266 Y s [] 0 sd 1 lw 1781 656 m 6 X s [] 0 sd 1 lw 1787 656 m 5 X s [] 0 sd 1 lw
 1787 656 m20 [] 0 sd 1 lw [] 0 sd 1 lw 1798 502 m 308 Y s [] 0 sd 1 lw 1798 810 m 308 Y s [] 0 sd 1 lw 1792 810 m 6 X s
 [] 0 sd 1 lw 1798 810 m 6 X s [] 0 sd 1 lw 1798 810 m20 [] 0 sd 1 lw [] 0 sd 1 lw 1810 740 m 376 Y s [] 0 sd 1 lw 1810
 1116 m 377 Y s [] 0 sd 1 lw 1804 1116 m 6 X s [] 0 sd 1 lw 1810 1116 m 6 X s [] 0 sd 1 lw 1810 1116 m20 [] 0 sd 1 lw
 [] 0 sd 1 lw 1822 194 m 155 Y s [] 0 sd 1 lw 1822 349 m 154 Y s [] 0 sd 1 lw 1816 349 m 6 X s [] 0 sd 1 lw 1822 349 m 6
 X s [] 0 sd 1 lw 1822 349 m20 [] 0 sd 1 lw [] 0 sd 1 lw 1834 285 m 218 Y s [] 0 sd 1 lw 1834 503 m 218 Y s [] 0 sd 1 lw
 1828 503 m 6 X s [] 0 sd 1 lw 1834 503 m 6 X s [] 0 sd 1 lw 1834 503 m20 [] 0 sd 1 lw [] 0 sd 1 lw 1845 389 m 266 Y s
 [] 0 sd 1 lw 1845 655 m 265 Y s [] 0 sd 1 lw 1840 655 m 5 X s [] 0 sd 1 lw 1845 655 m 6 X s [] 0 sd 1 lw 1845 655 m20
 [] 0 sd 1 lw [] 0 sd 1 lw 1857 285 m 217 Y s [] 0 sd 1 lw 1857 502 m 218 Y s [] 0 sd 1 lw 1851 502 m 6 X s [] 0 sd 1 lw
 1857 502 m 6 X s [] 0 sd 1 lw 1857 502 m20 [] 0 sd 1 lw [] 0 sd 1 lw 1863 194 m 6 X s [] 0 sd 1 lw 1869 194 m 6 X s
 [] 0 sd 1 lw 1881 390 m 267 Y s [] 0 sd 1 lw 1881 657 m 267 Y s [] 0 sd 1 lw 1875 657 m 6 X s [] 0 sd 1 lw 1881 657 m 6
 X s [] 0 sd 1 lw 1881 657 m20 [] 0 sd 1 lw [] 0 sd 1 lw 1893 390 m 267 Y s [] 0 sd 1 lw 1893 657 m 267 Y s [] 0 sd 1 lw
 1887 657 m 6 X s [] 0 sd 1 lw 1893 657 m 6 X s [] 0 sd 1 lw 1893 657 m20 [] 0 sd 1 lw [] 0 sd 1 lw 1904 389 m 266 Y s
 [] 0 sd 1 lw 1904 655 m 266 Y s [] 0 sd 1 lw 1899 655 m 5 X s [] 0 sd 1 lw 1904 655 m 6 X s [] 0 sd 1 lw 1904 655 m20
 [] 0 sd 1 lw [] 0 sd 1 lw 1916 194 m 155 Y s [] 0 sd 1 lw 1916 349 m 154 Y s [] 0 sd 1 lw 1910 349 m 6 X s [] 0 sd 1 lw
 1916 349 m 6 X s [] 0 sd 1 lw 1916 349 m20 [] 0 sd 1 lw [] 0 sd 1 lw 1928 194 m 154 Y s [] 0 sd 1 lw 1928 348 m 153 Y s
 [] 0 sd 1 lw 1922 348 m 6 X s [] 0 sd 1 lw 1928 348 m 6 X s [] 0 sd 1 lw 1928 348 m20 [] 0 sd 1 lw [] 0 sd 1 lw 1940
 194 m 155 Y s [] 0 sd 1 lw 1940 349 m 154 Y s [] 0 sd 1 lw 1934 349 m 6 X s [] 0 sd 1 lw 1940 349 m 6 X s [] 0 sd 1 lw
 1940 349 m20 [] 0 sd 1 lw [] 0 sd 1 lw 1952 741 m 376 Y s [] 0 sd 1 lw 1952 1117 m 377 Y s [] 0 sd 1 lw 1946 1117 m 6 X
 s [] 0 sd 1 lw 1952 1117 m 5 X s [] 0 sd 1 lw 1952 1117 m20 [] 0 sd 1 lw [] 0 sd 1 lw 1963 194 m 154 Y s [] 0 sd 1 lw
 1963 348 m 153 Y s [] 0 sd 1 lw 1957 348 m 6 X s [] 0 sd 1 lw 1963 348 m 6 X s [] 0 sd 1 lw 1963 348 m20 [] 0 sd 1 lw
 [] 0 sd 1 lw 1975 389 m 266 Y s [] 0 sd 1 lw 1975 655 m 266 Y s [] 0 sd 1 lw 1969 655 m 6 X s [] 0 sd 1 lw 1975 655 m 6
 X s [] 0 sd 1 lw 1975 655 m20 [] 0 sd 1 lw [] 0 sd 1 lw 1987 194 m 154 Y s [] 0 sd 1 lw 1987 348 m 153 Y s [] 0 sd 1 lw
 1981 348 m 6 X s [] 0 sd 1 lw 1987 348 m 6 X s [] 0 sd 1 lw 1987 348 m20 [] 0 sd 1 lw [] 0 sd 1 lw 1999 389 m 267 Y s
 [] 0 sd 1 lw 1999 656 m 267 Y s [] 0 sd 1 lw 1993 656 m 6 X s [] 0 sd 1 lw 1999 656 m 6 X s [] 0 sd 1 lw 1999 656 m20
 [] 0 sd 1 lw [] 0 sd 1 lw 2011 285 m 217 Y s [] 0 sd 1 lw 2011 502 m 218 Y s [] 0 sd 1 lw 2005 502 m 6 X s [] 0 sd 1 lw
 2011 502 m 5 X s [] 0 sd 1 lw 2011 502 m20 [] 0 sd 1 lw [] 0 sd 1 lw 2016 194 m 6 X s [] 0 sd 1 lw 2022 194 m 6 X s
 [] 0 sd 1 lw 2034 285 m 218 Y s [] 0 sd 1 lw 2034 503 m 218 Y s [] 0 sd 1 lw 2028 503 m 6 X s [] 0 sd 1 lw 2034 503 m 6
 X s [] 0 sd 1 lw 2034 503 m20 [] 0 sd 1 lw [] 0 sd 1 lw 2046 621 m 345 Y s [] 0 sd 1 lw 2046 966 m 344 Y s [] 0 sd 1 lw
 2040 966 m 6 X s [] 0 sd 1 lw 2046 966 m 6 X s [] 0 sd 1 lw 2046 966 m20 [] 0 sd 1 lw [] 0 sd 1 lw 2058 194 m 155 Y s
 [] 0 sd 1 lw 2058 349 m 154 Y s [] 0 sd 1 lw 2052 349 m 6 X s [] 0 sd 1 lw 2058 349 m 6 X s [] 0 sd 1 lw 2058 349 m20
 [] 0 sd 1 lw [] 0 sd 1 lw 2064 194 m 6 X s [] 0 sd 1 lw 2070 194 m 5 X s [] 0 sd 1 lw 2081 285 m 218 Y s [] 0 sd 1 lw
 2081 503 m 219 Y s [] 0 sd 1 lw 2075 503 m 6 X s [] 0 sd 1 lw 2081 503 m 6 X s [] 0 sd 1 lw 2081 503 m20 [] 0 sd 1 lw
 [] 0 sd 1 lw 2093 741 m 377 Y s [] 0 sd 1 lw 2093 1118 m 377 Y s [] 0 sd 1 lw 2087 1118 m 6 X s [] 0 sd 1 lw 2093 1118
 m 6 X s [] 0 sd 1 lw 2093 1118 m20 [] 0 sd 1 lw [] 0 sd 1 lw 2105 285 m 218 Y s [] 0 sd 1 lw 2105 503 m 219 Y s [] 0 sd
 1 lw 2099 503 m 6 X s [] 0 sd 1 lw 2105 503 m 6 X s [] 0 sd 1 lw 2105 503 m20 [] 0 sd 1 lw [] 0 sd 1 lw 2117 503 m 308
 Y s [] 0 sd 1 lw 2117 811 m 309 Y s [] 0 sd 1 lw 2111 811 m 6 X s [] 0 sd 1 lw 2117 811 m 6 X s [] 0 sd 1 lw 2117 811
 m20 [] 0 sd 1 lw [] 0 sd 1 lw 2128 284 m 218 Y s [] 0 sd 1 lw 2128 502 m 217 Y s [] 0 sd 1 lw 2123 502 m 5 X s [] 0 sd
 1 lw 2128 502 m 6 X s [] 0 sd 1 lw 2128 502 m20 [] 0 sd 1 lw [] 0 sd 1 lw 2134 194 m 6 X s [] 0 sd 1 lw 2140 194 m 6 X
 s [] 0 sd 1 lw 2152 284 m 217 Y s [] 0 sd 1 lw 2152 501 m 216 Y s [] 0 sd 1 lw 2146 501 m 6 X s [] 0 sd 1 lw 2152 501 m
 6 X s [] 0 sd 1 lw 2152 501 m20 [] 0 sd 1 lw [] 0 sd 1 lw 2164 389 m 266 Y s [] 0 sd 1 lw 2164 655 m 266 Y s [] 0 sd 1
 lw 2158 655 m 6 X s [] 0 sd 1 lw 2164 655 m 6 X s [] 0 sd 1 lw 2164 655 m20 [] 0 sd 1 lw [] 0 sd 1 lw 2176 194 m 154 Y
 s [] 0 sd 1 lw 2176 348 m 153 Y s [] 0 sd 1 lw 2170 348 m 6 X s [] 0 sd 1 lw 2176 348 m 6 X s [] 0 sd 1 lw 2176 348 m20
 [] 0 sd 1 lw [] 0 sd 1 lw 2187 285 m 218 Y s [] 0 sd 1 lw 2187 503 m 218 Y s [] 0 sd 1 lw 2182 503 m 5 X s [] 0 sd 1 lw
 2187 503 m 6 X s [] 0 sd 1 lw 2187 503 m20 [] 0 sd 1 lw [] 0 sd 1 lw 2199 284 m 218 Y s [] 0 sd 1 lw 2199 502 m 217 Y s
 [] 0 sd 1 lw 2193 502 m 6 X s [] 0 sd 1 lw 2199 502 m 6 X s [] 0 sd 1 lw 2199 502 m20 [] 0 sd 1 lw [] 0 sd 1 lw 2211
 194 m 154 Y s [] 0 sd 1 lw 2211 348 m 153 Y s [] 0 sd 1 lw 2205 348 m 6 X s [] 0 sd 1 lw 2211 348 m 6 X s [] 0 sd 1 lw
 2211 348 m20 [] 0 sd 1 lw [] 0 sd 1 lw 2223 742 m 377 Y s [] 0 sd 1 lw 2223 1119 m 378 Y s [] 0 sd 1 lw 2217 1119 m 6 X
 s [] 0 sd 1 lw 2223 1119 m 6 X s [] 0 sd 1 lw 2223 1119 m20 [] 0 sd 1 lw [] 0 sd 1 lw 2235 285 m 218 Y s [] 0 sd 1 lw
 2235 503 m 219 Y s [] 0 sd 1 lw 2229 503 m 6 X s [] 0 sd 1 lw 2235 503 m 6 X s [] 0 sd 1 lw 2235 503 m20 [] 0 sd 1 lw
 [] 0 sd 1 lw 2241 194 m 5 X s [] 0 sd 1 lw 2246 194 m 6 X s [] 0 sd 1 lw 2258 284 m 218 Y s [] 0 sd 1 lw 2258 502 m 218
 Y s [] 0 sd 1 lw 2252 502 m 6 X s [] 0 sd 1 lw 2258 502 m 6 X s [] 0 sd 1 lw 2258 502 m20 [] 0 sd 1 lw [] 0 sd 1 lw
 2270 619 m 344 Y s [] 0 sd 1 lw 2270 963 m 343 Y s [] 0 sd 1 lw 2264 963 m 6 X s [] 0 sd 1 lw 2270 963 m 6 X s [] 0 sd
 1 lw 2270 963 m20 [] 0 sd 1 lw [] 0 sd 1 lw 2282 741 m 377 Y s [] 0 sd 1 lw 2282 1118 m 377 Y s [] 0 sd 1 lw 2276 1118
 m 6 X s [] 0 sd 1 lw 2282 1118 m 6 X s [] 0 sd 1 lw 2282 1118 m20 [] 0 sd 1 lw [] 0 sd 1 lw 2294 285 m 217 Y s [] 0 sd
 1 lw 2294 502 m 218 Y s [] 0 sd 1 lw 2288 502 m 6 X s [] 0 sd 1 lw 2294 502 m 5 X s [] 0 sd 1 lw 2294 502 m20 [] 0 sd 1
 lw [] 0 sd 1 lw 2299 194 m 6 X s [] 0 sd 1 lw 2305 194 m 6 X s [] 0 sd 1 lw 2317 284 m 218 Y s [] 0 sd 1 lw 2317 502 m
 217 Y s [] 0 sd 1 lw 2311 502 m 6 X s [] 0 sd 1 lw 2317 502 m 6 X s [] 0 sd 1 lw 2317 502 m20 [] 0 sd 1 lw [] 0 sd 1 lw
 2329 389 m 266 Y s [] 0 sd 1 lw 2329 655 m 266 Y s [] 0 sd 1 lw 2323 655 m 6 X s [] 0 sd 1 lw 2329 655 m 6 X s [] 0 sd
 1 lw 2329 655 m20 [] 0 sd 1 lw [] 0 sd 1 lw 2335 194 m 6 X s [] 0 sd 1 lw 2341 194 m 6 X s [] 0 sd 1 lw 2353 284 m 218
 Y s [] 0 sd 1 lw 2353 502 m 217 Y s [] 0 sd 1 lw 2347 502 m 6 X s [] 0 sd 1 lw 2353 502 m 5 X s [] 0 sd 1 lw 2353 502
 m20 [] 0 sd 1 lw [] 0 sd 1 lw 2364 284 m 218 Y s [] 0 sd 1 lw 2364 502 m 217 Y s [] 0 sd 1 lw 2358 502 m 6 X s [] 0 sd
 1 lw 2364 502 m 6 X s [] 0 sd 1 lw 2364 502 m20 [] 0 sd 1 lw [] 0 sd 1 lw 2376 389 m 267 Y s [] 0 sd 1 lw 2376 656 m
 267 Y s [] 0 sd 1 lw 2370 656 m 6 X s [] 0 sd 1 lw 2376 656 m 6 X s [] 0 sd 1 lw 2376 656 m20 [] 0 sd 1 lw [] 0 sd 1 lw
 2388 285 m 217 Y s [] 0 sd 1 lw 2388 502 m 218 Y s [] 0 sd 1 lw 2382 502 m 6 X s [] 0 sd 1 lw 2388 502 m 6 X s [] 0 sd
 1 lw 2388 502 m20 [] 0 sd 1 lw [] 0 sd 1 lw 2400 194 m 155 Y s [] 0 sd 1 lw 2400 349 m 154 Y s [] 0 sd 1 lw 2394 349 m
 6 X s [] 0 sd 1 lw 2400 349 m 6 X s [] 0 sd 1 lw 2400 349 m20 [] 0 sd 1 lw [] 0 sd 1 lw 2411 389 m 267 Y s [] 0 sd 1 lw
 2411 656 m 267 Y s [] 0 sd 1 lw 2406 656 m 5 X s [] 0 sd 1 lw 2411 656 m 6 X s [] 0 sd 1 lw 2411 656 m20 [] 0 sd 1 lw
 [] 0 sd 1 lw 2423 285 m 218 Y s [] 0 sd 1 lw 2423 503 m 219 Y s [] 0 sd 1 lw 2417 503 m 6 X s [] 0 sd 1 lw 2423 503 m 6
 X s [] 0 sd 1 lw 2423 503 m20 [] 0 sd 1 lw [] 0 sd 1 lw 2435 284 m 217 Y s [] 0 sd 1 lw 2435 501 m 218 Y s [] 0 sd 1 lw
 2429 501 m 6 X s [] 0 sd 1 lw 2435 501 m 6 X s [] 0 sd 1 lw 2435 501 m20 [] 0 sd 1 lw [] 0 sd 1 lw 2447 194 m 154 Y s
 [] 0 sd 1 lw 2447 348 m 154 Y s [] 0 sd 1 lw 2441 348 m 6 X s [] 0 sd 1 lw 2447 348 m 6 X s [] 0 sd 1 lw 2447 348 m20
 [] 0 sd 1 lw [] 0 sd 1 lw 2453 194 m 6 X s [] 0 sd 1 lw 2459 194 m 6 X s [] 0 sd 1 lw 2465 194 m 5 X s [] 0 sd 1 lw
 2470 194 m 6 X s [] 0 sd 1 lw 2476 194 m 6 X s [] 0 sd 1 lw 2482 194 m 6 X s [] 0 sd 1 lw 2488 194 m 6 X s [] 0 sd 1 lw
 2494 194 m 6 X s [] 0 sd 1 lw 2500 194 m 6 X s [] 0 sd 1 lw 2506 194 m 6 X s [] 0 sd 1 lw 2512 194 m 6 X s [] 0 sd 1 lw
 2518 194 m 6 X s [] 0 sd 1 lw 2524 194 m 5 X s [] 0 sd 1 lw 2529 194 m 6 X s [] 0 sd 1 lw 2535 194 m 6 X s [] 0 sd 1 lw
 2541 194 m 6 X s [] 0 sd 1 lw 2547 194 m 6 X s [] 0 sd 1 lw 2553 194 m 6 X s [] 0 sd 1 lw 2559 194 m 6 X s [] 0 sd 1 lw
 2565 194 m 6 X s [] 0 sd 1 lw 2571 194 m 6 X s [] 0 sd 1 lw 2577 194 m 5 X s [] 0 sd 1 lw 2582 194 m 6 X s [] 0 sd 1 lw
 2588 194 m 6 X s [] 0 sd 1 lw 2594 194 m 6 X s [] 0 sd 1 lw 2600 194 m 6 X s [] 0 sd 1 lw 2606 194 m 6 X s [] 0 sd 1 lw
 2612 194 m 6 X s [] 0 sd 1 lw 2618 194 m 6 X s [] 0 sd 1 lw 2624 194 m 6 X s [] 0 sd 1 lw 2630 194 m 6 X s [] 0 sd 1 lw
 2636 194 m 5 X s [] 0 sd 1 lw 2641 194 m 6 X s [] 0 sd 1 lw 2647 194 m 6 X s [] 0 sd 1 lw [] 0 sd 1 lw 295 194 m 2358 X
 s s
 /xs 0 def (Z \(cm\)) /Helvetica-Bold 72 stwn  gsave  2653 49
 t 0 r  xs neg 0 t 0 0 m /Helvetica-Bold findfont 72 sf 0 0 m (Z \(cm\)) show  gr  [] 0 sd 1 lw [] 0 sd 1 lw 605 241 m
 -47 Y s s [] 0 sd 1 lw [] 0 sd 1 lw 713 218 m -24 Y s s [] 0 sd 1 lw [] 0 sd 1 lw 822 218 m -24 Y s s [] 0 sd 1 lw
 [] 0 sd 1 lw 931 218 m -24 Y s s [] 0 sd 1 lw [] 0 sd 1 lw 1039 241 m -47 Y s s [] 0 sd 1 lw [] 0 sd 1 lw 1148 218 m
 -24 Y s s [] 0 sd 1 lw [] 0 sd 1 lw 1257 218 m -24 Y s s [] 0 sd 1 lw [] 0 sd 1 lw 1365 218 m -24 Y s s [] 0 sd 1 lw
 [] 0 sd 1 lw 1474 241 m -47 Y s s [] 0 sd 1 lw [] 0 sd 1 lw 1583 218 m -24 Y s s [] 0 sd 1 lw [] 0 sd 1 lw 1691 218 m
 -24 Y s s [] 0 sd 1 lw [] 0 sd 1 lw 1800 218 m -24 Y s s [] 0 sd 1 lw [] 0 sd 1 lw 1909 241 m -47 Y s s [] 0 sd 1 lw
 [] 0 sd 1 lw 2017 218 m -24 Y s s [] 0 sd 1 lw [] 0 sd 1 lw 2126 218 m -24 Y s s [] 0 sd 1 lw [] 0 sd 1 lw 2235 218 m
 -24 Y s s [] 0 sd 1 lw [] 0 sd 1 lw 2343 241 m -47 Y s s [] 0 sd 1 lw [] 0 sd 1 lw 605 241 m -47 Y s s [] 0 sd 1 lw
 [] 0 sd 1 lw 496 218 m -24 Y s s [] 0 sd 1 lw [] 0 sd 1 lw 387 218 m -24 Y s s [] 0 sd 1 lw [] 0 sd 1 lw 2343 241 m -47
 Y s s [] 0 sd 1 lw [] 0 sd 1 lw 2452 218 m -24 Y s s [] 0 sd 1 lw [] 0 sd 1 lw 2561 218 m -24 Y s s
 /xs 0 def (-40) /Helvetica-Bold 72 stwn  gsave  605 107
 t 0 r xs 2 div neg 0 t 0 0 m /Helvetica-Bold findfont 72 sf 0 0 m (-40) show  gr 
 /xs 0 def (-20) /Helvetica-Bold 72 stwn  gsave  1039 107
 t 0 r xs 2 div neg 0 t 0 0 m /Helvetica-Bold findfont 72 sf 0 0 m (-20) show  gr 
 /xs 0 def (0) /Helvetica-Bold 72 stwn  gsave  1474 107
 t 0 r xs 2 div neg 0 t 0 0 m /Helvetica-Bold findfont 72 sf 0 0 m (0) show  gr 
 /xs 0 def (20) /Helvetica-Bold 72 stwn  gsave  1909 107
 t 0 r xs 2 div neg 0 t 0 0 m /Helvetica-Bold findfont 72 sf 0 0 m (20) show  gr 
 /xs 0 def (40) /Helvetica-Bold 72 stwn  gsave  2343 107
 t 0 r xs 2 div neg 0 t 0 0 m /Helvetica-Bold findfont 72 sf 0 0 m (40) show  gr  [] 0 sd 1 lw [] 0 sd 1 lw 295 194 m
 1556 Y s s
 /xs 0 def (Number of Hits \(cm) /Helvetica-Bold 72 stwn (-2\)) /Helvetica-Bold 50 stwn  gsave  136 1750
 t 90 r  xs neg 0 t 0 0 m /Helvetica-Bold findfont 72 sf 0 0 m (Number of Hits \(cm) show  currentpoint pop 0 t 
 /Helvetica-Bold findfont 50 sf 0 36 m (-2\)) show  gr  [] 0 sd 1 lw [] 0 sd 1 lw 366 194 m -71 X s s [] 0 sd 1 lw
 [] 0 sd 1 lw 330 228 m -35 X s s [] 0 sd 1 lw [] 0 sd 1 lw 330 262 m -35 X s s [] 0 sd 1 lw [] 0 sd 1 lw 330 296 m -35
 X s s [] 0 sd 1 lw [] 0 sd 1 lw 330 329 m -35 X s s [] 0 sd 1 lw [] 0 sd 1 lw 366 363 m -71 X s s [] 0 sd 1 lw [] 0 sd
 1 lw 330 397 m -35 X s s [] 0 sd 1 lw [] 0 sd 1 lw 330 431 m -35 X s s [] 0 sd 1 lw [] 0 sd 1 lw 330 464 m -35 X s s
 [] 0 sd 1 lw [] 0 sd 1 lw 330 498 m -35 X s s [] 0 sd 1 lw [] 0 sd 1 lw 366 532 m -71 X s s [] 0 sd 1 lw [] 0 sd 1 lw
 330 566 m -35 X s s [] 0 sd 1 lw [] 0 sd 1 lw 330 599 m -35 X s s [] 0 sd 1 lw [] 0 sd 1 lw 330 633 m -35 X s s [] 0 sd
 1 lw [] 0 sd 1 lw 330 667 m -35 X s s [] 0 sd 1 lw [] 0 sd 1 lw 366 701 m -71 X s s [] 0 sd 1 lw [] 0 sd 1 lw 330 734 m
 -35 X s s [] 0 sd 1 lw [] 0 sd 1 lw 330 768 m -35 X s s [] 0 sd 1 lw [] 0 sd 1 lw 330 802 m -35 X s s [] 0 sd 1 lw
 [] 0 sd 1 lw 330 836 m -35 X s s [] 0 sd 1 lw [] 0 sd 1 lw 366 869 m -71 X s s [] 0 sd 1 lw [] 0 sd 1 lw 330 903 m -35
 X s s [] 0 sd 1 lw [] 0 sd 1 lw 330 937 m -35 X s s [] 0 sd 1 lw [] 0 sd 1 lw 330 971 m -35 X s s [] 0 sd 1 lw [] 0 sd
 1 lw 330 1004 m -35 X s s [] 0 sd 1 lw [] 0 sd 1 lw 366 1038 m -71 X s s [] 0 sd 1 lw [] 0 sd 1 lw 330 1072 m -35 X s s
 [] 0 sd 1 lw [] 0 sd 1 lw 330 1106 m -35 X s s [] 0 sd 1 lw [] 0 sd 1 lw 330 1140 m -35 X s s [] 0 sd 1 lw [] 0 sd 1 lw
 330 1173 m -35 X s s [] 0 sd 1 lw [] 0 sd 1 lw 366 1207 m -71 X s s [] 0 sd 1 lw [] 0 sd 1 lw 330 1241 m -35 X s s
 [] 0 sd 1 lw [] 0 sd 1 lw 330 1275 m -35 X s s [] 0 sd 1 lw [] 0 sd 1 lw 330 1308 m -35 X s s [] 0 sd 1 lw [] 0 sd 1 lw
 330 1342 m -35 X s s [] 0 sd 1 lw [] 0 sd 1 lw 366 1376 m -71 X s s [] 0 sd 1 lw [] 0 sd 1 lw 330 1410 m -35 X s s
 [] 0 sd 1 lw [] 0 sd 1 lw 330 1443 m -35 X s s [] 0 sd 1 lw [] 0 sd 1 lw 330 1477 m -35 X s s [] 0 sd 1 lw [] 0 sd 1 lw
 330 1511 m -35 X s s [] 0 sd 1 lw [] 0 sd 1 lw 366 1545 m -71 X s s [] 0 sd 1 lw [] 0 sd 1 lw 330 1578 m -35 X s s
 [] 0 sd 1 lw [] 0 sd 1 lw 330 1612 m -35 X s s [] 0 sd 1 lw [] 0 sd 1 lw 330 1646 m -35 X s s [] 0 sd 1 lw [] 0 sd 1 lw
 330 1680 m -35 X s s [] 0 sd 1 lw [] 0 sd 1 lw 366 1713 m -71 X s s [] 0 sd 1 lw [] 0 sd 1 lw 366 1713 m -71 X s s
 [] 0 sd 1 lw [] 0 sd 1 lw 330 1747 m -35 X s s
 /xs 0 def (0) /Helvetica-Bold 72 stwn  gsave  280 174
 t 0 r  xs neg 0 t 0 0 m /Helvetica-Bold findfont 72 sf 0 0 m (0) show  gr 
 /xs 0 def (0.1) /Helvetica-Bold 72 stwn  gsave  280 342
 t 0 r  xs neg 0 t 0 0 m /Helvetica-Bold findfont 72 sf 0 0 m (0.1) show  gr 
 /xs 0 def (0.2) /Helvetica-Bold 72 stwn  gsave  280 511
 t 0 r  xs neg 0 t 0 0 m /Helvetica-Bold findfont 72 sf 0 0 m (0.2) show  gr 
 /xs 0 def (0.3) /Helvetica-Bold 72 stwn  gsave  280 680
 t 0 r  xs neg 0 t 0 0 m /Helvetica-Bold findfont 72 sf 0 0 m (0.3) show  gr 
 /xs 0 def (0.4) /Helvetica-Bold 72 stwn  gsave  280 849
 t 0 r  xs neg 0 t 0 0 m /Helvetica-Bold findfont 72 sf 0 0 m (0.4) show  gr 
 /xs 0 def (0.5) /Helvetica-Bold 72 stwn  gsave  280 1018
 t 0 r  xs neg 0 t 0 0 m /Helvetica-Bold findfont 72 sf 0 0 m (0.5) show  gr 
 /xs 0 def (0.6) /Helvetica-Bold 72 stwn  gsave  280 1186
 t 0 r  xs neg 0 t 0 0 m /Helvetica-Bold findfont 72 sf 0 0 m (0.6) show  gr 
 /xs 0 def (0.7) /Helvetica-Bold 72 stwn  gsave  280 1355
 t 0 r  xs neg 0 t 0 0 m /Helvetica-Bold findfont 72 sf 0 0 m (0.7) show  gr 
 /xs 0 def (0.8) /Helvetica-Bold 72 stwn  gsave  280 1524
 t 0 r  xs neg 0 t 0 0 m /Helvetica-Bold findfont 72 sf 0 0 m (0.8) show  gr 
 /xs 0 def (0.9) /Helvetica-Bold 72 stwn  gsave  280 1693
 t 0 r  xs neg 0 t 0 0 m /Helvetica-Bold findfont 72 sf 0 0 m (0.9) show  gr  [] 0 sd 1 lw 0.95 0.95 0.95 c 1342 97 29
 1837 bf black [] 0 sd 1 lw 49 1837 m -13 Y 1335 X 91 Y -13 X -78 Y f [] 0 sd 1 lw 29 1837 m 97 Y s [] 0 sd 1 lw 29 1934
 m 1342 X s [] 0 sd 1 lw 1371 1934 m -97 Y s [] 0 sd 1 lw 1371 1837 m -1342 X s
 /xs 0 def (Density of Hits for Layer 5) /Helvetica-Bold 76 stwn  gsave  700 1864
 t 0 r xs 2 div neg 0 t 0 0 m /Helvetica-Bold findfont 76 sf 0 0 m (Density of Hits for Layer 5) show  gr  [] 0 sd 1 lw
 0.95 0.95 0.95 c 590 311 2299 1594 bf black [] 0 sd 1 lw 2319 1594 m -13 Y 583 X 305 Y -13 X -292 Y f [] 0 sd 1 lw 2299
 1594 m 311 Y s [] 0 sd 1 lw 2299 1905 m 590 X s [] 0 sd 1 lw 2889 1905 m -311 Y s [] 0 sd 1 lw 2889 1594 m -590 X s
 gsave  2329 1849
 t 0 r 0 0 m /Helvetica-Bold findfont 64 sf 0 0 m (hzetapden_z5) show  gr 
 gsave  2329 1771
 t 0 r 0 0 m /Helvetica-Bold findfont 64 sf 0 0 m (Nent = 35    \040) show  gr 
 gsave  2329 1693
 t 0 r 0 0 m /Helvetica-Bold findfont 64 sf 0 0 m (Mean  = 0.2782) show  gr 
 gsave  2329 1615
 t 0 r 0 0 m /Helvetica-Bold findfont 64 sf 0 0 m (RMS   =   24.8) show  gr  1 1 0 c gr 
showpage gr
 gr 
%%Trailer
%%Pages:  1
%%EOF
