%!PS-Adobe-2.0
%%Title: ITSHitDen_1_z.ps (Landscape A 4)
%%Pages: (atend)
%%Creator: ROOT Version 2.22/09
%%CreationDate:Sat Sep 18 07:10:17 1999
%%EndComments
%%BeginProlog
/s {stroke} def /l {lineto} def /m {moveto} def /t {translate} def
/sw {stringwidth} def /r {rotate} def /rl {roll}  def /R {repeat} def
/d {rlineto} def /rm {rmoveto} def /gr {grestore} def /f {eofill} def
/c {setrgbcolor} def /lw {setlinewidth} def /sd {setdash} def
/cl {closepath} def /sf {scalefont setfont} def /black {0 setgray} def
/box {m dup 0 exch d exch 0 d 0 exch neg d cl} def
/NC{systemdict begin initclip end}def/C{NC box clip newpath}def
/bl {box s} def /bf {box f} def /Y { 0 exch d} def /X { 0 d} def 
/mp {newpath /y exch def /x exch def} def
/side {[w .77 mul w .23 mul] .385 w mul sd w 0 l currentpoint t -144 r} def
/mr {mp x y w2 0 360 arc} def /m24 {mr s} def /m20 {mr f} def
/mb {mp x y w2 add m w2 neg 0 d 0 w neg d w 0 d 0 w d cl} def
/mt {mp x y w2 add m w2 neg w neg d w 0 d cl} def
/m21 {mb f} def /m25 {mb s} def /m22 {mt f} def /m26{mt s} def
/m23 {mp x y w2 sub m w2 w d w neg 0 d cl f} def
/m27 {mp x y w2 add m w3 neg w2 neg d w3 w2 neg d w3 w2 d cl s} def
/m28 {mp x w2 sub y w2 sub w3 add m w3 0 d  0 w3 neg d w3 0 d 0 w3 d w3 0 d  0 w3 d w3 neg 0 d 0 w3 d w3 neg 0 d
 0 w3 neg d w3 neg 0 d cl s } def
/m29 {mp gsave x w2 sub y w2 add w3 sub m currentpoint t
 4 {side} repeat cl fill gr} def
/m30 {mp gsave x w2 sub y w2 add w3 sub m currentpoint t
 5 {side} repeat s gr} def
/m31 {mp x y w2 sub m 0 w d x w2 sub y m w 0 d x w2 sub y w2 add m w w neg d x w2 sub y w2
 sub m w w d s} def
/m2 {mp x y w2 sub m 0 w d x w2 sub y m w 0 d s} def
/m5 {mp x w2 sub y w2 sub m w w d x w2 sub y w2 add m w w neg d s} def
/DP {/PT exch def gsave 47.2 47.2 scale PT 1  eq { 16 16 1 [ 16 0 0 16 neg 0 16
] { < AA AA 55 55 AA AA 55 55 AA AA 55 55 AA AA 55 55 AA AA 55 55 AA AA 55 55
AA AA 55 55 AA AA 55 55 > } image } if PT 2 eq { 16 16 1 [ 16 0 0 16 neg 0 16
] { < BB BB EE EE BB BB EE EE BB BB EE EE BB BB EE EE BB BB EE EE BB BB EE EE
BB BB EE EE BB BB EE EE > } image } if PT 3 eq { 16 16 1 [ 16 0 0 16 neg 0 16
] { < FF FF BB BB FF FF EE EE FF FF BB BB FF FF EE EE FF FF BB BB FF FF EE EE
FF FF BB BB FF FF EE EE > } image } if PT 4 eq { 16 16 1 [ 16 0 0 16 neg 0 16
] { < DF DF BF BF 7F 7F FE FE FD FD FB FB F7 F7 EF EF DF DF BF BF 7F 7F FE FE
FD FD FB FB F7 F7 EF EF > } image } if PT 5 eq { 16 16 1 [ 16 0 0 16 neg 0 16
] { < 7F 7F BF B F DF DF EF EF F7 F7 FB FB FD FD FE FE 7F 7F BF BF DF DF EF
EF F7 F7 FB FB FD FD FE FE > } image } if PT 6 eq { 16 16 1 [ 16 0 0 16 neg 0
16 ] { < BB BB BB BB BB BB BB BB BB BB BB BB BB BB BB BB BB BB BB BB BB BB BB
BB BB BB BB BB BB BB BB BB > } image } if PT 7 eq { 16 16 1 [ 16 0 0 16 neg 0
16 ] { < FF FF FF FF FF FF 00 00 FF FF FF FF FF FF 00 00 FF FF FF FF FF FF 00
00 FF FF FF FF FF FF 00 00 > } image } if PT 8 eq { 16 16 1 [ 16 0 0 16 neg 0
16 ] { < EE EE 47 47 83 83 C5 C5 EE EE 5C 5C 38 38 74 74 EE EE 47 47 83 83 C5
C5 EE EE 5C 5C 38 38 74 74 > } image } if PT 9 eq { 16 16 1 [ 16 0 0 16 neg 0
16 ] { < EF EF EF EF D7 D7 38 38 FE FE FE FE 7D 7D 83 83 EF EF EF EF D7 D7 38
38  FE FE FE FE 7D 7D 83 83 > } image } if PT 10 eq { 16 16 1 [ 16 0 0 16 neg
0 16 ] { <  EF EF EF EF EF EF 00 00 FE FE FE FE FE FE 00 00 EF EF EF EF EF EF
00 00 FE FE FE FE FE FE 00 00 > } image } if PT 11 eq { 16 16 1 [ 16 0 0 16
neg 0 16 ] { < F7 F7 B6 B6 D5 D5 E3 E3 D5 D5 B6 B6 F7 F7 FF FF 7F 7F 6B 6B 5D
5D 3E 3E 5D 5D 6B 6B 7F 7F FF FF > } image } if PT 12 eq { 16 16 1 [ 16 0 0
16 neg 0 16 ] { < E3 E3 DD DD BE BE BE BE BE BE DD DD E3 E3 FF FF 3E 3E DD DD
EB EB EB EB EB EB DD DD 3E 3E FF FF > } image } if PT 13 eq { 16 16 1 [ 16 0
0 16 neg 0 16 ] { <  FE FE 7D 7D BB BB D7 D7 EF EF D7 D7 BB BB 7D 7D FE FE 7D
7D BB BB D7 D7 EF EF D7 D7 BB BB 7D 7D > } image } if PT 14 eq { 16 16 1 [ 16
0 0 16 neg 0 16 ] { < 00 00 EE EF EE EF EE EF 0E E0 EE EE EE EE EE EE 00 EE
FE EE FE EE FE EE 00 00 FE EF FE EF FE EF > } image } if PT 15 eq { 16 16 1 [
16 0 0 16 neg 0 16 ] { < DD DD AA AA DD DD FF FF 77 77 AA AA 77 77 FF FF DD
DD AA AA DD DD FF FF 77 77 AA AA 77 77 FF FF > } image } if PT 16 eq { 16 16
1 [ 16 0 0 16 neg 0 16 ] { <  F1 F1 EE EE 1F 1F FF FF F1 F1 EE EE 1F 1F FF FF
F1 F1 EE EE 1F 1F FF FF F1 F1 EE EE 1F 1F FF FF > } image } if PT 17 eq { 16
16 1 [ 16 0 0 16 neg 0 16 ] { <  EE EE DD DD BB BB FF FF EE EE DD DD BB BB FF
 FF EE EE DD DD BB BB FF FF EE EE DD DD BB BB FF FF > } image } if PT 18 eq {
16 16 1 [ 16 0 0 16 neg 0 16 ] { <  BB BB DD DD EE EE FF FF BB BB DD DD EE EE
FF FF BB BB DD DD EE EE FF FF BB BB DD DD EE EE FF FF > } image } if PT 19 eq
{ 16 16 1 [ 16 0 0 16 neg 0 16 ] { < 1F FC 67 F3 7B EF BD DE BD DE DE BD E6
B3 F8 0F E6 B3 DE BD BD DE BD DE 7B EF 67 F3 1F FC 7F FF > } image } if PT
20 eq { 16 16 1 [ 16 0 0 16 neg 0 16 ] { < DD DD EE EE EE EE EE EE DD DD BB
BB BB BB BB BB DD DD EE EE EE EE EE EE DD DD BB BB BB BB BB BB > } image }
if PT 21 eq { 16 16 1 [ 16 0 0 16 neg 0 16 ] { < 0E 0E EF EF EF EF EF EF E0
E0 FE FE FE FE FE FE 0E 0E EF EF EF EF EF EF E0 E0 FE FE FE FE FE FE > }
image }  if PT 22 eq { 16 16 1 [ 16 0 0 16 neg 0 16 ] { < 70 70 F7 F7 F7 F7 F7
F7 07 07 7F 7F 7F 7F 7F 7F 70 70 F7 F7 F7 F7 F7 F7 07 07 7F 7F 7F 7F 7F 7F >
} image } if PT 23 eq  { 16 16 1 [ 16 0 0 16 neg 0 16 ] { < AA AA 55 55 A9 A9
D1 D1 E1 E1 D1 D1 A9 A9 55 55 AA AA 55 55 A9 A9 D1 D1 E1 E1 D1 D1 A9 A9 55 55
> } image } if PT 24 eq { 16 16 1 [ 16 0 0 16 neg 0 16 ] { < FF FE FF FC EA
A8 D5 54 EA A8 D5 54 E8 28 D4 54 E8 E8 D4 D4 E8 EA 54 D5 A8 EA 54 D5 00 C0 00
80 > } image } if PT 25 eq {  16 16 1 [ 16 0 0 16 neg 0 16 ] { < FF FE FF FC
FF F8 FF F0 F0 00 F0 00 F0 20 F0 60 F0 E0 F1 E0 F3 E0 F0 00 E0 00 C0 00 80 00
00 00 > } image } if gr } def /FA { /PT exch def gsave clip 0 0 translate 1 1
74 { 1 sub 47.2 mul /Xcurr exch def 1 1 74 { 1 sub 47.2 mul /Ycurr exch def
gsave Xcurr Ycurr translate PT DP gr } for } for gr newpath } def
/reencdict 24 dict def /ReEncode {reencdict begin /nco&na exch def
/nfnam exch def /basefontname exch def /basefontdict basefontname findfont def
/newfont basefontdict maxlength dict def basefontdict {exch dup /FID ne
{dup /Encoding eq {exch dup length array copy newfont 3 1 roll put} {exch 
newfont 3 1 roll put} ifelse} {pop pop} ifelse } forall newfont
/FontName nfnam put nco&na aload pop nco&na length 2 idiv {newfont
/Encoding get 3 1 roll put} repeat nfnam newfont definefont pop end } def
/accvec [ 176 /agrave 181 /Agrave 190 /acircumflex 192 /Acircumflex
201 /adieresis 204 /Adieresis 209 /ccedilla 210 /Ccedilla 211 /eacute
212 /Eacute 213 /egrave 214 /Egrave 215 /ecircumflex 216 /Ecircumflex
217 /edieresis 218 /Edieresis 219 /icircumflex 220 /Icircumflex
221 /idieresis 222 /Idieresis 223 /ntilde 224 /Ntilde 226 /ocircumflex
228 /Ocircumflex 229 /odieresis 230 /Odieresis 231 /ucircumflex 236 /Ucircumflex
237 /udieresis 238 /Udieresis 239 /aring 242 /Aring 243 /ydieresis
244 /Ydieresis 246 /aacute 247 /Aacute 252 /ugrave 253 /Ugrave] def
/Times-Roman /Times-Roman accvec ReEncode
/Times-Italic /Times-Italic accvec ReEncode
/Times-Bold /Times-Bold accvec ReEncode
/Times-BoldItalic /Times-BoldItalic accvec ReEncode
/Helvetica /Helvetica accvec ReEncode
/Helvetica-Oblique /Helvetica-Oblique accvec ReEncode
/Helvetica-Bold /Helvetica-Bold accvec ReEncode
/Helvetica-BoldOblique /Helvetica-BoldOblique  accvec ReEncode
/Courier /Courier accvec ReEncode
/Courier-Oblique /Courier-Oblique accvec ReEncode
/Courier-Bold /Courier-Bold accvec ReEncode
/Courier-BoldOblique /Courier-BoldOblique accvec ReEncode
/oshow {gsave [] 0 sd true charpath stroke gr} def
/stwn { /fs exch def /fn exch def /text exch def fn findfont fs sf
 text sw pop xs add /xs exch def} def
/stwb { /fs exch def /fn exch def /nbas exch def /textf exch def
textf length /tlen exch def nbas tlen gt {/nbas tlendef} if
fn findfont fs sf textf dup length nbas sub nbas getinterval sw
pop neg xs add /xs exch def} def
/accspe [ 65 /plusminus  66 /bar  67 /existential  68 /universal 
69 /exclam  70 /numbersign 71 /greater  72 /question  73 /integral 
74 /colon  75 /semicolon  76 /less  77 /bracketleft  78 /bracketright
79 /greaterequal 80 /braceleft 81 /braceright 82 /radical
83 /spade 84 /heart 85 /diamond 86 /club 87 /lessequal
88 /multiply 89 /percent 90 /infinity 48 /circlemultiply 49 /circleplus
50 /emptyset  51 /lozenge 52 /bullet 53 /arrowright 54 /arrowup
55 /arrowleft 56 /arrowdown 57 /arrowboth 48 /degree 44 /comma 43 /plus 45 /angle 42 /angleleft 47 /divide 61 /notequal
 40 /equivalence 41 /second 97 /approxequal 98 /congruent 99 /perpendicular 100 /partialdiff 101 /florin
 102 /intersection 103 /union 104 /propersuperset 105 /reflexsuperset 106 /notsubset 107 /propersubset 108 /reflexsubset
 109 /element 110 /notelement 111 /gradient 112 /logicaland 113 /logicalor 114 /arrowdblboth 115 /arrowdblleft
 116 /arrowdblup 117 /arrowdblright 118 /arrowdbldown 119 /ampersand 120 /omega1 121 /similar 122 /aleph ] def
/Symbol /Special accspe ReEncode
/Zone {/iy exch def /ix exch def  ix 1 sub  3144 mul  1 iy sub  2224
 mul t} def
%%EndProlog
 gsave  90 r 0 -594 t  28 20 t .25 .25 scale  gsave 
%%Page: number 1
 black [] 0 sd 1 lw 0.95 0.95 0.95 c 2948 1944 0 0 bf 0.8 0.8 0.8 c 0 0 m 2 2 d 1940 Y 2944 X 2 2 d -2948 X -1944 Y f
 0.3 0.3 0.3 c 0 0 m 2 2 d 2944 X 1940 Y 2 2 d -1944 Y -2948 X f black [] 0 sd 1 lw 0.95 0.95 0.95 c 2358 1556 295 194
 bf 0.8 0.8 0.8 c 295 194 m 1 1 d 1554 Y 2356 X 1 1 d -2358 X -1556 Y f 0.3 0.3 0.3 c 295 194 m 1 1 d 2356 X 1554 Y 1 1
 d -1556 Y -2358 X f [] 0 sd 1 lw black 295 194 m 2358 X s [] 0 sd 1 lw 2653 194 m 1556 Y s [] 0 sd 1 lw 2653 1750 m
 -2358 X s [] 0 sd 1 lw 295 1750 m -1556 Y s [] 0 sd 1 lw 1 1 1 c black [] 0 sd 1 lw 295 194 m 6 X s [] 0 sd 1 lw 301
 194 m 6 X s [] 0 sd 1 lw 307 194 m 5 X s [] 0 sd 1 lw 312 194 m 6 X s [] 0 sd 1 lw 318 194 m 6 X s [] 0 sd 1 lw 324 194
 m 6 X s [] 0 sd 1 lw 330 194 m 6 X s [] 0 sd 1 lw 336 194 m 6 X s [] 0 sd 1 lw 342 194 m 6 X s [] 0 sd 1 lw 348 194 m 6
 X s [] 0 sd 1 lw 354 194 m 6 X s [] 0 sd 1 lw 360 194 m 6 X s [] 0 sd 1 lw 366 194 m 5 X s [] 0 sd 1 lw 371 194 m 6 X s
 [] 0 sd 1 lw 377 194 m 6 X s [] 0 sd 1 lw 383 194 m 6 X s [] 0 sd 1 lw 389 194 m 6 X s [] 0 sd 1 lw 395 194 m 6 X s
 [] 0 sd 1 lw 401 194 m 6 X s [] 0 sd 1 lw 407 194 m 6 X s [] 0 sd 1 lw 413 194 m 6 X s [] 0 sd 1 lw 419 194 m 6 X s
 [] 0 sd 1 lw 425 194 m 5 X s [] 0 sd 1 lw 430 194 m 6 X s [] 0 sd 1 lw 436 194 m 6 X s [] 0 sd 1 lw 442 194 m 6 X s
 [] 0 sd 1 lw 448 194 m 6 X s [] 0 sd 1 lw 454 194 m 6 X s [] 0 sd 1 lw 460 194 m 6 X s [] 0 sd 1 lw 466 194 m 6 X s
 [] 0 sd 1 lw 472 194 m 6 X s [] 0 sd 1 lw 478 194 m 5 X s [] 0 sd 1 lw 489 194 m 82 Y s [] 0 sd 1 lw 489 276 m 82 Y s
 [] 0 sd 1 lw 483 276 m 6 X s [] 0 sd 1 lw 489 276 m 6 X s [] 0 sd 1 lw /w 2 def /w2 {w 2 div} def /w3 {w 3 div} def 489
 276 m20 [] 0 sd 1 lw [] 0 sd 1 lw 495 194 m 6 X s [] 0 sd 1 lw 501 194 m 6 X s [] 0 sd 1 lw 507 194 m 6 X s [] 0 sd 1
 lw 513 194 m 6 X s [] 0 sd 1 lw 519 194 m 6 X s [] 0 sd 1 lw 525 194 m 6 X s [] 0 sd 1 lw 537 245 m 121 Y s [] 0 sd 1
 lw 537 366 m 121 Y s [] 0 sd 1 lw 531 366 m 6 X s [] 0 sd 1 lw 537 366 m 5 X s [] 0 sd 1 lw 537 366 m20 [] 0 sd 1 lw
 [] 0 sd 1 lw 548 194 m 82 Y s [] 0 sd 1 lw 548 276 m 82 Y s [] 0 sd 1 lw 542 276 m 6 X s [] 0 sd 1 lw 548 276 m 6 X s
 [] 0 sd 1 lw 548 276 m20 [] 0 sd 1 lw [] 0 sd 1 lw 560 194 m 87 Y s [] 0 sd 1 lw 560 281 m 86 Y s [] 0 sd 1 lw 554 281
 m 6 X s [] 0 sd 1 lw 560 281 m 6 X s [] 0 sd 1 lw 560 281 m20 [] 0 sd 1 lw [] 0 sd 1 lw 572 194 m 87 Y s [] 0 sd 1 lw
 572 281 m 87 Y s [] 0 sd 1 lw 566 281 m 6 X s [] 0 sd 1 lw 572 281 m 6 X s [] 0 sd 1 lw 572 281 m20 [] 0 sd 1 lw
 [] 0 sd 1 lw 584 301 m 145 Y s [] 0 sd 1 lw 584 446 m 146 Y s [] 0 sd 1 lw 578 446 m 6 X s [] 0 sd 1 lw 584 446 m 6 X s
 [] 0 sd 1 lw 584 446 m20 [] 0 sd 1 lw [] 0 sd 1 lw 596 244 m 121 Y s [] 0 sd 1 lw 596 365 m 120 Y s [] 0 sd 1 lw 590
 365 m 6 X s [] 0 sd 1 lw 596 365 m 5 X s [] 0 sd 1 lw 596 365 m20 [] 0 sd 1 lw [] 0 sd 1 lw 601 194 m 6 X s [] 0 sd 1
 lw 607 194 m 6 X s [] 0 sd 1 lw 619 304 m 149 Y s [] 0 sd 1 lw 619 453 m 150 Y s [] 0 sd 1 lw 613 453 m 6 X s [] 0 sd 1
 lw 619 453 m 6 X s [] 0 sd 1 lw 619 453 m20 [] 0 sd 1 lw [] 0 sd 1 lw 631 299 m 144 Y s [] 0 sd 1 lw 631 443 m 143 Y s
 [] 0 sd 1 lw 625 443 m 6 X s [] 0 sd 1 lw 631 443 m 6 X s [] 0 sd 1 lw 631 443 m20 [] 0 sd 1 lw [] 0 sd 1 lw 643 194 m
 82 Y s [] 0 sd 1 lw 643 276 m 81 Y s [] 0 sd 1 lw 637 276 m 6 X s [] 0 sd 1 lw 643 276 m 6 X s [] 0 sd 1 lw 643 276 m20
 [] 0 sd 1 lw [] 0 sd 1 lw 654 245 m 123 Y s [] 0 sd 1 lw 654 368 m 123 Y s [] 0 sd 1 lw 649 368 m 5 X s [] 0 sd 1 lw
 654 368 m 6 X s [] 0 sd 1 lw 654 368 m20 [] 0 sd 1 lw [] 0 sd 1 lw 666 194 m 82 Y s [] 0 sd 1 lw 666 276 m 82 Y s
 [] 0 sd 1 lw 660 276 m 6 X s [] 0 sd 1 lw 666 276 m 6 X s [] 0 sd 1 lw 666 276 m20 [] 0 sd 1 lw [] 0 sd 1 lw 678 194 m
 87 Y s [] 0 sd 1 lw 678 281 m 87 Y s [] 0 sd 1 lw 672 281 m 6 X s [] 0 sd 1 lw 678 281 m 6 X s [] 0 sd 1 lw 678 281 m20
 [] 0 sd 1 lw [] 0 sd 1 lw 690 244 m 118 Y s [] 0 sd 1 lw 690 362 m 119 Y s [] 0 sd 1 lw 684 362 m 6 X s [] 0 sd 1 lw
 690 362 m 6 X s [] 0 sd 1 lw 690 362 m20 [] 0 sd 1 lw [] 0 sd 1 lw 702 362 m 168 Y s [] 0 sd 1 lw 702 530 m 168 Y s
 [] 0 sd 1 lw 696 530 m 6 X s [] 0 sd 1 lw 702 530 m 6 X s [] 0 sd 1 lw 702 530 m20 [] 0 sd 1 lw [] 0 sd 1 lw 713 301 m
 147 Y s [] 0 sd 1 lw 713 448 m 146 Y s [] 0 sd 1 lw 708 448 m 5 X s [] 0 sd 1 lw 713 448 m 6 X s [] 0 sd 1 lw 713 448
 m20 [] 0 sd 1 lw [] 0 sd 1 lw 725 243 m 119 Y s [] 0 sd 1 lw 725 362 m 118 Y s [] 0 sd 1 lw 719 362 m 6 X s [] 0 sd 1
 lw 725 362 m 6 X s [] 0 sd 1 lw 725 362 m20 [] 0 sd 1 lw [] 0 sd 1 lw 737 301 m 146 Y s [] 0 sd 1 lw 737 447 m 145 Y s
 [] 0 sd 1 lw 731 447 m 6 X s [] 0 sd 1 lw 737 447 m 6 X s [] 0 sd 1 lw 737 447 m20 [] 0 sd 1 lw [] 0 sd 1 lw 749 243 m
 119 Y s [] 0 sd 1 lw 749 362 m 119 Y s [] 0 sd 1 lw 743 362 m 6 X s [] 0 sd 1 lw 749 362 m 6 X s [] 0 sd 1 lw 749 362
 m20 [] 0 sd 1 lw [] 0 sd 1 lw 761 242 m 116 Y s [] 0 sd 1 lw 761 358 m 115 Y s [] 0 sd 1 lw 755 358 m 6 X s [] 0 sd 1
 lw 761 358 m 5 X s [] 0 sd 1 lw 761 358 m20 [] 0 sd 1 lw [] 0 sd 1 lw 766 194 m 6 X s [] 0 sd 1 lw 772 194 m 6 X s
 [] 0 sd 1 lw 784 299 m 144 Y s [] 0 sd 1 lw 784 443 m 143 Y s [] 0 sd 1 lw 778 443 m 6 X s [] 0 sd 1 lw 784 443 m 6 X s
 [] 0 sd 1 lw 784 443 m20 [] 0 sd 1 lw [] 0 sd 1 lw 796 359 m 164 Y s [] 0 sd 1 lw 796 523 m 164 Y s [] 0 sd 1 lw 790
 523 m 6 X s [] 0 sd 1 lw 796 523 m 6 X s [] 0 sd 1 lw 796 523 m20 [] 0 sd 1 lw [] 0 sd 1 lw 808 557 m 221 Y s [] 0 sd 1
 lw 808 778 m 221 Y s [] 0 sd 1 lw 802 778 m 6 X s [] 0 sd 1 lw 808 778 m 6 X s [] 0 sd 1 lw 808 778 m20 [] 0 sd 1 lw
 [] 0 sd 1 lw 820 245 m 121 Y s [] 0 sd 1 lw 820 366 m 121 Y s [] 0 sd 1 lw 814 366 m 6 X s [] 0 sd 1 lw 820 366 m 5 X s
 [] 0 sd 1 lw 820 366 m20 [] 0 sd 1 lw [] 0 sd 1 lw 831 300 m 144 Y s [] 0 sd 1 lw 831 444 m 145 Y s [] 0 sd 1 lw 825
 444 m 6 X s [] 0 sd 1 lw 831 444 m 6 X s [] 0 sd 1 lw 831 444 m20 [] 0 sd 1 lw [] 0 sd 1 lw 843 489 m 204 Y s [] 0 sd 1
 lw 843 693 m 204 Y s [] 0 sd 1 lw 837 693 m 6 X s [] 0 sd 1 lw 843 693 m 6 X s [] 0 sd 1 lw 843 693 m20 [] 0 sd 1 lw
 [] 0 sd 1 lw 855 194 m 82 Y s [] 0 sd 1 lw 855 276 m 82 Y s [] 0 sd 1 lw 849 276 m 6 X s [] 0 sd 1 lw 855 276 m 6 X s
 [] 0 sd 1 lw 855 276 m20 [] 0 sd 1 lw [] 0 sd 1 lw 867 194 m 87 Y s [] 0 sd 1 lw 867 281 m 87 Y s [] 0 sd 1 lw 861 281
 m 6 X s [] 0 sd 1 lw 867 281 m 6 X s [] 0 sd 1 lw 867 281 m20 [] 0 sd 1 lw [] 0 sd 1 lw 879 300 m 145 Y s [] 0 sd 1 lw
 879 445 m 144 Y s [] 0 sd 1 lw 873 445 m 6 X s [] 0 sd 1 lw 879 445 m 5 X s [] 0 sd 1 lw 879 445 m20 [] 0 sd 1 lw
 [] 0 sd 1 lw 890 245 m 123 Y s [] 0 sd 1 lw 890 368 m 123 Y s [] 0 sd 1 lw 884 368 m 6 X s [] 0 sd 1 lw 890 368 m 6 X s
 [] 0 sd 1 lw 890 368 m20 [] 0 sd 1 lw [] 0 sd 1 lw 902 242 m 115 Y s [] 0 sd 1 lw 902 357 m 115 Y s [] 0 sd 1 lw 896
 357 m 6 X s [] 0 sd 1 lw 902 357 m 6 X s [] 0 sd 1 lw 902 357 m20 [] 0 sd 1 lw [] 0 sd 1 lw 914 299 m 143 Y s [] 0 sd 1
 lw 914 442 m 144 Y s [] 0 sd 1 lw 908 442 m 6 X s [] 0 sd 1 lw 914 442 m 6 X s [] 0 sd 1 lw 914 442 m20 [] 0 sd 1 lw
 [] 0 sd 1 lw 926 297 m 140 Y s [] 0 sd 1 lw 926 437 m 140 Y s [] 0 sd 1 lw 920 437 m 6 X s [] 0 sd 1 lw 926 437 m 6 X s
 [] 0 sd 1 lw 926 437 m20 [] 0 sd 1 lw [] 0 sd 1 lw 937 362 m 169 Y s [] 0 sd 1 lw 937 531 m 168 Y s [] 0 sd 1 lw 932
 531 m 5 X s [] 0 sd 1 lw 937 531 m 6 X s [] 0 sd 1 lw 937 531 m20 [] 0 sd 1 lw [] 0 sd 1 lw 949 567 m 226 Y s [] 0 sd 1
 lw 949 793 m 227 Y s [] 0 sd 1 lw 943 793 m 6 X s [] 0 sd 1 lw 949 793 m 6 X s [] 0 sd 1 lw 949 793 m20 [] 0 sd 1 lw
 [] 0 sd 1 lw 961 301 m 147 Y s [] 0 sd 1 lw 961 448 m 146 Y s [] 0 sd 1 lw 955 448 m 6 X s [] 0 sd 1 lw 961 448 m 6 X s
 [] 0 sd 1 lw 961 448 m20 [] 0 sd 1 lw [] 0 sd 1 lw 967 194 m 6 X s [] 0 sd 1 lw 973 194 m 6 X s [] 0 sd 1 lw 985 422 m
 184 Y s [] 0 sd 1 lw 985 606 m 185 Y s [] 0 sd 1 lw 979 606 m 6 X s [] 0 sd 1 lw 985 606 m 6 X s [] 0 sd 1 lw 985 606
 m20 [] 0 sd 1 lw [] 0 sd 1 lw 996 300 m 143 Y s [] 0 sd 1 lw 996 443 m 144 Y s [] 0 sd 1 lw 991 443 m 5 X s [] 0 sd 1
 lw 996 443 m 6 X s [] 0 sd 1 lw 996 443 m20 [] 0 sd 1 lw [] 0 sd 1 lw 1008 194 m 87 Y s [] 0 sd 1 lw 1008 281 m 87 Y s
 [] 0 sd 1 lw 1002 281 m 6 X s [] 0 sd 1 lw 1008 281 m 6 X s [] 0 sd 1 lw 1008 281 m20 [] 0 sd 1 lw [] 0 sd 1 lw 1020
 502 m 213 Y s [] 0 sd 1 lw 1020 715 m 212 Y s [] 0 sd 1 lw 1014 715 m 6 X s [] 0 sd 1 lw 1020 715 m 6 X s [] 0 sd 1 lw
 1020 715 m20 [] 0 sd 1 lw [] 0 sd 1 lw 1032 194 m 87 Y s [] 0 sd 1 lw 1032 281 m 87 Y s [] 0 sd 1 lw 1026 281 m 6 X s
 [] 0 sd 1 lw 1032 281 m 6 X s [] 0 sd 1 lw 1032 281 m20 [] 0 sd 1 lw [] 0 sd 1 lw 1044 497 m 209 Y s [] 0 sd 1 lw 1044
 706 m 208 Y s [] 0 sd 1 lw 1038 706 m 6 X s [] 0 sd 1 lw 1044 706 m 6 X s [] 0 sd 1 lw 1044 706 m20 [] 0 sd 1 lw
 [] 0 sd 1 lw 1050 194 m 5 X s [] 0 sd 1 lw 1055 194 m 6 X s [] 0 sd 1 lw 1067 243 m 118 Y s [] 0 sd 1 lw 1067 361 m 119
 Y s [] 0 sd 1 lw 1061 361 m 6 X s [] 0 sd 1 lw 1067 361 m 6 X s [] 0 sd 1 lw 1067 361 m20 [] 0 sd 1 lw [] 0 sd 1 lw
 1079 243 m 117 Y s [] 0 sd 1 lw 1079 360 m 117 Y s [] 0 sd 1 lw 1073 360 m 6 X s [] 0 sd 1 lw 1079 360 m 6 X s [] 0 sd
 1 lw 1079 360 m20 [] 0 sd 1 lw [] 0 sd 1 lw 1091 358 m 164 Y s [] 0 sd 1 lw 1091 522 m 164 Y s [] 0 sd 1 lw 1085 522 m
 6 X s [] 0 sd 1 lw 1091 522 m 6 X s [] 0 sd 1 lw 1091 522 m20 [] 0 sd 1 lw [] 0 sd 1 lw 1103 768 m 265 Y s [] 0 sd 1 lw
 1103 1033 m 266 Y s [] 0 sd 1 lw 1097 1033 m 6 X s [] 0 sd 1 lw 1103 1033 m 5 X s [] 0 sd 1 lw 1103 1033 m20 [] 0 sd 1
 lw [] 0 sd 1 lw 1114 362 m 168 Y s [] 0 sd 1 lw 1114 530 m 168 Y s [] 0 sd 1 lw 1108 530 m 6 X s [] 0 sd 1 lw 1114 530
 m 6 X s [] 0 sd 1 lw 1114 530 m20 [] 0 sd 1 lw [] 0 sd 1 lw 1126 424 m 185 Y s [] 0 sd 1 lw 1126 609 m 186 Y s [] 0 sd
 1 lw 1120 609 m 6 X s [] 0 sd 1 lw 1126 609 m 6 X s [] 0 sd 1 lw 1126 609 m20 [] 0 sd 1 lw [] 0 sd 1 lw 1138 302 m 148
 Y s [] 0 sd 1 lw 1138 450 m 147 Y s [] 0 sd 1 lw 1132 450 m 6 X s [] 0 sd 1 lw 1138 450 m 6 X s [] 0 sd 1 lw 1138 450
 m20 [] 0 sd 1 lw [] 0 sd 1 lw 1150 244 m 119 Y s [] 0 sd 1 lw 1150 363 m 119 Y s [] 0 sd 1 lw 1144 363 m 6 X s [] 0 sd
 1 lw 1150 363 m 6 X s [] 0 sd 1 lw 1150 363 m20 [] 0 sd 1 lw [] 0 sd 1 lw 1162 300 m 144 Y s [] 0 sd 1 lw 1162 444 m
 144 Y s [] 0 sd 1 lw 1156 444 m 6 X s [] 0 sd 1 lw 1162 444 m 5 X s [] 0 sd 1 lw 1162 444 m20 [] 0 sd 1 lw [] 0 sd 1 lw
 1173 702 m 253 Y s [] 0 sd 1 lw 1173 955 m 254 Y s [] 0 sd 1 lw 1167 955 m 6 X s [] 0 sd 1 lw 1173 955 m 6 X s [] 0 sd
 1 lw 1173 955 m20 [] 0 sd 1 lw [] 0 sd 1 lw 1185 359 m 164 Y s [] 0 sd 1 lw 1185 523 m 164 Y s [] 0 sd 1 lw 1179 523 m
 6 X s [] 0 sd 1 lw 1185 523 m 6 X s [] 0 sd 1 lw 1185 523 m20 [] 0 sd 1 lw [] 0 sd 1 lw 1197 628 m 238 Y s [] 0 sd 1 lw
 1197 866 m 237 Y s [] 0 sd 1 lw 1191 866 m 6 X s [] 0 sd 1 lw 1197 866 m 6 X s [] 0 sd 1 lw 1197 866 m20 [] 0 sd 1 lw
 [] 0 sd 1 lw 1209 243 m 118 Y s [] 0 sd 1 lw 1209 361 m 119 Y s [] 0 sd 1 lw 1203 361 m 6 X s [] 0 sd 1 lw 1209 361 m 6
 X s [] 0 sd 1 lw 1209 361 m20 [] 0 sd 1 lw [] 0 sd 1 lw 1220 300 m 144 Y s [] 0 sd 1 lw 1220 444 m 144 Y s [] 0 sd 1 lw
 1215 444 m 5 X s [] 0 sd 1 lw 1220 444 m 6 X s [] 0 sd 1 lw 1220 444 m20 [] 0 sd 1 lw [] 0 sd 1 lw 1232 551 m 216 Y s
 [] 0 sd 1 lw 1232 767 m 217 Y s [] 0 sd 1 lw 1226 767 m 6 X s [] 0 sd 1 lw 1232 767 m 6 X s [] 0 sd 1 lw 1232 767 m20
 [] 0 sd 1 lw [] 0 sd 1 lw 1244 698 m 253 Y s [] 0 sd 1 lw 1244 951 m 252 Y s [] 0 sd 1 lw 1238 951 m 6 X s [] 0 sd 1 lw
 1244 951 m 6 X s [] 0 sd 1 lw 1244 951 m20 [] 0 sd 1 lw [] 0 sd 1 lw 1256 493 m 206 Y s [] 0 sd 1 lw 1256 699 m 206 Y s
 [] 0 sd 1 lw 1250 699 m 6 X s [] 0 sd 1 lw 1256 699 m 6 X s [] 0 sd 1 lw 1256 699 m20 [] 0 sd 1 lw [] 0 sd 1 lw 1268
 492 m 205 Y s [] 0 sd 1 lw 1268 697 m 206 Y s [] 0 sd 1 lw 1262 697 m 6 X s [] 0 sd 1 lw 1268 697 m 6 X s [] 0 sd 1 lw
 1268 697 m20 [] 0 sd 1 lw [] 0 sd 1 lw 1279 430 m 191 Y s [] 0 sd 1 lw 1279 621 m 191 Y s [] 0 sd 1 lw 1274 621 m 5 X s
 [] 0 sd 1 lw 1279 621 m 6 X s [] 0 sd 1 lw 1279 621 m20 [] 0 sd 1 lw [] 0 sd 1 lw 1291 553 m 218 Y s [] 0 sd 1 lw 1291
 771 m 218 Y s [] 0 sd 1 lw 1285 771 m 6 X s [] 0 sd 1 lw 1291 771 m 6 X s [] 0 sd 1 lw 1291 771 m20 [] 0 sd 1 lw
 [] 0 sd 1 lw 1303 848 m 282 Y s [] 0 sd 1 lw 1303 1130 m 282 Y s [] 0 sd 1 lw 1297 1130 m 6 X s [] 0 sd 1 lw 1303 1130
 m 6 X s [] 0 sd 1 lw 1303 1130 m20 [] 0 sd 1 lw [] 0 sd 1 lw 1315 769 m 266 Y s [] 0 sd 1 lw 1315 1035 m 267 Y s
 [] 0 sd 1 lw 1309 1035 m 6 X s [] 0 sd 1 lw 1315 1035 m 6 X s [] 0 sd 1 lw 1315 1035 m20 [] 0 sd 1 lw [] 0 sd 1 lw 1327
 837 m 277 Y s [] 0 sd 1 lw 1327 1114 m 277 Y s [] 0 sd 1 lw 1321 1114 m 6 X s [] 0 sd 1 lw 1327 1114 m 6 X s [] 0 sd 1
 lw 1327 1114 m20 [] 0 sd 1 lw [] 0 sd 1 lw 1338 629 m 237 Y s [] 0 sd 1 lw 1338 866 m 238 Y s [] 0 sd 1 lw 1333 866 m 5
 X s [] 0 sd 1 lw 1338 866 m 6 X s [] 0 sd 1 lw 1338 866 m20 [] 0 sd 1 lw [] 0 sd 1 lw 1350 922 m 295 Y s [] 0 sd 1 lw
 1350 1217 m 296 Y s [] 0 sd 1 lw 1344 1217 m 6 X s [] 0 sd 1 lw 1350 1217 m 6 X s [] 0 sd 1 lw 1350 1217 m20 [] 0 sd 1
 lw [] 0 sd 1 lw 1362 485 m 200 Y s [] 0 sd 1 lw 1362 685 m 200 Y s [] 0 sd 1 lw 1356 685 m 6 X s [] 0 sd 1 lw 1362 685
 m 6 X s [] 0 sd 1 lw 1362 685 m20 [] 0 sd 1 lw [] 0 sd 1 lw 1374 697 m 252 Y s [] 0 sd 1 lw 1374 949 m 252 Y s [] 0 sd
 1 lw 1368 949 m 6 X s [] 0 sd 1 lw 1374 949 m 6 X s [] 0 sd 1 lw 1374 949 m20 [] 0 sd 1 lw [] 0 sd 1 lw 1386 843 m 280
 Y s [] 0 sd 1 lw 1386 1123 m 280 Y s [] 0 sd 1 lw 1380 1123 m 6 X s [] 0 sd 1 lw 1386 1123 m 5 X s [] 0 sd 1 lw 1386
 1123 m20 [] 0 sd 1 lw [] 0 sd 1 lw 1397 565 m 225 Y s [] 0 sd 1 lw 1397 790 m 226 Y s [] 0 sd 1 lw 1391 790 m 6 X s
 [] 0 sd 1 lw 1397 790 m 6 X s [] 0 sd 1 lw 1397 790 m20 [] 0 sd 1 lw [] 0 sd 1 lw 1409 562 m 224 Y s [] 0 sd 1 lw 1409
 786 m 224 Y s [] 0 sd 1 lw 1403 786 m 6 X s [] 0 sd 1 lw 1409 786 m 6 X s [] 0 sd 1 lw 1409 786 m20 [] 0 sd 1 lw
 [] 0 sd 1 lw 1421 430 m 191 Y s [] 0 sd 1 lw 1421 621 m 191 Y s [] 0 sd 1 lw 1415 621 m 6 X s [] 0 sd 1 lw 1421 621 m 6
 X s [] 0 sd 1 lw 1421 621 m20 [] 0 sd 1 lw [] 0 sd 1 lw 1433 696 m 252 Y s [] 0 sd 1 lw 1433 948 m 251 Y s [] 0 sd 1 lw
 1427 948 m 6 X s [] 0 sd 1 lw 1433 948 m 6 X s [] 0 sd 1 lw 1433 948 m20 [] 0 sd 1 lw [] 0 sd 1 lw 1445 695 m 250 Y s
 [] 0 sd 1 lw 1445 945 m 250 Y s [] 0 sd 1 lw 1439 945 m 6 X s [] 0 sd 1 lw 1445 945 m 5 X s [] 0 sd 1 lw 1445 945 m20
 [] 0 sd 1 lw [] 0 sd 1 lw 1456 766 m 264 Y s [] 0 sd 1 lw 1456 1030 m 265 Y s [] 0 sd 1 lw 1450 1030 m 6 X s [] 0 sd 1
 lw 1456 1030 m 6 X s [] 0 sd 1 lw 1456 1030 m20 [] 0 sd 1 lw [] 0 sd 1 lw 1468 555 m 219 Y s [] 0 sd 1 lw 1468 774 m
 219 Y s [] 0 sd 1 lw 1462 774 m 6 X s [] 0 sd 1 lw 1468 774 m 6 X s [] 0 sd 1 lw 1468 774 m20 [] 0 sd 1 lw [] 0 sd 1 lw
 1480 624 m 235 Y s [] 0 sd 1 lw 1480 859 m 235 Y s [] 0 sd 1 lw 1474 859 m 6 X s [] 0 sd 1 lw 1480 859 m 6 X s [] 0 sd
 1 lw 1480 859 m20 [] 0 sd 1 lw [] 0 sd 1 lw 1492 492 m 205 Y s [] 0 sd 1 lw 1492 697 m 206 Y s [] 0 sd 1 lw 1486 697 m
 6 X s [] 0 sd 1 lw 1492 697 m 6 X s [] 0 sd 1 lw 1492 697 m20 [] 0 sd 1 lw [] 0 sd 1 lw 1503 632 m 240 Y s [] 0 sd 1 lw
 1503 872 m 240 Y s [] 0 sd 1 lw 1498 872 m 5 X s [] 0 sd 1 lw 1503 872 m 6 X s [] 0 sd 1 lw 1503 872 m20 [] 0 sd 1 lw
 [] 0 sd 1 lw 1515 430 m 191 Y s [] 0 sd 1 lw 1515 621 m 191 Y s [] 0 sd 1 lw 1509 621 m 6 X s [] 0 sd 1 lw 1515 621 m 6
 X s [] 0 sd 1 lw 1515 621 m20 [] 0 sd 1 lw [] 0 sd 1 lw 1527 560 m 223 Y s [] 0 sd 1 lw 1527 783 m 223 Y s [] 0 sd 1 lw
 1521 783 m 6 X s [] 0 sd 1 lw 1527 783 m 6 X s [] 0 sd 1 lw 1527 783 m20 [] 0 sd 1 lw [] 0 sd 1 lw 1539 633 m 240 Y s
 [] 0 sd 1 lw 1539 873 m 240 Y s [] 0 sd 1 lw 1533 873 m 6 X s [] 0 sd 1 lw 1539 873 m 6 X s [] 0 sd 1 lw 1539 873 m20
 [] 0 sd 1 lw [] 0 sd 1 lw 1551 494 m 207 Y s [] 0 sd 1 lw 1551 701 m 207 Y s [] 0 sd 1 lw 1545 701 m 6 X s [] 0 sd 1 lw
 1551 701 m 6 X s [] 0 sd 1 lw 1551 701 m20 [] 0 sd 1 lw [] 0 sd 1 lw 1562 919 m 295 Y s [] 0 sd 1 lw 1562 1214 m 294 Y
 s [] 0 sd 1 lw 1557 1214 m 5 X s [] 0 sd 1 lw 1562 1214 m 6 X s [] 0 sd 1 lw 1562 1214 m20 [] 0 sd 1 lw [] 0 sd 1 lw
 1574 566 m 225 Y s [] 0 sd 1 lw 1574 791 m 226 Y s [] 0 sd 1 lw 1568 791 m 6 X s [] 0 sd 1 lw 1574 791 m 6 X s [] 0 sd
 1 lw 1574 791 m20 [] 0 sd 1 lw [] 0 sd 1 lw 1586 497 m 209 Y s [] 0 sd 1 lw 1586 706 m 208 Y s [] 0 sd 1 lw 1580 706 m
 6 X s [] 0 sd 1 lw 1586 706 m 6 X s [] 0 sd 1 lw 1586 706 m20 [] 0 sd 1 lw [] 0 sd 1 lw 1598 760 m 261 Y s [] 0 sd 1 lw
 1598 1021 m 262 Y s [] 0 sd 1 lw 1592 1021 m 6 X s [] 0 sd 1 lw 1598 1021 m 6 X s [] 0 sd 1 lw 1598 1021 m20 [] 0 sd 1
 lw [] 0 sd 1 lw 1610 425 m 186 Y s [] 0 sd 1 lw 1610 611 m 187 Y s [] 0 sd 1 lw 1604 611 m 6 X s [] 0 sd 1 lw 1610 611
 m 6 X s [] 0 sd 1 lw 1610 611 m20 [] 0 sd 1 lw [] 0 sd 1 lw 1621 491 m 204 Y s [] 0 sd 1 lw 1621 695 m 204 Y s [] 0 sd
 1 lw 1616 695 m 5 X s [] 0 sd 1 lw 1621 695 m 6 X s [] 0 sd 1 lw 1621 695 m20 [] 0 sd 1 lw [] 0 sd 1 lw 1633 422 m 183
 Y s [] 0 sd 1 lw 1633 605 m 184 Y s [] 0 sd 1 lw 1627 605 m 6 X s [] 0 sd 1 lw 1633 605 m 6 X s [] 0 sd 1 lw 1633 605
 m20 [] 0 sd 1 lw [] 0 sd 1 lw 1645 300 m 145 Y s [] 0 sd 1 lw 1645 445 m 144 Y s [] 0 sd 1 lw 1639 445 m 6 X s [] 0 sd
 1 lw 1645 445 m 6 X s [] 0 sd 1 lw 1645 445 m20 [] 0 sd 1 lw [] 0 sd 1 lw 1657 423 m 186 Y s [] 0 sd 1 lw 1657 609 m
 185 Y s [] 0 sd 1 lw 1651 609 m 6 X s [] 0 sd 1 lw 1657 609 m 6 X s [] 0 sd 1 lw 1657 609 m20 [] 0 sd 1 lw [] 0 sd 1 lw
 1669 841 m 280 Y s [] 0 sd 1 lw 1669 1121 m 279 Y s [] 0 sd 1 lw 1663 1121 m 6 X s [] 0 sd 1 lw 1669 1121 m 5 X s
 [] 0 sd 1 lw 1669 1121 m20 [] 0 sd 1 lw [] 0 sd 1 lw 1680 497 m 209 Y s [] 0 sd 1 lw 1680 706 m 209 Y s [] 0 sd 1 lw
 1674 706 m 6 X s [] 0 sd 1 lw 1680 706 m 6 X s [] 0 sd 1 lw 1680 706 m20 [] 0 sd 1 lw [] 0 sd 1 lw 1692 489 m 204 Y s
 [] 0 sd 1 lw 1692 693 m 204 Y s [] 0 sd 1 lw 1686 693 m 6 X s [] 0 sd 1 lw 1692 693 m 6 X s [] 0 sd 1 lw 1692 693 m20
 [] 0 sd 1 lw [] 0 sd 1 lw 1704 1051 m 312 Y s [] 0 sd 1 lw 1704 1363 m 312 Y s [] 0 sd 1 lw 1698 1363 m 6 X s [] 0 sd 1
 lw 1704 1363 m 6 X s [] 0 sd 1 lw 1704 1363 m20 [] 0 sd 1 lw [] 0 sd 1 lw 1716 564 m 225 Y s [] 0 sd 1 lw 1716 789 m
 225 Y s [] 0 sd 1 lw 1710 789 m 6 X s [] 0 sd 1 lw 1716 789 m 6 X s [] 0 sd 1 lw 1716 789 m20 [] 0 sd 1 lw [] 0 sd 1 lw
 1728 365 m 170 Y s [] 0 sd 1 lw 1728 535 m 171 Y s [] 0 sd 1 lw 1722 535 m 6 X s [] 0 sd 1 lw 1728 535 m 5 X s [] 0 sd
 1 lw 1728 535 m20 [] 0 sd 1 lw [] 0 sd 1 lw 1739 194 m 82 Y s [] 0 sd 1 lw 1739 276 m 81 Y s [] 0 sd 1 lw 1733 276 m 6
 X s [] 0 sd 1 lw 1739 276 m 6 X s [] 0 sd 1 lw 1739 276 m20 [] 0 sd 1 lw [] 0 sd 1 lw 1751 557 m 221 Y s [] 0 sd 1 lw
 1751 778 m 220 Y s [] 0 sd 1 lw 1745 778 m 6 X s [] 0 sd 1 lw 1751 778 m 6 X s [] 0 sd 1 lw 1751 778 m20 [] 0 sd 1 lw
 [] 0 sd 1 lw 1763 194 m 87 Y s [] 0 sd 1 lw 1763 281 m 87 Y s [] 0 sd 1 lw 1757 281 m 6 X s [] 0 sd 1 lw 1763 281 m 6 X
 s [] 0 sd 1 lw 1763 281 m20 [] 0 sd 1 lw [] 0 sd 1 lw 1775 244 m 118 Y s [] 0 sd 1 lw 1775 362 m 119 Y s [] 0 sd 1 lw
 1769 362 m 6 X s [] 0 sd 1 lw 1775 362 m 6 X s [] 0 sd 1 lw 1775 362 m20 [] 0 sd 1 lw [] 0 sd 1 lw 1787 302 m 146 Y s
 [] 0 sd 1 lw 1787 448 m 147 Y s [] 0 sd 1 lw 1781 448 m 6 X s [] 0 sd 1 lw 1787 448 m 5 X s [] 0 sd 1 lw 1787 448 m20
 [] 0 sd 1 lw [] 0 sd 1 lw 1798 242 m 115 Y s [] 0 sd 1 lw 1798 357 m 115 Y s [] 0 sd 1 lw 1792 357 m 6 X s [] 0 sd 1 lw
 1798 357 m 6 X s [] 0 sd 1 lw 1798 357 m20 [] 0 sd 1 lw [] 0 sd 1 lw 1810 633 m 240 Y s [] 0 sd 1 lw 1810 873 m 240 Y s
 [] 0 sd 1 lw 1804 873 m 6 X s [] 0 sd 1 lw 1810 873 m 6 X s [] 0 sd 1 lw 1810 873 m20 [] 0 sd 1 lw [] 0 sd 1 lw 1822
 244 m 119 Y s [] 0 sd 1 lw 1822 363 m 119 Y s [] 0 sd 1 lw 1816 363 m 6 X s [] 0 sd 1 lw 1822 363 m 6 X s [] 0 sd 1 lw
 1822 363 m20 [] 0 sd 1 lw [] 0 sd 1 lw 1834 425 m 187 Y s [] 0 sd 1 lw 1834 612 m 186 Y s [] 0 sd 1 lw 1828 612 m 6 X s
 [] 0 sd 1 lw 1834 612 m 6 X s [] 0 sd 1 lw 1834 612 m20 [] 0 sd 1 lw [] 0 sd 1 lw 1845 426 m 187 Y s [] 0 sd 1 lw 1845
 613 m 187 Y s [] 0 sd 1 lw 1840 613 m 5 X s [] 0 sd 1 lw 1845 613 m 6 X s [] 0 sd 1 lw 1845 613 m20 [] 0 sd 1 lw
 [] 0 sd 1 lw 1857 422 m 184 Y s [] 0 sd 1 lw 1857 606 m 184 Y s [] 0 sd 1 lw 1851 606 m 6 X s [] 0 sd 1 lw 1857 606 m 6
 X s [] 0 sd 1 lw 1857 606 m20 [] 0 sd 1 lw [] 0 sd 1 lw 1869 634 m 241 Y s [] 0 sd 1 lw 1869 875 m 240 Y s [] 0 sd 1 lw
 1863 875 m 6 X s [] 0 sd 1 lw 1869 875 m 6 X s [] 0 sd 1 lw 1869 875 m20 [] 0 sd 1 lw [] 0 sd 1 lw 1881 422 m 185 Y s
 [] 0 sd 1 lw 1881 607 m 184 Y s [] 0 sd 1 lw 1875 607 m 6 X s [] 0 sd 1 lw 1881 607 m 6 X s [] 0 sd 1 lw 1881 607 m20
 [] 0 sd 1 lw [] 0 sd 1 lw 1893 244 m 119 Y s [] 0 sd 1 lw 1893 363 m 119 Y s [] 0 sd 1 lw 1887 363 m 6 X s [] 0 sd 1 lw
 1893 363 m 6 X s [] 0 sd 1 lw 1893 363 m20 [] 0 sd 1 lw [] 0 sd 1 lw 1904 194 m 87 Y s [] 0 sd 1 lw 1904 281 m 87 Y s
 [] 0 sd 1 lw 1899 281 m 5 X s [] 0 sd 1 lw 1904 281 m 6 X s [] 0 sd 1 lw 1904 281 m20 [] 0 sd 1 lw [] 0 sd 1 lw 1916
 194 m 87 Y s [] 0 sd 1 lw 1916 281 m 87 Y s [] 0 sd 1 lw 1910 281 m 6 X s [] 0 sd 1 lw 1916 281 m 6 X s [] 0 sd 1 lw
 1916 281 m20 [] 0 sd 1 lw [] 0 sd 1 lw 1928 428 m 190 Y s [] 0 sd 1 lw 1928 618 m 189 Y s [] 0 sd 1 lw 1922 618 m 6 X s
 [] 0 sd 1 lw 1928 618 m 6 X s [] 0 sd 1 lw 1928 618 m20 [] 0 sd 1 lw [] 0 sd 1 lw 1940 362 m 168 Y s [] 0 sd 1 lw 1940
 530 m 168 Y s [] 0 sd 1 lw 1934 530 m 6 X s [] 0 sd 1 lw 1940 530 m 6 X s [] 0 sd 1 lw 1940 530 m20 [] 0 sd 1 lw
 [] 0 sd 1 lw 1952 299 m 144 Y s [] 0 sd 1 lw 1952 443 m 144 Y s [] 0 sd 1 lw 1946 443 m 6 X s [] 0 sd 1 lw 1952 443 m 5
 X s [] 0 sd 1 lw 1952 443 m20 [] 0 sd 1 lw [] 0 sd 1 lw 1963 299 m 144 Y s [] 0 sd 1 lw 1963 443 m 143 Y s [] 0 sd 1 lw
 1957 443 m 6 X s [] 0 sd 1 lw 1963 443 m 6 X s [] 0 sd 1 lw 1963 443 m20 [] 0 sd 1 lw [] 0 sd 1 lw 1975 302 m 146 Y s
 [] 0 sd 1 lw 1975 448 m 146 Y s [] 0 sd 1 lw 1969 448 m 6 X s [] 0 sd 1 lw 1975 448 m 6 X s [] 0 sd 1 lw 1975 448 m20
 [] 0 sd 1 lw [] 0 sd 1 lw 1987 298 m 142 Y s [] 0 sd 1 lw 1987 440 m 142 Y s [] 0 sd 1 lw 1981 440 m 6 X s [] 0 sd 1 lw
 1987 440 m 6 X s [] 0 sd 1 lw 1987 440 m20 [] 0 sd 1 lw [] 0 sd 1 lw 1999 304 m 151 Y s [] 0 sd 1 lw 1999 455 m 150 Y s
 [] 0 sd 1 lw 1993 455 m 6 X s [] 0 sd 1 lw 1999 455 m 6 X s [] 0 sd 1 lw 1999 455 m20 [] 0 sd 1 lw [] 0 sd 1 lw 2011
 194 m 82 Y s [] 0 sd 1 lw 2011 276 m 82 Y s [] 0 sd 1 lw 2005 276 m 6 X s [] 0 sd 1 lw 2011 276 m 5 X s [] 0 sd 1 lw
 2011 276 m20 [] 0 sd 1 lw [] 0 sd 1 lw 2022 304 m 150 Y s [] 0 sd 1 lw 2022 454 m 150 Y s [] 0 sd 1 lw 2016 454 m 6 X s
 [] 0 sd 1 lw 2022 454 m 6 X s [] 0 sd 1 lw 2022 454 m20 [] 0 sd 1 lw [] 0 sd 1 lw 2034 194 m 86 Y s [] 0 sd 1 lw 2034
 280 m 86 Y s [] 0 sd 1 lw 2028 280 m 6 X s [] 0 sd 1 lw 2034 280 m 6 X s [] 0 sd 1 lw 2034 280 m20 [] 0 sd 1 lw [] 0 sd
 1 lw 2046 298 m 141 Y s [] 0 sd 1 lw 2046 439 m 141 Y s [] 0 sd 1 lw 2040 439 m 6 X s [] 0 sd 1 lw 2046 439 m 6 X s
 [] 0 sd 1 lw 2046 439 m20 [] 0 sd 1 lw [] 0 sd 1 lw 2058 242 m 115 Y s [] 0 sd 1 lw 2058 357 m 116 Y s [] 0 sd 1 lw
 2052 357 m 6 X s [] 0 sd 1 lw 2058 357 m 6 X s [] 0 sd 1 lw 2058 357 m20 [] 0 sd 1 lw [] 0 sd 1 lw 2064 194 m 6 X s
 [] 0 sd 1 lw 2070 194 m 5 X s [] 0 sd 1 lw 2081 245 m 123 Y s [] 0 sd 1 lw 2081 368 m 123 Y s [] 0 sd 1 lw 2075 368 m 6
 X s [] 0 sd 1 lw 2081 368 m 6 X s [] 0 sd 1 lw 2081 368 m20 [] 0 sd 1 lw [] 0 sd 1 lw 2093 194 m 82 Y s [] 0 sd 1 lw
 2093 276 m 82 Y s [] 0 sd 1 lw 2087 276 m 6 X s [] 0 sd 1 lw 2093 276 m 6 X s [] 0 sd 1 lw 2093 276 m20 [] 0 sd 1 lw
 [] 0 sd 1 lw 2105 244 m 119 Y s [] 0 sd 1 lw 2105 363 m 119 Y s [] 0 sd 1 lw 2099 363 m 6 X s [] 0 sd 1 lw 2105 363 m 6
 X s [] 0 sd 1 lw 2105 363 m20 [] 0 sd 1 lw [] 0 sd 1 lw 2117 242 m 115 Y s [] 0 sd 1 lw 2117 357 m 115 Y s [] 0 sd 1 lw
 2111 357 m 6 X s [] 0 sd 1 lw 2117 357 m 6 X s [] 0 sd 1 lw 2117 357 m20 [] 0 sd 1 lw [] 0 sd 1 lw 2128 194 m 80 Y s
 [] 0 sd 1 lw 2128 274 m 80 Y s [] 0 sd 1 lw 2123 274 m 5 X s [] 0 sd 1 lw 2128 274 m 6 X s [] 0 sd 1 lw 2128 274 m20
 [] 0 sd 1 lw [] 0 sd 1 lw 2140 245 m 123 Y s [] 0 sd 1 lw 2140 368 m 123 Y s [] 0 sd 1 lw 2134 368 m 6 X s [] 0 sd 1 lw
 2140 368 m 6 X s [] 0 sd 1 lw 2140 368 m20 [] 0 sd 1 lw [] 0 sd 1 lw 2152 194 m 87 Y s [] 0 sd 1 lw 2152 281 m 87 Y s
 [] 0 sd 1 lw 2146 281 m 6 X s [] 0 sd 1 lw 2152 281 m 6 X s [] 0 sd 1 lw 2152 281 m20 [] 0 sd 1 lw [] 0 sd 1 lw 2164
 485 m 201 Y s [] 0 sd 1 lw 2164 686 m 201 Y s [] 0 sd 1 lw 2158 686 m 6 X s [] 0 sd 1 lw 2164 686 m 6 X s [] 0 sd 1 lw
 2164 686 m20 [] 0 sd 1 lw [] 0 sd 1 lw 2176 244 m 119 Y s [] 0 sd 1 lw 2176 363 m 119 Y s [] 0 sd 1 lw 2170 363 m 6 X s
 [] 0 sd 1 lw 2176 363 m 6 X s [] 0 sd 1 lw 2176 363 m20 [] 0 sd 1 lw [] 0 sd 1 lw 2182 194 m 5 X s [] 0 sd 1 lw 2187
 194 m 6 X s [] 0 sd 1 lw 2193 194 m 6 X s [] 0 sd 1 lw 2199 194 m 6 X s [] 0 sd 1 lw 2211 243 m 119 Y s [] 0 sd 1 lw
 2211 362 m 118 Y s [] 0 sd 1 lw 2205 362 m 6 X s [] 0 sd 1 lw 2211 362 m 6 X s [] 0 sd 1 lw 2211 362 m20 [] 0 sd 1 lw
 [] 0 sd 1 lw 2223 243 m 119 Y s [] 0 sd 1 lw 2223 362 m 118 Y s [] 0 sd 1 lw 2217 362 m 6 X s [] 0 sd 1 lw 2223 362 m 6
 X s [] 0 sd 1 lw 2223 362 m20 [] 0 sd 1 lw [] 0 sd 1 lw 2235 194 m 87 Y s [] 0 sd 1 lw 2235 281 m 87 Y s [] 0 sd 1 lw
 2229 281 m 6 X s [] 0 sd 1 lw 2235 281 m 6 X s [] 0 sd 1 lw 2235 281 m20 [] 0 sd 1 lw [] 0 sd 1 lw 2246 194 m 81 Y s
 [] 0 sd 1 lw 2246 275 m 80 Y s [] 0 sd 1 lw 2241 275 m 5 X s [] 0 sd 1 lw 2246 275 m 6 X s [] 0 sd 1 lw 2246 275 m20
 [] 0 sd 1 lw [] 0 sd 1 lw 2252 194 m 6 X s [] 0 sd 1 lw 2258 194 m 6 X s [] 0 sd 1 lw 2270 244 m 119 Y s [] 0 sd 1 lw
 2270 363 m 119 Y s [] 0 sd 1 lw 2264 363 m 6 X s [] 0 sd 1 lw 2270 363 m 6 X s [] 0 sd 1 lw 2270 363 m20 [] 0 sd 1 lw
 [] 0 sd 1 lw 2276 194 m 6 X s [] 0 sd 1 lw 2282 194 m 6 X s [] 0 sd 1 lw 2288 194 m 6 X s [] 0 sd 1 lw 2294 194 m 5 X s
 [] 0 sd 1 lw 2305 194 m 87 Y s [] 0 sd 1 lw 2305 281 m 87 Y s [] 0 sd 1 lw 2299 281 m 6 X s [] 0 sd 1 lw 2305 281 m 6 X
 s [] 0 sd 1 lw 2305 281 m20 [] 0 sd 1 lw [] 0 sd 1 lw 2317 194 m 87 Y s [] 0 sd 1 lw 2317 281 m 87 Y s [] 0 sd 1 lw
 2311 281 m 6 X s [] 0 sd 1 lw 2317 281 m 6 X s [] 0 sd 1 lw 2317 281 m20 [] 0 sd 1 lw [] 0 sd 1 lw 2329 194 m 87 Y s
 [] 0 sd 1 lw 2329 281 m 86 Y s [] 0 sd 1 lw 2323 281 m 6 X s [] 0 sd 1 lw 2329 281 m 6 X s [] 0 sd 1 lw 2329 281 m20
 [] 0 sd 1 lw [] 0 sd 1 lw 2341 245 m 123 Y s [] 0 sd 1 lw 2341 368 m 123 Y s [] 0 sd 1 lw 2335 368 m 6 X s [] 0 sd 1 lw
 2341 368 m 6 X s [] 0 sd 1 lw 2341 368 m20 [] 0 sd 1 lw [] 0 sd 1 lw 2353 243 m 117 Y s [] 0 sd 1 lw 2353 360 m 117 Y s
 [] 0 sd 1 lw 2347 360 m 6 X s [] 0 sd 1 lw 2353 360 m 5 X s [] 0 sd 1 lw 2353 360 m20 [] 0 sd 1 lw [] 0 sd 1 lw 2364
 243 m 118 Y s [] 0 sd 1 lw 2364 361 m 117 Y s [] 0 sd 1 lw 2358 361 m 6 X s [] 0 sd 1 lw 2364 361 m 6 X s [] 0 sd 1 lw
 2364 361 m20 [] 0 sd 1 lw [] 0 sd 1 lw 2370 194 m 6 X s [] 0 sd 1 lw 2376 194 m 6 X s [] 0 sd 1 lw 2388 194 m 82 Y s
 [] 0 sd 1 lw 2388 276 m 81 Y s [] 0 sd 1 lw 2382 276 m 6 X s [] 0 sd 1 lw 2388 276 m 6 X s [] 0 sd 1 lw 2388 276 m20
 [] 0 sd 1 lw [] 0 sd 1 lw 2400 194 m 87 Y s [] 0 sd 1 lw 2400 281 m 87 Y s [] 0 sd 1 lw 2394 281 m 6 X s [] 0 sd 1 lw
 2400 281 m 6 X s [] 0 sd 1 lw 2400 281 m20 [] 0 sd 1 lw [] 0 sd 1 lw 2406 194 m 5 X s [] 0 sd 1 lw 2411 194 m 6 X s
 [] 0 sd 1 lw 2423 194 m 87 Y s [] 0 sd 1 lw 2423 281 m 87 Y s [] 0 sd 1 lw 2417 281 m 6 X s [] 0 sd 1 lw 2423 281 m 6 X
 s [] 0 sd 1 lw 2423 281 m20 [] 0 sd 1 lw [] 0 sd 1 lw 2435 194 m 87 Y s [] 0 sd 1 lw 2435 281 m 87 Y s [] 0 sd 1 lw
 2429 281 m 6 X s [] 0 sd 1 lw 2435 281 m 6 X s [] 0 sd 1 lw 2435 281 m20 [] 0 sd 1 lw [] 0 sd 1 lw 2441 194 m 6 X s
 [] 0 sd 1 lw 2447 194 m 6 X s [] 0 sd 1 lw 2459 302 m 146 Y s [] 0 sd 1 lw 2459 448 m 147 Y s [] 0 sd 1 lw 2453 448 m 6
 X s [] 0 sd 1 lw 2459 448 m 6 X s [] 0 sd 1 lw 2459 448 m20 [] 0 sd 1 lw [] 0 sd 1 lw 2470 194 m 82 Y s [] 0 sd 1 lw
 2470 276 m 81 Y s [] 0 sd 1 lw 2465 276 m 5 X s [] 0 sd 1 lw 2470 276 m 6 X s [] 0 sd 1 lw 2470 276 m20 [] 0 sd 1 lw
 [] 0 sd 1 lw 2476 194 m 6 X s [] 0 sd 1 lw 2482 194 m 6 X s [] 0 sd 1 lw 2488 194 m 6 X s [] 0 sd 1 lw 2494 194 m 6 X s
 [] 0 sd 1 lw 2500 194 m 6 X s [] 0 sd 1 lw 2506 194 m 6 X s [] 0 sd 1 lw 2512 194 m 6 X s [] 0 sd 1 lw 2518 194 m 6 X s
 [] 0 sd 1 lw 2524 194 m 5 X s [] 0 sd 1 lw 2529 194 m 6 X s [] 0 sd 1 lw 2535 194 m 6 X s [] 0 sd 1 lw 2541 194 m 6 X s
 [] 0 sd 1 lw 2547 194 m 6 X s [] 0 sd 1 lw 2553 194 m 6 X s [] 0 sd 1 lw 2559 194 m 6 X s [] 0 sd 1 lw 2565 194 m 6 X s
 [] 0 sd 1 lw 2571 194 m 6 X s [] 0 sd 1 lw 2577 194 m 5 X s [] 0 sd 1 lw 2582 194 m 6 X s [] 0 sd 1 lw 2588 194 m 6 X s
 [] 0 sd 1 lw 2594 194 m 6 X s [] 0 sd 1 lw 2600 194 m 6 X s [] 0 sd 1 lw 2606 194 m 6 X s [] 0 sd 1 lw 2612 194 m 6 X s
 [] 0 sd 1 lw 2618 194 m 6 X s [] 0 sd 1 lw 2624 194 m 6 X s [] 0 sd 1 lw 2630 194 m 6 X s [] 0 sd 1 lw 2636 194 m 5 X s
 [] 0 sd 1 lw 2641 194 m 6 X s [] 0 sd 1 lw 2647 194 m 6 X s [] 0 sd 1 lw [] 0 sd 1 lw 295 194 m 2358 X s s
 /xs 0 def (Z \(cm\)) /Helvetica-Bold 72 stwn  gsave  2653 49
 t 0 r  xs neg 0 t 0 0 m /Helvetica-Bold findfont 72 sf 0 0 m (Z \(cm\)) show  gr  [] 0 sd 1 lw [] 0 sd 1 lw 301 241 m
 -47 Y s s [] 0 sd 1 lw [] 0 sd 1 lw 360 218 m -24 Y s s [] 0 sd 1 lw [] 0 sd 1 lw 419 218 m -24 Y s s [] 0 sd 1 lw
 [] 0 sd 1 lw 477 218 m -24 Y s s [] 0 sd 1 lw [] 0 sd 1 lw 536 218 m -24 Y s s [] 0 sd 1 lw [] 0 sd 1 lw 595 241 m -47
 Y s s [] 0 sd 1 lw [] 0 sd 1 lw 653 218 m -24 Y s s [] 0 sd 1 lw [] 0 sd 1 lw 712 218 m -24 Y s s [] 0 sd 1 lw [] 0 sd
 1 lw 770 218 m -24 Y s s [] 0 sd 1 lw [] 0 sd 1 lw 829 218 m -24 Y s s [] 0 sd 1 lw [] 0 sd 1 lw 888 241 m -47 Y s s
 [] 0 sd 1 lw [] 0 sd 1 lw 946 218 m -24 Y s s [] 0 sd 1 lw [] 0 sd 1 lw 1005 218 m -24 Y s s [] 0 sd 1 lw [] 0 sd 1 lw
 1064 218 m -24 Y s s [] 0 sd 1 lw [] 0 sd 1 lw 1122 218 m -24 Y s s [] 0 sd 1 lw [] 0 sd 1 lw 1181 241 m -47 Y s s
 [] 0 sd 1 lw [] 0 sd 1 lw 1239 218 m -24 Y s s [] 0 sd 1 lw [] 0 sd 1 lw 1298 218 m -24 Y s s [] 0 sd 1 lw [] 0 sd 1 lw
 1357 218 m -24 Y s s [] 0 sd 1 lw [] 0 sd 1 lw 1415 218 m -24 Y s s [] 0 sd 1 lw [] 0 sd 1 lw 1474 241 m -47 Y s s
 [] 0 sd 1 lw [] 0 sd 1 lw 1533 218 m -24 Y s s [] 0 sd 1 lw [] 0 sd 1 lw 1591 218 m -24 Y s s [] 0 sd 1 lw [] 0 sd 1 lw
 1650 218 m -24 Y s s [] 0 sd 1 lw [] 0 sd 1 lw 1709 218 m -24 Y s s [] 0 sd 1 lw [] 0 sd 1 lw 1767 241 m -47 Y s s
 [] 0 sd 1 lw [] 0 sd 1 lw 1826 218 m -24 Y s s [] 0 sd 1 lw [] 0 sd 1 lw 1884 218 m -24 Y s s [] 0 sd 1 lw [] 0 sd 1 lw
 1943 218 m -24 Y s s [] 0 sd 1 lw [] 0 sd 1 lw 2002 218 m -24 Y s s [] 0 sd 1 lw [] 0 sd 1 lw 2060 241 m -47 Y s s
 [] 0 sd 1 lw [] 0 sd 1 lw 2119 218 m -24 Y s s [] 0 sd 1 lw [] 0 sd 1 lw 2178 218 m -24 Y s s [] 0 sd 1 lw [] 0 sd 1 lw
 2236 218 m -24 Y s s [] 0 sd 1 lw [] 0 sd 1 lw 2295 218 m -24 Y s s [] 0 sd 1 lw [] 0 sd 1 lw 2354 241 m -47 Y s s
 [] 0 sd 1 lw [] 0 sd 1 lw 2412 218 m -24 Y s s [] 0 sd 1 lw [] 0 sd 1 lw 2471 218 m -24 Y s s [] 0 sd 1 lw [] 0 sd 1 lw
 2529 218 m -24 Y s s [] 0 sd 1 lw [] 0 sd 1 lw 2588 218 m -24 Y s s [] 0 sd 1 lw [] 0 sd 1 lw 2647 241 m -47 Y s s
 [] 0 sd 1 lw [] 0 sd 1 lw 301 241 m -47 Y s s [] 0 sd 1 lw [] 0 sd 1 lw 2647 241 m -47 Y s s
 /xs 0 def (-20) /Helvetica-Bold 72 stwn  gsave  301 107
 t 0 r xs 2 div neg 0 t 0 0 m /Helvetica-Bold findfont 72 sf 0 0 m (-20) show  gr 
 /xs 0 def (-15) /Helvetica-Bold 72 stwn  gsave  595 107
 t 0 r xs 2 div neg 0 t 0 0 m /Helvetica-Bold findfont 72 sf 0 0 m (-15) show  gr 
 /xs 0 def (-10) /Helvetica-Bold 72 stwn  gsave  888 107
 t 0 r xs 2 div neg 0 t 0 0 m /Helvetica-Bold findfont 72 sf 0 0 m (-10) show  gr 
 /xs 0 def (-5) /Helvetica-Bold 72 stwn  gsave  1181 107
 t 0 r xs 2 div neg 0 t 0 0 m /Helvetica-Bold findfont 72 sf 0 0 m (-5) show  gr 
 /xs 0 def (0) /Helvetica-Bold 72 stwn  gsave  1474 107
 t 0 r xs 2 div neg 0 t 0 0 m /Helvetica-Bold findfont 72 sf 0 0 m (0) show  gr 
 /xs 0 def (5) /Helvetica-Bold 72 stwn  gsave  1767 107
 t 0 r xs 2 div neg 0 t 0 0 m /Helvetica-Bold findfont 72 sf 0 0 m (5) show  gr 
 /xs 0 def (10) /Helvetica-Bold 72 stwn  gsave  2060 107
 t 0 r xs 2 div neg 0 t 0 0 m /Helvetica-Bold findfont 72 sf 0 0 m (10) show  gr 
 /xs 0 def (15) /Helvetica-Bold 72 stwn  gsave  2354 107
 t 0 r xs 2 div neg 0 t 0 0 m /Helvetica-Bold findfont 72 sf 0 0 m (15) show  gr 
 /xs 0 def (20) /Helvetica-Bold 72 stwn  gsave  2647 107
 t 0 r xs 2 div neg 0 t 0 0 m /Helvetica-Bold findfont 72 sf 0 0 m (20) show  gr  [] 0 sd 1 lw [] 0 sd 1 lw 295 194 m
 1556 Y s s
 /xs 0 def (Number of Hits \(cm) /Helvetica-Bold 72 stwn (-2\)) /Helvetica-Bold 50 stwn  gsave  136 1750
 t 90 r  xs neg 0 t 0 0 m /Helvetica-Bold findfont 72 sf 0 0 m (Number of Hits \(cm) show  currentpoint pop 0 t 
 /Helvetica-Bold findfont 50 sf 0 36 m (-2\)) show  gr  [] 0 sd 1 lw [] 0 sd 1 lw 366 194 m -71 X s s [] 0 sd 1 lw
 [] 0 sd 1 lw 330 229 m -35 X s s [] 0 sd 1 lw [] 0 sd 1 lw 330 264 m -35 X s s [] 0 sd 1 lw [] 0 sd 1 lw 330 298 m -35
 X s s [] 0 sd 1 lw [] 0 sd 1 lw 330 333 m -35 X s s [] 0 sd 1 lw [] 0 sd 1 lw 366 368 m -71 X s s [] 0 sd 1 lw [] 0 sd
 1 lw 330 402 m -35 X s s [] 0 sd 1 lw [] 0 sd 1 lw 330 437 m -35 X s s [] 0 sd 1 lw [] 0 sd 1 lw 330 472 m -35 X s s
 [] 0 sd 1 lw [] 0 sd 1 lw 330 506 m -35 X s s [] 0 sd 1 lw [] 0 sd 1 lw 366 541 m -71 X s s [] 0 sd 1 lw [] 0 sd 1 lw
 330 576 m -35 X s s [] 0 sd 1 lw [] 0 sd 1 lw 330 611 m -35 X s s [] 0 sd 1 lw [] 0 sd 1 lw 330 645 m -35 X s s [] 0 sd
 1 lw [] 0 sd 1 lw 330 680 m -35 X s s [] 0 sd 1 lw [] 0 sd 1 lw 366 715 m -71 X s s [] 0 sd 1 lw [] 0 sd 1 lw 330 749 m
 -35 X s s [] 0 sd 1 lw [] 0 sd 1 lw 330 784 m -35 X s s [] 0 sd 1 lw [] 0 sd 1 lw 330 819 m -35 X s s [] 0 sd 1 lw
 [] 0 sd 1 lw 330 853 m -35 X s s [] 0 sd 1 lw [] 0 sd 1 lw 366 888 m -71 X s s [] 0 sd 1 lw [] 0 sd 1 lw 330 923 m -35
 X s s [] 0 sd 1 lw [] 0 sd 1 lw 330 957 m -35 X s s [] 0 sd 1 lw [] 0 sd 1 lw 330 992 m -35 X s s [] 0 sd 1 lw [] 0 sd
 1 lw 330 1027 m -35 X s s [] 0 sd 1 lw [] 0 sd 1 lw 366 1061 m -71 X s s [] 0 sd 1 lw [] 0 sd 1 lw 330 1096 m -35 X s s
 [] 0 sd 1 lw [] 0 sd 1 lw 330 1131 m -35 X s s [] 0 sd 1 lw [] 0 sd 1 lw 330 1165 m -35 X s s [] 0 sd 1 lw [] 0 sd 1 lw
 330 1200 m -35 X s s [] 0 sd 1 lw [] 0 sd 1 lw 366 1235 m -71 X s s [] 0 sd 1 lw [] 0 sd 1 lw 330 1269 m -35 X s s
 [] 0 sd 1 lw [] 0 sd 1 lw 330 1304 m -35 X s s [] 0 sd 1 lw [] 0 sd 1 lw 330 1339 m -35 X s s [] 0 sd 1 lw [] 0 sd 1 lw
 330 1373 m -35 X s s [] 0 sd 1 lw [] 0 sd 1 lw 366 1408 m -71 X s s [] 0 sd 1 lw [] 0 sd 1 lw 330 1443 m -35 X s s
 [] 0 sd 1 lw [] 0 sd 1 lw 330 1477 m -35 X s s [] 0 sd 1 lw [] 0 sd 1 lw 330 1512 m -35 X s s [] 0 sd 1 lw [] 0 sd 1 lw
 330 1547 m -35 X s s [] 0 sd 1 lw [] 0 sd 1 lw 366 1581 m -71 X s s [] 0 sd 1 lw [] 0 sd 1 lw 366 1581 m -71 X s s
 [] 0 sd 1 lw [] 0 sd 1 lw 330 1616 m -35 X s s [] 0 sd 1 lw [] 0 sd 1 lw 330 1651 m -35 X s s [] 0 sd 1 lw [] 0 sd 1 lw
 330 1685 m -35 X s s [] 0 sd 1 lw [] 0 sd 1 lw 330 1720 m -35 X s s
 /xs 0 def (0) /Helvetica-Bold 72 stwn  gsave  280 174
 t 0 r  xs neg 0 t 0 0 m /Helvetica-Bold findfont 72 sf 0 0 m (0) show  gr 
 /xs 0 def (5) /Helvetica-Bold 72 stwn  gsave  280 347
 t 0 r  xs neg 0 t 0 0 m /Helvetica-Bold findfont 72 sf 0 0 m (5) show  gr 
 /xs 0 def (10) /Helvetica-Bold 72 stwn  gsave  280 520
 t 0 r  xs neg 0 t 0 0 m /Helvetica-Bold findfont 72 sf 0 0 m (10) show  gr 
 /xs 0 def (15) /Helvetica-Bold 72 stwn  gsave  280 694
 t 0 r  xs neg 0 t 0 0 m /Helvetica-Bold findfont 72 sf 0 0 m (15) show  gr 
 /xs 0 def (20) /Helvetica-Bold 72 stwn  gsave  280 867
 t 0 r  xs neg 0 t 0 0 m /Helvetica-Bold findfont 72 sf 0 0 m (20) show  gr 
 /xs 0 def (25) /Helvetica-Bold 72 stwn  gsave  280 1041
 t 0 r  xs neg 0 t 0 0 m /Helvetica-Bold findfont 72 sf 0 0 m (25) show  gr 
 /xs 0 def (30) /Helvetica-Bold 72 stwn  gsave  280 1214
 t 0 r  xs neg 0 t 0 0 m /Helvetica-Bold findfont 72 sf 0 0 m (30) show  gr 
 /xs 0 def (35) /Helvetica-Bold 72 stwn  gsave  280 1387
 t 0 r  xs neg 0 t 0 0 m /Helvetica-Bold findfont 72 sf 0 0 m (35) show  gr 
 /xs 0 def (40) /Helvetica-Bold 72 stwn  gsave  280 1561
 t 0 r  xs neg 0 t 0 0 m /Helvetica-Bold findfont 72 sf 0 0 m (40) show  gr  [] 0 sd 1 lw 0.95 0.95 0.95 c 1342 97 29
 1837 bf black [] 0 sd 1 lw 49 1837 m -13 Y 1335 X 91 Y -13 X -78 Y f [] 0 sd 1 lw 29 1837 m 97 Y s [] 0 sd 1 lw 29 1934
 m 1342 X s [] 0 sd 1 lw 1371 1934 m -97 Y s [] 0 sd 1 lw 1371 1837 m -1342 X s
 /xs 0 def (Density of Hits for Layer 1) /Helvetica-Bold 76 stwn  gsave  700 1864
 t 0 r xs 2 div neg 0 t 0 0 m /Helvetica-Bold findfont 76 sf 0 0 m (Density of Hits for Layer 1) show  gr  [] 0 sd 1 lw
 0.95 0.95 0.95 c 590 311 2299 1594 bf black [] 0 sd 1 lw 2319 1594 m -13 Y 583 X 305 Y -13 X -292 Y f [] 0 sd 1 lw 2299
 1594 m 311 Y s [] 0 sd 1 lw 2299 1905 m 590 X s [] 0 sd 1 lw 2889 1905 m -311 Y s [] 0 sd 1 lw 2889 1594 m -590 X s
 gsave  2329 1849
 t 0 r 0 0 m /Helvetica-Bold findfont 64 sf 0 0 m (hzetapden_z1) show  gr 
 gsave  2329 1771
 t 0 r 0 0 m /Helvetica-Bold findfont 64 sf 0 0 m (Nent = 1550  \040) show  gr 
 gsave  2329 1693
 t 0 r 0 0 m /Helvetica-Bold findfont 64 sf 0 0 m (Mean  = -0.6415) show  gr 
 gsave  2329 1615
 t 0 r 0 0 m /Helvetica-Bold findfont 64 sf 0 0 m (RMS   =  6.987) show  gr  1 1 0 c gr 
showpage gr
 gr 
%%Trailer
%%Pages:  1
%%EOF
