%!PS-Adobe-2.0
%%Title: ITSHitDen_4_z.ps (Landscape A 4)
%%Pages: (atend)
%%Creator: ROOT Version 2.22/09
%%CreationDate:Sat Sep 18 07:10:26 1999
%%EndComments
%%BeginProlog
/s {stroke} def /l {lineto} def /m {moveto} def /t {translate} def
/sw {stringwidth} def /r {rotate} def /rl {roll}  def /R {repeat} def
/d {rlineto} def /rm {rmoveto} def /gr {grestore} def /f {eofill} def
/c {setrgbcolor} def /lw {setlinewidth} def /sd {setdash} def
/cl {closepath} def /sf {scalefont setfont} def /black {0 setgray} def
/box {m dup 0 exch d exch 0 d 0 exch neg d cl} def
/NC{systemdict begin initclip end}def/C{NC box clip newpath}def
/bl {box s} def /bf {box f} def /Y { 0 exch d} def /X { 0 d} def 
/mp {newpath /y exch def /x exch def} def
/side {[w .77 mul w .23 mul] .385 w mul sd w 0 l currentpoint t -144 r} def
/mr {mp x y w2 0 360 arc} def /m24 {mr s} def /m20 {mr f} def
/mb {mp x y w2 add m w2 neg 0 d 0 w neg d w 0 d 0 w d cl} def
/mt {mp x y w2 add m w2 neg w neg d w 0 d cl} def
/m21 {mb f} def /m25 {mb s} def /m22 {mt f} def /m26{mt s} def
/m23 {mp x y w2 sub m w2 w d w neg 0 d cl f} def
/m27 {mp x y w2 add m w3 neg w2 neg d w3 w2 neg d w3 w2 d cl s} def
/m28 {mp x w2 sub y w2 sub w3 add m w3 0 d  0 w3 neg d w3 0 d 0 w3 d w3 0 d  0 w3 d w3 neg 0 d 0 w3 d w3 neg 0 d
 0 w3 neg d w3 neg 0 d cl s } def
/m29 {mp gsave x w2 sub y w2 add w3 sub m currentpoint t
 4 {side} repeat cl fill gr} def
/m30 {mp gsave x w2 sub y w2 add w3 sub m currentpoint t
 5 {side} repeat s gr} def
/m31 {mp x y w2 sub m 0 w d x w2 sub y m w 0 d x w2 sub y w2 add m w w neg d x w2 sub y w2
 sub m w w d s} def
/m2 {mp x y w2 sub m 0 w d x w2 sub y m w 0 d s} def
/m5 {mp x w2 sub y w2 sub m w w d x w2 sub y w2 add m w w neg d s} def
/DP {/PT exch def gsave 47.2 47.2 scale PT 1  eq { 16 16 1 [ 16 0 0 16 neg 0 16
] { < AA AA 55 55 AA AA 55 55 AA AA 55 55 AA AA 55 55 AA AA 55 55 AA AA 55 55
AA AA 55 55 AA AA 55 55 > } image } if PT 2 eq { 16 16 1 [ 16 0 0 16 neg 0 16
] { < BB BB EE EE BB BB EE EE BB BB EE EE BB BB EE EE BB BB EE EE BB BB EE EE
BB BB EE EE BB BB EE EE > } image } if PT 3 eq { 16 16 1 [ 16 0 0 16 neg 0 16
] { < FF FF BB BB FF FF EE EE FF FF BB BB FF FF EE EE FF FF BB BB FF FF EE EE
FF FF BB BB FF FF EE EE > } image } if PT 4 eq { 16 16 1 [ 16 0 0 16 neg 0 16
] { < DF DF BF BF 7F 7F FE FE FD FD FB FB F7 F7 EF EF DF DF BF BF 7F 7F FE FE
FD FD FB FB F7 F7 EF EF > } image } if PT 5 eq { 16 16 1 [ 16 0 0 16 neg 0 16
] { < 7F 7F BF B F DF DF EF EF F7 F7 FB FB FD FD FE FE 7F 7F BF BF DF DF EF
EF F7 F7 FB FB FD FD FE FE > } image } if PT 6 eq { 16 16 1 [ 16 0 0 16 neg 0
16 ] { < BB BB BB BB BB BB BB BB BB BB BB BB BB BB BB BB BB BB BB BB BB BB BB
BB BB BB BB BB BB BB BB BB > } image } if PT 7 eq { 16 16 1 [ 16 0 0 16 neg 0
16 ] { < FF FF FF FF FF FF 00 00 FF FF FF FF FF FF 00 00 FF FF FF FF FF FF 00
00 FF FF FF FF FF FF 00 00 > } image } if PT 8 eq { 16 16 1 [ 16 0 0 16 neg 0
16 ] { < EE EE 47 47 83 83 C5 C5 EE EE 5C 5C 38 38 74 74 EE EE 47 47 83 83 C5
C5 EE EE 5C 5C 38 38 74 74 > } image } if PT 9 eq { 16 16 1 [ 16 0 0 16 neg 0
16 ] { < EF EF EF EF D7 D7 38 38 FE FE FE FE 7D 7D 83 83 EF EF EF EF D7 D7 38
38  FE FE FE FE 7D 7D 83 83 > } image } if PT 10 eq { 16 16 1 [ 16 0 0 16 neg
0 16 ] { <  EF EF EF EF EF EF 00 00 FE FE FE FE FE FE 00 00 EF EF EF EF EF EF
00 00 FE FE FE FE FE FE 00 00 > } image } if PT 11 eq { 16 16 1 [ 16 0 0 16
neg 0 16 ] { < F7 F7 B6 B6 D5 D5 E3 E3 D5 D5 B6 B6 F7 F7 FF FF 7F 7F 6B 6B 5D
5D 3E 3E 5D 5D 6B 6B 7F 7F FF FF > } image } if PT 12 eq { 16 16 1 [ 16 0 0
16 neg 0 16 ] { < E3 E3 DD DD BE BE BE BE BE BE DD DD E3 E3 FF FF 3E 3E DD DD
EB EB EB EB EB EB DD DD 3E 3E FF FF > } image } if PT 13 eq { 16 16 1 [ 16 0
0 16 neg 0 16 ] { <  FE FE 7D 7D BB BB D7 D7 EF EF D7 D7 BB BB 7D 7D FE FE 7D
7D BB BB D7 D7 EF EF D7 D7 BB BB 7D 7D > } image } if PT 14 eq { 16 16 1 [ 16
0 0 16 neg 0 16 ] { < 00 00 EE EF EE EF EE EF 0E E0 EE EE EE EE EE EE 00 EE
FE EE FE EE FE EE 00 00 FE EF FE EF FE EF > } image } if PT 15 eq { 16 16 1 [
16 0 0 16 neg 0 16 ] { < DD DD AA AA DD DD FF FF 77 77 AA AA 77 77 FF FF DD
DD AA AA DD DD FF FF 77 77 AA AA 77 77 FF FF > } image } if PT 16 eq { 16 16
1 [ 16 0 0 16 neg 0 16 ] { <  F1 F1 EE EE 1F 1F FF FF F1 F1 EE EE 1F 1F FF FF
F1 F1 EE EE 1F 1F FF FF F1 F1 EE EE 1F 1F FF FF > } image } if PT 17 eq { 16
16 1 [ 16 0 0 16 neg 0 16 ] { <  EE EE DD DD BB BB FF FF EE EE DD DD BB BB FF
 FF EE EE DD DD BB BB FF FF EE EE DD DD BB BB FF FF > } image } if PT 18 eq {
16 16 1 [ 16 0 0 16 neg 0 16 ] { <  BB BB DD DD EE EE FF FF BB BB DD DD EE EE
FF FF BB BB DD DD EE EE FF FF BB BB DD DD EE EE FF FF > } image } if PT 19 eq
{ 16 16 1 [ 16 0 0 16 neg 0 16 ] { < 1F FC 67 F3 7B EF BD DE BD DE DE BD E6
B3 F8 0F E6 B3 DE BD BD DE BD DE 7B EF 67 F3 1F FC 7F FF > } image } if PT
20 eq { 16 16 1 [ 16 0 0 16 neg 0 16 ] { < DD DD EE EE EE EE EE EE DD DD BB
BB BB BB BB BB DD DD EE EE EE EE EE EE DD DD BB BB BB BB BB BB > } image }
if PT 21 eq { 16 16 1 [ 16 0 0 16 neg 0 16 ] { < 0E 0E EF EF EF EF EF EF E0
E0 FE FE FE FE FE FE 0E 0E EF EF EF EF EF EF E0 E0 FE FE FE FE FE FE > }
image }  if PT 22 eq { 16 16 1 [ 16 0 0 16 neg 0 16 ] { < 70 70 F7 F7 F7 F7 F7
F7 07 07 7F 7F 7F 7F 7F 7F 70 70 F7 F7 F7 F7 F7 F7 07 07 7F 7F 7F 7F 7F 7F >
} image } if PT 23 eq  { 16 16 1 [ 16 0 0 16 neg 0 16 ] { < AA AA 55 55 A9 A9
D1 D1 E1 E1 D1 D1 A9 A9 55 55 AA AA 55 55 A9 A9 D1 D1 E1 E1 D1 D1 A9 A9 55 55
> } image } if PT 24 eq { 16 16 1 [ 16 0 0 16 neg 0 16 ] { < FF FE FF FC EA
A8 D5 54 EA A8 D5 54 E8 28 D4 54 E8 E8 D4 D4 E8 EA 54 D5 A8 EA 54 D5 00 C0 00
80 > } image } if PT 25 eq {  16 16 1 [ 16 0 0 16 neg 0 16 ] { < FF FE FF FC
FF F8 FF F0 F0 00 F0 00 F0 20 F0 60 F0 E0 F1 E0 F3 E0 F0 00 E0 00 C0 00 80 00
00 00 > } image } if gr } def /FA { /PT exch def gsave clip 0 0 translate 1 1
74 { 1 sub 47.2 mul /Xcurr exch def 1 1 74 { 1 sub 47.2 mul /Ycurr exch def
gsave Xcurr Ycurr translate PT DP gr } for } for gr newpath } def
/reencdict 24 dict def /ReEncode {reencdict begin /nco&na exch def
/nfnam exch def /basefontname exch def /basefontdict basefontname findfont def
/newfont basefontdict maxlength dict def basefontdict {exch dup /FID ne
{dup /Encoding eq {exch dup length array copy newfont 3 1 roll put} {exch 
newfont 3 1 roll put} ifelse} {pop pop} ifelse } forall newfont
/FontName nfnam put nco&na aload pop nco&na length 2 idiv {newfont
/Encoding get 3 1 roll put} repeat nfnam newfont definefont pop end } def
/accvec [ 176 /agrave 181 /Agrave 190 /acircumflex 192 /Acircumflex
201 /adieresis 204 /Adieresis 209 /ccedilla 210 /Ccedilla 211 /eacute
212 /Eacute 213 /egrave 214 /Egrave 215 /ecircumflex 216 /Ecircumflex
217 /edieresis 218 /Edieresis 219 /icircumflex 220 /Icircumflex
221 /idieresis 222 /Idieresis 223 /ntilde 224 /Ntilde 226 /ocircumflex
228 /Ocircumflex 229 /odieresis 230 /Odieresis 231 /ucircumflex 236 /Ucircumflex
237 /udieresis 238 /Udieresis 239 /aring 242 /Aring 243 /ydieresis
244 /Ydieresis 246 /aacute 247 /Aacute 252 /ugrave 253 /Ugrave] def
/Times-Roman /Times-Roman accvec ReEncode
/Times-Italic /Times-Italic accvec ReEncode
/Times-Bold /Times-Bold accvec ReEncode
/Times-BoldItalic /Times-BoldItalic accvec ReEncode
/Helvetica /Helvetica accvec ReEncode
/Helvetica-Oblique /Helvetica-Oblique accvec ReEncode
/Helvetica-Bold /Helvetica-Bold accvec ReEncode
/Helvetica-BoldOblique /Helvetica-BoldOblique  accvec ReEncode
/Courier /Courier accvec ReEncode
/Courier-Oblique /Courier-Oblique accvec ReEncode
/Courier-Bold /Courier-Bold accvec ReEncode
/Courier-BoldOblique /Courier-BoldOblique accvec ReEncode
/oshow {gsave [] 0 sd true charpath stroke gr} def
/stwn { /fs exch def /fn exch def /text exch def fn findfont fs sf
 text sw pop xs add /xs exch def} def
/stwb { /fs exch def /fn exch def /nbas exch def /textf exch def
textf length /tlen exch def nbas tlen gt {/nbas tlendef} if
fn findfont fs sf textf dup length nbas sub nbas getinterval sw
pop neg xs add /xs exch def} def
/accspe [ 65 /plusminus  66 /bar  67 /existential  68 /universal 
69 /exclam  70 /numbersign 71 /greater  72 /question  73 /integral 
74 /colon  75 /semicolon  76 /less  77 /bracketleft  78 /bracketright
79 /greaterequal 80 /braceleft 81 /braceright 82 /radical
83 /spade 84 /heart 85 /diamond 86 /club 87 /lessequal
88 /multiply 89 /percent 90 /infinity 48 /circlemultiply 49 /circleplus
50 /emptyset  51 /lozenge 52 /bullet 53 /arrowright 54 /arrowup
55 /arrowleft 56 /arrowdown 57 /arrowboth 48 /degree 44 /comma 43 /plus 45 /angle 42 /angleleft 47 /divide 61 /notequal
 40 /equivalence 41 /second 97 /approxequal 98 /congruent 99 /perpendicular 100 /partialdiff 101 /florin
 102 /intersection 103 /union 104 /propersuperset 105 /reflexsuperset 106 /notsubset 107 /propersubset 108 /reflexsubset
 109 /element 110 /notelement 111 /gradient 112 /logicaland 113 /logicalor 114 /arrowdblboth 115 /arrowdblleft
 116 /arrowdblup 117 /arrowdblright 118 /arrowdbldown 119 /ampersand 120 /omega1 121 /similar 122 /aleph ] def
/Symbol /Special accspe ReEncode
/Zone {/iy exch def /ix exch def  ix 1 sub  3144 mul  1 iy sub  2224
 mul t} def
%%EndProlog
 gsave  90 r 0 -594 t  28 20 t .25 .25 scale  gsave 
%%Page: number 1
 black [] 0 sd 1 lw 0.95 0.95 0.95 c 2948 1944 0 0 bf 0.8 0.8 0.8 c 0 0 m 2 2 d 1940 Y 2944 X 2 2 d -2948 X -1944 Y f
 0.3 0.3 0.3 c 0 0 m 2 2 d 2944 X 1940 Y 2 2 d -1944 Y -2948 X f black [] 0 sd 1 lw 0.95 0.95 0.95 c 2358 1556 295 194
 bf 0.8 0.8 0.8 c 295 194 m 1 1 d 1554 Y 2356 X 1 1 d -2358 X -1556 Y f 0.3 0.3 0.3 c 295 194 m 1 1 d 2356 X 1554 Y 1 1
 d -1556 Y -2358 X f [] 0 sd 1 lw black 295 194 m 2358 X s [] 0 sd 1 lw 2653 194 m 1556 Y s [] 0 sd 1 lw 2653 1750 m
 -2358 X s [] 0 sd 1 lw 295 1750 m -1556 Y s [] 0 sd 1 lw 1 1 1 c black [] 0 sd 1 lw 295 194 m 6 X s [] 0 sd 1 lw 301
 194 m 6 X s [] 0 sd 1 lw 307 194 m 5 X s [] 0 sd 1 lw 312 194 m 6 X s [] 0 sd 1 lw 318 194 m 6 X s [] 0 sd 1 lw 324 194
 m 6 X s [] 0 sd 1 lw 330 194 m 6 X s [] 0 sd 1 lw 336 194 m 6 X s [] 0 sd 1 lw 342 194 m 6 X s [] 0 sd 1 lw 348 194 m 6
 X s [] 0 sd 1 lw 354 194 m 6 X s [] 0 sd 1 lw 360 194 m 6 X s [] 0 sd 1 lw 366 194 m 5 X s [] 0 sd 1 lw 371 194 m 6 X s
 [] 0 sd 1 lw 377 194 m 6 X s [] 0 sd 1 lw 383 194 m 6 X s [] 0 sd 1 lw 389 194 m 6 X s [] 0 sd 1 lw 395 194 m 6 X s
 [] 0 sd 1 lw 401 194 m 6 X s [] 0 sd 1 lw 407 194 m 6 X s [] 0 sd 1 lw 413 194 m 6 X s [] 0 sd 1 lw 419 194 m 6 X s
 [] 0 sd 1 lw 425 194 m 5 X s [] 0 sd 1 lw 430 194 m 6 X s [] 0 sd 1 lw 436 194 m 6 X s [] 0 sd 1 lw 442 194 m 6 X s
 [] 0 sd 1 lw 448 194 m 6 X s [] 0 sd 1 lw 454 194 m 6 X s [] 0 sd 1 lw 460 194 m 6 X s [] 0 sd 1 lw 466 194 m 6 X s
 [] 0 sd 1 lw 472 194 m 6 X s [] 0 sd 1 lw 478 194 m 5 X s [] 0 sd 1 lw 483 194 m 6 X s [] 0 sd 1 lw 489 194 m 6 X s
 [] 0 sd 1 lw 495 194 m 6 X s [] 0 sd 1 lw 501 194 m 6 X s [] 0 sd 1 lw 513 284 m 217 Y s [] 0 sd 1 lw 513 501 m 217 Y s
 [] 0 sd 1 lw 507 501 m 6 X s [] 0 sd 1 lw 513 501 m 6 X s [] 0 sd 1 lw /w 2 def /w2 {w 2 div} def /w3 {w 3 div} def 513
 501 m20 [] 0 sd 1 lw [] 0 sd 1 lw 525 282 m 213 Y s [] 0 sd 1 lw 525 495 m 212 Y s [] 0 sd 1 lw 519 495 m 6 X s [] 0 sd
 1 lw 525 495 m 6 X s [] 0 sd 1 lw 525 495 m20 [] 0 sd 1 lw [] 0 sd 1 lw 537 283 m 215 Y s [] 0 sd 1 lw 537 498 m 214 Y
 s [] 0 sd 1 lw 531 498 m 6 X s [] 0 sd 1 lw 537 498 m 5 X s [] 0 sd 1 lw 537 498 m20 [] 0 sd 1 lw [] 0 sd 1 lw 548 284
 m 217 Y s [] 0 sd 1 lw 548 501 m 218 Y s [] 0 sd 1 lw 542 501 m 6 X s [] 0 sd 1 lw 548 501 m 6 X s [] 0 sd 1 lw 548 501
 m20 [] 0 sd 1 lw [] 0 sd 1 lw 560 497 m 302 Y s [] 0 sd 1 lw 560 799 m 302 Y s [] 0 sd 1 lw 554 799 m 6 X s [] 0 sd 1
 lw 560 799 m 6 X s [] 0 sd 1 lw 560 799 m20 [] 0 sd 1 lw [] 0 sd 1 lw 572 194 m 151 Y s [] 0 sd 1 lw 572 345 m 151 Y s
 [] 0 sd 1 lw 566 345 m 6 X s [] 0 sd 1 lw 572 345 m 6 X s [] 0 sd 1 lw 572 345 m20 [] 0 sd 1 lw [] 0 sd 1 lw 584 194 m
 151 Y s [] 0 sd 1 lw 584 345 m 151 Y s [] 0 sd 1 lw 578 345 m 6 X s [] 0 sd 1 lw 584 345 m 6 X s [] 0 sd 1 lw 584 345
 m20 [] 0 sd 1 lw [] 0 sd 1 lw 596 283 m 212 Y s [] 0 sd 1 lw 596 495 m 213 Y s [] 0 sd 1 lw 590 495 m 6 X s [] 0 sd 1
 lw 596 495 m 5 X s [] 0 sd 1 lw 596 495 m20 [] 0 sd 1 lw [] 0 sd 1 lw 601 194 m 6 X s [] 0 sd 1 lw 607 194 m 6 X s
 [] 0 sd 1 lw 619 194 m 154 Y s [] 0 sd 1 lw 619 348 m 154 Y s [] 0 sd 1 lw 613 348 m 6 X s [] 0 sd 1 lw 619 348 m 6 X s
 [] 0 sd 1 lw 619 348 m20 [] 0 sd 1 lw [] 0 sd 1 lw 631 194 m 154 Y s [] 0 sd 1 lw 631 348 m 154 Y s [] 0 sd 1 lw 625
 348 m 6 X s [] 0 sd 1 lw 631 348 m 6 X s [] 0 sd 1 lw 631 348 m20 [] 0 sd 1 lw [] 0 sd 1 lw 643 283 m 216 Y s [] 0 sd 1
 lw 643 499 m 215 Y s [] 0 sd 1 lw 637 499 m 6 X s [] 0 sd 1 lw 643 499 m 6 X s [] 0 sd 1 lw 643 499 m20 [] 0 sd 1 lw
 [] 0 sd 1 lw 654 194 m 151 Y s [] 0 sd 1 lw 654 345 m 150 Y s [] 0 sd 1 lw 649 345 m 5 X s [] 0 sd 1 lw 654 345 m 6 X s
 [] 0 sd 1 lw 654 345 m20 [] 0 sd 1 lw [] 0 sd 1 lw 666 499 m 304 Y s [] 0 sd 1 lw 666 803 m 305 Y s [] 0 sd 1 lw 660
 803 m 6 X s [] 0 sd 1 lw 666 803 m 6 X s [] 0 sd 1 lw 666 803 m20 [] 0 sd 1 lw [] 0 sd 1 lw 678 385 m 260 Y s [] 0 sd 1
 lw 678 645 m 260 Y s [] 0 sd 1 lw 672 645 m 6 X s [] 0 sd 1 lw 678 645 m 6 X s [] 0 sd 1 lw 678 645 m20 [] 0 sd 1 lw
 [] 0 sd 1 lw 690 282 m 213 Y s [] 0 sd 1 lw 690 495 m 212 Y s [] 0 sd 1 lw 684 495 m 6 X s [] 0 sd 1 lw 690 495 m 6 X s
 [] 0 sd 1 lw 690 495 m20 [] 0 sd 1 lw [] 0 sd 1 lw 702 284 m 215 Y s [] 0 sd 1 lw 702 499 m 216 Y s [] 0 sd 1 lw 696
 499 m 6 X s [] 0 sd 1 lw 702 499 m 6 X s [] 0 sd 1 lw 702 499 m20 [] 0 sd 1 lw [] 0 sd 1 lw 713 387 m 262 Y s [] 0 sd 1
 lw 713 649 m 263 Y s [] 0 sd 1 lw 708 649 m 5 X s [] 0 sd 1 lw 713 649 m 6 X s [] 0 sd 1 lw 713 649 m20 [] 0 sd 1 lw
 [] 0 sd 1 lw 725 284 m 215 Y s [] 0 sd 1 lw 725 499 m 216 Y s [] 0 sd 1 lw 719 499 m 6 X s [] 0 sd 1 lw 725 499 m 6 X s
 [] 0 sd 1 lw 725 499 m20 [] 0 sd 1 lw [] 0 sd 1 lw 731 194 m 6 X s [] 0 sd 1 lw 737 194 m 6 X s [] 0 sd 1 lw 749 284 m
 215 Y s [] 0 sd 1 lw 749 499 m 215 Y s [] 0 sd 1 lw 743 499 m 6 X s [] 0 sd 1 lw 749 499 m 6 X s [] 0 sd 1 lw 749 499
 m20 [] 0 sd 1 lw [] 0 sd 1 lw 761 505 m 312 Y s [] 0 sd 1 lw 761 817 m 311 Y s [] 0 sd 1 lw 755 817 m 6 X s [] 0 sd 1
 lw 761 817 m 5 X s [] 0 sd 1 lw 761 817 m20 [] 0 sd 1 lw [] 0 sd 1 lw 772 386 m 262 Y s [] 0 sd 1 lw 772 648 m 262 Y s
 [] 0 sd 1 lw 766 648 m 6 X s [] 0 sd 1 lw 772 648 m 6 X s [] 0 sd 1 lw 772 648 m20 [] 0 sd 1 lw [] 0 sd 1 lw 784 284 m
 217 Y s [] 0 sd 1 lw 784 501 m 216 Y s [] 0 sd 1 lw 778 501 m 6 X s [] 0 sd 1 lw 784 501 m 6 X s [] 0 sd 1 lw 784 501
 m20 [] 0 sd 1 lw [] 0 sd 1 lw 790 194 m 6 X s [] 0 sd 1 lw 796 194 m 6 X s [] 0 sd 1 lw 808 387 m 263 Y s [] 0 sd 1 lw
 808 650 m 263 Y s [] 0 sd 1 lw 802 650 m 6 X s [] 0 sd 1 lw 808 650 m 6 X s [] 0 sd 1 lw 808 650 m20 [] 0 sd 1 lw
 [] 0 sd 1 lw 820 284 m 216 Y s [] 0 sd 1 lw 820 500 m 216 Y s [] 0 sd 1 lw 814 500 m 6 X s [] 0 sd 1 lw 820 500 m 5 X s
 [] 0 sd 1 lw 820 500 m20 [] 0 sd 1 lw [] 0 sd 1 lw 831 392 m 269 Y s [] 0 sd 1 lw 831 661 m 269 Y s [] 0 sd 1 lw 825
 661 m 6 X s [] 0 sd 1 lw 831 661 m 6 X s [] 0 sd 1 lw 831 661 m20 [] 0 sd 1 lw [] 0 sd 1 lw 843 285 m 219 Y s [] 0 sd 1
 lw 843 504 m 219 Y s [] 0 sd 1 lw 837 504 m 6 X s [] 0 sd 1 lw 843 504 m 6 X s [] 0 sd 1 lw 843 504 m20 [] 0 sd 1 lw
 [] 0 sd 1 lw 855 286 m 220 Y s [] 0 sd 1 lw 855 506 m 220 Y s [] 0 sd 1 lw 849 506 m 6 X s [] 0 sd 1 lw 855 506 m 6 X s
 [] 0 sd 1 lw 855 506 m20 [] 0 sd 1 lw [] 0 sd 1 lw 867 284 m 217 Y s [] 0 sd 1 lw 867 501 m 217 Y s [] 0 sd 1 lw 861
 501 m 6 X s [] 0 sd 1 lw 867 501 m 6 X s [] 0 sd 1 lw 867 501 m20 [] 0 sd 1 lw [] 0 sd 1 lw 879 618 m 342 Y s [] 0 sd 1
 lw 879 960 m 343 Y s [] 0 sd 1 lw 873 960 m 6 X s [] 0 sd 1 lw 879 960 m 5 X s [] 0 sd 1 lw 879 960 m20 [] 0 sd 1 lw
 [] 0 sd 1 lw 890 390 m 267 Y s [] 0 sd 1 lw 890 657 m 267 Y s [] 0 sd 1 lw 884 657 m 6 X s [] 0 sd 1 lw 890 657 m 6 X s
 [] 0 sd 1 lw 890 657 m20 [] 0 sd 1 lw [] 0 sd 1 lw 896 194 m 6 X s [] 0 sd 1 lw 902 194 m 6 X s [] 0 sd 1 lw 914 390 m
 268 Y s [] 0 sd 1 lw 914 658 m 267 Y s [] 0 sd 1 lw 908 658 m 6 X s [] 0 sd 1 lw 914 658 m 6 X s [] 0 sd 1 lw 914 658
 m20 [] 0 sd 1 lw [] 0 sd 1 lw 926 194 m 153 Y s [] 0 sd 1 lw 926 347 m 152 Y s [] 0 sd 1 lw 920 347 m 6 X s [] 0 sd 1
 lw 926 347 m 6 X s [] 0 sd 1 lw 926 347 m20 [] 0 sd 1 lw [] 0 sd 1 lw 937 194 m 156 Y s [] 0 sd 1 lw 937 350 m 156 Y s
 [] 0 sd 1 lw 932 350 m 5 X s [] 0 sd 1 lw 937 350 m 6 X s [] 0 sd 1 lw 937 350 m20 [] 0 sd 1 lw [] 0 sd 1 lw 949 859 m
 405 Y s [] 0 sd 1 lw 949 1264 m 404 Y s [] 0 sd 1 lw 943 1264 m 6 X s [] 0 sd 1 lw 949 1264 m 6 X s [] 0 sd 1 lw 949
 1264 m20 [] 0 sd 1 lw [] 0 sd 1 lw 961 194 m 155 Y s [] 0 sd 1 lw 961 349 m 155 Y s [] 0 sd 1 lw 955 349 m 6 X s
 [] 0 sd 1 lw 961 349 m 6 X s [] 0 sd 1 lw 961 349 m20 [] 0 sd 1 lw [] 0 sd 1 lw 973 283 m 214 Y s [] 0 sd 1 lw 973 497
 m 214 Y s [] 0 sd 1 lw 967 497 m 6 X s [] 0 sd 1 lw 973 497 m 6 X s [] 0 sd 1 lw 973 497 m20 [] 0 sd 1 lw [] 0 sd 1 lw
 985 284 m 217 Y s [] 0 sd 1 lw 985 501 m 217 Y s [] 0 sd 1 lw 979 501 m 6 X s [] 0 sd 1 lw 985 501 m 6 X s [] 0 sd 1 lw
 985 501 m20 [] 0 sd 1 lw [] 0 sd 1 lw 996 737 m 374 Y s [] 0 sd 1 lw 996 1111 m 374 Y s [] 0 sd 1 lw 991 1111 m 5 X s
 [] 0 sd 1 lw 996 1111 m 6 X s [] 0 sd 1 lw 996 1111 m20 [] 0 sd 1 lw [] 0 sd 1 lw 1008 285 m 217 Y s [] 0 sd 1 lw 1008
 502 m 218 Y s [] 0 sd 1 lw 1002 502 m 6 X s [] 0 sd 1 lw 1008 502 m 6 X s [] 0 sd 1 lw 1008 502 m20 [] 0 sd 1 lw
 [] 0 sd 1 lw 1020 194 m 151 Y s [] 0 sd 1 lw 1020 345 m 151 Y s [] 0 sd 1 lw 1014 345 m 6 X s [] 0 sd 1 lw 1020 345 m 6
 X s [] 0 sd 1 lw 1020 345 m20 [] 0 sd 1 lw [] 0 sd 1 lw 1032 615 m 341 Y s [] 0 sd 1 lw 1032 956 m 340 Y s [] 0 sd 1 lw
 1026 956 m 6 X s [] 0 sd 1 lw 1032 956 m 6 X s [] 0 sd 1 lw 1032 956 m20 [] 0 sd 1 lw [] 0 sd 1 lw 1044 734 m 372 Y s
 [] 0 sd 1 lw 1044 1106 m 373 Y s [] 0 sd 1 lw 1038 1106 m 6 X s [] 0 sd 1 lw 1044 1106 m 5 X s [] 0 sd 1 lw 1044 1106
 m20 [] 0 sd 1 lw [] 0 sd 1 lw 1055 613 m 339 Y s [] 0 sd 1 lw 1055 952 m 339 Y s [] 0 sd 1 lw 1049 952 m 6 X s [] 0 sd
 1 lw 1055 952 m 6 X s [] 0 sd 1 lw 1055 952 m20 [] 0 sd 1 lw [] 0 sd 1 lw 1067 194 m 150 Y s [] 0 sd 1 lw 1067 344 m
 149 Y s [] 0 sd 1 lw 1061 344 m 6 X s [] 0 sd 1 lw 1067 344 m 6 X s [] 0 sd 1 lw 1067 344 m20 [] 0 sd 1 lw [] 0 sd 1 lw
 1079 284 m 215 Y s [] 0 sd 1 lw 1079 499 m 215 Y s [] 0 sd 1 lw 1073 499 m 6 X s [] 0 sd 1 lw 1079 499 m 6 X s [] 0 sd
 1 lw 1079 499 m20 [] 0 sd 1 lw [] 0 sd 1 lw 1091 282 m 213 Y s [] 0 sd 1 lw 1091 495 m 212 Y s [] 0 sd 1 lw 1085 495 m
 6 X s [] 0 sd 1 lw 1091 495 m 6 X s [] 0 sd 1 lw 1091 495 m20 [] 0 sd 1 lw [] 0 sd 1 lw 1103 496 m 302 Y s [] 0 sd 1 lw
 1103 798 m 301 Y s [] 0 sd 1 lw 1097 798 m 6 X s [] 0 sd 1 lw 1103 798 m 5 X s [] 0 sd 1 lw 1103 798 m20 [] 0 sd 1 lw
 [] 0 sd 1 lw 1114 612 m 337 Y s [] 0 sd 1 lw 1114 949 m 337 Y s [] 0 sd 1 lw 1108 949 m 6 X s [] 0 sd 1 lw 1114 949 m 6
 X s [] 0 sd 1 lw 1114 949 m20 [] 0 sd 1 lw [] 0 sd 1 lw 1120 194 m 6 X s [] 0 sd 1 lw 1126 194 m 6 X s [] 0 sd 1 lw
 1138 283 m 212 Y s [] 0 sd 1 lw 1138 495 m 213 Y s [] 0 sd 1 lw 1132 495 m 6 X s [] 0 sd 1 lw 1138 495 m 6 X s [] 0 sd
 1 lw 1138 495 m20 [] 0 sd 1 lw [] 0 sd 1 lw 1150 387 m 263 Y s [] 0 sd 1 lw 1150 650 m 262 Y s [] 0 sd 1 lw 1144 650 m
 6 X s [] 0 sd 1 lw 1150 650 m 6 X s [] 0 sd 1 lw 1150 650 m20 [] 0 sd 1 lw [] 0 sd 1 lw 1162 283 m 215 Y s [] 0 sd 1 lw
 1162 498 m 216 Y s [] 0 sd 1 lw 1156 498 m 6 X s [] 0 sd 1 lw 1162 498 m 5 X s [] 0 sd 1 lw 1162 498 m20 [] 0 sd 1 lw
 [] 0 sd 1 lw 1173 389 m 267 Y s [] 0 sd 1 lw 1173 656 m 266 Y s [] 0 sd 1 lw 1167 656 m 6 X s [] 0 sd 1 lw 1173 656 m 6
 X s [] 0 sd 1 lw 1173 656 m20 [] 0 sd 1 lw [] 0 sd 1 lw 1185 386 m 262 Y s [] 0 sd 1 lw 1185 648 m 262 Y s [] 0 sd 1 lw
 1179 648 m 6 X s [] 0 sd 1 lw 1185 648 m 6 X s [] 0 sd 1 lw 1185 648 m20 [] 0 sd 1 lw [] 0 sd 1 lw 1197 283 m 216 Y s
 [] 0 sd 1 lw 1197 499 m 215 Y s [] 0 sd 1 lw 1191 499 m 6 X s [] 0 sd 1 lw 1197 499 m 6 X s [] 0 sd 1 lw 1197 499 m20
 [] 0 sd 1 lw [] 0 sd 1 lw 1209 194 m 151 Y s [] 0 sd 1 lw 1209 345 m 150 Y s [] 0 sd 1 lw 1203 345 m 6 X s [] 0 sd 1 lw
 1209 345 m 6 X s [] 0 sd 1 lw 1209 345 m20 [] 0 sd 1 lw [] 0 sd 1 lw 1220 498 m 304 Y s [] 0 sd 1 lw 1220 802 m 304 Y s
 [] 0 sd 1 lw 1215 802 m 5 X s [] 0 sd 1 lw 1220 802 m 6 X s [] 0 sd 1 lw 1220 802 m20 [] 0 sd 1 lw [] 0 sd 1 lw 1232
 285 m 218 Y s [] 0 sd 1 lw 1232 503 m 218 Y s [] 0 sd 1 lw 1226 503 m 6 X s [] 0 sd 1 lw 1232 503 m 6 X s [] 0 sd 1 lw
 1232 503 m20 [] 0 sd 1 lw [] 0 sd 1 lw 1244 285 m 219 Y s [] 0 sd 1 lw 1244 504 m 220 Y s [] 0 sd 1 lw 1238 504 m 6 X s
 [] 0 sd 1 lw 1244 504 m 6 X s [] 0 sd 1 lw 1244 504 m20 [] 0 sd 1 lw [] 0 sd 1 lw 1256 620 m 344 Y s [] 0 sd 1 lw 1256
 964 m 344 Y s [] 0 sd 1 lw 1250 964 m 6 X s [] 0 sd 1 lw 1256 964 m 6 X s [] 0 sd 1 lw 1256 964 m20 [] 0 sd 1 lw
 [] 0 sd 1 lw 1268 286 m 220 Y s [] 0 sd 1 lw 1268 506 m 220 Y s [] 0 sd 1 lw 1262 506 m 6 X s [] 0 sd 1 lw 1268 506 m 6
 X s [] 0 sd 1 lw 1268 506 m20 [] 0 sd 1 lw [] 0 sd 1 lw 1279 284 m 216 Y s [] 0 sd 1 lw 1279 500 m 217 Y s [] 0 sd 1 lw
 1274 500 m 5 X s [] 0 sd 1 lw 1279 500 m 6 X s [] 0 sd 1 lw 1279 500 m20 [] 0 sd 1 lw [] 0 sd 1 lw 1285 194 m 6 X s
 [] 0 sd 1 lw 1291 194 m 6 X s [] 0 sd 1 lw 1303 194 m 156 Y s [] 0 sd 1 lw 1303 350 m 156 Y s [] 0 sd 1 lw 1297 350 m 6
 X s [] 0 sd 1 lw 1303 350 m 6 X s [] 0 sd 1 lw 1303 350 m20 [] 0 sd 1 lw [] 0 sd 1 lw 1315 285 m 217 Y s [] 0 sd 1 lw
 1315 502 m 218 Y s [] 0 sd 1 lw 1309 502 m 6 X s [] 0 sd 1 lw 1315 502 m 6 X s [] 0 sd 1 lw 1315 502 m20 [] 0 sd 1 lw
 [] 0 sd 1 lw 1327 194 m 152 Y s [] 0 sd 1 lw 1327 346 m 153 Y s [] 0 sd 1 lw 1321 346 m 6 X s [] 0 sd 1 lw 1327 346 m 6
 X s [] 0 sd 1 lw 1327 346 m20 [] 0 sd 1 lw [] 0 sd 1 lw 1338 284 m 215 Y s [] 0 sd 1 lw 1338 499 m 215 Y s [] 0 sd 1 lw
 1333 499 m 5 X s [] 0 sd 1 lw 1338 499 m 6 X s [] 0 sd 1 lw 1338 499 m20 [] 0 sd 1 lw [] 0 sd 1 lw 1350 388 m 265 Y s
 [] 0 sd 1 lw 1350 653 m 264 Y s [] 0 sd 1 lw 1344 653 m 6 X s [] 0 sd 1 lw 1350 653 m 6 X s [] 0 sd 1 lw 1350 653 m20
 [] 0 sd 1 lw [] 0 sd 1 lw 1362 285 m 218 Y s [] 0 sd 1 lw 1362 503 m 219 Y s [] 0 sd 1 lw 1356 503 m 6 X s [] 0 sd 1 lw
 1362 503 m 6 X s [] 0 sd 1 lw 1362 503 m20 [] 0 sd 1 lw [] 0 sd 1 lw 1374 284 m 215 Y s [] 0 sd 1 lw 1374 499 m 215 Y s
 [] 0 sd 1 lw 1368 499 m 6 X s [] 0 sd 1 lw 1374 499 m 6 X s [] 0 sd 1 lw 1374 499 m20 [] 0 sd 1 lw [] 0 sd 1 lw 1386
 284 m 217 Y s [] 0 sd 1 lw 1386 501 m 216 Y s [] 0 sd 1 lw 1380 501 m 6 X s [] 0 sd 1 lw 1386 501 m 5 X s [] 0 sd 1 lw
 1386 501 m20 [] 0 sd 1 lw [] 0 sd 1 lw 1397 284 m 216 Y s [] 0 sd 1 lw 1397 500 m 217 Y s [] 0 sd 1 lw 1391 500 m 6 X s
 [] 0 sd 1 lw 1397 500 m 6 X s [] 0 sd 1 lw 1397 500 m20 [] 0 sd 1 lw [] 0 sd 1 lw 1409 622 m 346 Y s [] 0 sd 1 lw 1409
 968 m 346 Y s [] 0 sd 1 lw 1403 968 m 6 X s [] 0 sd 1 lw 1409 968 m 6 X s [] 0 sd 1 lw 1409 968 m20 [] 0 sd 1 lw
 [] 0 sd 1 lw 1421 622 m 346 Y s [] 0 sd 1 lw 1421 968 m 345 Y s [] 0 sd 1 lw 1415 968 m 6 X s [] 0 sd 1 lw 1421 968 m 6
 X s [] 0 sd 1 lw 1421 968 m20 [] 0 sd 1 lw [] 0 sd 1 lw 1433 502 m 308 Y s [] 0 sd 1 lw 1433 810 m 308 Y s [] 0 sd 1 lw
 1427 810 m 6 X s [] 0 sd 1 lw 1433 810 m 6 X s [] 0 sd 1 lw 1433 810 m20 [] 0 sd 1 lw [] 0 sd 1 lw 1445 863 m 406 Y s
 [] 0 sd 1 lw 1445 1269 m 406 Y s [] 0 sd 1 lw 1439 1269 m 6 X s [] 0 sd 1 lw 1445 1269 m 5 X s [] 0 sd 1 lw 1445 1269
 m20 [] 0 sd 1 lw [] 0 sd 1 lw 1456 194 m 152 Y s [] 0 sd 1 lw 1456 346 m 152 Y s [] 0 sd 1 lw 1450 346 m 6 X s [] 0 sd
 1 lw 1456 346 m 6 X s [] 0 sd 1 lw 1456 346 m20 [] 0 sd 1 lw [] 0 sd 1 lw 1468 390 m 268 Y s [] 0 sd 1 lw 1468 658 m
 268 Y s [] 0 sd 1 lw 1462 658 m 6 X s [] 0 sd 1 lw 1468 658 m 6 X s [] 0 sd 1 lw 1468 658 m20 [] 0 sd 1 lw [] 0 sd 1 lw
 1480 616 m 341 Y s [] 0 sd 1 lw 1480 957 m 342 Y s [] 0 sd 1 lw 1474 957 m 6 X s [] 0 sd 1 lw 1480 957 m 6 X s [] 0 sd
 1 lw 1480 957 m20 [] 0 sd 1 lw [] 0 sd 1 lw 1492 194 m 155 Y s [] 0 sd 1 lw 1492 349 m 154 Y s [] 0 sd 1 lw 1486 349 m
 6 X s [] 0 sd 1 lw 1492 349 m 6 X s [] 0 sd 1 lw 1492 349 m20 [] 0 sd 1 lw [] 0 sd 1 lw 1503 614 m 339 Y s [] 0 sd 1 lw
 1503 953 m 340 Y s [] 0 sd 1 lw 1498 953 m 5 X s [] 0 sd 1 lw 1503 953 m 6 X s [] 0 sd 1 lw 1503 953 m20 [] 0 sd 1 lw
 [] 0 sd 1 lw 1515 386 m 263 Y s [] 0 sd 1 lw 1515 649 m 262 Y s [] 0 sd 1 lw 1509 649 m 6 X s [] 0 sd 1 lw 1515 649 m 6
 X s [] 0 sd 1 lw 1515 649 m20 [] 0 sd 1 lw [] 0 sd 1 lw 1527 737 m 374 Y s [] 0 sd 1 lw 1527 1111 m 374 Y s [] 0 sd 1
 lw 1521 1111 m 6 X s [] 0 sd 1 lw 1527 1111 m 6 X s [] 0 sd 1 lw 1527 1111 m20 [] 0 sd 1 lw [] 0 sd 1 lw 1539 386 m 263
 Y s [] 0 sd 1 lw 1539 649 m 262 Y s [] 0 sd 1 lw 1533 649 m 6 X s [] 0 sd 1 lw 1539 649 m 6 X s [] 0 sd 1 lw 1539 649
 m20 [] 0 sd 1 lw [] 0 sd 1 lw 1551 284 m 218 Y s [] 0 sd 1 lw 1551 502 m 217 Y s [] 0 sd 1 lw 1545 502 m 6 X s [] 0 sd
 1 lw 1551 502 m 6 X s [] 0 sd 1 lw 1551 502 m20 [] 0 sd 1 lw [] 0 sd 1 lw 1557 194 m 5 X s [] 0 sd 1 lw 1562 194 m 6 X
 s [] 0 sd 1 lw 1574 613 m 338 Y s [] 0 sd 1 lw 1574 951 m 338 Y s [] 0 sd 1 lw 1568 951 m 6 X s [] 0 sd 1 lw 1574 951 m
 6 X s [] 0 sd 1 lw 1574 951 m20 [] 0 sd 1 lw [] 0 sd 1 lw 1586 283 m 213 Y s [] 0 sd 1 lw 1586 496 m 213 Y s [] 0 sd 1
 lw 1580 496 m 6 X s [] 0 sd 1 lw 1586 496 m 6 X s [] 0 sd 1 lw 1586 496 m20 [] 0 sd 1 lw [] 0 sd 1 lw 1598 284 m 217 Y
 s [] 0 sd 1 lw 1598 501 m 217 Y s [] 0 sd 1 lw 1592 501 m 6 X s [] 0 sd 1 lw 1598 501 m 6 X s [] 0 sd 1 lw 1598 501 m20
 [] 0 sd 1 lw [] 0 sd 1 lw 1610 194 m 154 Y s [] 0 sd 1 lw 1610 348 m 154 Y s [] 0 sd 1 lw 1604 348 m 6 X s [] 0 sd 1 lw
 1610 348 m 6 X s [] 0 sd 1 lw 1610 348 m20 [] 0 sd 1 lw [] 0 sd 1 lw 1621 282 m 213 Y s [] 0 sd 1 lw 1621 495 m 213 Y s
 [] 0 sd 1 lw 1616 495 m 5 X s [] 0 sd 1 lw 1621 495 m 6 X s [] 0 sd 1 lw 1621 495 m20 [] 0 sd 1 lw [] 0 sd 1 lw 1633
 194 m 151 Y s [] 0 sd 1 lw 1633 345 m 151 Y s [] 0 sd 1 lw 1627 345 m 6 X s [] 0 sd 1 lw 1633 345 m 6 X s [] 0 sd 1 lw
 1633 345 m20 [] 0 sd 1 lw [] 0 sd 1 lw 1645 388 m 265 Y s [] 0 sd 1 lw 1645 653 m 265 Y s [] 0 sd 1 lw 1639 653 m 6 X s
 [] 0 sd 1 lw 1645 653 m 6 X s [] 0 sd 1 lw 1645 653 m20 [] 0 sd 1 lw [] 0 sd 1 lw 1657 194 m 153 Y s [] 0 sd 1 lw 1657
 347 m 153 Y s [] 0 sd 1 lw 1651 347 m 6 X s [] 0 sd 1 lw 1657 347 m 6 X s [] 0 sd 1 lw 1657 347 m20 [] 0 sd 1 lw
 [] 0 sd 1 lw 1669 730 m 369 Y s [] 0 sd 1 lw 1669 1099 m 369 Y s [] 0 sd 1 lw 1663 1099 m 6 X s [] 0 sd 1 lw 1669 1099
 m 5 X s [] 0 sd 1 lw 1669 1099 m20 [] 0 sd 1 lw [] 0 sd 1 lw 1680 283 m 213 Y s [] 0 sd 1 lw 1680 496 m 213 Y s [] 0 sd
 1 lw 1674 496 m 6 X s [] 0 sd 1 lw 1680 496 m 6 X s [] 0 sd 1 lw 1680 496 m20 [] 0 sd 1 lw [] 0 sd 1 lw 1692 731 m 371
 Y s [] 0 sd 1 lw 1692 1102 m 371 Y s [] 0 sd 1 lw 1686 1102 m 6 X s [] 0 sd 1 lw 1692 1102 m 6 X s [] 0 sd 1 lw 1692
 1102 m20 [] 0 sd 1 lw [] 0 sd 1 lw 1704 612 m 337 Y s [] 0 sd 1 lw 1704 949 m 338 Y s [] 0 sd 1 lw 1698 949 m 6 X s
 [] 0 sd 1 lw 1704 949 m 6 X s [] 0 sd 1 lw 1704 949 m20 [] 0 sd 1 lw [] 0 sd 1 lw 1716 194 m 152 Y s [] 0 sd 1 lw 1716
 346 m 151 Y s [] 0 sd 1 lw 1710 346 m 6 X s [] 0 sd 1 lw 1716 346 m 6 X s [] 0 sd 1 lw 1716 346 m20 [] 0 sd 1 lw
 [] 0 sd 1 lw 1728 388 m 266 Y s [] 0 sd 1 lw 1728 654 m 265 Y s [] 0 sd 1 lw 1722 654 m 6 X s [] 0 sd 1 lw 1728 654 m 5
 X s [] 0 sd 1 lw 1728 654 m20 [] 0 sd 1 lw [] 0 sd 1 lw 1733 194 m 6 X s [] 0 sd 1 lw 1739 194 m 6 X s [] 0 sd 1 lw
 1751 389 m 266 Y s [] 0 sd 1 lw 1751 655 m 265 Y s [] 0 sd 1 lw 1745 655 m 6 X s [] 0 sd 1 lw 1751 655 m 6 X s [] 0 sd
 1 lw 1751 655 m20 [] 0 sd 1 lw [] 0 sd 1 lw 1763 741 m 376 Y s [] 0 sd 1 lw 1763 1117 m 377 Y s [] 0 sd 1 lw 1757 1117
 m 6 X s [] 0 sd 1 lw 1763 1117 m 6 X s [] 0 sd 1 lw 1763 1117 m20 [] 0 sd 1 lw [] 0 sd 1 lw 1775 744 m 379 Y s [] 0 sd
 1 lw 1775 1123 m 379 Y s [] 0 sd 1 lw 1769 1123 m 6 X s [] 0 sd 1 lw 1775 1123 m 6 X s [] 0 sd 1 lw 1775 1123 m20
 [] 0 sd 1 lw [] 0 sd 1 lw 1787 283 m 214 Y s [] 0 sd 1 lw 1787 497 m 215 Y s [] 0 sd 1 lw 1781 497 m 6 X s [] 0 sd 1 lw
 1787 497 m 5 X s [] 0 sd 1 lw 1787 497 m20 [] 0 sd 1 lw [] 0 sd 1 lw 1798 194 m 156 Y s [] 0 sd 1 lw 1798 350 m 155 Y s
 [] 0 sd 1 lw 1792 350 m 6 X s [] 0 sd 1 lw 1798 350 m 6 X s [] 0 sd 1 lw 1798 350 m20 [] 0 sd 1 lw [] 0 sd 1 lw 1804
 194 m 6 X s [] 0 sd 1 lw 1810 194 m 6 X s [] 0 sd 1 lw 1822 615 m 340 Y s [] 0 sd 1 lw 1822 955 m 340 Y s [] 0 sd 1 lw
 1816 955 m 6 X s [] 0 sd 1 lw 1822 955 m 6 X s [] 0 sd 1 lw 1822 955 m20 [] 0 sd 1 lw [] 0 sd 1 lw 1834 285 m 220 Y s
 [] 0 sd 1 lw 1834 505 m 219 Y s [] 0 sd 1 lw 1828 505 m 6 X s [] 0 sd 1 lw 1834 505 m 6 X s [] 0 sd 1 lw 1834 505 m20
 [] 0 sd 1 lw [] 0 sd 1 lw 1845 284 m 217 Y s [] 0 sd 1 lw 1845 501 m 217 Y s [] 0 sd 1 lw 1840 501 m 5 X s [] 0 sd 1 lw
 1845 501 m 6 X s [] 0 sd 1 lw 1845 501 m20 [] 0 sd 1 lw [] 0 sd 1 lw 1857 498 m 304 Y s [] 0 sd 1 lw 1857 802 m 304 Y s
 [] 0 sd 1 lw 1851 802 m 6 X s [] 0 sd 1 lw 1857 802 m 6 X s [] 0 sd 1 lw 1857 802 m20 [] 0 sd 1 lw [] 0 sd 1 lw 1869
 284 m 215 Y s [] 0 sd 1 lw 1869 499 m 215 Y s [] 0 sd 1 lw 1863 499 m 6 X s [] 0 sd 1 lw 1869 499 m 6 X s [] 0 sd 1 lw
 1869 499 m20 [] 0 sd 1 lw [] 0 sd 1 lw 1881 194 m 153 Y s [] 0 sd 1 lw 1881 347 m 152 Y s [] 0 sd 1 lw 1875 347 m 6 X s
 [] 0 sd 1 lw 1881 347 m 6 X s [] 0 sd 1 lw 1881 347 m20 [] 0 sd 1 lw [] 0 sd 1 lw 1893 502 m 308 Y s [] 0 sd 1 lw 1893
 810 m 307 Y s [] 0 sd 1 lw 1887 810 m 6 X s [] 0 sd 1 lw 1893 810 m 6 X s [] 0 sd 1 lw 1893 810 m20 [] 0 sd 1 lw
 [] 0 sd 1 lw 1904 284 m 218 Y s [] 0 sd 1 lw 1904 502 m 217 Y s [] 0 sd 1 lw 1899 502 m 5 X s [] 0 sd 1 lw 1904 502 m 6
 X s [] 0 sd 1 lw 1904 502 m20 [] 0 sd 1 lw [] 0 sd 1 lw 1916 194 m 156 Y s [] 0 sd 1 lw 1916 350 m 156 Y s [] 0 sd 1 lw
 1910 350 m 6 X s [] 0 sd 1 lw 1916 350 m 6 X s [] 0 sd 1 lw 1916 350 m20 [] 0 sd 1 lw [] 0 sd 1 lw 1928 194 m 156 Y s
 [] 0 sd 1 lw 1928 350 m 156 Y s [] 0 sd 1 lw 1922 350 m 6 X s [] 0 sd 1 lw 1928 350 m 6 X s [] 0 sd 1 lw 1928 350 m20
 [] 0 sd 1 lw [] 0 sd 1 lw 1940 194 m 153 Y s [] 0 sd 1 lw 1940 347 m 152 Y s [] 0 sd 1 lw 1934 347 m 6 X s [] 0 sd 1 lw
 1940 347 m 6 X s [] 0 sd 1 lw 1940 347 m20 [] 0 sd 1 lw [] 0 sd 1 lw 1946 194 m 6 X s [] 0 sd 1 lw 1952 194 m 5 X s
 [] 0 sd 1 lw 1963 614 m 340 Y s [] 0 sd 1 lw 1963 954 m 339 Y s [] 0 sd 1 lw 1957 954 m 6 X s [] 0 sd 1 lw 1963 954 m 6
 X s [] 0 sd 1 lw 1963 954 m20 [] 0 sd 1 lw [] 0 sd 1 lw 1975 194 m 151 Y s [] 0 sd 1 lw 1975 345 m 150 Y s [] 0 sd 1 lw
 1969 345 m 6 X s [] 0 sd 1 lw 1975 345 m 6 X s [] 0 sd 1 lw 1975 345 m20 [] 0 sd 1 lw [] 0 sd 1 lw 1987 386 m 263 Y s
 [] 0 sd 1 lw 1987 649 m 262 Y s [] 0 sd 1 lw 1981 649 m 6 X s [] 0 sd 1 lw 1987 649 m 6 X s [] 0 sd 1 lw 1987 649 m20
 [] 0 sd 1 lw [] 0 sd 1 lw 1999 386 m 262 Y s [] 0 sd 1 lw 1999 648 m 262 Y s [] 0 sd 1 lw 1993 648 m 6 X s [] 0 sd 1 lw
 1999 648 m 6 X s [] 0 sd 1 lw 1999 648 m20 [] 0 sd 1 lw [] 0 sd 1 lw 2011 194 m 151 Y s [] 0 sd 1 lw 2011 345 m 151 Y s
 [] 0 sd 1 lw 2005 345 m 6 X s [] 0 sd 1 lw 2011 345 m 5 X s [] 0 sd 1 lw 2011 345 m20 [] 0 sd 1 lw [] 0 sd 1 lw 2022
 194 m 154 Y s [] 0 sd 1 lw 2022 348 m 153 Y s [] 0 sd 1 lw 2016 348 m 6 X s [] 0 sd 1 lw 2022 348 m 6 X s [] 0 sd 1 lw
 2022 348 m20 [] 0 sd 1 lw [] 0 sd 1 lw 2034 194 m 154 Y s [] 0 sd 1 lw 2034 348 m 154 Y s [] 0 sd 1 lw 2028 348 m 6 X s
 [] 0 sd 1 lw 2034 348 m 6 X s [] 0 sd 1 lw 2034 348 m20 [] 0 sd 1 lw [] 0 sd 1 lw 2046 194 m 150 Y s [] 0 sd 1 lw 2046
 344 m 149 Y s [] 0 sd 1 lw 2040 344 m 6 X s [] 0 sd 1 lw 2046 344 m 6 X s [] 0 sd 1 lw 2046 344 m20 [] 0 sd 1 lw
 [] 0 sd 1 lw 2058 194 m 155 Y s [] 0 sd 1 lw 2058 349 m 154 Y s [] 0 sd 1 lw 2052 349 m 6 X s [] 0 sd 1 lw 2058 349 m 6
 X s [] 0 sd 1 lw 2058 349 m20 [] 0 sd 1 lw [] 0 sd 1 lw 2070 283 m 216 Y s [] 0 sd 1 lw 2070 499 m 215 Y s [] 0 sd 1 lw
 2064 499 m 6 X s [] 0 sd 1 lw 2070 499 m 5 X s [] 0 sd 1 lw 2070 499 m20 [] 0 sd 1 lw [] 0 sd 1 lw 2081 283 m 216 Y s
 [] 0 sd 1 lw 2081 499 m 215 Y s [] 0 sd 1 lw 2075 499 m 6 X s [] 0 sd 1 lw 2081 499 m 6 X s [] 0 sd 1 lw 2081 499 m20
 [] 0 sd 1 lw [] 0 sd 1 lw 2093 283 m 215 Y s [] 0 sd 1 lw 2093 498 m 215 Y s [] 0 sd 1 lw 2087 498 m 6 X s [] 0 sd 1 lw
 2093 498 m 6 X s [] 0 sd 1 lw 2093 498 m20 [] 0 sd 1 lw [] 0 sd 1 lw 2099 194 m 6 X s [] 0 sd 1 lw 2105 194 m 6 X s
 [] 0 sd 1 lw 2117 284 m 215 Y s [] 0 sd 1 lw 2117 499 m 215 Y s [] 0 sd 1 lw 2111 499 m 6 X s [] 0 sd 1 lw 2117 499 m 6
 X s [] 0 sd 1 lw 2117 499 m20 [] 0 sd 1 lw [] 0 sd 1 lw 2128 194 m 155 Y s [] 0 sd 1 lw 2128 349 m 154 Y s [] 0 sd 1 lw
 2123 349 m 5 X s [] 0 sd 1 lw 2128 349 m 6 X s [] 0 sd 1 lw 2128 349 m20 [] 0 sd 1 lw [] 0 sd 1 lw 2140 728 m 369 Y s
 [] 0 sd 1 lw 2140 1097 m 368 Y s [] 0 sd 1 lw 2134 1097 m 6 X s [] 0 sd 1 lw 2140 1097 m 6 X s [] 0 sd 1 lw 2140 1097
 m20 [] 0 sd 1 lw [] 0 sd 1 lw 2152 390 m 266 Y s [] 0 sd 1 lw 2152 656 m 267 Y s [] 0 sd 1 lw 2146 656 m 6 X s [] 0 sd
 1 lw 2152 656 m 6 X s [] 0 sd 1 lw 2152 656 m20 [] 0 sd 1 lw [] 0 sd 1 lw 2164 284 m 215 Y s [] 0 sd 1 lw 2164 499 m
 216 Y s [] 0 sd 1 lw 2158 499 m 6 X s [] 0 sd 1 lw 2164 499 m 6 X s [] 0 sd 1 lw 2164 499 m20 [] 0 sd 1 lw [] 0 sd 1 lw
 2176 194 m 155 Y s [] 0 sd 1 lw 2176 349 m 154 Y s [] 0 sd 1 lw 2170 349 m 6 X s [] 0 sd 1 lw 2176 349 m 6 X s [] 0 sd
 1 lw 2176 349 m20 [] 0 sd 1 lw [] 0 sd 1 lw 2187 622 m 345 Y s [] 0 sd 1 lw 2187 967 m 346 Y s [] 0 sd 1 lw 2182 967 m
 5 X s [] 0 sd 1 lw 2187 967 m 6 X s [] 0 sd 1 lw 2187 967 m20 [] 0 sd 1 lw [] 0 sd 1 lw 2199 390 m 268 Y s [] 0 sd 1 lw
 2199 658 m 267 Y s [] 0 sd 1 lw 2193 658 m 6 X s [] 0 sd 1 lw 2199 658 m 6 X s [] 0 sd 1 lw 2199 658 m20 [] 0 sd 1 lw
 [] 0 sd 1 lw 2211 500 m 305 Y s [] 0 sd 1 lw 2211 805 m 305 Y s [] 0 sd 1 lw 2205 805 m 6 X s [] 0 sd 1 lw 2211 805 m 6
 X s [] 0 sd 1 lw 2211 805 m20 [] 0 sd 1 lw [] 0 sd 1 lw 2223 283 m 215 Y s [] 0 sd 1 lw 2223 498 m 215 Y s [] 0 sd 1 lw
 2217 498 m 6 X s [] 0 sd 1 lw 2223 498 m 6 X s [] 0 sd 1 lw 2223 498 m20 [] 0 sd 1 lw [] 0 sd 1 lw 2235 194 m 156 Y s
 [] 0 sd 1 lw 2235 350 m 156 Y s [] 0 sd 1 lw 2229 350 m 6 X s [] 0 sd 1 lw 2235 350 m 6 X s [] 0 sd 1 lw 2235 350 m20
 [] 0 sd 1 lw [] 0 sd 1 lw 2246 284 m 217 Y s [] 0 sd 1 lw 2246 501 m 216 Y s [] 0 sd 1 lw 2241 501 m 5 X s [] 0 sd 1 lw
 2246 501 m 6 X s [] 0 sd 1 lw 2246 501 m20 [] 0 sd 1 lw [] 0 sd 1 lw 2258 284 m 218 Y s [] 0 sd 1 lw 2258 502 m 217 Y s
 [] 0 sd 1 lw 2252 502 m 6 X s [] 0 sd 1 lw 2258 502 m 6 X s [] 0 sd 1 lw 2258 502 m20 [] 0 sd 1 lw [] 0 sd 1 lw 2270
 390 m 267 Y s [] 0 sd 1 lw 2270 657 m 267 Y s [] 0 sd 1 lw 2264 657 m 6 X s [] 0 sd 1 lw 2270 657 m 6 X s [] 0 sd 1 lw
 2270 657 m20 [] 0 sd 1 lw [] 0 sd 1 lw 2282 284 m 217 Y s [] 0 sd 1 lw 2282 501 m 217 Y s [] 0 sd 1 lw 2276 501 m 6 X s
 [] 0 sd 1 lw 2282 501 m 6 X s [] 0 sd 1 lw 2282 501 m20 [] 0 sd 1 lw [] 0 sd 1 lw 2288 194 m 6 X s [] 0 sd 1 lw 2294
 194 m 5 X s [] 0 sd 1 lw 2305 501 m 307 Y s [] 0 sd 1 lw 2305 808 m 307 Y s [] 0 sd 1 lw 2299 808 m 6 X s [] 0 sd 1 lw
 2305 808 m 6 X s [] 0 sd 1 lw 2305 808 m20 [] 0 sd 1 lw [] 0 sd 1 lw 2317 194 m 153 Y s [] 0 sd 1 lw 2317 347 m 152 Y s
 [] 0 sd 1 lw 2311 347 m 6 X s [] 0 sd 1 lw 2317 347 m 6 X s [] 0 sd 1 lw 2317 347 m20 [] 0 sd 1 lw [] 0 sd 1 lw 2329
 284 m 218 Y s [] 0 sd 1 lw 2329 502 m 217 Y s [] 0 sd 1 lw 2323 502 m 6 X s [] 0 sd 1 lw 2329 502 m 6 X s [] 0 sd 1 lw
 2329 502 m20 [] 0 sd 1 lw [] 0 sd 1 lw 2341 284 m 215 Y s [] 0 sd 1 lw 2341 499 m 216 Y s [] 0 sd 1 lw 2335 499 m 6 X s
 [] 0 sd 1 lw 2341 499 m 6 X s [] 0 sd 1 lw 2341 499 m20 [] 0 sd 1 lw [] 0 sd 1 lw 2353 390 m 267 Y s [] 0 sd 1 lw 2353
 657 m 268 Y s [] 0 sd 1 lw 2347 657 m 6 X s [] 0 sd 1 lw 2353 657 m 5 X s [] 0 sd 1 lw 2353 657 m20 [] 0 sd 1 lw
 [] 0 sd 1 lw 2364 283 m 214 Y s [] 0 sd 1 lw 2364 497 m 215 Y s [] 0 sd 1 lw 2358 497 m 6 X s [] 0 sd 1 lw 2364 497 m 6
 X s [] 0 sd 1 lw 2364 497 m20 [] 0 sd 1 lw [] 0 sd 1 lw 2370 194 m 6 X s [] 0 sd 1 lw 2376 194 m 6 X s [] 0 sd 1 lw
 2388 388 m 264 Y s [] 0 sd 1 lw 2388 652 m 264 Y s [] 0 sd 1 lw 2382 652 m 6 X s [] 0 sd 1 lw 2388 652 m 6 X s [] 0 sd
 1 lw 2388 652 m20 [] 0 sd 1 lw [] 0 sd 1 lw 2394 194 m 6 X s [] 0 sd 1 lw 2400 194 m 6 X s [] 0 sd 1 lw 2411 194 m 151
 Y s [] 0 sd 1 lw 2411 345 m 151 Y s [] 0 sd 1 lw 2406 345 m 5 X s [] 0 sd 1 lw 2411 345 m 6 X s [] 0 sd 1 lw 2411 345
 m20 [] 0 sd 1 lw [] 0 sd 1 lw 2417 194 m 6 X s [] 0 sd 1 lw 2423 194 m 6 X s [] 0 sd 1 lw 2429 194 m 6 X s [] 0 sd 1 lw
 2435 194 m 6 X s [] 0 sd 1 lw 2441 194 m 6 X s [] 0 sd 1 lw 2447 194 m 6 X s [] 0 sd 1 lw 2453 194 m 6 X s [] 0 sd 1 lw
 2459 194 m 6 X s [] 0 sd 1 lw 2465 194 m 5 X s [] 0 sd 1 lw 2470 194 m 6 X s [] 0 sd 1 lw 2476 194 m 6 X s [] 0 sd 1 lw
 2482 194 m 6 X s [] 0 sd 1 lw 2488 194 m 6 X s [] 0 sd 1 lw 2494 194 m 6 X s [] 0 sd 1 lw 2500 194 m 6 X s [] 0 sd 1 lw
 2506 194 m 6 X s [] 0 sd 1 lw 2512 194 m 6 X s [] 0 sd 1 lw 2518 194 m 6 X s [] 0 sd 1 lw 2524 194 m 5 X s [] 0 sd 1 lw
 2529 194 m 6 X s [] 0 sd 1 lw 2535 194 m 6 X s [] 0 sd 1 lw 2541 194 m 6 X s [] 0 sd 1 lw 2547 194 m 6 X s [] 0 sd 1 lw
 2553 194 m 6 X s [] 0 sd 1 lw 2559 194 m 6 X s [] 0 sd 1 lw 2565 194 m 6 X s [] 0 sd 1 lw 2571 194 m 6 X s [] 0 sd 1 lw
 2577 194 m 5 X s [] 0 sd 1 lw 2582 194 m 6 X s [] 0 sd 1 lw 2588 194 m 6 X s [] 0 sd 1 lw 2594 194 m 6 X s [] 0 sd 1 lw
 2600 194 m 6 X s [] 0 sd 1 lw 2606 194 m 6 X s [] 0 sd 1 lw 2612 194 m 6 X s [] 0 sd 1 lw 2618 194 m 6 X s [] 0 sd 1 lw
 2624 194 m 6 X s [] 0 sd 1 lw 2630 194 m 6 X s [] 0 sd 1 lw 2636 194 m 5 X s [] 0 sd 1 lw 2641 194 m 6 X s [] 0 sd 1 lw
 2647 194 m 6 X s [] 0 sd 1 lw [] 0 sd 1 lw 295 194 m 2358 X s s
 /xs 0 def (Z \(cm\)) /Helvetica-Bold 72 stwn  gsave  2653 49
 t 0 r  xs neg 0 t 0 0 m /Helvetica-Bold findfont 72 sf 0 0 m (Z \(cm\)) show  gr  [] 0 sd 1 lw [] 0 sd 1 lw 504 241 m
 -47 Y s s [] 0 sd 1 lw [] 0 sd 1 lw 568 218 m -24 Y s s [] 0 sd 1 lw [] 0 sd 1 lw 633 218 m -24 Y s s [] 0 sd 1 lw
 [] 0 sd 1 lw 698 218 m -24 Y s s [] 0 sd 1 lw [] 0 sd 1 lw 763 218 m -24 Y s s [] 0 sd 1 lw [] 0 sd 1 lw 827 241 m -47
 Y s s [] 0 sd 1 lw [] 0 sd 1 lw 892 218 m -24 Y s s [] 0 sd 1 lw [] 0 sd 1 lw 957 218 m -24 Y s s [] 0 sd 1 lw [] 0 sd
 1 lw 1021 218 m -24 Y s s [] 0 sd 1 lw [] 0 sd 1 lw 1086 218 m -24 Y s s [] 0 sd 1 lw [] 0 sd 1 lw 1151 241 m -47 Y s s
 [] 0 sd 1 lw [] 0 sd 1 lw 1215 218 m -24 Y s s [] 0 sd 1 lw [] 0 sd 1 lw 1280 218 m -24 Y s s [] 0 sd 1 lw [] 0 sd 1 lw
 1345 218 m -24 Y s s [] 0 sd 1 lw [] 0 sd 1 lw 1409 218 m -24 Y s s [] 0 sd 1 lw [] 0 sd 1 lw 1474 241 m -47 Y s s
 [] 0 sd 1 lw [] 0 sd 1 lw 1539 218 m -24 Y s s [] 0 sd 1 lw [] 0 sd 1 lw 1603 218 m -24 Y s s [] 0 sd 1 lw [] 0 sd 1 lw
 1668 218 m -24 Y s s [] 0 sd 1 lw [] 0 sd 1 lw 1733 218 m -24 Y s s [] 0 sd 1 lw [] 0 sd 1 lw 1797 241 m -47 Y s s
 [] 0 sd 1 lw [] 0 sd 1 lw 1862 218 m -24 Y s s [] 0 sd 1 lw [] 0 sd 1 lw 1927 218 m -24 Y s s [] 0 sd 1 lw [] 0 sd 1 lw
 1991 218 m -24 Y s s [] 0 sd 1 lw [] 0 sd 1 lw 2056 218 m -24 Y s s [] 0 sd 1 lw [] 0 sd 1 lw 2121 241 m -47 Y s s
 [] 0 sd 1 lw [] 0 sd 1 lw 2186 218 m -24 Y s s [] 0 sd 1 lw [] 0 sd 1 lw 2250 218 m -24 Y s s [] 0 sd 1 lw [] 0 sd 1 lw
 2315 218 m -24 Y s s [] 0 sd 1 lw [] 0 sd 1 lw 2380 218 m -24 Y s s [] 0 sd 1 lw [] 0 sd 1 lw 2444 241 m -47 Y s s
 [] 0 sd 1 lw [] 0 sd 1 lw 504 241 m -47 Y s s [] 0 sd 1 lw [] 0 sd 1 lw 439 218 m -24 Y s s [] 0 sd 1 lw [] 0 sd 1 lw
 374 218 m -24 Y s s [] 0 sd 1 lw [] 0 sd 1 lw 310 218 m -24 Y s s [] 0 sd 1 lw [] 0 sd 1 lw 2444 241 m -47 Y s s
 [] 0 sd 1 lw [] 0 sd 1 lw 2509 218 m -24 Y s s [] 0 sd 1 lw [] 0 sd 1 lw 2574 218 m -24 Y s s [] 0 sd 1 lw [] 0 sd 1 lw
 2638 218 m -24 Y s s
 /xs 0 def (-30) /Helvetica-Bold 72 stwn  gsave  504 107
 t 0 r xs 2 div neg 0 t 0 0 m /Helvetica-Bold findfont 72 sf 0 0 m (-30) show  gr 
 /xs 0 def (-20) /Helvetica-Bold 72 stwn  gsave  827 107
 t 0 r xs 2 div neg 0 t 0 0 m /Helvetica-Bold findfont 72 sf 0 0 m (-20) show  gr 
 /xs 0 def (-10) /Helvetica-Bold 72 stwn  gsave  1151 107
 t 0 r xs 2 div neg 0 t 0 0 m /Helvetica-Bold findfont 72 sf 0 0 m (-10) show  gr 
 /xs 0 def (0) /Helvetica-Bold 72 stwn  gsave  1474 107
 t 0 r xs 2 div neg 0 t 0 0 m /Helvetica-Bold findfont 72 sf 0 0 m (0) show  gr 
 /xs 0 def (10) /Helvetica-Bold 72 stwn  gsave  1797 107
 t 0 r xs 2 div neg 0 t 0 0 m /Helvetica-Bold findfont 72 sf 0 0 m (10) show  gr 
 /xs 0 def (20) /Helvetica-Bold 72 stwn  gsave  2121 107
 t 0 r xs 2 div neg 0 t 0 0 m /Helvetica-Bold findfont 72 sf 0 0 m (20) show  gr 
 /xs 0 def (30) /Helvetica-Bold 72 stwn  gsave  2444 107
 t 0 r xs 2 div neg 0 t 0 0 m /Helvetica-Bold findfont 72 sf 0 0 m (30) show  gr  [] 0 sd 1 lw [] 0 sd 1 lw 295 194 m
 1556 Y s s
 /xs 0 def (Number of Hits \(cm) /Helvetica-Bold 72 stwn (-2\)) /Helvetica-Bold 50 stwn  gsave  136 1750
 t 90 r  xs neg 0 t 0 0 m /Helvetica-Bold findfont 72 sf 0 0 m (Number of Hits \(cm) show  currentpoint pop 0 t 
 /Helvetica-Bold findfont 50 sf 0 36 m (-2\)) show  gr  [] 0 sd 1 lw [] 0 sd 1 lw 366 194 m -71 X s s [] 0 sd 1 lw
 [] 0 sd 1 lw 330 229 m -35 X s s [] 0 sd 1 lw [] 0 sd 1 lw 330 263 m -35 X s s [] 0 sd 1 lw [] 0 sd 1 lw 330 298 m -35
 X s s [] 0 sd 1 lw [] 0 sd 1 lw 366 332 m -71 X s s [] 0 sd 1 lw [] 0 sd 1 lw 330 367 m -35 X s s [] 0 sd 1 lw [] 0 sd
 1 lw 330 401 m -35 X s s [] 0 sd 1 lw [] 0 sd 1 lw 330 436 m -35 X s s [] 0 sd 1 lw [] 0 sd 1 lw 366 470 m -71 X s s
 [] 0 sd 1 lw [] 0 sd 1 lw 330 505 m -35 X s s [] 0 sd 1 lw [] 0 sd 1 lw 330 539 m -35 X s s [] 0 sd 1 lw [] 0 sd 1 lw
 330 574 m -35 X s s [] 0 sd 1 lw [] 0 sd 1 lw 366 608 m -71 X s s [] 0 sd 1 lw [] 0 sd 1 lw 330 643 m -35 X s s [] 0 sd
 1 lw [] 0 sd 1 lw 330 677 m -35 X s s [] 0 sd 1 lw [] 0 sd 1 lw 330 712 m -35 X s s [] 0 sd 1 lw [] 0 sd 1 lw 366 746 m
 -71 X s s [] 0 sd 1 lw [] 0 sd 1 lw 330 781 m -35 X s s [] 0 sd 1 lw [] 0 sd 1 lw 330 815 m -35 X s s [] 0 sd 1 lw
 [] 0 sd 1 lw 330 850 m -35 X s s [] 0 sd 1 lw [] 0 sd 1 lw 366 884 m -71 X s s [] 0 sd 1 lw [] 0 sd 1 lw 330 919 m -35
 X s s [] 0 sd 1 lw [] 0 sd 1 lw 330 953 m -35 X s s [] 0 sd 1 lw [] 0 sd 1 lw 330 988 m -35 X s s [] 0 sd 1 lw [] 0 sd
 1 lw 366 1022 m -71 X s s [] 0 sd 1 lw [] 0 sd 1 lw 330 1056 m -35 X s s [] 0 sd 1 lw [] 0 sd 1 lw 330 1091 m -35 X s s
 [] 0 sd 1 lw [] 0 sd 1 lw 330 1125 m -35 X s s [] 0 sd 1 lw [] 0 sd 1 lw 366 1160 m -71 X s s [] 0 sd 1 lw [] 0 sd 1 lw
 330 1194 m -35 X s s [] 0 sd 1 lw [] 0 sd 1 lw 330 1229 m -35 X s s [] 0 sd 1 lw [] 0 sd 1 lw 330 1263 m -35 X s s
 [] 0 sd 1 lw [] 0 sd 1 lw 366 1298 m -71 X s s [] 0 sd 1 lw [] 0 sd 1 lw 330 1332 m -35 X s s [] 0 sd 1 lw [] 0 sd 1 lw
 330 1367 m -35 X s s [] 0 sd 1 lw [] 0 sd 1 lw 330 1401 m -35 X s s [] 0 sd 1 lw [] 0 sd 1 lw 366 1436 m -71 X s s
 [] 0 sd 1 lw [] 0 sd 1 lw 330 1470 m -35 X s s [] 0 sd 1 lw [] 0 sd 1 lw 330 1505 m -35 X s s [] 0 sd 1 lw [] 0 sd 1 lw
 330 1539 m -35 X s s [] 0 sd 1 lw [] 0 sd 1 lw 366 1574 m -71 X s s [] 0 sd 1 lw [] 0 sd 1 lw 330 1608 m -35 X s s
 [] 0 sd 1 lw [] 0 sd 1 lw 330 1643 m -35 X s s [] 0 sd 1 lw [] 0 sd 1 lw 330 1677 m -35 X s s [] 0 sd 1 lw [] 0 sd 1 lw
 366 1712 m -71 X s s [] 0 sd 1 lw [] 0 sd 1 lw 366 1712 m -71 X s s [] 0 sd 1 lw [] 0 sd 1 lw 330 1746 m -35 X s s
 /xs 0 def (0) /Helvetica-Bold 72 stwn  gsave  280 174
 t 0 r  xs neg 0 t 0 0 m /Helvetica-Bold findfont 72 sf 0 0 m (0) show  gr 
 /xs 0 def (0.2) /Helvetica-Bold 72 stwn  gsave  280 312
 t 0 r  xs neg 0 t 0 0 m /Helvetica-Bold findfont 72 sf 0 0 m (0.2) show  gr 
 /xs 0 def (0.4) /Helvetica-Bold 72 stwn  gsave  280 450
 t 0 r  xs neg 0 t 0 0 m /Helvetica-Bold findfont 72 sf 0 0 m (0.4) show  gr 
 /xs 0 def (0.6) /Helvetica-Bold 72 stwn  gsave  280 588
 t 0 r  xs neg 0 t 0 0 m /Helvetica-Bold findfont 72 sf 0 0 m (0.6) show  gr 
 /xs 0 def (0.8) /Helvetica-Bold 72 stwn  gsave  280 725
 t 0 r  xs neg 0 t 0 0 m /Helvetica-Bold findfont 72 sf 0 0 m (0.8) show  gr 
 /xs 0 def (1) /Helvetica-Bold 72 stwn  gsave  280 863
 t 0 r  xs neg 0 t 0 0 m /Helvetica-Bold findfont 72 sf 0 0 m (1) show  gr 
 /xs 0 def (1.2) /Helvetica-Bold 72 stwn  gsave  280 1001
 t 0 r  xs neg 0 t 0 0 m /Helvetica-Bold findfont 72 sf 0 0 m (1.2) show  gr 
 /xs 0 def (1.4) /Helvetica-Bold 72 stwn  gsave  280 1139
 t 0 r  xs neg 0 t 0 0 m /Helvetica-Bold findfont 72 sf 0 0 m (1.4) show  gr 
 /xs 0 def (1.6) /Helvetica-Bold 72 stwn  gsave  280 1277
 t 0 r  xs neg 0 t 0 0 m /Helvetica-Bold findfont 72 sf 0 0 m (1.6) show  gr 
 /xs 0 def (1.8) /Helvetica-Bold 72 stwn  gsave  280 1415
 t 0 r  xs neg 0 t 0 0 m /Helvetica-Bold findfont 72 sf 0 0 m (1.8) show  gr 
 /xs 0 def (2) /Helvetica-Bold 72 stwn  gsave  280 1553
 t 0 r  xs neg 0 t 0 0 m /Helvetica-Bold findfont 72 sf 0 0 m (2) show  gr 
 /xs 0 def (2.2) /Helvetica-Bold 72 stwn  gsave  280 1691
 t 0 r  xs neg 0 t 0 0 m /Helvetica-Bold findfont 72 sf 0 0 m (2.2) show  gr  [] 0 sd 1 lw 0.95 0.95 0.95 c 1342 97 29
 1837 bf black [] 0 sd 1 lw 49 1837 m -13 Y 1335 X 91 Y -13 X -78 Y f [] 0 sd 1 lw 29 1837 m 97 Y s [] 0 sd 1 lw 29 1934
 m 1342 X s [] 0 sd 1 lw 1371 1934 m -97 Y s [] 0 sd 1 lw 1371 1837 m -1342 X s
 /xs 0 def (Density of Hits for Layer 4) /Helvetica-Bold 76 stwn  gsave  700 1864
 t 0 r xs 2 div neg 0 t 0 0 m /Helvetica-Bold findfont 76 sf 0 0 m (Density of Hits for Layer 4) show  gr  [] 0 sd 1 lw
 0.95 0.95 0.95 c 590 311 2299 1594 bf black [] 0 sd 1 lw 2319 1594 m -13 Y 583 X 305 Y -13 X -292 Y f [] 0 sd 1 lw 2299
 1594 m 311 Y s [] 0 sd 1 lw 2299 1905 m 590 X s [] 0 sd 1 lw 2889 1905 m -311 Y s [] 0 sd 1 lw 2889 1594 m -590 X s
 gsave  2329 1849
 t 0 r 0 0 m /Helvetica-Bold findfont 64 sf 0 0 m (hzetapden_z4) show  gr 
 gsave  2329 1771
 t 0 r 0 0 m /Helvetica-Bold findfont 64 sf 0 0 m (Nent = 86    \040) show  gr 
 gsave  2329 1693
 t 0 r 0 0 m /Helvetica-Bold findfont 64 sf 0 0 m (Mean  = -0.7975) show  gr 
 gsave  2329 1615
 t 0 r 0 0 m /Helvetica-Bold findfont 64 sf 0 0 m (RMS   =   15.9) show  gr  1 1 0 c gr 
showpage gr
 gr 
%%Trailer
%%Pages:  1
%%EOF
