%!PS-Adobe-2.0
%%Title: ITShitDensity_4_Eta.ps (Landscape A 4)
%%Pages: (atend)
%%Creator: ROOT Version 2.22/09
%%CreationDate:Sat Sep 18 07:10:26 1999
%%EndComments
%%BeginProlog
/s {stroke} def /l {lineto} def /m {moveto} def /t {translate} def
/sw {stringwidth} def /r {rotate} def /rl {roll}  def /R {repeat} def
/d {rlineto} def /rm {rmoveto} def /gr {grestore} def /f {eofill} def
/c {setrgbcolor} def /lw {setlinewidth} def /sd {setdash} def
/cl {closepath} def /sf {scalefont setfont} def /black {0 setgray} def
/box {m dup 0 exch d exch 0 d 0 exch neg d cl} def
/NC{systemdict begin initclip end}def/C{NC box clip newpath}def
/bl {box s} def /bf {box f} def /Y { 0 exch d} def /X { 0 d} def 
/mp {newpath /y exch def /x exch def} def
/side {[w .77 mul w .23 mul] .385 w mul sd w 0 l currentpoint t -144 r} def
/mr {mp x y w2 0 360 arc} def /m24 {mr s} def /m20 {mr f} def
/mb {mp x y w2 add m w2 neg 0 d 0 w neg d w 0 d 0 w d cl} def
/mt {mp x y w2 add m w2 neg w neg d w 0 d cl} def
/m21 {mb f} def /m25 {mb s} def /m22 {mt f} def /m26{mt s} def
/m23 {mp x y w2 sub m w2 w d w neg 0 d cl f} def
/m27 {mp x y w2 add m w3 neg w2 neg d w3 w2 neg d w3 w2 d cl s} def
/m28 {mp x w2 sub y w2 sub w3 add m w3 0 d  0 w3 neg d w3 0 d 0 w3 d w3 0 d  0 w3 d w3 neg 0 d 0 w3 d w3 neg 0 d
 0 w3 neg d w3 neg 0 d cl s } def
/m29 {mp gsave x w2 sub y w2 add w3 sub m currentpoint t
 4 {side} repeat cl fill gr} def
/m30 {mp gsave x w2 sub y w2 add w3 sub m currentpoint t
 5 {side} repeat s gr} def
/m31 {mp x y w2 sub m 0 w d x w2 sub y m w 0 d x w2 sub y w2 add m w w neg d x w2 sub y w2
 sub m w w d s} def
/m2 {mp x y w2 sub m 0 w d x w2 sub y m w 0 d s} def
/m5 {mp x w2 sub y w2 sub m w w d x w2 sub y w2 add m w w neg d s} def
/DP {/PT exch def gsave 47.2 47.2 scale PT 1  eq { 16 16 1 [ 16 0 0 16 neg 0 16
] { < AA AA 55 55 AA AA 55 55 AA AA 55 55 AA AA 55 55 AA AA 55 55 AA AA 55 55
AA AA 55 55 AA AA 55 55 > } image } if PT 2 eq { 16 16 1 [ 16 0 0 16 neg 0 16
] { < BB BB EE EE BB BB EE EE BB BB EE EE BB BB EE EE BB BB EE EE BB BB EE EE
BB BB EE EE BB BB EE EE > } image } if PT 3 eq { 16 16 1 [ 16 0 0 16 neg 0 16
] { < FF FF BB BB FF FF EE EE FF FF BB BB FF FF EE EE FF FF BB BB FF FF EE EE
FF FF BB BB FF FF EE EE > } image } if PT 4 eq { 16 16 1 [ 16 0 0 16 neg 0 16
] { < DF DF BF BF 7F 7F FE FE FD FD FB FB F7 F7 EF EF DF DF BF BF 7F 7F FE FE
FD FD FB FB F7 F7 EF EF > } image } if PT 5 eq { 16 16 1 [ 16 0 0 16 neg 0 16
] { < 7F 7F BF B F DF DF EF EF F7 F7 FB FB FD FD FE FE 7F 7F BF BF DF DF EF
EF F7 F7 FB FB FD FD FE FE > } image } if PT 6 eq { 16 16 1 [ 16 0 0 16 neg 0
16 ] { < BB BB BB BB BB BB BB BB BB BB BB BB BB BB BB BB BB BB BB BB BB BB BB
BB BB BB BB BB BB BB BB BB > } image } if PT 7 eq { 16 16 1 [ 16 0 0 16 neg 0
16 ] { < FF FF FF FF FF FF 00 00 FF FF FF FF FF FF 00 00 FF FF FF FF FF FF 00
00 FF FF FF FF FF FF 00 00 > } image } if PT 8 eq { 16 16 1 [ 16 0 0 16 neg 0
16 ] { < EE EE 47 47 83 83 C5 C5 EE EE 5C 5C 38 38 74 74 EE EE 47 47 83 83 C5
C5 EE EE 5C 5C 38 38 74 74 > } image } if PT 9 eq { 16 16 1 [ 16 0 0 16 neg 0
16 ] { < EF EF EF EF D7 D7 38 38 FE FE FE FE 7D 7D 83 83 EF EF EF EF D7 D7 38
38  FE FE FE FE 7D 7D 83 83 > } image } if PT 10 eq { 16 16 1 [ 16 0 0 16 neg
0 16 ] { <  EF EF EF EF EF EF 00 00 FE FE FE FE FE FE 00 00 EF EF EF EF EF EF
00 00 FE FE FE FE FE FE 00 00 > } image } if PT 11 eq { 16 16 1 [ 16 0 0 16
neg 0 16 ] { < F7 F7 B6 B6 D5 D5 E3 E3 D5 D5 B6 B6 F7 F7 FF FF 7F 7F 6B 6B 5D
5D 3E 3E 5D 5D 6B 6B 7F 7F FF FF > } image } if PT 12 eq { 16 16 1 [ 16 0 0
16 neg 0 16 ] { < E3 E3 DD DD BE BE BE BE BE BE DD DD E3 E3 FF FF 3E 3E DD DD
EB EB EB EB EB EB DD DD 3E 3E FF FF > } image } if PT 13 eq { 16 16 1 [ 16 0
0 16 neg 0 16 ] { <  FE FE 7D 7D BB BB D7 D7 EF EF D7 D7 BB BB 7D 7D FE FE 7D
7D BB BB D7 D7 EF EF D7 D7 BB BB 7D 7D > } image } if PT 14 eq { 16 16 1 [ 16
0 0 16 neg 0 16 ] { < 00 00 EE EF EE EF EE EF 0E E0 EE EE EE EE EE EE 00 EE
FE EE FE EE FE EE 00 00 FE EF FE EF FE EF > } image } if PT 15 eq { 16 16 1 [
16 0 0 16 neg 0 16 ] { < DD DD AA AA DD DD FF FF 77 77 AA AA 77 77 FF FF DD
DD AA AA DD DD FF FF 77 77 AA AA 77 77 FF FF > } image } if PT 16 eq { 16 16
1 [ 16 0 0 16 neg 0 16 ] { <  F1 F1 EE EE 1F 1F FF FF F1 F1 EE EE 1F 1F FF FF
F1 F1 EE EE 1F 1F FF FF F1 F1 EE EE 1F 1F FF FF > } image } if PT 17 eq { 16
16 1 [ 16 0 0 16 neg 0 16 ] { <  EE EE DD DD BB BB FF FF EE EE DD DD BB BB FF
 FF EE EE DD DD BB BB FF FF EE EE DD DD BB BB FF FF > } image } if PT 18 eq {
16 16 1 [ 16 0 0 16 neg 0 16 ] { <  BB BB DD DD EE EE FF FF BB BB DD DD EE EE
FF FF BB BB DD DD EE EE FF FF BB BB DD DD EE EE FF FF > } image } if PT 19 eq
{ 16 16 1 [ 16 0 0 16 neg 0 16 ] { < 1F FC 67 F3 7B EF BD DE BD DE DE BD E6
B3 F8 0F E6 B3 DE BD BD DE BD DE 7B EF 67 F3 1F FC 7F FF > } image } if PT
20 eq { 16 16 1 [ 16 0 0 16 neg 0 16 ] { < DD DD EE EE EE EE EE EE DD DD BB
BB BB BB BB BB DD DD EE EE EE EE EE EE DD DD BB BB BB BB BB BB > } image }
if PT 21 eq { 16 16 1 [ 16 0 0 16 neg 0 16 ] { < 0E 0E EF EF EF EF EF EF E0
E0 FE FE FE FE FE FE 0E 0E EF EF EF EF EF EF E0 E0 FE FE FE FE FE FE > }
image }  if PT 22 eq { 16 16 1 [ 16 0 0 16 neg 0 16 ] { < 70 70 F7 F7 F7 F7 F7
F7 07 07 7F 7F 7F 7F 7F 7F 70 70 F7 F7 F7 F7 F7 F7 07 07 7F 7F 7F 7F 7F 7F >
} image } if PT 23 eq  { 16 16 1 [ 16 0 0 16 neg 0 16 ] { < AA AA 55 55 A9 A9
D1 D1 E1 E1 D1 D1 A9 A9 55 55 AA AA 55 55 A9 A9 D1 D1 E1 E1 D1 D1 A9 A9 55 55
> } image } if PT 24 eq { 16 16 1 [ 16 0 0 16 neg 0 16 ] { < FF FE FF FC EA
A8 D5 54 EA A8 D5 54 E8 28 D4 54 E8 E8 D4 D4 E8 EA 54 D5 A8 EA 54 D5 00 C0 00
80 > } image } if PT 25 eq {  16 16 1 [ 16 0 0 16 neg 0 16 ] { < FF FE FF FC
FF F8 FF F0 F0 00 F0 00 F0 20 F0 60 F0 E0 F1 E0 F3 E0 F0 00 E0 00 C0 00 80 00
00 00 > } image } if gr } def /FA { /PT exch def gsave clip 0 0 translate 1 1
74 { 1 sub 47.2 mul /Xcurr exch def 1 1 74 { 1 sub 47.2 mul /Ycurr exch def
gsave Xcurr Ycurr translate PT DP gr } for } for gr newpath } def
/reencdict 24 dict def /ReEncode {reencdict begin /nco&na exch def
/nfnam exch def /basefontname exch def /basefontdict basefontname findfont def
/newfont basefontdict maxlength dict def basefontdict {exch dup /FID ne
{dup /Encoding eq {exch dup length array copy newfont 3 1 roll put} {exch 
newfont 3 1 roll put} ifelse} {pop pop} ifelse } forall newfont
/FontName nfnam put nco&na aload pop nco&na length 2 idiv {newfont
/Encoding get 3 1 roll put} repeat nfnam newfont definefont pop end } def
/accvec [ 176 /agrave 181 /Agrave 190 /acircumflex 192 /Acircumflex
201 /adieresis 204 /Adieresis 209 /ccedilla 210 /Ccedilla 211 /eacute
212 /Eacute 213 /egrave 214 /Egrave 215 /ecircumflex 216 /Ecircumflex
217 /edieresis 218 /Edieresis 219 /icircumflex 220 /Icircumflex
221 /idieresis 222 /Idieresis 223 /ntilde 224 /Ntilde 226 /ocircumflex
228 /Ocircumflex 229 /odieresis 230 /Odieresis 231 /ucircumflex 236 /Ucircumflex
237 /udieresis 238 /Udieresis 239 /aring 242 /Aring 243 /ydieresis
244 /Ydieresis 246 /aacute 247 /Aacute 252 /ugrave 253 /Ugrave] def
/Times-Roman /Times-Roman accvec ReEncode
/Times-Italic /Times-Italic accvec ReEncode
/Times-Bold /Times-Bold accvec ReEncode
/Times-BoldItalic /Times-BoldItalic accvec ReEncode
/Helvetica /Helvetica accvec ReEncode
/Helvetica-Oblique /Helvetica-Oblique accvec ReEncode
/Helvetica-Bold /Helvetica-Bold accvec ReEncode
/Helvetica-BoldOblique /Helvetica-BoldOblique  accvec ReEncode
/Courier /Courier accvec ReEncode
/Courier-Oblique /Courier-Oblique accvec ReEncode
/Courier-Bold /Courier-Bold accvec ReEncode
/Courier-BoldOblique /Courier-BoldOblique accvec ReEncode
/oshow {gsave [] 0 sd true charpath stroke gr} def
/stwn { /fs exch def /fn exch def /text exch def fn findfont fs sf
 text sw pop xs add /xs exch def} def
/stwb { /fs exch def /fn exch def /nbas exch def /textf exch def
textf length /tlen exch def nbas tlen gt {/nbas tlendef} if
fn findfont fs sf textf dup length nbas sub nbas getinterval sw
pop neg xs add /xs exch def} def
/accspe [ 65 /plusminus  66 /bar  67 /existential  68 /universal 
69 /exclam  70 /numbersign 71 /greater  72 /question  73 /integral 
74 /colon  75 /semicolon  76 /less  77 /bracketleft  78 /bracketright
79 /greaterequal 80 /braceleft 81 /braceright 82 /radical
83 /spade 84 /heart 85 /diamond 86 /club 87 /lessequal
88 /multiply 89 /percent 90 /infinity 48 /circlemultiply 49 /circleplus
50 /emptyset  51 /lozenge 52 /bullet 53 /arrowright 54 /arrowup
55 /arrowleft 56 /arrowdown 57 /arrowboth 48 /degree 44 /comma 43 /plus 45 /angle 42 /angleleft 47 /divide 61 /notequal
 40 /equivalence 41 /second 97 /approxequal 98 /congruent 99 /perpendicular 100 /partialdiff 101 /florin
 102 /intersection 103 /union 104 /propersuperset 105 /reflexsuperset 106 /notsubset 107 /propersubset 108 /reflexsubset
 109 /element 110 /notelement 111 /gradient 112 /logicaland 113 /logicalor 114 /arrowdblboth 115 /arrowdblleft
 116 /arrowdblup 117 /arrowdblright 118 /arrowdbldown 119 /ampersand 120 /omega1 121 /similar 122 /aleph ] def
/Symbol /Special accspe ReEncode
/Zone {/iy exch def /ix exch def  ix 1 sub  3144 mul  1 iy sub  2224
 mul t} def
%%EndProlog
 gsave  90 r 0 -594 t  28 20 t .25 .25 scale  gsave 
%%Page: number 1
 black [] 0 sd 1 lw 0.95 0.95 0.95 c 2948 1944 0 0 bf 0.8 0.8 0.8 c 0 0 m 2 2 d 1940 Y 2944 X 2 2 d -2948 X -1944 Y f
 0.3 0.3 0.3 c 0 0 m 2 2 d 2944 X 1940 Y 2 2 d -1944 Y -2948 X f black [] 0 sd 1 lw 0.95 0.95 0.95 c 2358 1556 295 194
 bf 0.8 0.8 0.8 c 295 194 m 1 1 d 1554 Y 2356 X 1 1 d -2358 X -1556 Y f 0.3 0.3 0.3 c 295 194 m 1 1 d 2356 X 1554 Y 1 1
 d -1556 Y -2358 X f [] 0 sd 1 lw black 295 194 m 2358 X s [] 0 sd 1 lw 2653 194 m 1556 Y s [] 0 sd 1 lw 2653 1750 m
 -2358 X s [] 0 sd 1 lw 295 1750 m -1556 Y s [] 0 sd 1 lw 1 1 1 c black [] 0 sd 1 lw 295 194 m 6 X s [] 0 sd 1 lw 301
 194 m 6 X s [] 0 sd 1 lw 307 194 m 5 X s [] 0 sd 1 lw 312 194 m 6 X s [] 0 sd 1 lw 318 194 m 6 X s [] 0 sd 1 lw 324 194
 m 6 X s [] 0 sd 1 lw 330 194 m 6 X s [] 0 sd 1 lw 336 194 m 6 X s [] 0 sd 1 lw 342 194 m 6 X s [] 0 sd 1 lw 348 194 m 6
 X s [] 0 sd 1 lw 354 194 m 6 X s [] 0 sd 1 lw 360 194 m 6 X s [] 0 sd 1 lw 366 194 m 5 X s [] 0 sd 1 lw 371 194 m 6 X s
 [] 0 sd 1 lw 377 194 m 6 X s [] 0 sd 1 lw 383 194 m 6 X s [] 0 sd 1 lw 389 194 m 6 X s [] 0 sd 1 lw 395 194 m 6 X s
 [] 0 sd 1 lw 401 194 m 6 X s [] 0 sd 1 lw 407 194 m 6 X s [] 0 sd 1 lw 413 194 m 6 X s [] 0 sd 1 lw 419 194 m 6 X s
 [] 0 sd 1 lw 425 194 m 5 X s [] 0 sd 1 lw 430 194 m 6 X s [] 0 sd 1 lw 436 194 m 6 X s [] 0 sd 1 lw 442 194 m 6 X s
 [] 0 sd 1 lw 448 194 m 6 X s [] 0 sd 1 lw 454 194 m 6 X s [] 0 sd 1 lw 466 250 m 136 Y s [] 0 sd 1 lw 466 386 m 135 Y s
 [] 0 sd 1 lw 460 386 m 6 X s [] 0 sd 1 lw 466 386 m 6 X s [] 0 sd 1 lw /w 2 def /w2 {w 2 div} def /w3 {w 3 div} def 466
 386 m20 [] 0 sd 1 lw [] 0 sd 1 lw 478 316 m 167 Y s [] 0 sd 1 lw 478 483 m 167 Y s [] 0 sd 1 lw 472 483 m 6 X s [] 0 sd
 1 lw 478 483 m 5 X s [] 0 sd 1 lw 478 483 m20 [] 0 sd 1 lw [] 0 sd 1 lw 489 250 m 133 Y s [] 0 sd 1 lw 489 383 m 134 Y
 s [] 0 sd 1 lw 483 383 m 6 X s [] 0 sd 1 lw 489 383 m 6 X s [] 0 sd 1 lw 489 383 m20 [] 0 sd 1 lw [] 0 sd 1 lw 501 250
 m 136 Y s [] 0 sd 1 lw 501 386 m 135 Y s [] 0 sd 1 lw 495 386 m 6 X s [] 0 sd 1 lw 501 386 m 6 X s [] 0 sd 1 lw 501 386
 m20 [] 0 sd 1 lw [] 0 sd 1 lw 513 387 m 192 Y s [] 0 sd 1 lw 513 579 m 192 Y s [] 0 sd 1 lw 507 579 m 6 X s [] 0 sd 1
 lw 513 579 m 6 X s [] 0 sd 1 lw 513 579 m20 [] 0 sd 1 lw [] 0 sd 1 lw 519 194 m 6 X s [] 0 sd 1 lw 525 194 m 6 X s
 [] 0 sd 1 lw 537 318 m 170 Y s [] 0 sd 1 lw 537 488 m 169 Y s [] 0 sd 1 lw 531 488 m 6 X s [] 0 sd 1 lw 537 488 m 5 X s
 [] 0 sd 1 lw 537 488 m20 [] 0 sd 1 lw [] 0 sd 1 lw 548 194 m 103 Y s [] 0 sd 1 lw 548 297 m 103 Y s [] 0 sd 1 lw 542
 297 m 6 X s [] 0 sd 1 lw 548 297 m 6 X s [] 0 sd 1 lw 548 297 m20 [] 0 sd 1 lw [] 0 sd 1 lw 560 255 m 147 Y s [] 0 sd 1
 lw 560 402 m 147 Y s [] 0 sd 1 lw 554 402 m 6 X s [] 0 sd 1 lw 560 402 m 6 X s [] 0 sd 1 lw 560 402 m20 [] 0 sd 1 lw
 [] 0 sd 1 lw 566 194 m 6 X s [] 0 sd 1 lw 572 194 m 6 X s [] 0 sd 1 lw 584 326 m 180 Y s [] 0 sd 1 lw 584 506 m 180 Y s
 [] 0 sd 1 lw 578 506 m 6 X s [] 0 sd 1 lw 584 506 m 6 X s [] 0 sd 1 lw 584 506 m20 [] 0 sd 1 lw [] 0 sd 1 lw 596 254 m
 144 Y s [] 0 sd 1 lw 596 398 m 144 Y s [] 0 sd 1 lw 590 398 m 6 X s [] 0 sd 1 lw 596 398 m 5 X s [] 0 sd 1 lw 596 398
 m20 [] 0 sd 1 lw [] 0 sd 1 lw 607 402 m 209 Y s [] 0 sd 1 lw 607 611 m 208 Y s [] 0 sd 1 lw 601 611 m 6 X s [] 0 sd 1
 lw 607 611 m 6 X s [] 0 sd 1 lw 607 611 m20 [] 0 sd 1 lw [] 0 sd 1 lw 619 325 m 179 Y s [] 0 sd 1 lw 619 504 m 179 Y s
 [] 0 sd 1 lw 613 504 m 6 X s [] 0 sd 1 lw 619 504 m 6 X s [] 0 sd 1 lw 619 504 m20 [] 0 sd 1 lw [] 0 sd 1 lw 631 331 m
 187 Y s [] 0 sd 1 lw 631 518 m 187 Y s [] 0 sd 1 lw 625 518 m 6 X s [] 0 sd 1 lw 631 518 m 6 X s [] 0 sd 1 lw 631 518
 m20 [] 0 sd 1 lw [] 0 sd 1 lw 643 256 m 150 Y s [] 0 sd 1 lw 643 406 m 149 Y s [] 0 sd 1 lw 637 406 m 6 X s [] 0 sd 1
 lw 643 406 m 6 X s [] 0 sd 1 lw 643 406 m20 [] 0 sd 1 lw [] 0 sd 1 lw 654 334 m 192 Y s [] 0 sd 1 lw 654 526 m 191 Y s
 [] 0 sd 1 lw 649 526 m 5 X s [] 0 sd 1 lw 654 526 m 6 X s [] 0 sd 1 lw 654 526 m20 [] 0 sd 1 lw [] 0 sd 1 lw 666 420 m
 226 Y s [] 0 sd 1 lw 666 646 m 226 Y s [] 0 sd 1 lw 660 646 m 6 X s [] 0 sd 1 lw 666 646 m 6 X s [] 0 sd 1 lw 666 646
 m20 [] 0 sd 1 lw [] 0 sd 1 lw 672 194 m 6 X s [] 0 sd 1 lw 678 194 m 6 X s [] 0 sd 1 lw 690 503 m 249 Y s [] 0 sd 1 lw
 690 752 m 249 Y s [] 0 sd 1 lw 684 752 m 6 X s [] 0 sd 1 lw 690 752 m 6 X s [] 0 sd 1 lw 690 752 m20 [] 0 sd 1 lw
 [] 0 sd 1 lw 696 194 m 6 X s [] 0 sd 1 lw 702 194 m 6 X s [] 0 sd 1 lw 713 262 m 163 Y s [] 0 sd 1 lw 713 425 m 163 Y s
 [] 0 sd 1 lw 708 425 m 5 X s [] 0 sd 1 lw 713 425 m 6 X s [] 0 sd 1 lw 713 425 m20 [] 0 sd 1 lw [] 0 sd 1 lw 725 518 m
 262 Y s [] 0 sd 1 lw 725 780 m 261 Y s [] 0 sd 1 lw 719 780 m 6 X s [] 0 sd 1 lw 725 780 m 6 X s [] 0 sd 1 lw 725 780
 m20 [] 0 sd 1 lw [] 0 sd 1 lw 737 263 m 165 Y s [] 0 sd 1 lw 737 428 m 165 Y s [] 0 sd 1 lw 731 428 m 6 X s [] 0 sd 1
 lw 737 428 m 6 X s [] 0 sd 1 lw 737 428 m20 [] 0 sd 1 lw [] 0 sd 1 lw 749 348 m 209 Y s [] 0 sd 1 lw 749 557 m 209 Y s
 [] 0 sd 1 lw 743 557 m 6 X s [] 0 sd 1 lw 749 557 m 6 X s [] 0 sd 1 lw 749 557 m20 [] 0 sd 1 lw [] 0 sd 1 lw 755 194 m
 6 X s [] 0 sd 1 lw 761 194 m 5 X s [] 0 sd 1 lw 772 350 m 212 Y s [] 0 sd 1 lw 772 562 m 212 Y s [] 0 sd 1 lw 766 562 m
 6 X s [] 0 sd 1 lw 772 562 m 6 X s [] 0 sd 1 lw 772 562 m20 [] 0 sd 1 lw [] 0 sd 1 lw 784 345 m 205 Y s [] 0 sd 1 lw
 784 550 m 205 Y s [] 0 sd 1 lw 778 550 m 6 X s [] 0 sd 1 lw 784 550 m 6 X s [] 0 sd 1 lw 784 550 m20 [] 0 sd 1 lw
 [] 0 sd 1 lw 796 349 m 212 Y s [] 0 sd 1 lw 796 561 m 211 Y s [] 0 sd 1 lw 790 561 m 6 X s [] 0 sd 1 lw 796 561 m 6 X s
 [] 0 sd 1 lw 796 561 m20 [] 0 sd 1 lw [] 0 sd 1 lw 808 194 m 120 Y s [] 0 sd 1 lw 808 314 m 119 Y s [] 0 sd 1 lw 802
 314 m 6 X s [] 0 sd 1 lw 808 314 m 6 X s [] 0 sd 1 lw 808 314 m20 [] 0 sd 1 lw [] 0 sd 1 lw 820 268 m 179 Y s [] 0 sd 1
 lw 820 447 m 178 Y s [] 0 sd 1 lw 814 447 m 6 X s [] 0 sd 1 lw 820 447 m 5 X s [] 0 sd 1 lw 820 447 m20 [] 0 sd 1 lw
 [] 0 sd 1 lw 831 352 m 214 Y s [] 0 sd 1 lw 831 566 m 215 Y s [] 0 sd 1 lw 825 566 m 6 X s [] 0 sd 1 lw 831 566 m 6 X s
 [] 0 sd 1 lw 831 566 m20 [] 0 sd 1 lw [] 0 sd 1 lw 837 194 m 6 X s [] 0 sd 1 lw 843 194 m 6 X s [] 0 sd 1 lw 855 355 m
 220 Y s [] 0 sd 1 lw 855 575 m 219 Y s [] 0 sd 1 lw 849 575 m 6 X s [] 0 sd 1 lw 855 575 m 6 X s [] 0 sd 1 lw 855 575
 m20 [] 0 sd 1 lw [] 0 sd 1 lw 867 540 m 279 Y s [] 0 sd 1 lw 867 819 m 280 Y s [] 0 sd 1 lw 861 819 m 6 X s [] 0 sd 1
 lw 867 819 m 6 X s [] 0 sd 1 lw 867 819 m20 [] 0 sd 1 lw [] 0 sd 1 lw 879 194 m 126 Y s [] 0 sd 1 lw 879 320 m 126 Y s
 [] 0 sd 1 lw 873 320 m 6 X s [] 0 sd 1 lw 879 320 m 5 X s [] 0 sd 1 lw 879 320 m20 [] 0 sd 1 lw [] 0 sd 1 lw 890 355 m
 220 Y s [] 0 sd 1 lw 890 575 m 220 Y s [] 0 sd 1 lw 884 575 m 6 X s [] 0 sd 1 lw 890 575 m 6 X s [] 0 sd 1 lw 890 575
 m20 [] 0 sd 1 lw [] 0 sd 1 lw 902 454 m 260 Y s [] 0 sd 1 lw 902 714 m 259 Y s [] 0 sd 1 lw 896 714 m 6 X s [] 0 sd 1
 lw 902 714 m 6 X s [] 0 sd 1 lw 902 714 m20 [] 0 sd 1 lw [] 0 sd 1 lw 914 451 m 256 Y s [] 0 sd 1 lw 914 707 m 256 Y s
 [] 0 sd 1 lw 908 707 m 6 X s [] 0 sd 1 lw 914 707 m 6 X s [] 0 sd 1 lw 914 707 m20 [] 0 sd 1 lw [] 0 sd 1 lw 920 194 m
 6 X s [] 0 sd 1 lw 926 194 m 6 X s [] 0 sd 1 lw 937 270 m 184 Y s [] 0 sd 1 lw 937 454 m 184 Y s [] 0 sd 1 lw 932 454 m
 5 X s [] 0 sd 1 lw 937 454 m 6 X s [] 0 sd 1 lw 937 454 m20 [] 0 sd 1 lw [] 0 sd 1 lw 949 362 m 230 Y s [] 0 sd 1 lw
 949 592 m 229 Y s [] 0 sd 1 lw 943 592 m 6 X s [] 0 sd 1 lw 949 592 m 6 X s [] 0 sd 1 lw 949 592 m20 [] 0 sd 1 lw
 [] 0 sd 1 lw 961 554 m 291 Y s [] 0 sd 1 lw 961 845 m 291 Y s [] 0 sd 1 lw 955 845 m 6 X s [] 0 sd 1 lw 961 845 m 6 X s
 [] 0 sd 1 lw 961 845 m20 [] 0 sd 1 lw [] 0 sd 1 lw 973 658 m 319 Y s [] 0 sd 1 lw 973 977 m 320 Y s [] 0 sd 1 lw 967
 977 m 6 X s [] 0 sd 1 lw 973 977 m 6 X s [] 0 sd 1 lw 973 977 m20 [] 0 sd 1 lw [] 0 sd 1 lw 985 194 m 129 Y s [] 0 sd 1
 lw 985 323 m 129 Y s [] 0 sd 1 lw 979 323 m 6 X s [] 0 sd 1 lw 985 323 m 6 X s [] 0 sd 1 lw 985 323 m20 [] 0 sd 1 lw
 [] 0 sd 1 lw 996 362 m 228 Y s [] 0 sd 1 lw 996 590 m 229 Y s [] 0 sd 1 lw 991 590 m 5 X s [] 0 sd 1 lw 996 590 m 6 X s
 [] 0 sd 1 lw 996 590 m20 [] 0 sd 1 lw [] 0 sd 1 lw 1002 194 m 6 X s [] 0 sd 1 lw 1008 194 m 6 X s [] 0 sd 1 lw 1020 363
 m 230 Y s [] 0 sd 1 lw 1020 593 m 230 Y s [] 0 sd 1 lw 1014 593 m 6 X s [] 0 sd 1 lw 1020 593 m 6 X s [] 0 sd 1 lw 1020
 593 m20 [] 0 sd 1 lw [] 0 sd 1 lw 1032 461 m 267 Y s [] 0 sd 1 lw 1032 728 m 267 Y s [] 0 sd 1 lw 1026 728 m 6 X s
 [] 0 sd 1 lw 1032 728 m 6 X s [] 0 sd 1 lw 1032 728 m20 [] 0 sd 1 lw [] 0 sd 1 lw 1044 460 m 265 Y s [] 0 sd 1 lw 1044
 725 m 266 Y s [] 0 sd 1 lw 1038 725 m 6 X s [] 0 sd 1 lw 1044 725 m 6 X s [] 0 sd 1 lw 1044 725 m20 [] 0 sd 1 lw
 [] 0 sd 1 lw 1050 194 m 5 X s [] 0 sd 1 lw 1055 194 m 6 X s [] 0 sd 1 lw 1067 273 m 191 Y s [] 0 sd 1 lw 1067 464 m 190
 Y s [] 0 sd 1 lw 1061 464 m 6 X s [] 0 sd 1 lw 1067 464 m 6 X s [] 0 sd 1 lw 1067 464 m20 [] 0 sd 1 lw [] 0 sd 1 lw
 1079 369 m 238 Y s [] 0 sd 1 lw 1079 607 m 238 Y s [] 0 sd 1 lw 1073 607 m 6 X s [] 0 sd 1 lw 1079 607 m 6 X s [] 0 sd
 1 lw 1079 607 m20 [] 0 sd 1 lw [] 0 sd 1 lw 1091 372 m 243 Y s [] 0 sd 1 lw 1091 615 m 243 Y s [] 0 sd 1 lw 1085 615 m
 6 X s [] 0 sd 1 lw 1091 615 m 6 X s [] 0 sd 1 lw 1091 615 m20 [] 0 sd 1 lw [] 0 sd 1 lw 1103 278 m 200 Y s [] 0 sd 1 lw
 1103 478 m 201 Y s [] 0 sd 1 lw 1097 478 m 6 X s [] 0 sd 1 lw 1103 478 m 5 X s [] 0 sd 1 lw 1103 478 m20 [] 0 sd 1 lw
 [] 0 sd 1 lw 1108 194 m 6 X s [] 0 sd 1 lw 1114 194 m 6 X s [] 0 sd 1 lw 1126 474 m 281 Y s [] 0 sd 1 lw 1126 755 m 280
 Y s [] 0 sd 1 lw 1120 755 m 6 X s [] 0 sd 1 lw 1126 755 m 6 X s [] 0 sd 1 lw 1126 755 m20 [] 0 sd 1 lw [] 0 sd 1 lw
 1138 194 m 138 Y s [] 0 sd 1 lw 1138 332 m 138 Y s [] 0 sd 1 lw 1132 332 m 6 X s [] 0 sd 1 lw 1138 332 m 6 X s [] 0 sd
 1 lw 1138 332 m20 [] 0 sd 1 lw [] 0 sd 1 lw 1150 194 m 139 Y s [] 0 sd 1 lw 1150 333 m 139 Y s [] 0 sd 1 lw 1144 333 m
 6 X s [] 0 sd 1 lw 1150 333 m 6 X s [] 0 sd 1 lw 1150 333 m20 [] 0 sd 1 lw [] 0 sd 1 lw 1162 376 m 248 Y s [] 0 sd 1 lw
 1162 624 m 248 Y s [] 0 sd 1 lw 1156 624 m 6 X s [] 0 sd 1 lw 1162 624 m 5 X s [] 0 sd 1 lw 1162 624 m20 [] 0 sd 1 lw
 [] 0 sd 1 lw 1173 376 m 250 Y s [] 0 sd 1 lw 1173 626 m 249 Y s [] 0 sd 1 lw 1167 626 m 6 X s [] 0 sd 1 lw 1173 626 m 6
 X s [] 0 sd 1 lw 1173 626 m20 [] 0 sd 1 lw [] 0 sd 1 lw 1185 282 m 210 Y s [] 0 sd 1 lw 1185 492 m 210 Y s [] 0 sd 1 lw
 1179 492 m 6 X s [] 0 sd 1 lw 1185 492 m 6 X s [] 0 sd 1 lw 1185 492 m20 [] 0 sd 1 lw [] 0 sd 1 lw 1197 194 m 151 Y s
 [] 0 sd 1 lw 1197 345 m 151 Y s [] 0 sd 1 lw 1191 345 m 6 X s [] 0 sd 1 lw 1197 345 m 6 X s [] 0 sd 1 lw 1197 345 m20
 [] 0 sd 1 lw [] 0 sd 1 lw 1209 720 m 363 Y s [] 0 sd 1 lw 1209 1083 m 363 Y s [] 0 sd 1 lw 1203 1083 m 6 X s [] 0 sd 1
 lw 1209 1083 m 6 X s [] 0 sd 1 lw 1209 1083 m20 [] 0 sd 1 lw [] 0 sd 1 lw 1215 194 m 5 X s [] 0 sd 1 lw 1220 194 m 6 X
 s [] 0 sd 1 lw 1232 194 m 151 Y s [] 0 sd 1 lw 1232 345 m 150 Y s [] 0 sd 1 lw 1226 345 m 6 X s [] 0 sd 1 lw 1232 345 m
 6 X s [] 0 sd 1 lw 1232 345 m20 [] 0 sd 1 lw [] 0 sd 1 lw 1244 194 m 144 Y s [] 0 sd 1 lw 1244 338 m 144 Y s [] 0 sd 1
 lw 1238 338 m 6 X s [] 0 sd 1 lw 1244 338 m 6 X s [] 0 sd 1 lw 1244 338 m20 [] 0 sd 1 lw [] 0 sd 1 lw 1256 194 m 153 Y
 s [] 0 sd 1 lw 1256 347 m 154 Y s [] 0 sd 1 lw 1250 347 m 6 X s [] 0 sd 1 lw 1256 347 m 6 X s [] 0 sd 1 lw 1256 347 m20
 [] 0 sd 1 lw [] 0 sd 1 lw 1268 194 m 154 Y s [] 0 sd 1 lw 1268 348 m 153 Y s [] 0 sd 1 lw 1262 348 m 6 X s [] 0 sd 1 lw
 1268 348 m 6 X s [] 0 sd 1 lw 1268 348 m20 [] 0 sd 1 lw [] 0 sd 1 lw 1279 194 m 147 Y s [] 0 sd 1 lw 1279 341 m 147 Y s
 [] 0 sd 1 lw 1274 341 m 5 X s [] 0 sd 1 lw 1279 341 m 6 X s [] 0 sd 1 lw 1279 341 m20 [] 0 sd 1 lw [] 0 sd 1 lw 1291
 194 m 147 Y s [] 0 sd 1 lw 1291 341 m 147 Y s [] 0 sd 1 lw 1285 341 m 6 X s [] 0 sd 1 lw 1291 341 m 6 X s [] 0 sd 1 lw
 1291 341 m20 [] 0 sd 1 lw [] 0 sd 1 lw 1303 281 m 208 Y s [] 0 sd 1 lw 1303 489 m 209 Y s [] 0 sd 1 lw 1297 489 m 6 X s
 [] 0 sd 1 lw 1303 489 m 6 X s [] 0 sd 1 lw 1303 489 m20 [] 0 sd 1 lw [] 0 sd 1 lw 1315 280 m 206 Y s [] 0 sd 1 lw 1315
 486 m 207 Y s [] 0 sd 1 lw 1309 486 m 6 X s [] 0 sd 1 lw 1315 486 m 6 X s [] 0 sd 1 lw 1315 486 m20 [] 0 sd 1 lw
 [] 0 sd 1 lw 1327 194 m 156 Y s [] 0 sd 1 lw 1327 350 m 155 Y s [] 0 sd 1 lw 1321 350 m 6 X s [] 0 sd 1 lw 1327 350 m 6
 X s [] 0 sd 1 lw 1327 350 m20 [] 0 sd 1 lw [] 0 sd 1 lw 1338 284 m 216 Y s [] 0 sd 1 lw 1338 500 m 216 Y s [] 0 sd 1 lw
 1333 500 m 5 X s [] 0 sd 1 lw 1338 500 m 6 X s [] 0 sd 1 lw 1338 500 m20 [] 0 sd 1 lw [] 0 sd 1 lw 1350 281 m 211 Y s
 [] 0 sd 1 lw 1350 492 m 210 Y s [] 0 sd 1 lw 1344 492 m 6 X s [] 0 sd 1 lw 1350 492 m 6 X s [] 0 sd 1 lw 1350 492 m20
 [] 0 sd 1 lw [] 0 sd 1 lw 1362 194 m 147 Y s [] 0 sd 1 lw 1362 341 m 147 Y s [] 0 sd 1 lw 1356 341 m 6 X s [] 0 sd 1 lw
 1362 341 m 6 X s [] 0 sd 1 lw 1362 341 m20 [] 0 sd 1 lw [] 0 sd 1 lw 1374 387 m 263 Y s [] 0 sd 1 lw 1374 650 m 263 Y s
 [] 0 sd 1 lw 1368 650 m 6 X s [] 0 sd 1 lw 1374 650 m 6 X s [] 0 sd 1 lw 1374 650 m20 [] 0 sd 1 lw [] 0 sd 1 lw 1386
 285 m 220 Y s [] 0 sd 1 lw 1386 505 m 219 Y s [] 0 sd 1 lw 1380 505 m 6 X s [] 0 sd 1 lw 1386 505 m 5 X s [] 0 sd 1 lw
 1386 505 m20 [] 0 sd 1 lw [] 0 sd 1 lw 1397 621 m 346 Y s [] 0 sd 1 lw 1397 967 m 345 Y s [] 0 sd 1 lw 1391 967 m 6 X s
 [] 0 sd 1 lw 1397 967 m 6 X s [] 0 sd 1 lw 1397 967 m20 [] 0 sd 1 lw [] 0 sd 1 lw 1409 389 m 266 Y s [] 0 sd 1 lw 1409
 655 m 265 Y s [] 0 sd 1 lw 1403 655 m 6 X s [] 0 sd 1 lw 1409 655 m 6 X s [] 0 sd 1 lw 1409 655 m20 [] 0 sd 1 lw
 [] 0 sd 1 lw 1421 387 m 263 Y s [] 0 sd 1 lw 1421 650 m 263 Y s [] 0 sd 1 lw 1415 650 m 6 X s [] 0 sd 1 lw 1421 650 m 6
 X s [] 0 sd 1 lw 1421 650 m20 [] 0 sd 1 lw [] 0 sd 1 lw 1433 863 m 406 Y s [] 0 sd 1 lw 1433 1269 m 406 Y s [] 0 sd 1
 lw 1427 1269 m 6 X s [] 0 sd 1 lw 1433 1269 m 6 X s [] 0 sd 1 lw 1433 1269 m20 [] 0 sd 1 lw [] 0 sd 1 lw 1445 194 m 149
 Y s [] 0 sd 1 lw 1445 343 m 149 Y s [] 0 sd 1 lw 1439 343 m 6 X s [] 0 sd 1 lw 1445 343 m 5 X s [] 0 sd 1 lw 1445 343
 m20 [] 0 sd 1 lw [] 0 sd 1 lw 1456 282 m 212 Y s [] 0 sd 1 lw 1456 494 m 212 Y s [] 0 sd 1 lw 1450 494 m 6 X s [] 0 sd
 1 lw 1456 494 m 6 X s [] 0 sd 1 lw 1456 494 m20 [] 0 sd 1 lw [] 0 sd 1 lw 1468 286 m 222 Y s [] 0 sd 1 lw 1468 508 m
 221 Y s [] 0 sd 1 lw 1462 508 m 6 X s [] 0 sd 1 lw 1468 508 m 6 X s [] 0 sd 1 lw 1468 508 m20 [] 0 sd 1 lw [] 0 sd 1 lw
 1480 610 m 337 Y s [] 0 sd 1 lw 1480 947 m 337 Y s [] 0 sd 1 lw 1474 947 m 6 X s [] 0 sd 1 lw 1480 947 m 6 X s [] 0 sd
 1 lw 1480 947 m20 [] 0 sd 1 lw [] 0 sd 1 lw 1486 194 m 6 X s [] 0 sd 1 lw 1492 194 m 6 X s [] 0 sd 1 lw 1503 382 m 256
 Y s [] 0 sd 1 lw 1503 638 m 257 Y s [] 0 sd 1 lw 1498 638 m 5 X s [] 0 sd 1 lw 1503 638 m 6 X s [] 0 sd 1 lw 1503 638
 m20 [] 0 sd 1 lw [] 0 sd 1 lw 1515 495 m 301 Y s [] 0 sd 1 lw 1515 796 m 301 Y s [] 0 sd 1 lw 1509 796 m 6 X s [] 0 sd
 1 lw 1515 796 m 6 X s [] 0 sd 1 lw 1515 796 m20 [] 0 sd 1 lw [] 0 sd 1 lw 1527 281 m 211 Y s [] 0 sd 1 lw 1527 492 m
 211 Y s [] 0 sd 1 lw 1521 492 m 6 X s [] 0 sd 1 lw 1527 492 m 6 X s [] 0 sd 1 lw 1527 492 m20 [] 0 sd 1 lw [] 0 sd 1 lw
 1539 494 m 300 Y s [] 0 sd 1 lw 1539 794 m 300 Y s [] 0 sd 1 lw 1533 794 m 6 X s [] 0 sd 1 lw 1539 794 m 6 X s [] 0 sd
 1 lw 1539 794 m20 [] 0 sd 1 lw [] 0 sd 1 lw 1551 608 m 334 Y s [] 0 sd 1 lw 1551 942 m 334 Y s [] 0 sd 1 lw 1545 942 m
 6 X s [] 0 sd 1 lw 1551 942 m 6 X s [] 0 sd 1 lw 1551 942 m20 [] 0 sd 1 lw [] 0 sd 1 lw 1557 194 m 5 X s [] 0 sd 1 lw
 1562 194 m 6 X s [] 0 sd 1 lw 1574 284 m 215 Y s [] 0 sd 1 lw 1574 499 m 215 Y s [] 0 sd 1 lw 1568 499 m 6 X s [] 0 sd
 1 lw 1574 499 m 6 X s [] 0 sd 1 lw 1574 499 m20 [] 0 sd 1 lw [] 0 sd 1 lw 1580 194 m 6 X s [] 0 sd 1 lw 1586 194 m 6 X
 s [] 0 sd 1 lw 1598 486 m 291 Y s [] 0 sd 1 lw 1598 777 m 291 Y s [] 0 sd 1 lw 1592 777 m 6 X s [] 0 sd 1 lw 1598 777 m
 6 X s [] 0 sd 1 lw 1598 777 m20 [] 0 sd 1 lw [] 0 sd 1 lw 1610 281 m 210 Y s [] 0 sd 1 lw 1610 491 m 209 Y s [] 0 sd 1
 lw 1604 491 m 6 X s [] 0 sd 1 lw 1610 491 m 6 X s [] 0 sd 1 lw 1610 491 m20 [] 0 sd 1 lw [] 0 sd 1 lw 1621 281 m 208 Y
 s [] 0 sd 1 lw 1621 489 m 209 Y s [] 0 sd 1 lw 1616 489 m 5 X s [] 0 sd 1 lw 1621 489 m 6 X s [] 0 sd 1 lw 1621 489 m20
 [] 0 sd 1 lw [] 0 sd 1 lw 1633 194 m 151 Y s [] 0 sd 1 lw 1633 345 m 151 Y s [] 0 sd 1 lw 1627 345 m 6 X s [] 0 sd 1 lw
 1633 345 m 6 X s [] 0 sd 1 lw 1633 345 m20 [] 0 sd 1 lw [] 0 sd 1 lw 1645 280 m 208 Y s [] 0 sd 1 lw 1645 488 m 208 Y s
 [] 0 sd 1 lw 1639 488 m 6 X s [] 0 sd 1 lw 1645 488 m 6 X s [] 0 sd 1 lw 1645 488 m20 [] 0 sd 1 lw [] 0 sd 1 lw 1657
 194 m 145 Y s [] 0 sd 1 lw 1657 339 m 144 Y s [] 0 sd 1 lw 1651 339 m 6 X s [] 0 sd 1 lw 1657 339 m 6 X s [] 0 sd 1 lw
 1657 339 m20 [] 0 sd 1 lw [] 0 sd 1 lw 1669 194 m 144 Y s [] 0 sd 1 lw 1669 338 m 144 Y s [] 0 sd 1 lw 1663 338 m 6 X s
 [] 0 sd 1 lw 1669 338 m 5 X s [] 0 sd 1 lw 1669 338 m20 [] 0 sd 1 lw [] 0 sd 1 lw 1680 381 m 256 Y s [] 0 sd 1 lw 1680
 637 m 256 Y s [] 0 sd 1 lw 1674 637 m 6 X s [] 0 sd 1 lw 1680 637 m 6 X s [] 0 sd 1 lw 1680 637 m20 [] 0 sd 1 lw
 [] 0 sd 1 lw 1692 194 m 148 Y s [] 0 sd 1 lw 1692 342 m 147 Y s [] 0 sd 1 lw 1686 342 m 6 X s [] 0 sd 1 lw 1692 342 m 6
 X s [] 0 sd 1 lw 1692 342 m20 [] 0 sd 1 lw [] 0 sd 1 lw 1704 277 m 201 Y s [] 0 sd 1 lw 1704 478 m 200 Y s [] 0 sd 1 lw
 1698 478 m 6 X s [] 0 sd 1 lw 1704 478 m 6 X s [] 0 sd 1 lw 1704 478 m20 [] 0 sd 1 lw [] 0 sd 1 lw 1716 480 m 286 Y s
 [] 0 sd 1 lw 1716 766 m 286 Y s [] 0 sd 1 lw 1710 766 m 6 X s [] 0 sd 1 lw 1716 766 m 6 X s [] 0 sd 1 lw 1716 766 m20
 [] 0 sd 1 lw [] 0 sd 1 lw 1728 278 m 201 Y s [] 0 sd 1 lw 1728 479 m 201 Y s [] 0 sd 1 lw 1722 479 m 6 X s [] 0 sd 1 lw
 1728 479 m 5 X s [] 0 sd 1 lw 1728 479 m20 [] 0 sd 1 lw [] 0 sd 1 lw 1739 481 m 286 Y s [] 0 sd 1 lw 1739 767 m 287 Y s
 [] 0 sd 1 lw 1733 767 m 6 X s [] 0 sd 1 lw 1739 767 m 6 X s [] 0 sd 1 lw 1739 767 m20 [] 0 sd 1 lw [] 0 sd 1 lw 1751
 694 m 345 Y s [] 0 sd 1 lw 1751 1039 m 345 Y s [] 0 sd 1 lw 1745 1039 m 6 X s [] 0 sd 1 lw 1751 1039 m 6 X s [] 0 sd 1
 lw 1751 1039 m20 [] 0 sd 1 lw [] 0 sd 1 lw 1763 194 m 146 Y s [] 0 sd 1 lw 1763 340 m 146 Y s [] 0 sd 1 lw 1757 340 m 6
 X s [] 0 sd 1 lw 1763 340 m 6 X s [] 0 sd 1 lw 1763 340 m20 [] 0 sd 1 lw [] 0 sd 1 lw 1775 277 m 200 Y s [] 0 sd 1 lw
 1775 477 m 199 Y s [] 0 sd 1 lw 1769 477 m 6 X s [] 0 sd 1 lw 1775 477 m 6 X s [] 0 sd 1 lw 1775 477 m20 [] 0 sd 1 lw
 [] 0 sd 1 lw 1787 280 m 206 Y s [] 0 sd 1 lw 1787 486 m 206 Y s [] 0 sd 1 lw 1781 486 m 6 X s [] 0 sd 1 lw 1787 486 m 5
 X s [] 0 sd 1 lw 1787 486 m20 [] 0 sd 1 lw [] 0 sd 1 lw 1792 194 m 6 X s [] 0 sd 1 lw 1798 194 m 6 X s [] 0 sd 1 lw
 1810 279 m 204 Y s [] 0 sd 1 lw 1810 483 m 204 Y s [] 0 sd 1 lw 1804 483 m 6 X s [] 0 sd 1 lw 1810 483 m 6 X s [] 0 sd
 1 lw 1810 483 m20 [] 0 sd 1 lw [] 0 sd 1 lw 1822 373 m 245 Y s [] 0 sd 1 lw 1822 618 m 244 Y s [] 0 sd 1 lw 1816 618 m
 6 X s [] 0 sd 1 lw 1822 618 m 6 X s [] 0 sd 1 lw 1822 618 m20 [] 0 sd 1 lw [] 0 sd 1 lw 1834 483 m 288 Y s [] 0 sd 1 lw
 1834 771 m 289 Y s [] 0 sd 1 lw 1828 771 m 6 X s [] 0 sd 1 lw 1834 771 m 6 X s [] 0 sd 1 lw 1834 771 m20 [] 0 sd 1 lw
 [] 0 sd 1 lw 1845 819 m 379 Y s [] 0 sd 1 lw 1845 1198 m 379 Y s [] 0 sd 1 lw 1840 1198 m 5 X s [] 0 sd 1 lw 1845 1198
 m 6 X s [] 0 sd 1 lw 1845 1198 m20 [] 0 sd 1 lw [] 0 sd 1 lw 1857 194 m 138 Y s [] 0 sd 1 lw 1857 332 m 137 Y s [] 0 sd
 1 lw 1851 332 m 6 X s [] 0 sd 1 lw 1857 332 m 6 X s [] 0 sd 1 lw 1857 332 m20 [] 0 sd 1 lw [] 0 sd 1 lw 1863 194 m 6 X
 s [] 0 sd 1 lw 1869 194 m 6 X s [] 0 sd 1 lw 1881 194 m 144 Y s [] 0 sd 1 lw 1881 338 m 143 Y s [] 0 sd 1 lw 1875 338 m
 6 X s [] 0 sd 1 lw 1881 338 m 6 X s [] 0 sd 1 lw 1881 338 m20 [] 0 sd 1 lw [] 0 sd 1 lw 1893 466 m 272 Y s [] 0 sd 1 lw
 1893 738 m 271 Y s [] 0 sd 1 lw 1887 738 m 6 X s [] 0 sd 1 lw 1893 738 m 6 X s [] 0 sd 1 lw 1893 738 m20 [] 0 sd 1 lw
 [] 0 sd 1 lw 1904 194 m 141 Y s [] 0 sd 1 lw 1904 335 m 141 Y s [] 0 sd 1 lw 1899 335 m 5 X s [] 0 sd 1 lw 1904 335 m 6
 X s [] 0 sd 1 lw 1904 335 m20 [] 0 sd 1 lw [] 0 sd 1 lw 1916 274 m 193 Y s [] 0 sd 1 lw 1916 467 m 193 Y s [] 0 sd 1 lw
 1910 467 m 6 X s [] 0 sd 1 lw 1916 467 m 6 X s [] 0 sd 1 lw 1916 467 m20 [] 0 sd 1 lw [] 0 sd 1 lw 1928 466 m 272 Y s
 [] 0 sd 1 lw 1928 738 m 271 Y s [] 0 sd 1 lw 1922 738 m 6 X s [] 0 sd 1 lw 1928 738 m 6 X s [] 0 sd 1 lw 1928 738 m20
 [] 0 sd 1 lw [] 0 sd 1 lw 1940 367 m 236 Y s [] 0 sd 1 lw 1940 603 m 237 Y s [] 0 sd 1 lw 1934 603 m 6 X s [] 0 sd 1 lw
 1940 603 m 6 X s [] 0 sd 1 lw 1940 603 m20 [] 0 sd 1 lw [] 0 sd 1 lw 1952 194 m 134 Y s [] 0 sd 1 lw 1952 328 m 134 Y s
 [] 0 sd 1 lw 1946 328 m 6 X s [] 0 sd 1 lw 1952 328 m 5 X s [] 0 sd 1 lw 1952 328 m20 [] 0 sd 1 lw [] 0 sd 1 lw 1963
 194 m 133 Y s [] 0 sd 1 lw 1963 327 m 133 Y s [] 0 sd 1 lw 1957 327 m 6 X s [] 0 sd 1 lw 1963 327 m 6 X s [] 0 sd 1 lw
 1963 327 m20 [] 0 sd 1 lw [] 0 sd 1 lw 1975 364 m 231 Y s [] 0 sd 1 lw 1975 595 m 231 Y s [] 0 sd 1 lw 1969 595 m 6 X s
 [] 0 sd 1 lw 1975 595 m 6 X s [] 0 sd 1 lw 1975 595 m20 [] 0 sd 1 lw [] 0 sd 1 lw 1987 365 m 233 Y s [] 0 sd 1 lw 1987
 598 m 233 Y s [] 0 sd 1 lw 1981 598 m 6 X s [] 0 sd 1 lw 1987 598 m 6 X s [] 0 sd 1 lw 1987 598 m20 [] 0 sd 1 lw
 [] 0 sd 1 lw 1993 194 m 6 X s [] 0 sd 1 lw 1999 194 m 6 X s [] 0 sd 1 lw 2011 194 m 136 Y s [] 0 sd 1 lw 2011 330 m 135
 Y s [] 0 sd 1 lw 2005 330 m 6 X s [] 0 sd 1 lw 2011 330 m 5 X s [] 0 sd 1 lw 2011 330 m20 [] 0 sd 1 lw [] 0 sd 1 lw
 2022 194 m 135 Y s [] 0 sd 1 lw 2022 329 m 135 Y s [] 0 sd 1 lw 2016 329 m 6 X s [] 0 sd 1 lw 2022 329 m 6 X s [] 0 sd
 1 lw 2022 329 m20 [] 0 sd 1 lw [] 0 sd 1 lw 2034 268 m 178 Y s [] 0 sd 1 lw 2034 446 m 178 Y s [] 0 sd 1 lw 2028 446 m
 6 X s [] 0 sd 1 lw 2034 446 m 6 X s [] 0 sd 1 lw 2034 446 m20 [] 0 sd 1 lw [] 0 sd 1 lw 2046 268 m 176 Y s [] 0 sd 1 lw
 2046 444 m 177 Y s [] 0 sd 1 lw 2040 444 m 6 X s [] 0 sd 1 lw 2046 444 m 6 X s [] 0 sd 1 lw 2046 444 m20 [] 0 sd 1 lw
 [] 0 sd 1 lw 2058 356 m 221 Y s [] 0 sd 1 lw 2058 577 m 220 Y s [] 0 sd 1 lw 2052 577 m 6 X s [] 0 sd 1 lw 2058 577 m 6
 X s [] 0 sd 1 lw 2058 577 m20 [] 0 sd 1 lw [] 0 sd 1 lw 2070 350 m 212 Y s [] 0 sd 1 lw 2070 562 m 212 Y s [] 0 sd 1 lw
 2064 562 m 6 X s [] 0 sd 1 lw 2070 562 m 5 X s [] 0 sd 1 lw 2070 562 m20 [] 0 sd 1 lw [] 0 sd 1 lw 2081 267 m 175 Y s
 [] 0 sd 1 lw 2081 442 m 174 Y s [] 0 sd 1 lw 2075 442 m 6 X s [] 0 sd 1 lw 2081 442 m 6 X s [] 0 sd 1 lw 2081 442 m20
 [] 0 sd 1 lw [] 0 sd 1 lw 2093 267 m 176 Y s [] 0 sd 1 lw 2093 443 m 175 Y s [] 0 sd 1 lw 2087 443 m 6 X s [] 0 sd 1 lw
 2093 443 m 6 X s [] 0 sd 1 lw 2093 443 m20 [] 0 sd 1 lw [] 0 sd 1 lw 2099 194 m 6 X s [] 0 sd 1 lw 2105 194 m 6 X s
 [] 0 sd 1 lw 2117 194 m 124 Y s [] 0 sd 1 lw 2117 318 m 124 Y s [] 0 sd 1 lw 2111 318 m 6 X s [] 0 sd 1 lw 2117 318 m 6
 X s [] 0 sd 1 lw 2117 318 m20 [] 0 sd 1 lw [] 0 sd 1 lw 2128 265 m 170 Y s [] 0 sd 1 lw 2128 435 m 170 Y s [] 0 sd 1 lw
 2123 435 m 5 X s [] 0 sd 1 lw 2128 435 m 6 X s [] 0 sd 1 lw 2128 435 m20 [] 0 sd 1 lw [] 0 sd 1 lw 2134 194 m 6 X s
 [] 0 sd 1 lw 2140 194 m 6 X s [] 0 sd 1 lw 2152 264 m 170 Y s [] 0 sd 1 lw 2152 434 m 169 Y s [] 0 sd 1 lw 2146 434 m 6
 X s [] 0 sd 1 lw 2152 434 m 6 X s [] 0 sd 1 lw 2152 434 m20 [] 0 sd 1 lw [] 0 sd 1 lw 2164 264 m 167 Y s [] 0 sd 1 lw
 2164 431 m 168 Y s [] 0 sd 1 lw 2158 431 m 6 X s [] 0 sd 1 lw 2164 431 m 6 X s [] 0 sd 1 lw 2164 431 m20 [] 0 sd 1 lw
 [] 0 sd 1 lw 2176 263 m 166 Y s [] 0 sd 1 lw 2176 429 m 166 Y s [] 0 sd 1 lw 2170 429 m 6 X s [] 0 sd 1 lw 2176 429 m 6
 X s [] 0 sd 1 lw 2176 429 m20 [] 0 sd 1 lw [] 0 sd 1 lw 2187 194 m 121 Y s [] 0 sd 1 lw 2187 315 m 120 Y s [] 0 sd 1 lw
 2182 315 m 5 X s [] 0 sd 1 lw 2187 315 m 6 X s [] 0 sd 1 lw 2187 315 m20 [] 0 sd 1 lw [] 0 sd 1 lw 2199 194 m 114 Y s
 [] 0 sd 1 lw 2199 308 m 114 Y s [] 0 sd 1 lw 2193 308 m 6 X s [] 0 sd 1 lw 2199 308 m 6 X s [] 0 sd 1 lw 2199 308 m20
 [] 0 sd 1 lw [] 0 sd 1 lw 2211 338 m 197 Y s [] 0 sd 1 lw 2211 535 m 196 Y s [] 0 sd 1 lw 2205 535 m 6 X s [] 0 sd 1 lw
 2211 535 m 6 X s [] 0 sd 1 lw 2211 535 m20 [] 0 sd 1 lw [] 0 sd 1 lw 2223 419 m 224 Y s [] 0 sd 1 lw 2223 643 m 224 Y s
 [] 0 sd 1 lw 2217 643 m 6 X s [] 0 sd 1 lw 2223 643 m 6 X s [] 0 sd 1 lw 2223 643 m20 [] 0 sd 1 lw [] 0 sd 1 lw 2235
 194 m 117 Y s [] 0 sd 1 lw 2235 311 m 117 Y s [] 0 sd 1 lw 2229 311 m 6 X s [] 0 sd 1 lw 2235 311 m 6 X s [] 0 sd 1 lw
 2235 311 m20 [] 0 sd 1 lw [] 0 sd 1 lw 2246 422 m 227 Y s [] 0 sd 1 lw 2246 649 m 227 Y s [] 0 sd 1 lw 2241 649 m 5 X s
 [] 0 sd 1 lw 2246 649 m 6 X s [] 0 sd 1 lw 2246 649 m20 [] 0 sd 1 lw [] 0 sd 1 lw 2258 194 m 115 Y s [] 0 sd 1 lw 2258
 309 m 115 Y s [] 0 sd 1 lw 2252 309 m 6 X s [] 0 sd 1 lw 2258 309 m 6 X s [] 0 sd 1 lw 2258 309 m20 [] 0 sd 1 lw
 [] 0 sd 1 lw 2270 260 m 160 Y s [] 0 sd 1 lw 2270 420 m 159 Y s [] 0 sd 1 lw 2264 420 m 6 X s [] 0 sd 1 lw 2270 420 m 6
 X s [] 0 sd 1 lw 2270 420 m20 [] 0 sd 1 lw [] 0 sd 1 lw 2282 419 m 225 Y s [] 0 sd 1 lw 2282 644 m 224 Y s [] 0 sd 1 lw
 2276 644 m 6 X s [] 0 sd 1 lw 2282 644 m 6 X s [] 0 sd 1 lw 2282 644 m20 [] 0 sd 1 lw [] 0 sd 1 lw 2294 499 m 247 Y s
 [] 0 sd 1 lw 2294 746 m 247 Y s [] 0 sd 1 lw 2288 746 m 6 X s [] 0 sd 1 lw 2294 746 m 5 X s [] 0 sd 1 lw 2294 746 m20
 [] 0 sd 1 lw [] 0 sd 1 lw 2305 415 m 220 Y s [] 0 sd 1 lw 2305 635 m 220 Y s [] 0 sd 1 lw 2299 635 m 6 X s [] 0 sd 1 lw
 2305 635 m 6 X s [] 0 sd 1 lw 2305 635 m20 [] 0 sd 1 lw [] 0 sd 1 lw 2317 194 m 107 Y s [] 0 sd 1 lw 2317 301 m 106 Y s
 [] 0 sd 1 lw 2311 301 m 6 X s [] 0 sd 1 lw 2317 301 m 6 X s [] 0 sd 1 lw 2317 301 m20 [] 0 sd 1 lw [] 0 sd 1 lw 2329
 332 m 188 Y s [] 0 sd 1 lw 2329 520 m 188 Y s [] 0 sd 1 lw 2323 520 m 6 X s [] 0 sd 1 lw 2329 520 m 6 X s [] 0 sd 1 lw
 2329 520 m20 [] 0 sd 1 lw [] 0 sd 1 lw 2341 194 m 104 Y s [] 0 sd 1 lw 2341 298 m 104 Y s [] 0 sd 1 lw 2335 298 m 6 X s
 [] 0 sd 1 lw 2341 298 m 6 X s [] 0 sd 1 lw 2341 298 m20 [] 0 sd 1 lw [] 0 sd 1 lw 2353 330 m 185 Y s [] 0 sd 1 lw 2353
 515 m 185 Y s [] 0 sd 1 lw 2347 515 m 6 X s [] 0 sd 1 lw 2353 515 m 5 X s [] 0 sd 1 lw 2353 515 m20 [] 0 sd 1 lw
 [] 0 sd 1 lw 2364 258 m 152 Y s [] 0 sd 1 lw 2364 410 m 153 Y s [] 0 sd 1 lw 2358 410 m 6 X s [] 0 sd 1 lw 2364 410 m 6
 X s [] 0 sd 1 lw 2364 410 m20 [] 0 sd 1 lw [] 0 sd 1 lw 2376 254 m 144 Y s [] 0 sd 1 lw 2376 398 m 144 Y s [] 0 sd 1 lw
 2370 398 m 6 X s [] 0 sd 1 lw 2376 398 m 6 X s [] 0 sd 1 lw 2376 398 m20 [] 0 sd 1 lw [] 0 sd 1 lw 2388 401 m 207 Y s
 [] 0 sd 1 lw 2388 608 m 207 Y s [] 0 sd 1 lw 2382 608 m 6 X s [] 0 sd 1 lw 2388 608 m 6 X s [] 0 sd 1 lw 2388 608 m20
 [] 0 sd 1 lw [] 0 sd 1 lw 2400 194 m 99 Y s [] 0 sd 1 lw 2400 293 m 99 Y s [] 0 sd 1 lw 2394 293 m 6 X s [] 0 sd 1 lw
 2400 293 m 6 X s [] 0 sd 1 lw 2400 293 m20 [] 0 sd 1 lw [] 0 sd 1 lw 2411 396 m 201 Y s [] 0 sd 1 lw 2411 597 m 202 Y s
 [] 0 sd 1 lw 2406 597 m 5 X s [] 0 sd 1 lw 2411 597 m 6 X s [] 0 sd 1 lw 2411 597 m20 [] 0 sd 1 lw [] 0 sd 1 lw 2423
 194 m 99 Y s [] 0 sd 1 lw 2423 293 m 98 Y s [] 0 sd 1 lw 2417 293 m 6 X s [] 0 sd 1 lw 2423 293 m 6 X s [] 0 sd 1 lw
 2423 293 m20 [] 0 sd 1 lw [] 0 sd 1 lw 2435 322 m 174 Y s [] 0 sd 1 lw 2435 496 m 174 Y s [] 0 sd 1 lw 2429 496 m 6 X s
 [] 0 sd 1 lw 2435 496 m 6 X s [] 0 sd 1 lw 2435 496 m20 [] 0 sd 1 lw [] 0 sd 1 lw 2447 194 m 97 Y s [] 0 sd 1 lw 2447
 291 m 96 Y s [] 0 sd 1 lw 2441 291 m 6 X s [] 0 sd 1 lw 2447 291 m 6 X s [] 0 sd 1 lw 2447 291 m20 [] 0 sd 1 lw [] 0 sd
 1 lw 2459 251 m 137 Y s [] 0 sd 1 lw 2459 388 m 136 Y s [] 0 sd 1 lw 2453 388 m 6 X s [] 0 sd 1 lw 2459 388 m 6 X s
 [] 0 sd 1 lw 2459 388 m20 [] 0 sd 1 lw [] 0 sd 1 lw 2465 194 m 5 X s [] 0 sd 1 lw 2470 194 m 6 X s [] 0 sd 1 lw 2476
 194 m 6 X s [] 0 sd 1 lw 2482 194 m 6 X s [] 0 sd 1 lw 2488 194 m 6 X s [] 0 sd 1 lw 2494 194 m 6 X s [] 0 sd 1 lw 2500
 194 m 6 X s [] 0 sd 1 lw 2506 194 m 6 X s [] 0 sd 1 lw 2512 194 m 6 X s [] 0 sd 1 lw 2518 194 m 6 X s [] 0 sd 1 lw 2524
 194 m 5 X s [] 0 sd 1 lw 2529 194 m 6 X s [] 0 sd 1 lw 2535 194 m 6 X s [] 0 sd 1 lw 2541 194 m 6 X s [] 0 sd 1 lw 2547
 194 m 6 X s [] 0 sd 1 lw 2553 194 m 6 X s [] 0 sd 1 lw 2559 194 m 6 X s [] 0 sd 1 lw 2565 194 m 6 X s [] 0 sd 1 lw 2571
 194 m 6 X s [] 0 sd 1 lw 2577 194 m 5 X s [] 0 sd 1 lw 2582 194 m 6 X s [] 0 sd 1 lw 2588 194 m 6 X s [] 0 sd 1 lw 2594
 194 m 6 X s [] 0 sd 1 lw 2600 194 m 6 X s [] 0 sd 1 lw 2606 194 m 6 X s [] 0 sd 1 lw 2612 194 m 6 X s [] 0 sd 1 lw 2618
 194 m 6 X s [] 0 sd 1 lw 2624 194 m 6 X s [] 0 sd 1 lw 2630 194 m 6 X s [] 0 sd 1 lw 2636 194 m 5 X s [] 0 sd 1 lw 2641
 194 m 6 X s [] 0 sd 1 lw 2647 194 m 6 X s [] 0 sd 1 lw [] 0 sd 1 lw 295 194 m 2358 X s s
 /xs 0 def (Pseudorapidity) /Helvetica-Bold 72 stwn  gsave  2653 49
 t 0 r  xs neg 0 t 0 0 m /Helvetica-Bold findfont 72 sf 0 0 m (Pseudorapidity) show  gr  [] 0 sd 1 lw [] 0 sd 1 lw 501
 241 m -47 Y s s [] 0 sd 1 lw [] 0 sd 1 lw 599 218 m -24 Y s s [] 0 sd 1 lw [] 0 sd 1 lw 696 218 m -24 Y s s [] 0 sd 1
 lw [] 0 sd 1 lw 793 218 m -24 Y s s [] 0 sd 1 lw [] 0 sd 1 lw 890 218 m -24 Y s s [] 0 sd 1 lw [] 0 sd 1 lw 988 241 m
 -47 Y s s [] 0 sd 1 lw [] 0 sd 1 lw 1085 218 m -24 Y s s [] 0 sd 1 lw [] 0 sd 1 lw 1182 218 m -24 Y s s [] 0 sd 1 lw
 [] 0 sd 1 lw 1279 218 m -24 Y s s [] 0 sd 1 lw [] 0 sd 1 lw 1377 218 m -24 Y s s [] 0 sd 1 lw [] 0 sd 1 lw 1474 241 m
 -47 Y s s [] 0 sd 1 lw [] 0 sd 1 lw 1571 218 m -24 Y s s [] 0 sd 1 lw [] 0 sd 1 lw 1669 218 m -24 Y s s [] 0 sd 1 lw
 [] 0 sd 1 lw 1766 218 m -24 Y s s [] 0 sd 1 lw [] 0 sd 1 lw 1863 218 m -24 Y s s [] 0 sd 1 lw [] 0 sd 1 lw 1960 241 m
 -47 Y s s [] 0 sd 1 lw [] 0 sd 1 lw 2058 218 m -24 Y s s [] 0 sd 1 lw [] 0 sd 1 lw 2155 218 m -24 Y s s [] 0 sd 1 lw
 [] 0 sd 1 lw 2252 218 m -24 Y s s [] 0 sd 1 lw [] 0 sd 1 lw 2349 218 m -24 Y s s [] 0 sd 1 lw [] 0 sd 1 lw 2447 241 m
 -47 Y s s [] 0 sd 1 lw [] 0 sd 1 lw 501 241 m -47 Y s s [] 0 sd 1 lw [] 0 sd 1 lw 404 218 m -24 Y s s [] 0 sd 1 lw
 [] 0 sd 1 lw 307 218 m -24 Y s s [] 0 sd 1 lw [] 0 sd 1 lw 2447 241 m -47 Y s s [] 0 sd 1 lw [] 0 sd 1 lw 2544 218 m
 -24 Y s s [] 0 sd 1 lw [] 0 sd 1 lw 2641 218 m -24 Y s s
 /xs 0 def (-1) /Helvetica-Bold 72 stwn  gsave  501 107
 t 0 r xs 2 div neg 0 t 0 0 m /Helvetica-Bold findfont 72 sf 0 0 m (-1) show  gr 
 /xs 0 def (-0.5) /Helvetica-Bold 72 stwn  gsave  988 107
 t 0 r xs 2 div neg 0 t 0 0 m /Helvetica-Bold findfont 72 sf 0 0 m (-0.5) show  gr 
 /xs 0 def (0) /Helvetica-Bold 72 stwn  gsave  1474 107
 t 0 r xs 2 div neg 0 t 0 0 m /Helvetica-Bold findfont 72 sf 0 0 m (0) show  gr 
 /xs 0 def (0.5) /Helvetica-Bold 72 stwn  gsave  1960 107
 t 0 r xs 2 div neg 0 t 0 0 m /Helvetica-Bold findfont 72 sf 0 0 m (0.5) show  gr 
 /xs 0 def (1) /Helvetica-Bold 72 stwn  gsave  2447 107
 t 0 r xs 2 div neg 0 t 0 0 m /Helvetica-Bold findfont 72 sf 0 0 m (1) show  gr  [] 0 sd 1 lw [] 0 sd 1 lw 295 194 m
 1556 Y s s
 /xs 0 def (Number of Hits \(cm) /Helvetica-Bold 72 stwn (-2\)) /Helvetica-Bold 50 stwn  gsave  136 1750
 t 90 r  xs neg 0 t 0 0 m /Helvetica-Bold findfont 72 sf 0 0 m (Number of Hits \(cm) show  currentpoint pop 0 t 
 /Helvetica-Bold findfont 50 sf 0 36 m (-2\)) show  gr  [] 0 sd 1 lw [] 0 sd 1 lw 366 194 m -71 X s s [] 0 sd 1 lw
 [] 0 sd 1 lw 330 249 m -35 X s s [] 0 sd 1 lw [] 0 sd 1 lw 330 303 m -35 X s s [] 0 sd 1 lw [] 0 sd 1 lw 330 358 m -35
 X s s [] 0 sd 1 lw [] 0 sd 1 lw 330 412 m -35 X s s [] 0 sd 1 lw [] 0 sd 1 lw 366 466 m -71 X s s [] 0 sd 1 lw [] 0 sd
 1 lw 330 521 m -35 X s s [] 0 sd 1 lw [] 0 sd 1 lw 330 575 m -35 X s s [] 0 sd 1 lw [] 0 sd 1 lw 330 629 m -35 X s s
 [] 0 sd 1 lw [] 0 sd 1 lw 330 684 m -35 X s s [] 0 sd 1 lw [] 0 sd 1 lw 366 738 m -71 X s s [] 0 sd 1 lw [] 0 sd 1 lw
 330 793 m -35 X s s [] 0 sd 1 lw [] 0 sd 1 lw 330 847 m -35 X s s [] 0 sd 1 lw [] 0 sd 1 lw 330 901 m -35 X s s [] 0 sd
 1 lw [] 0 sd 1 lw 330 956 m -35 X s s [] 0 sd 1 lw [] 0 sd 1 lw 366 1010 m -71 X s s [] 0 sd 1 lw [] 0 sd 1 lw 330 1065
 m -35 X s s [] 0 sd 1 lw [] 0 sd 1 lw 330 1119 m -35 X s s [] 0 sd 1 lw [] 0 sd 1 lw 330 1173 m -35 X s s [] 0 sd 1 lw
 [] 0 sd 1 lw 330 1228 m -35 X s s [] 0 sd 1 lw [] 0 sd 1 lw 366 1282 m -71 X s s [] 0 sd 1 lw [] 0 sd 1 lw 330 1336 m
 -35 X s s [] 0 sd 1 lw [] 0 sd 1 lw 330 1391 m -35 X s s [] 0 sd 1 lw [] 0 sd 1 lw 330 1445 m -35 X s s [] 0 sd 1 lw
 [] 0 sd 1 lw 330 1500 m -35 X s s [] 0 sd 1 lw [] 0 sd 1 lw 366 1554 m -71 X s s [] 0 sd 1 lw [] 0 sd 1 lw 366 1554 m
 -71 X s s [] 0 sd 1 lw [] 0 sd 1 lw 330 1608 m -35 X s s [] 0 sd 1 lw [] 0 sd 1 lw 330 1663 m -35 X s s [] 0 sd 1 lw
 [] 0 sd 1 lw 330 1717 m -35 X s s
 /xs 0 def (0) /Helvetica-Bold 72 stwn  gsave  280 174
 t 0 r  xs neg 0 t 0 0 m /Helvetica-Bold findfont 72 sf 0 0 m (0) show  gr 
 /xs 0 def (0.5) /Helvetica-Bold 72 stwn  gsave  280 446
 t 0 r  xs neg 0 t 0 0 m /Helvetica-Bold findfont 72 sf 0 0 m (0.5) show  gr 
 /xs 0 def (1) /Helvetica-Bold 72 stwn  gsave  280 718
 t 0 r  xs neg 0 t 0 0 m /Helvetica-Bold findfont 72 sf 0 0 m (1) show  gr 
 /xs 0 def (1.5) /Helvetica-Bold 72 stwn  gsave  280 989
 t 0 r  xs neg 0 t 0 0 m /Helvetica-Bold findfont 72 sf 0 0 m (1.5) show  gr 
 /xs 0 def (2) /Helvetica-Bold 72 stwn  gsave  280 1261
 t 0 r  xs neg 0 t 0 0 m /Helvetica-Bold findfont 72 sf 0 0 m (2) show  gr 
 /xs 0 def (2.5) /Helvetica-Bold 72 stwn  gsave  280 1533
 t 0 r  xs neg 0 t 0 0 m /Helvetica-Bold findfont 72 sf 0 0 m (2.5) show  gr  [] 0 sd 1 lw 0.95 0.95 0.95 c 1165 97 29
 1837 bf black [] 0 sd 1 lw 49 1837 m -13 Y 1158 X 91 Y -13 X -78 Y f [] 0 sd 1 lw 29 1837 m 97 Y s [] 0 sd 1 lw 29 1934
 m 1165 X s [] 0 sd 1 lw 1194 1934 m -97 Y s [] 0 sd 1 lw 1194 1837 m -1165 X s
 /xs 0 def (Hits for Layer 4 by Eta) /Helvetica-Bold 76 stwn  gsave  612 1864
 t 0 r xs 2 div neg 0 t 0 0 m /Helvetica-Bold findfont 76 sf 0 0 m (Hits for Layer 4 by Eta) show  gr  [] 0 sd 1 lw 0.95
 0.95 0.95 c 590 311 2299 1594 bf black [] 0 sd 1 lw 2319 1594 m -13 Y 583 X 305 Y -13 X -292 Y f [] 0 sd 1 lw 2299 1594
 m 311 Y s [] 0 sd 1 lw 2299 1905 m 590 X s [] 0 sd 1 lw 2889 1905 m -311 Y s [] 0 sd 1 lw 2889 1594 m -590 X s
 gsave  2329 1849
 t 0 r 0 0 m /Helvetica-Bold findfont 64 sf 0 0 m (hEtaEtapden_Eta4) show  gr 
 gsave  2329 1771
 t 0 r 0 0 m /Helvetica-Bold findfont 64 sf 0 0 m (Nent = 92    \040) show  gr 
 gsave  2329 1693
 t 0 r 0 0 m /Helvetica-Bold findfont 64 sf 0 0 m (Mean  = -0.02587) show  gr 
 gsave  2329 1615
 t 0 r 0 0 m /Helvetica-Bold findfont 64 sf 0 0 m (RMS   = 0.5586) show  gr  1 1 0 c gr 
showpage gr
 gr 
%%Trailer
%%Pages:  1
%%EOF
