%!PS-Adobe-2.0
%%Title: ITSHitDen_2_z.ps (Landscape A 4)
%%Pages: (atend)
%%Creator: ROOT Version 2.22/09
%%CreationDate:Sat Sep 18 07:10:20 1999
%%EndComments
%%BeginProlog
/s {stroke} def /l {lineto} def /m {moveto} def /t {translate} def
/sw {stringwidth} def /r {rotate} def /rl {roll}  def /R {repeat} def
/d {rlineto} def /rm {rmoveto} def /gr {grestore} def /f {eofill} def
/c {setrgbcolor} def /lw {setlinewidth} def /sd {setdash} def
/cl {closepath} def /sf {scalefont setfont} def /black {0 setgray} def
/box {m dup 0 exch d exch 0 d 0 exch neg d cl} def
/NC{systemdict begin initclip end}def/C{NC box clip newpath}def
/bl {box s} def /bf {box f} def /Y { 0 exch d} def /X { 0 d} def 
/mp {newpath /y exch def /x exch def} def
/side {[w .77 mul w .23 mul] .385 w mul sd w 0 l currentpoint t -144 r} def
/mr {mp x y w2 0 360 arc} def /m24 {mr s} def /m20 {mr f} def
/mb {mp x y w2 add m w2 neg 0 d 0 w neg d w 0 d 0 w d cl} def
/mt {mp x y w2 add m w2 neg w neg d w 0 d cl} def
/m21 {mb f} def /m25 {mb s} def /m22 {mt f} def /m26{mt s} def
/m23 {mp x y w2 sub m w2 w d w neg 0 d cl f} def
/m27 {mp x y w2 add m w3 neg w2 neg d w3 w2 neg d w3 w2 d cl s} def
/m28 {mp x w2 sub y w2 sub w3 add m w3 0 d  0 w3 neg d w3 0 d 0 w3 d w3 0 d  0 w3 d w3 neg 0 d 0 w3 d w3 neg 0 d
 0 w3 neg d w3 neg 0 d cl s } def
/m29 {mp gsave x w2 sub y w2 add w3 sub m currentpoint t
 4 {side} repeat cl fill gr} def
/m30 {mp gsave x w2 sub y w2 add w3 sub m currentpoint t
 5 {side} repeat s gr} def
/m31 {mp x y w2 sub m 0 w d x w2 sub y m w 0 d x w2 sub y w2 add m w w neg d x w2 sub y w2
 sub m w w d s} def
/m2 {mp x y w2 sub m 0 w d x w2 sub y m w 0 d s} def
/m5 {mp x w2 sub y w2 sub m w w d x w2 sub y w2 add m w w neg d s} def
/DP {/PT exch def gsave 47.2 47.2 scale PT 1  eq { 16 16 1 [ 16 0 0 16 neg 0 16
] { < AA AA 55 55 AA AA 55 55 AA AA 55 55 AA AA 55 55 AA AA 55 55 AA AA 55 55
AA AA 55 55 AA AA 55 55 > } image } if PT 2 eq { 16 16 1 [ 16 0 0 16 neg 0 16
] { < BB BB EE EE BB BB EE EE BB BB EE EE BB BB EE EE BB BB EE EE BB BB EE EE
BB BB EE EE BB BB EE EE > } image } if PT 3 eq { 16 16 1 [ 16 0 0 16 neg 0 16
] { < FF FF BB BB FF FF EE EE FF FF BB BB FF FF EE EE FF FF BB BB FF FF EE EE
FF FF BB BB FF FF EE EE > } image } if PT 4 eq { 16 16 1 [ 16 0 0 16 neg 0 16
] { < DF DF BF BF 7F 7F FE FE FD FD FB FB F7 F7 EF EF DF DF BF BF 7F 7F FE FE
FD FD FB FB F7 F7 EF EF > } image } if PT 5 eq { 16 16 1 [ 16 0 0 16 neg 0 16
] { < 7F 7F BF B F DF DF EF EF F7 F7 FB FB FD FD FE FE 7F 7F BF BF DF DF EF
EF F7 F7 FB FB FD FD FE FE > } image } if PT 6 eq { 16 16 1 [ 16 0 0 16 neg 0
16 ] { < BB BB BB BB BB BB BB BB BB BB BB BB BB BB BB BB BB BB BB BB BB BB BB
BB BB BB BB BB BB BB BB BB > } image } if PT 7 eq { 16 16 1 [ 16 0 0 16 neg 0
16 ] { < FF FF FF FF FF FF 00 00 FF FF FF FF FF FF 00 00 FF FF FF FF FF FF 00
00 FF FF FF FF FF FF 00 00 > } image } if PT 8 eq { 16 16 1 [ 16 0 0 16 neg 0
16 ] { < EE EE 47 47 83 83 C5 C5 EE EE 5C 5C 38 38 74 74 EE EE 47 47 83 83 C5
C5 EE EE 5C 5C 38 38 74 74 > } image } if PT 9 eq { 16 16 1 [ 16 0 0 16 neg 0
16 ] { < EF EF EF EF D7 D7 38 38 FE FE FE FE 7D 7D 83 83 EF EF EF EF D7 D7 38
38  FE FE FE FE 7D 7D 83 83 > } image } if PT 10 eq { 16 16 1 [ 16 0 0 16 neg
0 16 ] { <  EF EF EF EF EF EF 00 00 FE FE FE FE FE FE 00 00 EF EF EF EF EF EF
00 00 FE FE FE FE FE FE 00 00 > } image } if PT 11 eq { 16 16 1 [ 16 0 0 16
neg 0 16 ] { < F7 F7 B6 B6 D5 D5 E3 E3 D5 D5 B6 B6 F7 F7 FF FF 7F 7F 6B 6B 5D
5D 3E 3E 5D 5D 6B 6B 7F 7F FF FF > } image } if PT 12 eq { 16 16 1 [ 16 0 0
16 neg 0 16 ] { < E3 E3 DD DD BE BE BE BE BE BE DD DD E3 E3 FF FF 3E 3E DD DD
EB EB EB EB EB EB DD DD 3E 3E FF FF > } image } if PT 13 eq { 16 16 1 [ 16 0
0 16 neg 0 16 ] { <  FE FE 7D 7D BB BB D7 D7 EF EF D7 D7 BB BB 7D 7D FE FE 7D
7D BB BB D7 D7 EF EF D7 D7 BB BB 7D 7D > } image } if PT 14 eq { 16 16 1 [ 16
0 0 16 neg 0 16 ] { < 00 00 EE EF EE EF EE EF 0E E0 EE EE EE EE EE EE 00 EE
FE EE FE EE FE EE 00 00 FE EF FE EF FE EF > } image } if PT 15 eq { 16 16 1 [
16 0 0 16 neg 0 16 ] { < DD DD AA AA DD DD FF FF 77 77 AA AA 77 77 FF FF DD
DD AA AA DD DD FF FF 77 77 AA AA 77 77 FF FF > } image } if PT 16 eq { 16 16
1 [ 16 0 0 16 neg 0 16 ] { <  F1 F1 EE EE 1F 1F FF FF F1 F1 EE EE 1F 1F FF FF
F1 F1 EE EE 1F 1F FF FF F1 F1 EE EE 1F 1F FF FF > } image } if PT 17 eq { 16
16 1 [ 16 0 0 16 neg 0 16 ] { <  EE EE DD DD BB BB FF FF EE EE DD DD BB BB FF
 FF EE EE DD DD BB BB FF FF EE EE DD DD BB BB FF FF > } image } if PT 18 eq {
16 16 1 [ 16 0 0 16 neg 0 16 ] { <  BB BB DD DD EE EE FF FF BB BB DD DD EE EE
FF FF BB BB DD DD EE EE FF FF BB BB DD DD EE EE FF FF > } image } if PT 19 eq
{ 16 16 1 [ 16 0 0 16 neg 0 16 ] { < 1F FC 67 F3 7B EF BD DE BD DE DE BD E6
B3 F8 0F E6 B3 DE BD BD DE BD DE 7B EF 67 F3 1F FC 7F FF > } image } if PT
20 eq { 16 16 1 [ 16 0 0 16 neg 0 16 ] { < DD DD EE EE EE EE EE EE DD DD BB
BB BB BB BB BB DD DD EE EE EE EE EE EE DD DD BB BB BB BB BB BB > } image }
if PT 21 eq { 16 16 1 [ 16 0 0 16 neg 0 16 ] { < 0E 0E EF EF EF EF EF EF E0
E0 FE FE FE FE FE FE 0E 0E EF EF EF EF EF EF E0 E0 FE FE FE FE FE FE > }
image }  if PT 22 eq { 16 16 1 [ 16 0 0 16 neg 0 16 ] { < 70 70 F7 F7 F7 F7 F7
F7 07 07 7F 7F 7F 7F 7F 7F 70 70 F7 F7 F7 F7 F7 F7 07 07 7F 7F 7F 7F 7F 7F >
} image } if PT 23 eq  { 16 16 1 [ 16 0 0 16 neg 0 16 ] { < AA AA 55 55 A9 A9
D1 D1 E1 E1 D1 D1 A9 A9 55 55 AA AA 55 55 A9 A9 D1 D1 E1 E1 D1 D1 A9 A9 55 55
> } image } if PT 24 eq { 16 16 1 [ 16 0 0 16 neg 0 16 ] { < FF FE FF FC EA
A8 D5 54 EA A8 D5 54 E8 28 D4 54 E8 E8 D4 D4 E8 EA 54 D5 A8 EA 54 D5 00 C0 00
80 > } image } if PT 25 eq {  16 16 1 [ 16 0 0 16 neg 0 16 ] { < FF FE FF FC
FF F8 FF F0 F0 00 F0 00 F0 20 F0 60 F0 E0 F1 E0 F3 E0 F0 00 E0 00 C0 00 80 00
00 00 > } image } if gr } def /FA { /PT exch def gsave clip 0 0 translate 1 1
74 { 1 sub 47.2 mul /Xcurr exch def 1 1 74 { 1 sub 47.2 mul /Ycurr exch def
gsave Xcurr Ycurr translate PT DP gr } for } for gr newpath } def
/reencdict 24 dict def /ReEncode {reencdict begin /nco&na exch def
/nfnam exch def /basefontname exch def /basefontdict basefontname findfont def
/newfont basefontdict maxlength dict def basefontdict {exch dup /FID ne
{dup /Encoding eq {exch dup length array copy newfont 3 1 roll put} {exch 
newfont 3 1 roll put} ifelse} {pop pop} ifelse } forall newfont
/FontName nfnam put nco&na aload pop nco&na length 2 idiv {newfont
/Encoding get 3 1 roll put} repeat nfnam newfont definefont pop end } def
/accvec [ 176 /agrave 181 /Agrave 190 /acircumflex 192 /Acircumflex
201 /adieresis 204 /Adieresis 209 /ccedilla 210 /Ccedilla 211 /eacute
212 /Eacute 213 /egrave 214 /Egrave 215 /ecircumflex 216 /Ecircumflex
217 /edieresis 218 /Edieresis 219 /icircumflex 220 /Icircumflex
221 /idieresis 222 /Idieresis 223 /ntilde 224 /Ntilde 226 /ocircumflex
228 /Ocircumflex 229 /odieresis 230 /Odieresis 231 /ucircumflex 236 /Ucircumflex
237 /udieresis 238 /Udieresis 239 /aring 242 /Aring 243 /ydieresis
244 /Ydieresis 246 /aacute 247 /Aacute 252 /ugrave 253 /Ugrave] def
/Times-Roman /Times-Roman accvec ReEncode
/Times-Italic /Times-Italic accvec ReEncode
/Times-Bold /Times-Bold accvec ReEncode
/Times-BoldItalic /Times-BoldItalic accvec ReEncode
/Helvetica /Helvetica accvec ReEncode
/Helvetica-Oblique /Helvetica-Oblique accvec ReEncode
/Helvetica-Bold /Helvetica-Bold accvec ReEncode
/Helvetica-BoldOblique /Helvetica-BoldOblique  accvec ReEncode
/Courier /Courier accvec ReEncode
/Courier-Oblique /Courier-Oblique accvec ReEncode
/Courier-Bold /Courier-Bold accvec ReEncode
/Courier-BoldOblique /Courier-BoldOblique accvec ReEncode
/oshow {gsave [] 0 sd true charpath stroke gr} def
/stwn { /fs exch def /fn exch def /text exch def fn findfont fs sf
 text sw pop xs add /xs exch def} def
/stwb { /fs exch def /fn exch def /nbas exch def /textf exch def
textf length /tlen exch def nbas tlen gt {/nbas tlendef} if
fn findfont fs sf textf dup length nbas sub nbas getinterval sw
pop neg xs add /xs exch def} def
/accspe [ 65 /plusminus  66 /bar  67 /existential  68 /universal 
69 /exclam  70 /numbersign 71 /greater  72 /question  73 /integral 
74 /colon  75 /semicolon  76 /less  77 /bracketleft  78 /bracketright
79 /greaterequal 80 /braceleft 81 /braceright 82 /radical
83 /spade 84 /heart 85 /diamond 86 /club 87 /lessequal
88 /multiply 89 /percent 90 /infinity 48 /circlemultiply 49 /circleplus
50 /emptyset  51 /lozenge 52 /bullet 53 /arrowright 54 /arrowup
55 /arrowleft 56 /arrowdown 57 /arrowboth 48 /degree 44 /comma 43 /plus 45 /angle 42 /angleleft 47 /divide 61 /notequal
 40 /equivalence 41 /second 97 /approxequal 98 /congruent 99 /perpendicular 100 /partialdiff 101 /florin
 102 /intersection 103 /union 104 /propersuperset 105 /reflexsuperset 106 /notsubset 107 /propersubset 108 /reflexsubset
 109 /element 110 /notelement 111 /gradient 112 /logicaland 113 /logicalor 114 /arrowdblboth 115 /arrowdblleft
 116 /arrowdblup 117 /arrowdblright 118 /arrowdbldown 119 /ampersand 120 /omega1 121 /similar 122 /aleph ] def
/Symbol /Special accspe ReEncode
/Zone {/iy exch def /ix exch def  ix 1 sub  3144 mul  1 iy sub  2224
 mul t} def
%%EndProlog
 gsave  90 r 0 -594 t  28 20 t .25 .25 scale  gsave 
%%Page: number 1
 black [] 0 sd 1 lw 0.95 0.95 0.95 c 2948 1944 0 0 bf 0.8 0.8 0.8 c 0 0 m 2 2 d 1940 Y 2944 X 2 2 d -2948 X -1944 Y f
 0.3 0.3 0.3 c 0 0 m 2 2 d 2944 X 1940 Y 2 2 d -1944 Y -2948 X f black [] 0 sd 1 lw 0.95 0.95 0.95 c 2358 1556 295 194
 bf 0.8 0.8 0.8 c 295 194 m 1 1 d 1554 Y 2356 X 1 1 d -2358 X -1556 Y f 0.3 0.3 0.3 c 295 194 m 1 1 d 2356 X 1554 Y 1 1
 d -1556 Y -2358 X f [] 0 sd 1 lw black 295 194 m 2358 X s [] 0 sd 1 lw 2653 194 m 1556 Y s [] 0 sd 1 lw 2653 1750 m
 -2358 X s [] 0 sd 1 lw 295 1750 m -1556 Y s [] 0 sd 1 lw 1 1 1 c black [] 0 sd 1 lw 295 194 m 6 X s [] 0 sd 1 lw 301
 194 m 6 X s [] 0 sd 1 lw 307 194 m 5 X s [] 0 sd 1 lw 312 194 m 6 X s [] 0 sd 1 lw 318 194 m 6 X s [] 0 sd 1 lw 324 194
 m 6 X s [] 0 sd 1 lw 330 194 m 6 X s [] 0 sd 1 lw 336 194 m 6 X s [] 0 sd 1 lw 342 194 m 6 X s [] 0 sd 1 lw 348 194 m 6
 X s [] 0 sd 1 lw 354 194 m 6 X s [] 0 sd 1 lw 360 194 m 6 X s [] 0 sd 1 lw 366 194 m 5 X s [] 0 sd 1 lw 371 194 m 6 X s
 [] 0 sd 1 lw 377 194 m 6 X s [] 0 sd 1 lw 383 194 m 6 X s [] 0 sd 1 lw 389 194 m 6 X s [] 0 sd 1 lw 395 194 m 6 X s
 [] 0 sd 1 lw 401 194 m 6 X s [] 0 sd 1 lw 407 194 m 6 X s [] 0 sd 1 lw 413 194 m 6 X s [] 0 sd 1 lw 419 194 m 6 X s
 [] 0 sd 1 lw 425 194 m 5 X s [] 0 sd 1 lw 430 194 m 6 X s [] 0 sd 1 lw 436 194 m 6 X s [] 0 sd 1 lw 442 194 m 6 X s
 [] 0 sd 1 lw 448 194 m 6 X s [] 0 sd 1 lw 454 194 m 6 X s [] 0 sd 1 lw 460 194 m 6 X s [] 0 sd 1 lw 466 194 m 6 X s
 [] 0 sd 1 lw 472 194 m 6 X s [] 0 sd 1 lw 478 194 m 5 X s [] 0 sd 1 lw 489 323 m 175 Y s [] 0 sd 1 lw 489 498 m 176 Y s
 [] 0 sd 1 lw 483 498 m 6 X s [] 0 sd 1 lw 489 498 m 6 X s [] 0 sd 1 lw /w 2 def /w2 {w 2 div} def /w3 {w 3 div} def 489
 498 m20 [] 0 sd 1 lw [] 0 sd 1 lw 501 194 m 104 Y s [] 0 sd 1 lw 501 298 m 103 Y s [] 0 sd 1 lw 495 298 m 6 X s [] 0 sd
 1 lw 501 298 m 6 X s [] 0 sd 1 lw 501 298 m20 [] 0 sd 1 lw [] 0 sd 1 lw 513 326 m 180 Y s [] 0 sd 1 lw 513 506 m 180 Y
 s [] 0 sd 1 lw 507 506 m 6 X s [] 0 sd 1 lw 513 506 m 6 X s [] 0 sd 1 lw 513 506 m20 [] 0 sd 1 lw [] 0 sd 1 lw 519 194
 m 6 X s [] 0 sd 1 lw 525 194 m 6 X s [] 0 sd 1 lw 537 327 m 180 Y s [] 0 sd 1 lw 537 507 m 181 Y s [] 0 sd 1 lw 531 507
 m 6 X s [] 0 sd 1 lw 537 507 m 5 X s [] 0 sd 1 lw 537 507 m20 [] 0 sd 1 lw [] 0 sd 1 lw 548 326 m 180 Y s [] 0 sd 1 lw
 548 506 m 179 Y s [] 0 sd 1 lw 542 506 m 6 X s [] 0 sd 1 lw 548 506 m 6 X s [] 0 sd 1 lw 548 506 m20 [] 0 sd 1 lw
 [] 0 sd 1 lw 560 482 m 233 Y s [] 0 sd 1 lw 560 715 m 233 Y s [] 0 sd 1 lw 554 715 m 6 X s [] 0 sd 1 lw 560 715 m 6 X s
 [] 0 sd 1 lw 560 715 m20 [] 0 sd 1 lw [] 0 sd 1 lw 572 256 m 149 Y s [] 0 sd 1 lw 572 405 m 150 Y s [] 0 sd 1 lw 566
 405 m 6 X s [] 0 sd 1 lw 572 405 m 6 X s [] 0 sd 1 lw 572 405 m20 [] 0 sd 1 lw [] 0 sd 1 lw 584 194 m 105 Y s [] 0 sd 1
 lw 584 299 m 104 Y s [] 0 sd 1 lw 578 299 m 6 X s [] 0 sd 1 lw 584 299 m 6 X s [] 0 sd 1 lw 584 299 m20 [] 0 sd 1 lw
 [] 0 sd 1 lw 596 325 m 179 Y s [] 0 sd 1 lw 596 504 m 179 Y s [] 0 sd 1 lw 590 504 m 6 X s [] 0 sd 1 lw 596 504 m 5 X s
 [] 0 sd 1 lw 596 504 m20 [] 0 sd 1 lw [] 0 sd 1 lw 607 256 m 150 Y s [] 0 sd 1 lw 607 406 m 149 Y s [] 0 sd 1 lw 601
 406 m 6 X s [] 0 sd 1 lw 607 406 m 6 X s [] 0 sd 1 lw 607 406 m20 [] 0 sd 1 lw [] 0 sd 1 lw 619 254 m 145 Y s [] 0 sd 1
 lw 619 399 m 144 Y s [] 0 sd 1 lw 613 399 m 6 X s [] 0 sd 1 lw 619 399 m 6 X s [] 0 sd 1 lw 619 399 m20 [] 0 sd 1 lw
 [] 0 sd 1 lw 631 194 m 104 Y s [] 0 sd 1 lw 631 298 m 103 Y s [] 0 sd 1 lw 625 298 m 6 X s [] 0 sd 1 lw 631 298 m 6 X s
 [] 0 sd 1 lw 631 298 m20 [] 0 sd 1 lw [] 0 sd 1 lw 643 323 m 177 Y s [] 0 sd 1 lw 643 500 m 176 Y s [] 0 sd 1 lw 637
 500 m 6 X s [] 0 sd 1 lw 643 500 m 6 X s [] 0 sd 1 lw 643 500 m20 [] 0 sd 1 lw [] 0 sd 1 lw 654 647 m 275 Y s [] 0 sd 1
 lw 654 922 m 275 Y s [] 0 sd 1 lw 649 922 m 5 X s [] 0 sd 1 lw 654 922 m 6 X s [] 0 sd 1 lw 654 922 m20 [] 0 sd 1 lw
 [] 0 sd 1 lw 666 194 m 105 Y s [] 0 sd 1 lw 666 299 m 104 Y s [] 0 sd 1 lw 660 299 m 6 X s [] 0 sd 1 lw 666 299 m 6 X s
 [] 0 sd 1 lw 666 299 m20 [] 0 sd 1 lw [] 0 sd 1 lw 678 256 m 149 Y s [] 0 sd 1 lw 678 405 m 150 Y s [] 0 sd 1 lw 672
 405 m 6 X s [] 0 sd 1 lw 678 405 m 6 X s [] 0 sd 1 lw 678 405 m20 [] 0 sd 1 lw [] 0 sd 1 lw 690 327 m 182 Y s [] 0 sd 1
 lw 690 509 m 182 Y s [] 0 sd 1 lw 684 509 m 6 X s [] 0 sd 1 lw 690 509 m 6 X s [] 0 sd 1 lw 690 509 m20 [] 0 sd 1 lw
 [] 0 sd 1 lw 702 255 m 148 Y s [] 0 sd 1 lw 702 403 m 147 Y s [] 0 sd 1 lw 696 403 m 6 X s [] 0 sd 1 lw 702 403 m 6 X s
 [] 0 sd 1 lw 702 403 m20 [] 0 sd 1 lw [] 0 sd 1 lw 708 194 m 5 X s [] 0 sd 1 lw 713 194 m 6 X s [] 0 sd 1 lw 725 194 m
 104 Y s [] 0 sd 1 lw 725 298 m 103 Y s [] 0 sd 1 lw 719 298 m 6 X s [] 0 sd 1 lw 725 298 m 6 X s [] 0 sd 1 lw 725 298
 m20 [] 0 sd 1 lw [] 0 sd 1 lw 731 194 m 6 X s [] 0 sd 1 lw 737 194 m 6 X s [] 0 sd 1 lw 749 194 m 101 Y s [] 0 sd 1 lw
 749 295 m 101 Y s [] 0 sd 1 lw 743 295 m 6 X s [] 0 sd 1 lw 749 295 m 6 X s [] 0 sd 1 lw 749 295 m20 [] 0 sd 1 lw
 [] 0 sd 1 lw 761 254 m 145 Y s [] 0 sd 1 lw 761 399 m 145 Y s [] 0 sd 1 lw 755 399 m 6 X s [] 0 sd 1 lw 761 399 m 5 X s
 [] 0 sd 1 lw 761 399 m20 [] 0 sd 1 lw [] 0 sd 1 lw 766 194 m 6 X s [] 0 sd 1 lw 772 194 m 6 X s [] 0 sd 1 lw 784 254 m
 145 Y s [] 0 sd 1 lw 784 399 m 145 Y s [] 0 sd 1 lw 778 399 m 6 X s [] 0 sd 1 lw 784 399 m 6 X s [] 0 sd 1 lw 784 399
 m20 [] 0 sd 1 lw [] 0 sd 1 lw 796 478 m 230 Y s [] 0 sd 1 lw 796 708 m 230 Y s [] 0 sd 1 lw 790 708 m 6 X s [] 0 sd 1
 lw 796 708 m 6 X s [] 0 sd 1 lw 796 708 m20 [] 0 sd 1 lw [] 0 sd 1 lw 808 479 m 231 Y s [] 0 sd 1 lw 808 710 m 231 Y s
 [] 0 sd 1 lw 802 710 m 6 X s [] 0 sd 1 lw 808 710 m 6 X s [] 0 sd 1 lw 808 710 m20 [] 0 sd 1 lw [] 0 sd 1 lw 820 400 m
 206 Y s [] 0 sd 1 lw 820 606 m 206 Y s [] 0 sd 1 lw 814 606 m 6 X s [] 0 sd 1 lw 820 606 m 5 X s [] 0 sd 1 lw 820 606
 m20 [] 0 sd 1 lw [] 0 sd 1 lw 831 401 m 206 Y s [] 0 sd 1 lw 831 607 m 207 Y s [] 0 sd 1 lw 825 607 m 6 X s [] 0 sd 1
 lw 831 607 m 6 X s [] 0 sd 1 lw 831 607 m20 [] 0 sd 1 lw [] 0 sd 1 lw 843 194 m 105 Y s [] 0 sd 1 lw 843 299 m 104 Y s
 [] 0 sd 1 lw 837 299 m 6 X s [] 0 sd 1 lw 843 299 m 6 X s [] 0 sd 1 lw 843 299 m20 [] 0 sd 1 lw [] 0 sd 1 lw 855 480 m
 231 Y s [] 0 sd 1 lw 855 711 m 231 Y s [] 0 sd 1 lw 849 711 m 6 X s [] 0 sd 1 lw 855 711 m 6 X s [] 0 sd 1 lw 855 711
 m20 [] 0 sd 1 lw [] 0 sd 1 lw 867 194 m 106 Y s [] 0 sd 1 lw 867 300 m 105 Y s [] 0 sd 1 lw 861 300 m 6 X s [] 0 sd 1
 lw 867 300 m 6 X s [] 0 sd 1 lw 867 300 m20 [] 0 sd 1 lw [] 0 sd 1 lw 879 327 m 182 Y s [] 0 sd 1 lw 879 509 m 182 Y s
 [] 0 sd 1 lw 873 509 m 6 X s [] 0 sd 1 lw 879 509 m 5 X s [] 0 sd 1 lw 879 509 m20 [] 0 sd 1 lw [] 0 sd 1 lw 884 194 m
 6 X s [] 0 sd 1 lw 890 194 m 6 X s [] 0 sd 1 lw 902 327 m 181 Y s [] 0 sd 1 lw 902 508 m 181 Y s [] 0 sd 1 lw 896 508 m
 6 X s [] 0 sd 1 lw 902 508 m 6 X s [] 0 sd 1 lw 902 508 m20 [] 0 sd 1 lw [] 0 sd 1 lw 914 644 m 273 Y s [] 0 sd 1 lw
 914 917 m 274 Y s [] 0 sd 1 lw 908 917 m 6 X s [] 0 sd 1 lw 914 917 m 6 X s [] 0 sd 1 lw 914 917 m20 [] 0 sd 1 lw
 [] 0 sd 1 lw 926 253 m 143 Y s [] 0 sd 1 lw 926 396 m 142 Y s [] 0 sd 1 lw 920 396 m 6 X s [] 0 sd 1 lw 926 396 m 6 X s
 [] 0 sd 1 lw 926 396 m20 [] 0 sd 1 lw [] 0 sd 1 lw 937 194 m 106 Y s [] 0 sd 1 lw 937 300 m 105 Y s [] 0 sd 1 lw 932
 300 m 5 X s [] 0 sd 1 lw 937 300 m 6 X s [] 0 sd 1 lw 937 300 m20 [] 0 sd 1 lw [] 0 sd 1 lw 949 483 m 233 Y s [] 0 sd 1
 lw 949 716 m 234 Y s [] 0 sd 1 lw 943 716 m 6 X s [] 0 sd 1 lw 949 716 m 6 X s [] 0 sd 1 lw 949 716 m20 [] 0 sd 1 lw
 [] 0 sd 1 lw 961 646 m 275 Y s [] 0 sd 1 lw 961 921 m 274 Y s [] 0 sd 1 lw 955 921 m 6 X s [] 0 sd 1 lw 961 921 m 6 X s
 [] 0 sd 1 lw 961 921 m20 [] 0 sd 1 lw [] 0 sd 1 lw 973 194 m 104 Y s [] 0 sd 1 lw 973 298 m 103 Y s [] 0 sd 1 lw 967
 298 m 6 X s [] 0 sd 1 lw 973 298 m 6 X s [] 0 sd 1 lw 973 298 m20 [] 0 sd 1 lw [] 0 sd 1 lw 985 401 m 207 Y s [] 0 sd 1
 lw 985 608 m 207 Y s [] 0 sd 1 lw 979 608 m 6 X s [] 0 sd 1 lw 985 608 m 6 X s [] 0 sd 1 lw 985 608 m20 [] 0 sd 1 lw
 [] 0 sd 1 lw 996 325 m 179 Y s [] 0 sd 1 lw 996 504 m 179 Y s [] 0 sd 1 lw 991 504 m 5 X s [] 0 sd 1 lw 996 504 m 6 X s
 [] 0 sd 1 lw 996 504 m20 [] 0 sd 1 lw [] 0 sd 1 lw 1008 254 m 144 Y s [] 0 sd 1 lw 1008 398 m 143 Y s [] 0 sd 1 lw 1002
 398 m 6 X s [] 0 sd 1 lw 1008 398 m 6 X s [] 0 sd 1 lw 1008 398 m20 [] 0 sd 1 lw [] 0 sd 1 lw 1020 253 m 143 Y s
 [] 0 sd 1 lw 1020 396 m 142 Y s [] 0 sd 1 lw 1014 396 m 6 X s [] 0 sd 1 lw 1020 396 m 6 X s [] 0 sd 1 lw 1020 396 m20
 [] 0 sd 1 lw [] 0 sd 1 lw 1032 322 m 174 Y s [] 0 sd 1 lw 1032 496 m 175 Y s [] 0 sd 1 lw 1026 496 m 6 X s [] 0 sd 1 lw
 1032 496 m 6 X s [] 0 sd 1 lw 1032 496 m20 [] 0 sd 1 lw [] 0 sd 1 lw 1044 477 m 228 Y s [] 0 sd 1 lw 1044 705 m 228 Y s
 [] 0 sd 1 lw 1038 705 m 6 X s [] 0 sd 1 lw 1044 705 m 6 X s [] 0 sd 1 lw 1044 705 m20 [] 0 sd 1 lw [] 0 sd 1 lw 1055
 481 m 232 Y s [] 0 sd 1 lw 1055 713 m 231 Y s [] 0 sd 1 lw 1050 713 m 5 X s [] 0 sd 1 lw 1055 713 m 6 X s [] 0 sd 1 lw
 1055 713 m20 [] 0 sd 1 lw [] 0 sd 1 lw 1067 482 m 233 Y s [] 0 sd 1 lw 1067 715 m 234 Y s [] 0 sd 1 lw 1061 715 m 6 X s
 [] 0 sd 1 lw 1067 715 m 6 X s [] 0 sd 1 lw 1067 715 m20 [] 0 sd 1 lw [] 0 sd 1 lw 1079 401 m 207 Y s [] 0 sd 1 lw 1079
 608 m 207 Y s [] 0 sd 1 lw 1073 608 m 6 X s [] 0 sd 1 lw 1079 608 m 6 X s [] 0 sd 1 lw 1079 608 m20 [] 0 sd 1 lw
 [] 0 sd 1 lw 1091 481 m 232 Y s [] 0 sd 1 lw 1091 713 m 232 Y s [] 0 sd 1 lw 1085 713 m 6 X s [] 0 sd 1 lw 1091 713 m 6
 X s [] 0 sd 1 lw 1091 713 m20 [] 0 sd 1 lw [] 0 sd 1 lw 1103 254 m 145 Y s [] 0 sd 1 lw 1103 399 m 145 Y s [] 0 sd 1 lw
 1097 399 m 6 X s [] 0 sd 1 lw 1103 399 m 5 X s [] 0 sd 1 lw 1103 399 m20 [] 0 sd 1 lw [] 0 sd 1 lw 1114 326 m 179 Y s
 [] 0 sd 1 lw 1114 505 m 179 Y s [] 0 sd 1 lw 1108 505 m 6 X s [] 0 sd 1 lw 1114 505 m 6 X s [] 0 sd 1 lw 1114 505 m20
 [] 0 sd 1 lw [] 0 sd 1 lw 1126 401 m 206 Y s [] 0 sd 1 lw 1126 607 m 207 Y s [] 0 sd 1 lw 1120 607 m 6 X s [] 0 sd 1 lw
 1126 607 m 6 X s [] 0 sd 1 lw 1126 607 m20 [] 0 sd 1 lw [] 0 sd 1 lw 1138 645 m 273 Y s [] 0 sd 1 lw 1138 918 m 274 Y s
 [] 0 sd 1 lw 1132 918 m 6 X s [] 0 sd 1 lw 1138 918 m 6 X s [] 0 sd 1 lw 1138 918 m20 [] 0 sd 1 lw [] 0 sd 1 lw 1150
 254 m 144 Y s [] 0 sd 1 lw 1150 398 m 144 Y s [] 0 sd 1 lw 1144 398 m 6 X s [] 0 sd 1 lw 1150 398 m 6 X s [] 0 sd 1 lw
 1150 398 m20 [] 0 sd 1 lw [] 0 sd 1 lw 1162 563 m 254 Y s [] 0 sd 1 lw 1162 817 m 255 Y s [] 0 sd 1 lw 1156 817 m 6 X s
 [] 0 sd 1 lw 1162 817 m 5 X s [] 0 sd 1 lw 1162 817 m20 [] 0 sd 1 lw [] 0 sd 1 lw 1173 478 m 230 Y s [] 0 sd 1 lw 1173
 708 m 230 Y s [] 0 sd 1 lw 1167 708 m 6 X s [] 0 sd 1 lw 1173 708 m 6 X s [] 0 sd 1 lw 1173 708 m20 [] 0 sd 1 lw
 [] 0 sd 1 lw 1185 556 m 250 Y s [] 0 sd 1 lw 1185 806 m 249 Y s [] 0 sd 1 lw 1179 806 m 6 X s [] 0 sd 1 lw 1185 806 m 6
 X s [] 0 sd 1 lw 1185 806 m20 [] 0 sd 1 lw [] 0 sd 1 lw 1197 402 m 207 Y s [] 0 sd 1 lw 1197 609 m 207 Y s [] 0 sd 1 lw
 1191 609 m 6 X s [] 0 sd 1 lw 1197 609 m 6 X s [] 0 sd 1 lw 1197 609 m20 [] 0 sd 1 lw [] 0 sd 1 lw 1209 558 m 251 Y s
 [] 0 sd 1 lw 1209 809 m 251 Y s [] 0 sd 1 lw 1203 809 m 6 X s [] 0 sd 1 lw 1209 809 m 6 X s [] 0 sd 1 lw 1209 809 m20
 [] 0 sd 1 lw [] 0 sd 1 lw 1220 401 m 208 Y s [] 0 sd 1 lw 1220 609 m 207 Y s [] 0 sd 1 lw 1215 609 m 5 X s [] 0 sd 1 lw
 1220 609 m 6 X s [] 0 sd 1 lw 1220 609 m20 [] 0 sd 1 lw [] 0 sd 1 lw 1232 556 m 249 Y s [] 0 sd 1 lw 1232 805 m 250 Y s
 [] 0 sd 1 lw 1226 805 m 6 X s [] 0 sd 1 lw 1232 805 m 6 X s [] 0 sd 1 lw 1232 805 m20 [] 0 sd 1 lw [] 0 sd 1 lw 1244
 481 m 232 Y s [] 0 sd 1 lw 1244 713 m 232 Y s [] 0 sd 1 lw 1238 713 m 6 X s [] 0 sd 1 lw 1244 713 m 6 X s [] 0 sd 1 lw
 1244 713 m20 [] 0 sd 1 lw [] 0 sd 1 lw 1256 565 m 256 Y s [] 0 sd 1 lw 1256 821 m 256 Y s [] 0 sd 1 lw 1250 821 m 6 X s
 [] 0 sd 1 lw 1256 821 m 6 X s [] 0 sd 1 lw 1256 821 m20 [] 0 sd 1 lw [] 0 sd 1 lw 1268 327 m 180 Y s [] 0 sd 1 lw 1268
 507 m 181 Y s [] 0 sd 1 lw 1262 507 m 6 X s [] 0 sd 1 lw 1268 507 m 6 X s [] 0 sd 1 lw 1268 507 m20 [] 0 sd 1 lw
 [] 0 sd 1 lw 1279 563 m 254 Y s [] 0 sd 1 lw 1279 817 m 254 Y s [] 0 sd 1 lw 1274 817 m 5 X s [] 0 sd 1 lw 1279 817 m 6
 X s [] 0 sd 1 lw 1279 817 m20 [] 0 sd 1 lw [] 0 sd 1 lw 1291 256 m 149 Y s [] 0 sd 1 lw 1291 405 m 149 Y s [] 0 sd 1 lw
 1285 405 m 6 X s [] 0 sd 1 lw 1291 405 m 6 X s [] 0 sd 1 lw 1291 405 m20 [] 0 sd 1 lw [] 0 sd 1 lw 1303 726 m 291 Y s
 [] 0 sd 1 lw 1303 1017 m 291 Y s [] 0 sd 1 lw 1297 1017 m 6 X s [] 0 sd 1 lw 1303 1017 m 6 X s [] 0 sd 1 lw 1303 1017
 m20 [] 0 sd 1 lw [] 0 sd 1 lw 1315 649 m 276 Y s [] 0 sd 1 lw 1315 925 m 276 Y s [] 0 sd 1 lw 1309 925 m 6 X s [] 0 sd
 1 lw 1315 925 m 6 X s [] 0 sd 1 lw 1315 925 m20 [] 0 sd 1 lw [] 0 sd 1 lw 1327 478 m 230 Y s [] 0 sd 1 lw 1327 708 m
 230 Y s [] 0 sd 1 lw 1321 708 m 6 X s [] 0 sd 1 lw 1327 708 m 6 X s [] 0 sd 1 lw 1327 708 m20 [] 0 sd 1 lw [] 0 sd 1 lw
 1338 398 m 203 Y s [] 0 sd 1 lw 1338 601 m 203 Y s [] 0 sd 1 lw 1333 601 m 5 X s [] 0 sd 1 lw 1338 601 m 6 X s [] 0 sd
 1 lw 1338 601 m20 [] 0 sd 1 lw [] 0 sd 1 lw 1350 396 m 201 Y s [] 0 sd 1 lw 1350 597 m 202 Y s [] 0 sd 1 lw 1344 597 m
 6 X s [] 0 sd 1 lw 1350 597 m 6 X s [] 0 sd 1 lw 1350 597 m20 [] 0 sd 1 lw [] 0 sd 1 lw 1362 400 m 206 Y s [] 0 sd 1 lw
 1362 606 m 205 Y s [] 0 sd 1 lw 1356 606 m 6 X s [] 0 sd 1 lw 1362 606 m 6 X s [] 0 sd 1 lw 1362 606 m20 [] 0 sd 1 lw
 [] 0 sd 1 lw 1374 401 m 206 Y s [] 0 sd 1 lw 1374 607 m 206 Y s [] 0 sd 1 lw 1368 607 m 6 X s [] 0 sd 1 lw 1374 607 m 6
 X s [] 0 sd 1 lw 1374 607 m20 [] 0 sd 1 lw [] 0 sd 1 lw 1386 325 m 177 Y s [] 0 sd 1 lw 1386 502 m 178 Y s [] 0 sd 1 lw
 1380 502 m 6 X s [] 0 sd 1 lw 1386 502 m 5 X s [] 0 sd 1 lw 1386 502 m20 [] 0 sd 1 lw [] 0 sd 1 lw 1397 400 m 206 Y s
 [] 0 sd 1 lw 1397 606 m 205 Y s [] 0 sd 1 lw 1391 606 m 6 X s [] 0 sd 1 lw 1397 606 m 6 X s [] 0 sd 1 lw 1397 606 m20
 [] 0 sd 1 lw [] 0 sd 1 lw 1409 253 m 143 Y s [] 0 sd 1 lw 1409 396 m 142 Y s [] 0 sd 1 lw 1403 396 m 6 X s [] 0 sd 1 lw
 1409 396 m 6 X s [] 0 sd 1 lw 1409 396 m20 [] 0 sd 1 lw [] 0 sd 1 lw 1421 481 m 232 Y s [] 0 sd 1 lw 1421 713 m 232 Y s
 [] 0 sd 1 lw 1415 713 m 6 X s [] 0 sd 1 lw 1421 713 m 6 X s [] 0 sd 1 lw 1421 713 m20 [] 0 sd 1 lw [] 0 sd 1 lw 1433
 644 m 274 Y s [] 0 sd 1 lw 1433 918 m 273 Y s [] 0 sd 1 lw 1427 918 m 6 X s [] 0 sd 1 lw 1433 918 m 6 X s [] 0 sd 1 lw
 1433 918 m20 [] 0 sd 1 lw [] 0 sd 1 lw 1445 405 m 210 Y s [] 0 sd 1 lw 1445 615 m 210 Y s [] 0 sd 1 lw 1439 615 m 6 X s
 [] 0 sd 1 lw 1445 615 m 5 X s [] 0 sd 1 lw 1445 615 m20 [] 0 sd 1 lw [] 0 sd 1 lw 1456 561 m 253 Y s [] 0 sd 1 lw 1456
 814 m 253 Y s [] 0 sd 1 lw 1450 814 m 6 X s [] 0 sd 1 lw 1456 814 m 6 X s [] 0 sd 1 lw 1456 814 m20 [] 0 sd 1 lw
 [] 0 sd 1 lw 1468 401 m 206 Y s [] 0 sd 1 lw 1468 607 m 206 Y s [] 0 sd 1 lw 1462 607 m 6 X s [] 0 sd 1 lw 1468 607 m 6
 X s [] 0 sd 1 lw 1468 607 m20 [] 0 sd 1 lw [] 0 sd 1 lw 1480 404 m 210 Y s [] 0 sd 1 lw 1480 614 m 210 Y s [] 0 sd 1 lw
 1474 614 m 6 X s [] 0 sd 1 lw 1480 614 m 6 X s [] 0 sd 1 lw 1480 614 m20 [] 0 sd 1 lw [] 0 sd 1 lw 1492 645 m 273 Y s
 [] 0 sd 1 lw 1492 918 m 274 Y s [] 0 sd 1 lw 1486 918 m 6 X s [] 0 sd 1 lw 1492 918 m 6 X s [] 0 sd 1 lw 1492 918 m20
 [] 0 sd 1 lw [] 0 sd 1 lw 1503 479 m 231 Y s [] 0 sd 1 lw 1503 710 m 230 Y s [] 0 sd 1 lw 1498 710 m 5 X s [] 0 sd 1 lw
 1503 710 m 6 X s [] 0 sd 1 lw 1503 710 m20 [] 0 sd 1 lw [] 0 sd 1 lw 1515 560 m 253 Y s [] 0 sd 1 lw 1515 813 m 253 Y s
 [] 0 sd 1 lw 1509 813 m 6 X s [] 0 sd 1 lw 1515 813 m 6 X s [] 0 sd 1 lw 1515 813 m20 [] 0 sd 1 lw [] 0 sd 1 lw 1527
 395 m 200 Y s [] 0 sd 1 lw 1527 595 m 201 Y s [] 0 sd 1 lw 1521 595 m 6 X s [] 0 sd 1 lw 1527 595 m 6 X s [] 0 sd 1 lw
 1527 595 m20 [] 0 sd 1 lw [] 0 sd 1 lw 1539 324 m 177 Y s [] 0 sd 1 lw 1539 501 m 177 Y s [] 0 sd 1 lw 1533 501 m 6 X s
 [] 0 sd 1 lw 1539 501 m 6 X s [] 0 sd 1 lw 1539 501 m20 [] 0 sd 1 lw [] 0 sd 1 lw 1551 402 m 207 Y s [] 0 sd 1 lw 1551
 609 m 208 Y s [] 0 sd 1 lw 1545 609 m 6 X s [] 0 sd 1 lw 1551 609 m 6 X s [] 0 sd 1 lw 1551 609 m20 [] 0 sd 1 lw
 [] 0 sd 1 lw 1562 256 m 148 Y s [] 0 sd 1 lw 1562 404 m 149 Y s [] 0 sd 1 lw 1557 404 m 5 X s [] 0 sd 1 lw 1562 404 m 6
 X s [] 0 sd 1 lw 1562 404 m20 [] 0 sd 1 lw [] 0 sd 1 lw 1574 727 m 291 Y s [] 0 sd 1 lw 1574 1018 m 291 Y s [] 0 sd 1
 lw 1568 1018 m 6 X s [] 0 sd 1 lw 1574 1018 m 6 X s [] 0 sd 1 lw 1574 1018 m20 [] 0 sd 1 lw [] 0 sd 1 lw 1586 478 m 230
 Y s [] 0 sd 1 lw 1586 708 m 230 Y s [] 0 sd 1 lw 1580 708 m 6 X s [] 0 sd 1 lw 1586 708 m 6 X s [] 0 sd 1 lw 1586 708
 m20 [] 0 sd 1 lw [] 0 sd 1 lw 1598 478 m 229 Y s [] 0 sd 1 lw 1598 707 m 229 Y s [] 0 sd 1 lw 1592 707 m 6 X s [] 0 sd
 1 lw 1598 707 m 6 X s [] 0 sd 1 lw 1598 707 m20 [] 0 sd 1 lw [] 0 sd 1 lw 1610 326 m 179 Y s [] 0 sd 1 lw 1610 505 m
 180 Y s [] 0 sd 1 lw 1604 505 m 6 X s [] 0 sd 1 lw 1610 505 m 6 X s [] 0 sd 1 lw 1610 505 m20 [] 0 sd 1 lw [] 0 sd 1 lw
 1621 402 m 208 Y s [] 0 sd 1 lw 1621 610 m 207 Y s [] 0 sd 1 lw 1616 610 m 5 X s [] 0 sd 1 lw 1621 610 m 6 X s [] 0 sd
 1 lw 1621 610 m20 [] 0 sd 1 lw [] 0 sd 1 lw 1633 816 m 311 Y s [] 0 sd 1 lw 1633 1127 m 311 Y s [] 0 sd 1 lw 1627 1127
 m 6 X s [] 0 sd 1 lw 1633 1127 m 6 X s [] 0 sd 1 lw 1633 1127 m20 [] 0 sd 1 lw [] 0 sd 1 lw 1645 402 m 208 Y s [] 0 sd
 1 lw 1645 610 m 208 Y s [] 0 sd 1 lw 1639 610 m 6 X s [] 0 sd 1 lw 1645 610 m 6 X s [] 0 sd 1 lw 1645 610 m20 [] 0 sd 1
 lw [] 0 sd 1 lw 1657 650 m 277 Y s [] 0 sd 1 lw 1657 927 m 277 Y s [] 0 sd 1 lw 1651 927 m 6 X s [] 0 sd 1 lw 1657 927
 m 6 X s [] 0 sd 1 lw 1657 927 m20 [] 0 sd 1 lw [] 0 sd 1 lw 1669 329 m 183 Y s [] 0 sd 1 lw 1669 512 m 183 Y s [] 0 sd
 1 lw 1663 512 m 6 X s [] 0 sd 1 lw 1669 512 m 5 X s [] 0 sd 1 lw 1669 512 m20 [] 0 sd 1 lw [] 0 sd 1 lw 1680 482 m 232
 Y s [] 0 sd 1 lw 1680 714 m 232 Y s [] 0 sd 1 lw 1674 714 m 6 X s [] 0 sd 1 lw 1680 714 m 6 X s [] 0 sd 1 lw 1680 714
 m20 [] 0 sd 1 lw [] 0 sd 1 lw 1692 322 m 174 Y s [] 0 sd 1 lw 1692 496 m 175 Y s [] 0 sd 1 lw 1686 496 m 6 X s [] 0 sd
 1 lw 1692 496 m 6 X s [] 0 sd 1 lw 1692 496 m20 [] 0 sd 1 lw [] 0 sd 1 lw 1704 562 m 253 Y s [] 0 sd 1 lw 1704 815 m
 254 Y s [] 0 sd 1 lw 1698 815 m 6 X s [] 0 sd 1 lw 1704 815 m 6 X s [] 0 sd 1 lw 1704 815 m20 [] 0 sd 1 lw [] 0 sd 1 lw
 1716 989 m 343 Y s [] 0 sd 1 lw 1716 1332 m 343 Y s [] 0 sd 1 lw 1710 1332 m 6 X s [] 0 sd 1 lw 1716 1332 m 6 X s
 [] 0 sd 1 lw 1716 1332 m20 [] 0 sd 1 lw [] 0 sd 1 lw 1728 255 m 147 Y s [] 0 sd 1 lw 1728 402 m 146 Y s [] 0 sd 1 lw
 1722 402 m 6 X s [] 0 sd 1 lw 1728 402 m 5 X s [] 0 sd 1 lw 1728 402 m20 [] 0 sd 1 lw [] 0 sd 1 lw 1739 400 m 205 Y s
 [] 0 sd 1 lw 1739 605 m 205 Y s [] 0 sd 1 lw 1733 605 m 6 X s [] 0 sd 1 lw 1739 605 m 6 X s [] 0 sd 1 lw 1739 605 m20
 [] 0 sd 1 lw [] 0 sd 1 lw 1751 326 m 181 Y s [] 0 sd 1 lw 1751 507 m 180 Y s [] 0 sd 1 lw 1745 507 m 6 X s [] 0 sd 1 lw
 1751 507 m 6 X s [] 0 sd 1 lw 1751 507 m20 [] 0 sd 1 lw [] 0 sd 1 lw 1763 194 m 102 Y s [] 0 sd 1 lw 1763 296 m 102 Y s
 [] 0 sd 1 lw 1757 296 m 6 X s [] 0 sd 1 lw 1763 296 m 6 X s [] 0 sd 1 lw 1763 296 m20 [] 0 sd 1 lw [] 0 sd 1 lw 1775
 255 m 146 Y s [] 0 sd 1 lw 1775 401 m 146 Y s [] 0 sd 1 lw 1769 401 m 6 X s [] 0 sd 1 lw 1775 401 m 6 X s [] 0 sd 1 lw
 1775 401 m20 [] 0 sd 1 lw [] 0 sd 1 lw 1787 400 m 205 Y s [] 0 sd 1 lw 1787 605 m 205 Y s [] 0 sd 1 lw 1781 605 m 6 X s
 [] 0 sd 1 lw 1787 605 m 5 X s [] 0 sd 1 lw 1787 605 m20 [] 0 sd 1 lw [] 0 sd 1 lw 1798 402 m 208 Y s [] 0 sd 1 lw 1798
 610 m 208 Y s [] 0 sd 1 lw 1792 610 m 6 X s [] 0 sd 1 lw 1798 610 m 6 X s [] 0 sd 1 lw 1798 610 m20 [] 0 sd 1 lw
 [] 0 sd 1 lw 1810 406 m 211 Y s [] 0 sd 1 lw 1810 617 m 212 Y s [] 0 sd 1 lw 1804 617 m 6 X s [] 0 sd 1 lw 1810 617 m 6
 X s [] 0 sd 1 lw 1810 617 m20 [] 0 sd 1 lw [] 0 sd 1 lw 1822 256 m 150 Y s [] 0 sd 1 lw 1822 406 m 149 Y s [] 0 sd 1 lw
 1816 406 m 6 X s [] 0 sd 1 lw 1822 406 m 6 X s [] 0 sd 1 lw 1822 406 m20 [] 0 sd 1 lw [] 0 sd 1 lw 1834 254 m 145 Y s
 [] 0 sd 1 lw 1834 399 m 144 Y s [] 0 sd 1 lw 1828 399 m 6 X s [] 0 sd 1 lw 1834 399 m 6 X s [] 0 sd 1 lw 1834 399 m20
 [] 0 sd 1 lw [] 0 sd 1 lw 1845 641 m 272 Y s [] 0 sd 1 lw 1845 913 m 272 Y s [] 0 sd 1 lw 1840 913 m 5 X s [] 0 sd 1 lw
 1845 913 m 6 X s [] 0 sd 1 lw 1845 913 m20 [] 0 sd 1 lw [] 0 sd 1 lw 1857 479 m 230 Y s [] 0 sd 1 lw 1857 709 m 231 Y s
 [] 0 sd 1 lw 1851 709 m 6 X s [] 0 sd 1 lw 1857 709 m 6 X s [] 0 sd 1 lw 1857 709 m20 [] 0 sd 1 lw [] 0 sd 1 lw 1869
 645 m 273 Y s [] 0 sd 1 lw 1869 918 m 274 Y s [] 0 sd 1 lw 1863 918 m 6 X s [] 0 sd 1 lw 1869 918 m 6 X s [] 0 sd 1 lw
 1869 918 m20 [] 0 sd 1 lw [] 0 sd 1 lw 1881 399 m 204 Y s [] 0 sd 1 lw 1881 603 m 204 Y s [] 0 sd 1 lw 1875 603 m 6 X s
 [] 0 sd 1 lw 1881 603 m 6 X s [] 0 sd 1 lw 1881 603 m20 [] 0 sd 1 lw [] 0 sd 1 lw 1893 399 m 205 Y s [] 0 sd 1 lw 1893
 604 m 205 Y s [] 0 sd 1 lw 1887 604 m 6 X s [] 0 sd 1 lw 1893 604 m 6 X s [] 0 sd 1 lw 1893 604 m20 [] 0 sd 1 lw
 [] 0 sd 1 lw 1904 401 m 206 Y s [] 0 sd 1 lw 1904 607 m 207 Y s [] 0 sd 1 lw 1899 607 m 5 X s [] 0 sd 1 lw 1904 607 m 6
 X s [] 0 sd 1 lw 1904 607 m20 [] 0 sd 1 lw [] 0 sd 1 lw 1916 325 m 178 Y s [] 0 sd 1 lw 1916 503 m 178 Y s [] 0 sd 1 lw
 1910 503 m 6 X s [] 0 sd 1 lw 1916 503 m 6 X s [] 0 sd 1 lw 1916 503 m20 [] 0 sd 1 lw [] 0 sd 1 lw 1928 256 m 148 Y s
 [] 0 sd 1 lw 1928 404 m 148 Y s [] 0 sd 1 lw 1922 404 m 6 X s [] 0 sd 1 lw 1928 404 m 6 X s [] 0 sd 1 lw 1928 404 m20
 [] 0 sd 1 lw [] 0 sd 1 lw 1940 398 m 205 Y s [] 0 sd 1 lw 1940 603 m 204 Y s [] 0 sd 1 lw 1934 603 m 6 X s [] 0 sd 1 lw
 1940 603 m 6 X s [] 0 sd 1 lw 1940 603 m20 [] 0 sd 1 lw [] 0 sd 1 lw 1952 324 m 176 Y s [] 0 sd 1 lw 1952 500 m 177 Y s
 [] 0 sd 1 lw 1946 500 m 6 X s [] 0 sd 1 lw 1952 500 m 5 X s [] 0 sd 1 lw 1952 500 m20 [] 0 sd 1 lw [] 0 sd 1 lw 1963
 399 m 204 Y s [] 0 sd 1 lw 1963 603 m 205 Y s [] 0 sd 1 lw 1957 603 m 6 X s [] 0 sd 1 lw 1963 603 m 6 X s [] 0 sd 1 lw
 1963 603 m20 [] 0 sd 1 lw [] 0 sd 1 lw 1969 194 m 6 X s [] 0 sd 1 lw 1975 194 m 6 X s [] 0 sd 1 lw 1987 326 m 181 Y s
 [] 0 sd 1 lw 1987 507 m 180 Y s [] 0 sd 1 lw 1981 507 m 6 X s [] 0 sd 1 lw 1987 507 m 6 X s [] 0 sd 1 lw 1987 507 m20
 [] 0 sd 1 lw [] 0 sd 1 lw 1999 401 m 207 Y s [] 0 sd 1 lw 1999 608 m 207 Y s [] 0 sd 1 lw 1993 608 m 6 X s [] 0 sd 1 lw
 1999 608 m 6 X s [] 0 sd 1 lw 1999 608 m20 [] 0 sd 1 lw [] 0 sd 1 lw 2005 194 m 6 X s [] 0 sd 1 lw 2011 194 m 5 X s
 [] 0 sd 1 lw 2022 194 m 105 Y s [] 0 sd 1 lw 2022 299 m 105 Y s [] 0 sd 1 lw 2016 299 m 6 X s [] 0 sd 1 lw 2022 299 m 6
 X s [] 0 sd 1 lw 2022 299 m20 [] 0 sd 1 lw [] 0 sd 1 lw 2034 194 m 106 Y s [] 0 sd 1 lw 2034 300 m 105 Y s [] 0 sd 1 lw
 2028 300 m 6 X s [] 0 sd 1 lw 2034 300 m 6 X s [] 0 sd 1 lw 2034 300 m20 [] 0 sd 1 lw [] 0 sd 1 lw 2046 323 m 176 Y s
 [] 0 sd 1 lw 2046 499 m 176 Y s [] 0 sd 1 lw 2040 499 m 6 X s [] 0 sd 1 lw 2046 499 m 6 X s [] 0 sd 1 lw 2046 499 m20
 [] 0 sd 1 lw [] 0 sd 1 lw 2058 194 m 104 Y s [] 0 sd 1 lw 2058 298 m 103 Y s [] 0 sd 1 lw 2052 298 m 6 X s [] 0 sd 1 lw
 2058 298 m 6 X s [] 0 sd 1 lw 2058 298 m20 [] 0 sd 1 lw [] 0 sd 1 lw 2070 255 m 146 Y s [] 0 sd 1 lw 2070 401 m 145 Y s
 [] 0 sd 1 lw 2064 401 m 6 X s [] 0 sd 1 lw 2070 401 m 5 X s [] 0 sd 1 lw 2070 401 m20 [] 0 sd 1 lw [] 0 sd 1 lw 2081
 405 m 211 Y s [] 0 sd 1 lw 2081 616 m 210 Y s [] 0 sd 1 lw 2075 616 m 6 X s [] 0 sd 1 lw 2081 616 m 6 X s [] 0 sd 1 lw
 2081 616 m20 [] 0 sd 1 lw [] 0 sd 1 lw 2093 562 m 254 Y s [] 0 sd 1 lw 2093 816 m 254 Y s [] 0 sd 1 lw 2087 816 m 6 X s
 [] 0 sd 1 lw 2093 816 m 6 X s [] 0 sd 1 lw 2093 816 m20 [] 0 sd 1 lw [] 0 sd 1 lw 2105 194 m 103 Y s [] 0 sd 1 lw 2105
 297 m 102 Y s [] 0 sd 1 lw 2099 297 m 6 X s [] 0 sd 1 lw 2105 297 m 6 X s [] 0 sd 1 lw 2105 297 m20 [] 0 sd 1 lw
 [] 0 sd 1 lw 2117 398 m 204 Y s [] 0 sd 1 lw 2117 602 m 203 Y s [] 0 sd 1 lw 2111 602 m 6 X s [] 0 sd 1 lw 2117 602 m 6
 X s [] 0 sd 1 lw 2117 602 m20 [] 0 sd 1 lw [] 0 sd 1 lw 2128 326 m 181 Y s [] 0 sd 1 lw 2128 507 m 180 Y s [] 0 sd 1 lw
 2123 507 m 5 X s [] 0 sd 1 lw 2128 507 m 6 X s [] 0 sd 1 lw 2128 507 m20 [] 0 sd 1 lw [] 0 sd 1 lw 2140 325 m 177 Y s
 [] 0 sd 1 lw 2140 502 m 178 Y s [] 0 sd 1 lw 2134 502 m 6 X s [] 0 sd 1 lw 2140 502 m 6 X s [] 0 sd 1 lw 2140 502 m20
 [] 0 sd 1 lw [] 0 sd 1 lw 2152 325 m 178 Y s [] 0 sd 1 lw 2152 503 m 179 Y s [] 0 sd 1 lw 2146 503 m 6 X s [] 0 sd 1 lw
 2152 503 m 6 X s [] 0 sd 1 lw 2152 503 m20 [] 0 sd 1 lw [] 0 sd 1 lw 2164 256 m 148 Y s [] 0 sd 1 lw 2164 404 m 148 Y s
 [] 0 sd 1 lw 2158 404 m 6 X s [] 0 sd 1 lw 2164 404 m 6 X s [] 0 sd 1 lw 2164 404 m20 [] 0 sd 1 lw [] 0 sd 1 lw 2176
 253 m 141 Y s [] 0 sd 1 lw 2176 394 m 141 Y s [] 0 sd 1 lw 2170 394 m 6 X s [] 0 sd 1 lw 2176 394 m 6 X s [] 0 sd 1 lw
 2176 394 m20 [] 0 sd 1 lw [] 0 sd 1 lw 2187 325 m 179 Y s [] 0 sd 1 lw 2187 504 m 180 Y s [] 0 sd 1 lw 2182 504 m 5 X s
 [] 0 sd 1 lw 2187 504 m 6 X s [] 0 sd 1 lw 2187 504 m20 [] 0 sd 1 lw [] 0 sd 1 lw 2199 397 m 203 Y s [] 0 sd 1 lw 2199
 600 m 202 Y s [] 0 sd 1 lw 2193 600 m 6 X s [] 0 sd 1 lw 2199 600 m 6 X s [] 0 sd 1 lw 2199 600 m20 [] 0 sd 1 lw
 [] 0 sd 1 lw 2211 398 m 204 Y s [] 0 sd 1 lw 2211 602 m 204 Y s [] 0 sd 1 lw 2205 602 m 6 X s [] 0 sd 1 lw 2211 602 m 6
 X s [] 0 sd 1 lw 2211 602 m20 [] 0 sd 1 lw [] 0 sd 1 lw 2223 254 m 144 Y s [] 0 sd 1 lw 2223 398 m 143 Y s [] 0 sd 1 lw
 2217 398 m 6 X s [] 0 sd 1 lw 2223 398 m 6 X s [] 0 sd 1 lw 2223 398 m20 [] 0 sd 1 lw [] 0 sd 1 lw 2235 194 m 103 Y s
 [] 0 sd 1 lw 2235 297 m 104 Y s [] 0 sd 1 lw 2229 297 m 6 X s [] 0 sd 1 lw 2235 297 m 6 X s [] 0 sd 1 lw 2235 297 m20
 [] 0 sd 1 lw [] 0 sd 1 lw 2246 256 m 149 Y s [] 0 sd 1 lw 2246 405 m 149 Y s [] 0 sd 1 lw 2241 405 m 5 X s [] 0 sd 1 lw
 2246 405 m 6 X s [] 0 sd 1 lw 2246 405 m20 [] 0 sd 1 lw [] 0 sd 1 lw 2258 194 m 105 Y s [] 0 sd 1 lw 2258 299 m 105 Y s
 [] 0 sd 1 lw 2252 299 m 6 X s [] 0 sd 1 lw 2258 299 m 6 X s [] 0 sd 1 lw 2258 299 m20 [] 0 sd 1 lw [] 0 sd 1 lw 2264
 194 m 6 X s [] 0 sd 1 lw 2270 194 m 6 X s [] 0 sd 1 lw 2282 326 m 180 Y s [] 0 sd 1 lw 2282 506 m 180 Y s [] 0 sd 1 lw
 2276 506 m 6 X s [] 0 sd 1 lw 2282 506 m 6 X s [] 0 sd 1 lw 2282 506 m20 [] 0 sd 1 lw [] 0 sd 1 lw 2294 562 m 254 Y s
 [] 0 sd 1 lw 2294 816 m 254 Y s [] 0 sd 1 lw 2288 816 m 6 X s [] 0 sd 1 lw 2294 816 m 5 X s [] 0 sd 1 lw 2294 816 m20
 [] 0 sd 1 lw [] 0 sd 1 lw 2299 194 m 6 X s [] 0 sd 1 lw 2305 194 m 6 X s [] 0 sd 1 lw 2317 256 m 149 Y s [] 0 sd 1 lw
 2317 405 m 149 Y s [] 0 sd 1 lw 2311 405 m 6 X s [] 0 sd 1 lw 2317 405 m 6 X s [] 0 sd 1 lw 2317 405 m20 [] 0 sd 1 lw
 [] 0 sd 1 lw 2323 194 m 6 X s [] 0 sd 1 lw 2329 194 m 6 X s [] 0 sd 1 lw 2341 254 m 145 Y s [] 0 sd 1 lw 2341 399 m 146
 Y s [] 0 sd 1 lw 2335 399 m 6 X s [] 0 sd 1 lw 2341 399 m 6 X s [] 0 sd 1 lw 2341 399 m20 [] 0 sd 1 lw [] 0 sd 1 lw
 2353 194 m 102 Y s [] 0 sd 1 lw 2353 296 m 102 Y s [] 0 sd 1 lw 2347 296 m 6 X s [] 0 sd 1 lw 2353 296 m 5 X s [] 0 sd
 1 lw 2353 296 m20 [] 0 sd 1 lw [] 0 sd 1 lw 2364 255 m 145 Y s [] 0 sd 1 lw 2364 400 m 146 Y s [] 0 sd 1 lw 2358 400 m
 6 X s [] 0 sd 1 lw 2364 400 m 6 X s [] 0 sd 1 lw 2364 400 m20 [] 0 sd 1 lw [] 0 sd 1 lw 2376 326 m 180 Y s [] 0 sd 1 lw
 2376 506 m 180 Y s [] 0 sd 1 lw 2370 506 m 6 X s [] 0 sd 1 lw 2376 506 m 6 X s [] 0 sd 1 lw 2376 506 m20 [] 0 sd 1 lw
 [] 0 sd 1 lw 2388 327 m 180 Y s [] 0 sd 1 lw 2388 507 m 181 Y s [] 0 sd 1 lw 2382 507 m 6 X s [] 0 sd 1 lw 2388 507 m 6
 X s [] 0 sd 1 lw 2388 507 m20 [] 0 sd 1 lw [] 0 sd 1 lw 2400 194 m 106 Y s [] 0 sd 1 lw 2400 300 m 105 Y s [] 0 sd 1 lw
 2394 300 m 6 X s [] 0 sd 1 lw 2400 300 m 6 X s [] 0 sd 1 lw 2400 300 m20 [] 0 sd 1 lw [] 0 sd 1 lw 2406 194 m 5 X s
 [] 0 sd 1 lw 2411 194 m 6 X s [] 0 sd 1 lw 2423 256 m 147 Y s [] 0 sd 1 lw 2423 403 m 148 Y s [] 0 sd 1 lw 2417 403 m 6
 X s [] 0 sd 1 lw 2423 403 m 6 X s [] 0 sd 1 lw 2423 403 m20 [] 0 sd 1 lw [] 0 sd 1 lw 2429 194 m 6 X s [] 0 sd 1 lw
 2435 194 m 6 X s [] 0 sd 1 lw 2447 194 m 107 Y s [] 0 sd 1 lw 2447 301 m 106 Y s [] 0 sd 1 lw 2441 301 m 6 X s [] 0 sd
 1 lw 2447 301 m 6 X s [] 0 sd 1 lw 2447 301 m20 [] 0 sd 1 lw [] 0 sd 1 lw 2459 255 m 146 Y s [] 0 sd 1 lw 2459 401 m
 147 Y s [] 0 sd 1 lw 2453 401 m 6 X s [] 0 sd 1 lw 2459 401 m 6 X s [] 0 sd 1 lw 2459 401 m20 [] 0 sd 1 lw [] 0 sd 1 lw
 2465 194 m 5 X s [] 0 sd 1 lw 2470 194 m 6 X s [] 0 sd 1 lw 2476 194 m 6 X s [] 0 sd 1 lw 2482 194 m 6 X s [] 0 sd 1 lw
 2488 194 m 6 X s [] 0 sd 1 lw 2494 194 m 6 X s [] 0 sd 1 lw 2500 194 m 6 X s [] 0 sd 1 lw 2506 194 m 6 X s [] 0 sd 1 lw
 2512 194 m 6 X s [] 0 sd 1 lw 2518 194 m 6 X s [] 0 sd 1 lw 2524 194 m 5 X s [] 0 sd 1 lw 2529 194 m 6 X s [] 0 sd 1 lw
 2535 194 m 6 X s [] 0 sd 1 lw 2541 194 m 6 X s [] 0 sd 1 lw 2547 194 m 6 X s [] 0 sd 1 lw 2553 194 m 6 X s [] 0 sd 1 lw
 2559 194 m 6 X s [] 0 sd 1 lw 2565 194 m 6 X s [] 0 sd 1 lw 2571 194 m 6 X s [] 0 sd 1 lw 2577 194 m 5 X s [] 0 sd 1 lw
 2582 194 m 6 X s [] 0 sd 1 lw 2588 194 m 6 X s [] 0 sd 1 lw 2594 194 m 6 X s [] 0 sd 1 lw 2600 194 m 6 X s [] 0 sd 1 lw
 2606 194 m 6 X s [] 0 sd 1 lw 2612 194 m 6 X s [] 0 sd 1 lw 2618 194 m 6 X s [] 0 sd 1 lw 2624 194 m 6 X s [] 0 sd 1 lw
 2630 194 m 6 X s [] 0 sd 1 lw 2636 194 m 5 X s [] 0 sd 1 lw 2641 194 m 6 X s [] 0 sd 1 lw 2647 194 m 6 X s [] 0 sd 1 lw
 [] 0 sd 1 lw 295 194 m 2358 X s s
 /xs 0 def (Z \(cm\)) /Helvetica-Bold 72 stwn  gsave  2653 49
 t 0 r  xs neg 0 t 0 0 m /Helvetica-Bold findfont 72 sf 0 0 m (Z \(cm\)) show  gr  [] 0 sd 1 lw [] 0 sd 1 lw 301 241 m
 -47 Y s s [] 0 sd 1 lw [] 0 sd 1 lw 360 218 m -24 Y s s [] 0 sd 1 lw [] 0 sd 1 lw 419 218 m -24 Y s s [] 0 sd 1 lw
 [] 0 sd 1 lw 477 218 m -24 Y s s [] 0 sd 1 lw [] 0 sd 1 lw 536 218 m -24 Y s s [] 0 sd 1 lw [] 0 sd 1 lw 595 241 m -47
 Y s s [] 0 sd 1 lw [] 0 sd 1 lw 653 218 m -24 Y s s [] 0 sd 1 lw [] 0 sd 1 lw 712 218 m -24 Y s s [] 0 sd 1 lw [] 0 sd
 1 lw 770 218 m -24 Y s s [] 0 sd 1 lw [] 0 sd 1 lw 829 218 m -24 Y s s [] 0 sd 1 lw [] 0 sd 1 lw 888 241 m -47 Y s s
 [] 0 sd 1 lw [] 0 sd 1 lw 946 218 m -24 Y s s [] 0 sd 1 lw [] 0 sd 1 lw 1005 218 m -24 Y s s [] 0 sd 1 lw [] 0 sd 1 lw
 1064 218 m -24 Y s s [] 0 sd 1 lw [] 0 sd 1 lw 1122 218 m -24 Y s s [] 0 sd 1 lw [] 0 sd 1 lw 1181 241 m -47 Y s s
 [] 0 sd 1 lw [] 0 sd 1 lw 1239 218 m -24 Y s s [] 0 sd 1 lw [] 0 sd 1 lw 1298 218 m -24 Y s s [] 0 sd 1 lw [] 0 sd 1 lw
 1357 218 m -24 Y s s [] 0 sd 1 lw [] 0 sd 1 lw 1415 218 m -24 Y s s [] 0 sd 1 lw [] 0 sd 1 lw 1474 241 m -47 Y s s
 [] 0 sd 1 lw [] 0 sd 1 lw 1533 218 m -24 Y s s [] 0 sd 1 lw [] 0 sd 1 lw 1591 218 m -24 Y s s [] 0 sd 1 lw [] 0 sd 1 lw
 1650 218 m -24 Y s s [] 0 sd 1 lw [] 0 sd 1 lw 1709 218 m -24 Y s s [] 0 sd 1 lw [] 0 sd 1 lw 1767 241 m -47 Y s s
 [] 0 sd 1 lw [] 0 sd 1 lw 1826 218 m -24 Y s s [] 0 sd 1 lw [] 0 sd 1 lw 1884 218 m -24 Y s s [] 0 sd 1 lw [] 0 sd 1 lw
 1943 218 m -24 Y s s [] 0 sd 1 lw [] 0 sd 1 lw 2002 218 m -24 Y s s [] 0 sd 1 lw [] 0 sd 1 lw 2060 241 m -47 Y s s
 [] 0 sd 1 lw [] 0 sd 1 lw 2119 218 m -24 Y s s [] 0 sd 1 lw [] 0 sd 1 lw 2178 218 m -24 Y s s [] 0 sd 1 lw [] 0 sd 1 lw
 2236 218 m -24 Y s s [] 0 sd 1 lw [] 0 sd 1 lw 2295 218 m -24 Y s s [] 0 sd 1 lw [] 0 sd 1 lw 2354 241 m -47 Y s s
 [] 0 sd 1 lw [] 0 sd 1 lw 2412 218 m -24 Y s s [] 0 sd 1 lw [] 0 sd 1 lw 2471 218 m -24 Y s s [] 0 sd 1 lw [] 0 sd 1 lw
 2529 218 m -24 Y s s [] 0 sd 1 lw [] 0 sd 1 lw 2588 218 m -24 Y s s [] 0 sd 1 lw [] 0 sd 1 lw 2647 241 m -47 Y s s
 [] 0 sd 1 lw [] 0 sd 1 lw 301 241 m -47 Y s s [] 0 sd 1 lw [] 0 sd 1 lw 2647 241 m -47 Y s s
 /xs 0 def (-20) /Helvetica-Bold 72 stwn  gsave  301 107
 t 0 r xs 2 div neg 0 t 0 0 m /Helvetica-Bold findfont 72 sf 0 0 m (-20) show  gr 
 /xs 0 def (-15) /Helvetica-Bold 72 stwn  gsave  595 107
 t 0 r xs 2 div neg 0 t 0 0 m /Helvetica-Bold findfont 72 sf 0 0 m (-15) show  gr 
 /xs 0 def (-10) /Helvetica-Bold 72 stwn  gsave  888 107
 t 0 r xs 2 div neg 0 t 0 0 m /Helvetica-Bold findfont 72 sf 0 0 m (-10) show  gr 
 /xs 0 def (-5) /Helvetica-Bold 72 stwn  gsave  1181 107
 t 0 r xs 2 div neg 0 t 0 0 m /Helvetica-Bold findfont 72 sf 0 0 m (-5) show  gr 
 /xs 0 def (0) /Helvetica-Bold 72 stwn  gsave  1474 107
 t 0 r xs 2 div neg 0 t 0 0 m /Helvetica-Bold findfont 72 sf 0 0 m (0) show  gr 
 /xs 0 def (5) /Helvetica-Bold 72 stwn  gsave  1767 107
 t 0 r xs 2 div neg 0 t 0 0 m /Helvetica-Bold findfont 72 sf 0 0 m (5) show  gr 
 /xs 0 def (10) /Helvetica-Bold 72 stwn  gsave  2060 107
 t 0 r xs 2 div neg 0 t 0 0 m /Helvetica-Bold findfont 72 sf 0 0 m (10) show  gr 
 /xs 0 def (15) /Helvetica-Bold 72 stwn  gsave  2354 107
 t 0 r xs 2 div neg 0 t 0 0 m /Helvetica-Bold findfont 72 sf 0 0 m (15) show  gr 
 /xs 0 def (20) /Helvetica-Bold 72 stwn  gsave  2647 107
 t 0 r xs 2 div neg 0 t 0 0 m /Helvetica-Bold findfont 72 sf 0 0 m (20) show  gr  [] 0 sd 1 lw [] 0 sd 1 lw 295 194 m
 1556 Y s s
 /xs 0 def (Number of Hits \(cm) /Helvetica-Bold 72 stwn (-2\)) /Helvetica-Bold 50 stwn  gsave  136 1750
 t 90 r  xs neg 0 t 0 0 m /Helvetica-Bold findfont 72 sf 0 0 m (Number of Hits \(cm) show  currentpoint pop 0 t 
 /Helvetica-Bold findfont 50 sf 0 36 m (-2\)) show  gr  [] 0 sd 1 lw [] 0 sd 1 lw 366 194 m -71 X s s [] 0 sd 1 lw
 [] 0 sd 1 lw 330 232 m -35 X s s [] 0 sd 1 lw [] 0 sd 1 lw 330 271 m -35 X s s [] 0 sd 1 lw [] 0 sd 1 lw 330 309 m -35
 X s s [] 0 sd 1 lw [] 0 sd 1 lw 366 347 m -71 X s s [] 0 sd 1 lw [] 0 sd 1 lw 330 385 m -35 X s s [] 0 sd 1 lw [] 0 sd
 1 lw 330 423 m -35 X s s [] 0 sd 1 lw [] 0 sd 1 lw 330 461 m -35 X s s [] 0 sd 1 lw [] 0 sd 1 lw 366 499 m -71 X s s
 [] 0 sd 1 lw [] 0 sd 1 lw 330 537 m -35 X s s [] 0 sd 1 lw [] 0 sd 1 lw 330 575 m -35 X s s [] 0 sd 1 lw [] 0 sd 1 lw
 330 614 m -35 X s s [] 0 sd 1 lw [] 0 sd 1 lw 366 652 m -71 X s s [] 0 sd 1 lw [] 0 sd 1 lw 330 690 m -35 X s s [] 0 sd
 1 lw [] 0 sd 1 lw 330 728 m -35 X s s [] 0 sd 1 lw [] 0 sd 1 lw 330 766 m -35 X s s [] 0 sd 1 lw [] 0 sd 1 lw 366 804 m
 -71 X s s [] 0 sd 1 lw [] 0 sd 1 lw 330 842 m -35 X s s [] 0 sd 1 lw [] 0 sd 1 lw 330 880 m -35 X s s [] 0 sd 1 lw
 [] 0 sd 1 lw 330 918 m -35 X s s [] 0 sd 1 lw [] 0 sd 1 lw 366 957 m -71 X s s [] 0 sd 1 lw [] 0 sd 1 lw 330 995 m -35
 X s s [] 0 sd 1 lw [] 0 sd 1 lw 330 1033 m -35 X s s [] 0 sd 1 lw [] 0 sd 1 lw 330 1071 m -35 X s s [] 0 sd 1 lw
 [] 0 sd 1 lw 366 1109 m -71 X s s [] 0 sd 1 lw [] 0 sd 1 lw 330 1147 m -35 X s s [] 0 sd 1 lw [] 0 sd 1 lw 330 1185 m
 -35 X s s [] 0 sd 1 lw [] 0 sd 1 lw 330 1223 m -35 X s s [] 0 sd 1 lw [] 0 sd 1 lw 366 1261 m -71 X s s [] 0 sd 1 lw
 [] 0 sd 1 lw 330 1300 m -35 X s s [] 0 sd 1 lw [] 0 sd 1 lw 330 1338 m -35 X s s [] 0 sd 1 lw [] 0 sd 1 lw 330 1376 m
 -35 X s s [] 0 sd 1 lw [] 0 sd 1 lw 366 1414 m -71 X s s [] 0 sd 1 lw [] 0 sd 1 lw 330 1452 m -35 X s s [] 0 sd 1 lw
 [] 0 sd 1 lw 330 1490 m -35 X s s [] 0 sd 1 lw [] 0 sd 1 lw 330 1528 m -35 X s s [] 0 sd 1 lw [] 0 sd 1 lw 366 1566 m
 -71 X s s [] 0 sd 1 lw [] 0 sd 1 lw 330 1604 m -35 X s s [] 0 sd 1 lw [] 0 sd 1 lw 330 1643 m -35 X s s [] 0 sd 1 lw
 [] 0 sd 1 lw 330 1681 m -35 X s s [] 0 sd 1 lw [] 0 sd 1 lw 366 1719 m -71 X s s [] 0 sd 1 lw [] 0 sd 1 lw 366 1719 m
 -71 X s s
 /xs 0 def (0) /Helvetica-Bold 72 stwn  gsave  280 174
 t 0 r  xs neg 0 t 0 0 m /Helvetica-Bold findfont 72 sf 0 0 m (0) show  gr 
 /xs 0 def (2) /Helvetica-Bold 72 stwn  gsave  280 326
 t 0 r  xs neg 0 t 0 0 m /Helvetica-Bold findfont 72 sf 0 0 m (2) show  gr 
 /xs 0 def (4) /Helvetica-Bold 72 stwn  gsave  280 479
 t 0 r  xs neg 0 t 0 0 m /Helvetica-Bold findfont 72 sf 0 0 m (4) show  gr 
 /xs 0 def (6) /Helvetica-Bold 72 stwn  gsave  280 631
 t 0 r  xs neg 0 t 0 0 m /Helvetica-Bold findfont 72 sf 0 0 m (6) show  gr 
 /xs 0 def (8) /Helvetica-Bold 72 stwn  gsave  280 783
 t 0 r  xs neg 0 t 0 0 m /Helvetica-Bold findfont 72 sf 0 0 m (8) show  gr 
 /xs 0 def (10) /Helvetica-Bold 72 stwn  gsave  280 936
 t 0 r  xs neg 0 t 0 0 m /Helvetica-Bold findfont 72 sf 0 0 m (10) show  gr 
 /xs 0 def (12) /Helvetica-Bold 72 stwn  gsave  280 1088
 t 0 r  xs neg 0 t 0 0 m /Helvetica-Bold findfont 72 sf 0 0 m (12) show  gr 
 /xs 0 def (14) /Helvetica-Bold 72 stwn  gsave  280 1241
 t 0 r  xs neg 0 t 0 0 m /Helvetica-Bold findfont 72 sf 0 0 m (14) show  gr 
 /xs 0 def (16) /Helvetica-Bold 72 stwn  gsave  280 1393
 t 0 r  xs neg 0 t 0 0 m /Helvetica-Bold findfont 72 sf 0 0 m (16) show  gr 
 /xs 0 def (18) /Helvetica-Bold 72 stwn  gsave  280 1546
 t 0 r  xs neg 0 t 0 0 m /Helvetica-Bold findfont 72 sf 0 0 m (18) show  gr 
 /xs 0 def (20) /Helvetica-Bold 72 stwn  gsave  280 1698
 t 0 r  xs neg 0 t 0 0 m /Helvetica-Bold findfont 72 sf 0 0 m (20) show  gr  [] 0 sd 1 lw 0.95 0.95 0.95 c 1342 97 29
 1837 bf black [] 0 sd 1 lw 49 1837 m -13 Y 1335 X 91 Y -13 X -78 Y f [] 0 sd 1 lw 29 1837 m 97 Y s [] 0 sd 1 lw 29 1934
 m 1342 X s [] 0 sd 1 lw 1371 1934 m -97 Y s [] 0 sd 1 lw 1371 1837 m -1342 X s
 /xs 0 def (Density of Hits for Layer 2) /Helvetica-Bold 76 stwn  gsave  700 1864
 t 0 r xs 2 div neg 0 t 0 0 m /Helvetica-Bold findfont 76 sf 0 0 m (Density of Hits for Layer 2) show  gr  [] 0 sd 1 lw
 0.95 0.95 0.95 c 590 311 2299 1594 bf black [] 0 sd 1 lw 2319 1594 m -13 Y 583 X 305 Y -13 X -292 Y f [] 0 sd 1 lw 2299
 1594 m 311 Y s [] 0 sd 1 lw 2299 1905 m 590 X s [] 0 sd 1 lw 2889 1905 m -311 Y s [] 0 sd 1 lw 2889 1594 m -590 X s
 gsave  2329 1849
 t 0 r 0 0 m /Helvetica-Bold findfont 64 sf 0 0 m (hzetapden_z2) show  gr 
 gsave  2329 1771
 t 0 r 0 0 m /Helvetica-Bold findfont 64 sf 0 0 m (Nent = 764   \040) show  gr 
 gsave  2329 1693
 t 0 r 0 0 m /Helvetica-Bold findfont 64 sf 0 0 m (Mean  = -0.4681) show  gr 
 gsave  2329 1615
 t 0 r 0 0 m /Helvetica-Bold findfont 64 sf 0 0 m (RMS   =  8.279) show  gr  1 1 0 c gr 
showpage gr
 gr 
%%Trailer
%%Pages:  1
%%EOF
