%!PS-Adobe-2.0
%%Title: ITSHitDen_3_z.ps (Landscape A 4)
%%Pages: (atend)
%%Creator: ROOT Version 2.22/09
%%CreationDate:Sat Sep 18 07:10:23 1999
%%EndComments
%%BeginProlog
/s {stroke} def /l {lineto} def /m {moveto} def /t {translate} def
/sw {stringwidth} def /r {rotate} def /rl {roll}  def /R {repeat} def
/d {rlineto} def /rm {rmoveto} def /gr {grestore} def /f {eofill} def
/c {setrgbcolor} def /lw {setlinewidth} def /sd {setdash} def
/cl {closepath} def /sf {scalefont setfont} def /black {0 setgray} def
/box {m dup 0 exch d exch 0 d 0 exch neg d cl} def
/NC{systemdict begin initclip end}def/C{NC box clip newpath}def
/bl {box s} def /bf {box f} def /Y { 0 exch d} def /X { 0 d} def 
/mp {newpath /y exch def /x exch def} def
/side {[w .77 mul w .23 mul] .385 w mul sd w 0 l currentpoint t -144 r} def
/mr {mp x y w2 0 360 arc} def /m24 {mr s} def /m20 {mr f} def
/mb {mp x y w2 add m w2 neg 0 d 0 w neg d w 0 d 0 w d cl} def
/mt {mp x y w2 add m w2 neg w neg d w 0 d cl} def
/m21 {mb f} def /m25 {mb s} def /m22 {mt f} def /m26{mt s} def
/m23 {mp x y w2 sub m w2 w d w neg 0 d cl f} def
/m27 {mp x y w2 add m w3 neg w2 neg d w3 w2 neg d w3 w2 d cl s} def
/m28 {mp x w2 sub y w2 sub w3 add m w3 0 d  0 w3 neg d w3 0 d 0 w3 d w3 0 d  0 w3 d w3 neg 0 d 0 w3 d w3 neg 0 d
 0 w3 neg d w3 neg 0 d cl s } def
/m29 {mp gsave x w2 sub y w2 add w3 sub m currentpoint t
 4 {side} repeat cl fill gr} def
/m30 {mp gsave x w2 sub y w2 add w3 sub m currentpoint t
 5 {side} repeat s gr} def
/m31 {mp x y w2 sub m 0 w d x w2 sub y m w 0 d x w2 sub y w2 add m w w neg d x w2 sub y w2
 sub m w w d s} def
/m2 {mp x y w2 sub m 0 w d x w2 sub y m w 0 d s} def
/m5 {mp x w2 sub y w2 sub m w w d x w2 sub y w2 add m w w neg d s} def
/DP {/PT exch def gsave 47.2 47.2 scale PT 1  eq { 16 16 1 [ 16 0 0 16 neg 0 16
] { < AA AA 55 55 AA AA 55 55 AA AA 55 55 AA AA 55 55 AA AA 55 55 AA AA 55 55
AA AA 55 55 AA AA 55 55 > } image } if PT 2 eq { 16 16 1 [ 16 0 0 16 neg 0 16
] { < BB BB EE EE BB BB EE EE BB BB EE EE BB BB EE EE BB BB EE EE BB BB EE EE
BB BB EE EE BB BB EE EE > } image } if PT 3 eq { 16 16 1 [ 16 0 0 16 neg 0 16
] { < FF FF BB BB FF FF EE EE FF FF BB BB FF FF EE EE FF FF BB BB FF FF EE EE
FF FF BB BB FF FF EE EE > } image } if PT 4 eq { 16 16 1 [ 16 0 0 16 neg 0 16
] { < DF DF BF BF 7F 7F FE FE FD FD FB FB F7 F7 EF EF DF DF BF BF 7F 7F FE FE
FD FD FB FB F7 F7 EF EF > } image } if PT 5 eq { 16 16 1 [ 16 0 0 16 neg 0 16
] { < 7F 7F BF B F DF DF EF EF F7 F7 FB FB FD FD FE FE 7F 7F BF BF DF DF EF
EF F7 F7 FB FB FD FD FE FE > } image } if PT 6 eq { 16 16 1 [ 16 0 0 16 neg 0
16 ] { < BB BB BB BB BB BB BB BB BB BB BB BB BB BB BB BB BB BB BB BB BB BB BB
BB BB BB BB BB BB BB BB BB > } image } if PT 7 eq { 16 16 1 [ 16 0 0 16 neg 0
16 ] { < FF FF FF FF FF FF 00 00 FF FF FF FF FF FF 00 00 FF FF FF FF FF FF 00
00 FF FF FF FF FF FF 00 00 > } image } if PT 8 eq { 16 16 1 [ 16 0 0 16 neg 0
16 ] { < EE EE 47 47 83 83 C5 C5 EE EE 5C 5C 38 38 74 74 EE EE 47 47 83 83 C5
C5 EE EE 5C 5C 38 38 74 74 > } image } if PT 9 eq { 16 16 1 [ 16 0 0 16 neg 0
16 ] { < EF EF EF EF D7 D7 38 38 FE FE FE FE 7D 7D 83 83 EF EF EF EF D7 D7 38
38  FE FE FE FE 7D 7D 83 83 > } image } if PT 10 eq { 16 16 1 [ 16 0 0 16 neg
0 16 ] { <  EF EF EF EF EF EF 00 00 FE FE FE FE FE FE 00 00 EF EF EF EF EF EF
00 00 FE FE FE FE FE FE 00 00 > } image } if PT 11 eq { 16 16 1 [ 16 0 0 16
neg 0 16 ] { < F7 F7 B6 B6 D5 D5 E3 E3 D5 D5 B6 B6 F7 F7 FF FF 7F 7F 6B 6B 5D
5D 3E 3E 5D 5D 6B 6B 7F 7F FF FF > } image } if PT 12 eq { 16 16 1 [ 16 0 0
16 neg 0 16 ] { < E3 E3 DD DD BE BE BE BE BE BE DD DD E3 E3 FF FF 3E 3E DD DD
EB EB EB EB EB EB DD DD 3E 3E FF FF > } image } if PT 13 eq { 16 16 1 [ 16 0
0 16 neg 0 16 ] { <  FE FE 7D 7D BB BB D7 D7 EF EF D7 D7 BB BB 7D 7D FE FE 7D
7D BB BB D7 D7 EF EF D7 D7 BB BB 7D 7D > } image } if PT 14 eq { 16 16 1 [ 16
0 0 16 neg 0 16 ] { < 00 00 EE EF EE EF EE EF 0E E0 EE EE EE EE EE EE 00 EE
FE EE FE EE FE EE 00 00 FE EF FE EF FE EF > } image } if PT 15 eq { 16 16 1 [
16 0 0 16 neg 0 16 ] { < DD DD AA AA DD DD FF FF 77 77 AA AA 77 77 FF FF DD
DD AA AA DD DD FF FF 77 77 AA AA 77 77 FF FF > } image } if PT 16 eq { 16 16
1 [ 16 0 0 16 neg 0 16 ] { <  F1 F1 EE EE 1F 1F FF FF F1 F1 EE EE 1F 1F FF FF
F1 F1 EE EE 1F 1F FF FF F1 F1 EE EE 1F 1F FF FF > } image } if PT 17 eq { 16
16 1 [ 16 0 0 16 neg 0 16 ] { <  EE EE DD DD BB BB FF FF EE EE DD DD BB BB FF
 FF EE EE DD DD BB BB FF FF EE EE DD DD BB BB FF FF > } image } if PT 18 eq {
16 16 1 [ 16 0 0 16 neg 0 16 ] { <  BB BB DD DD EE EE FF FF BB BB DD DD EE EE
FF FF BB BB DD DD EE EE FF FF BB BB DD DD EE EE FF FF > } image } if PT 19 eq
{ 16 16 1 [ 16 0 0 16 neg 0 16 ] { < 1F FC 67 F3 7B EF BD DE BD DE DE BD E6
B3 F8 0F E6 B3 DE BD BD DE BD DE 7B EF 67 F3 1F FC 7F FF > } image } if PT
20 eq { 16 16 1 [ 16 0 0 16 neg 0 16 ] { < DD DD EE EE EE EE EE EE DD DD BB
BB BB BB BB BB DD DD EE EE EE EE EE EE DD DD BB BB BB BB BB BB > } image }
if PT 21 eq { 16 16 1 [ 16 0 0 16 neg 0 16 ] { < 0E 0E EF EF EF EF EF EF E0
E0 FE FE FE FE FE FE 0E 0E EF EF EF EF EF EF E0 E0 FE FE FE FE FE FE > }
image }  if PT 22 eq { 16 16 1 [ 16 0 0 16 neg 0 16 ] { < 70 70 F7 F7 F7 F7 F7
F7 07 07 7F 7F 7F 7F 7F 7F 70 70 F7 F7 F7 F7 F7 F7 07 07 7F 7F 7F 7F 7F 7F >
} image } if PT 23 eq  { 16 16 1 [ 16 0 0 16 neg 0 16 ] { < AA AA 55 55 A9 A9
D1 D1 E1 E1 D1 D1 A9 A9 55 55 AA AA 55 55 A9 A9 D1 D1 E1 E1 D1 D1 A9 A9 55 55
> } image } if PT 24 eq { 16 16 1 [ 16 0 0 16 neg 0 16 ] { < FF FE FF FC EA
A8 D5 54 EA A8 D5 54 E8 28 D4 54 E8 E8 D4 D4 E8 EA 54 D5 A8 EA 54 D5 00 C0 00
80 > } image } if PT 25 eq {  16 16 1 [ 16 0 0 16 neg 0 16 ] { < FF FE FF FC
FF F8 FF F0 F0 00 F0 00 F0 20 F0 60 F0 E0 F1 E0 F3 E0 F0 00 E0 00 C0 00 80 00
00 00 > } image } if gr } def /FA { /PT exch def gsave clip 0 0 translate 1 1
74 { 1 sub 47.2 mul /Xcurr exch def 1 1 74 { 1 sub 47.2 mul /Ycurr exch def
gsave Xcurr Ycurr translate PT DP gr } for } for gr newpath } def
/reencdict 24 dict def /ReEncode {reencdict begin /nco&na exch def
/nfnam exch def /basefontname exch def /basefontdict basefontname findfont def
/newfont basefontdict maxlength dict def basefontdict {exch dup /FID ne
{dup /Encoding eq {exch dup length array copy newfont 3 1 roll put} {exch 
newfont 3 1 roll put} ifelse} {pop pop} ifelse } forall newfont
/FontName nfnam put nco&na aload pop nco&na length 2 idiv {newfont
/Encoding get 3 1 roll put} repeat nfnam newfont definefont pop end } def
/accvec [ 176 /agrave 181 /Agrave 190 /acircumflex 192 /Acircumflex
201 /adieresis 204 /Adieresis 209 /ccedilla 210 /Ccedilla 211 /eacute
212 /Eacute 213 /egrave 214 /Egrave 215 /ecircumflex 216 /Ecircumflex
217 /edieresis 218 /Edieresis 219 /icircumflex 220 /Icircumflex
221 /idieresis 222 /Idieresis 223 /ntilde 224 /Ntilde 226 /ocircumflex
228 /Ocircumflex 229 /odieresis 230 /Odieresis 231 /ucircumflex 236 /Ucircumflex
237 /udieresis 238 /Udieresis 239 /aring 242 /Aring 243 /ydieresis
244 /Ydieresis 246 /aacute 247 /Aacute 252 /ugrave 253 /Ugrave] def
/Times-Roman /Times-Roman accvec ReEncode
/Times-Italic /Times-Italic accvec ReEncode
/Times-Bold /Times-Bold accvec ReEncode
/Times-BoldItalic /Times-BoldItalic accvec ReEncode
/Helvetica /Helvetica accvec ReEncode
/Helvetica-Oblique /Helvetica-Oblique accvec ReEncode
/Helvetica-Bold /Helvetica-Bold accvec ReEncode
/Helvetica-BoldOblique /Helvetica-BoldOblique  accvec ReEncode
/Courier /Courier accvec ReEncode
/Courier-Oblique /Courier-Oblique accvec ReEncode
/Courier-Bold /Courier-Bold accvec ReEncode
/Courier-BoldOblique /Courier-BoldOblique accvec ReEncode
/oshow {gsave [] 0 sd true charpath stroke gr} def
/stwn { /fs exch def /fn exch def /text exch def fn findfont fs sf
 text sw pop xs add /xs exch def} def
/stwb { /fs exch def /fn exch def /nbas exch def /textf exch def
textf length /tlen exch def nbas tlen gt {/nbas tlendef} if
fn findfont fs sf textf dup length nbas sub nbas getinterval sw
pop neg xs add /xs exch def} def
/accspe [ 65 /plusminus  66 /bar  67 /existential  68 /universal 
69 /exclam  70 /numbersign 71 /greater  72 /question  73 /integral 
74 /colon  75 /semicolon  76 /less  77 /bracketleft  78 /bracketright
79 /greaterequal 80 /braceleft 81 /braceright 82 /radical
83 /spade 84 /heart 85 /diamond 86 /club 87 /lessequal
88 /multiply 89 /percent 90 /infinity 48 /circlemultiply 49 /circleplus
50 /emptyset  51 /lozenge 52 /bullet 53 /arrowright 54 /arrowup
55 /arrowleft 56 /arrowdown 57 /arrowboth 48 /degree 44 /comma 43 /plus 45 /angle 42 /angleleft 47 /divide 61 /notequal
 40 /equivalence 41 /second 97 /approxequal 98 /congruent 99 /perpendicular 100 /partialdiff 101 /florin
 102 /intersection 103 /union 104 /propersuperset 105 /reflexsuperset 106 /notsubset 107 /propersubset 108 /reflexsubset
 109 /element 110 /notelement 111 /gradient 112 /logicaland 113 /logicalor 114 /arrowdblboth 115 /arrowdblleft
 116 /arrowdblup 117 /arrowdblright 118 /arrowdbldown 119 /ampersand 120 /omega1 121 /similar 122 /aleph ] def
/Symbol /Special accspe ReEncode
/Zone {/iy exch def /ix exch def  ix 1 sub  3144 mul  1 iy sub  2224
 mul t} def
%%EndProlog
 gsave  90 r 0 -594 t  28 20 t .25 .25 scale  gsave 
%%Page: number 1
 black [] 0 sd 1 lw 0.95 0.95 0.95 c 2948 1944 0 0 bf 0.8 0.8 0.8 c 0 0 m 2 2 d 1940 Y 2944 X 2 2 d -2948 X -1944 Y f
 0.3 0.3 0.3 c 0 0 m 2 2 d 2944 X 1940 Y 2 2 d -1944 Y -2948 X f black [] 0 sd 1 lw 0.95 0.95 0.95 c 2358 1556 295 194
 bf 0.8 0.8 0.8 c 295 194 m 1 1 d 1554 Y 2356 X 1 1 d -2358 X -1556 Y f 0.3 0.3 0.3 c 295 194 m 1 1 d 2356 X 1554 Y 1 1
 d -1556 Y -2358 X f [] 0 sd 1 lw black 295 194 m 2358 X s [] 0 sd 1 lw 2653 194 m 1556 Y s [] 0 sd 1 lw 2653 1750 m
 -2358 X s [] 0 sd 1 lw 295 1750 m -1556 Y s [] 0 sd 1 lw 1 1 1 c black [] 0 sd 1 lw 295 194 m 6 X s [] 0 sd 1 lw 301
 194 m 6 X s [] 0 sd 1 lw 307 194 m 5 X s [] 0 sd 1 lw 312 194 m 6 X s [] 0 sd 1 lw 318 194 m 6 X s [] 0 sd 1 lw 324 194
 m 6 X s [] 0 sd 1 lw 330 194 m 6 X s [] 0 sd 1 lw 336 194 m 6 X s [] 0 sd 1 lw 342 194 m 6 X s [] 0 sd 1 lw 348 194 m 6
 X s [] 0 sd 1 lw 354 194 m 6 X s [] 0 sd 1 lw 360 194 m 6 X s [] 0 sd 1 lw 366 194 m 5 X s [] 0 sd 1 lw 371 194 m 6 X s
 [] 0 sd 1 lw 377 194 m 6 X s [] 0 sd 1 lw 383 194 m 6 X s [] 0 sd 1 lw 389 194 m 6 X s [] 0 sd 1 lw 395 194 m 6 X s
 [] 0 sd 1 lw 401 194 m 6 X s [] 0 sd 1 lw 407 194 m 6 X s [] 0 sd 1 lw 413 194 m 6 X s [] 0 sd 1 lw 419 194 m 6 X s
 [] 0 sd 1 lw 425 194 m 5 X s [] 0 sd 1 lw 430 194 m 6 X s [] 0 sd 1 lw 436 194 m 6 X s [] 0 sd 1 lw 442 194 m 6 X s
 [] 0 sd 1 lw 448 194 m 6 X s [] 0 sd 1 lw 454 194 m 6 X s [] 0 sd 1 lw 460 194 m 6 X s [] 0 sd 1 lw 466 194 m 6 X s
 [] 0 sd 1 lw 472 194 m 6 X s [] 0 sd 1 lw 478 194 m 5 X s [] 0 sd 1 lw 483 194 m 6 X s [] 0 sd 1 lw 489 194 m 6 X s
 [] 0 sd 1 lw 495 194 m 6 X s [] 0 sd 1 lw 501 194 m 6 X s [] 0 sd 1 lw 507 194 m 6 X s [] 0 sd 1 lw 513 194 m 6 X s
 [] 0 sd 1 lw 519 194 m 6 X s [] 0 sd 1 lw 525 194 m 6 X s [] 0 sd 1 lw 537 275 m 195 Y s [] 0 sd 1 lw 537 470 m 195 Y s
 [] 0 sd 1 lw 531 470 m 6 X s [] 0 sd 1 lw 537 470 m 5 X s [] 0 sd 1 lw /w 2 def /w2 {w 2 div} def /w3 {w 3 div} def 537
 470 m20 [] 0 sd 1 lw [] 0 sd 1 lw 548 275 m 194 Y s [] 0 sd 1 lw 548 469 m 194 Y s [] 0 sd 1 lw 542 469 m 6 X s [] 0 sd
 1 lw 548 469 m 6 X s [] 0 sd 1 lw 548 469 m20 [] 0 sd 1 lw [] 0 sd 1 lw 560 194 m 131 Y s [] 0 sd 1 lw 560 325 m 131 Y
 s [] 0 sd 1 lw 554 325 m 6 X s [] 0 sd 1 lw 560 325 m 6 X s [] 0 sd 1 lw 560 325 m20 [] 0 sd 1 lw [] 0 sd 1 lw 572 273
 m 189 Y s [] 0 sd 1 lw 572 462 m 189 Y s [] 0 sd 1 lw 566 462 m 6 X s [] 0 sd 1 lw 572 462 m 6 X s [] 0 sd 1 lw 572 462
 m20 [] 0 sd 1 lw [] 0 sd 1 lw 584 194 m 139 Y s [] 0 sd 1 lw 584 333 m 139 Y s [] 0 sd 1 lw 578 333 m 6 X s [] 0 sd 1
 lw 584 333 m 6 X s [] 0 sd 1 lw 584 333 m20 [] 0 sd 1 lw [] 0 sd 1 lw 590 194 m 6 X s [] 0 sd 1 lw 596 194 m 5 X s
 [] 0 sd 1 lw 607 194 m 133 Y s [] 0 sd 1 lw 607 327 m 133 Y s [] 0 sd 1 lw 601 327 m 6 X s [] 0 sd 1 lw 607 327 m 6 X s
 [] 0 sd 1 lw 607 327 m20 [] 0 sd 1 lw [] 0 sd 1 lw 619 365 m 233 Y s [] 0 sd 1 lw 619 598 m 233 Y s [] 0 sd 1 lw 613
 598 m 6 X s [] 0 sd 1 lw 619 598 m 6 X s [] 0 sd 1 lw 619 598 m20 [] 0 sd 1 lw [] 0 sd 1 lw 631 370 m 240 Y s [] 0 sd 1
 lw 631 610 m 240 Y s [] 0 sd 1 lw 625 610 m 6 X s [] 0 sd 1 lw 631 610 m 6 X s [] 0 sd 1 lw 631 610 m20 [] 0 sd 1 lw
 [] 0 sd 1 lw 643 272 m 187 Y s [] 0 sd 1 lw 643 459 m 187 Y s [] 0 sd 1 lw 637 459 m 6 X s [] 0 sd 1 lw 643 459 m 6 X s
 [] 0 sd 1 lw 643 459 m20 [] 0 sd 1 lw [] 0 sd 1 lw 649 194 m 5 X s [] 0 sd 1 lw 654 194 m 6 X s [] 0 sd 1 lw 666 365 m
 233 Y s [] 0 sd 1 lw 666 598 m 233 Y s [] 0 sd 1 lw 660 598 m 6 X s [] 0 sd 1 lw 666 598 m 6 X s [] 0 sd 1 lw 666 598
 m20 [] 0 sd 1 lw [] 0 sd 1 lw 678 273 m 191 Y s [] 0 sd 1 lw 678 464 m 191 Y s [] 0 sd 1 lw 672 464 m 6 X s [] 0 sd 1
 lw 678 464 m 6 X s [] 0 sd 1 lw 678 464 m20 [] 0 sd 1 lw [] 0 sd 1 lw 690 367 m 236 Y s [] 0 sd 1 lw 690 603 m 236 Y s
 [] 0 sd 1 lw 684 603 m 6 X s [] 0 sd 1 lw 690 603 m 6 X s [] 0 sd 1 lw 690 603 m20 [] 0 sd 1 lw [] 0 sd 1 lw 702 194 m
 139 Y s [] 0 sd 1 lw 702 333 m 139 Y s [] 0 sd 1 lw 696 333 m 6 X s [] 0 sd 1 lw 702 333 m 6 X s [] 0 sd 1 lw 702 333
 m20 [] 0 sd 1 lw [] 0 sd 1 lw 708 194 m 5 X s [] 0 sd 1 lw 713 194 m 6 X s [] 0 sd 1 lw 725 469 m 274 Y s [] 0 sd 1 lw
 725 743 m 274 Y s [] 0 sd 1 lw 719 743 m 6 X s [] 0 sd 1 lw 725 743 m 6 X s [] 0 sd 1 lw 725 743 m20 [] 0 sd 1 lw
 [] 0 sd 1 lw 737 369 m 239 Y s [] 0 sd 1 lw 737 608 m 239 Y s [] 0 sd 1 lw 731 608 m 6 X s [] 0 sd 1 lw 737 608 m 6 X s
 [] 0 sd 1 lw 737 608 m20 [] 0 sd 1 lw [] 0 sd 1 lw 749 366 m 234 Y s [] 0 sd 1 lw 749 600 m 235 Y s [] 0 sd 1 lw 743
 600 m 6 X s [] 0 sd 1 lw 749 600 m 6 X s [] 0 sd 1 lw 749 600 m20 [] 0 sd 1 lw [] 0 sd 1 lw 761 365 m 234 Y s [] 0 sd 1
 lw 761 599 m 233 Y s [] 0 sd 1 lw 755 599 m 6 X s [] 0 sd 1 lw 761 599 m 5 X s [] 0 sd 1 lw 761 599 m20 [] 0 sd 1 lw
 [] 0 sd 1 lw 766 194 m 6 X s [] 0 sd 1 lw 772 194 m 6 X s [] 0 sd 1 lw 784 194 m 138 Y s [] 0 sd 1 lw 784 332 m 137 Y s
 [] 0 sd 1 lw 778 332 m 6 X s [] 0 sd 1 lw 784 332 m 6 X s [] 0 sd 1 lw 784 332 m20 [] 0 sd 1 lw [] 0 sd 1 lw 796 272 m
 189 Y s [] 0 sd 1 lw 796 461 m 189 Y s [] 0 sd 1 lw 790 461 m 6 X s [] 0 sd 1 lw 796 461 m 6 X s [] 0 sd 1 lw 796 461
 m20 [] 0 sd 1 lw [] 0 sd 1 lw 808 273 m 189 Y s [] 0 sd 1 lw 808 462 m 189 Y s [] 0 sd 1 lw 802 462 m 6 X s [] 0 sd 1
 lw 808 462 m 6 X s [] 0 sd 1 lw 808 462 m20 [] 0 sd 1 lw [] 0 sd 1 lw 820 368 m 237 Y s [] 0 sd 1 lw 820 605 m 237 Y s
 [] 0 sd 1 lw 814 605 m 6 X s [] 0 sd 1 lw 820 605 m 5 X s [] 0 sd 1 lw 820 605 m20 [] 0 sd 1 lw [] 0 sd 1 lw 831 781 m
 356 Y s [] 0 sd 1 lw 831 1137 m 356 Y s [] 0 sd 1 lw 825 1137 m 6 X s [] 0 sd 1 lw 831 1137 m 6 X s [] 0 sd 1 lw 831
 1137 m20 [] 0 sd 1 lw [] 0 sd 1 lw 843 669 m 327 Y s [] 0 sd 1 lw 843 996 m 328 Y s [] 0 sd 1 lw 837 996 m 6 X s
 [] 0 sd 1 lw 843 996 m 6 X s [] 0 sd 1 lw 843 996 m20 [] 0 sd 1 lw [] 0 sd 1 lw 855 271 m 184 Y s [] 0 sd 1 lw 855 455
 m 184 Y s [] 0 sd 1 lw 849 455 m 6 X s [] 0 sd 1 lw 855 455 m 6 X s [] 0 sd 1 lw 855 455 m20 [] 0 sd 1 lw [] 0 sd 1 lw
 867 194 m 136 Y s [] 0 sd 1 lw 867 330 m 137 Y s [] 0 sd 1 lw 861 330 m 6 X s [] 0 sd 1 lw 867 330 m 6 X s [] 0 sd 1 lw
 867 330 m20 [] 0 sd 1 lw [] 0 sd 1 lw 879 462 m 267 Y s [] 0 sd 1 lw 879 729 m 268 Y s [] 0 sd 1 lw 873 729 m 6 X s
 [] 0 sd 1 lw 879 729 m 5 X s [] 0 sd 1 lw 879 729 m20 [] 0 sd 1 lw [] 0 sd 1 lw 890 273 m 189 Y s [] 0 sd 1 lw 890 462
 m 190 Y s [] 0 sd 1 lw 884 462 m 6 X s [] 0 sd 1 lw 890 462 m 6 X s [] 0 sd 1 lw 890 462 m20 [] 0 sd 1 lw [] 0 sd 1 lw
 902 194 m 135 Y s [] 0 sd 1 lw 902 329 m 135 Y s [] 0 sd 1 lw 896 329 m 6 X s [] 0 sd 1 lw 902 329 m 6 X s [] 0 sd 1 lw
 902 329 m20 [] 0 sd 1 lw [] 0 sd 1 lw 914 561 m 297 Y s [] 0 sd 1 lw 914 858 m 296 Y s [] 0 sd 1 lw 908 858 m 6 X s
 [] 0 sd 1 lw 914 858 m 6 X s [] 0 sd 1 lw 914 858 m20 [] 0 sd 1 lw [] 0 sd 1 lw 926 361 m 229 Y s [] 0 sd 1 lw 926 590
 m 228 Y s [] 0 sd 1 lw 920 590 m 6 X s [] 0 sd 1 lw 926 590 m 6 X s [] 0 sd 1 lw 926 590 m20 [] 0 sd 1 lw [] 0 sd 1 lw
 937 364 m 232 Y s [] 0 sd 1 lw 937 596 m 232 Y s [] 0 sd 1 lw 932 596 m 5 X s [] 0 sd 1 lw 937 596 m 6 X s [] 0 sd 1 lw
 937 596 m20 [] 0 sd 1 lw [] 0 sd 1 lw 949 273 m 191 Y s [] 0 sd 1 lw 949 464 m 190 Y s [] 0 sd 1 lw 943 464 m 6 X s
 [] 0 sd 1 lw 949 464 m 6 X s [] 0 sd 1 lw 949 464 m20 [] 0 sd 1 lw [] 0 sd 1 lw 961 458 m 263 Y s [] 0 sd 1 lw 961 721
 m 264 Y s [] 0 sd 1 lw 955 721 m 6 X s [] 0 sd 1 lw 961 721 m 6 X s [] 0 sd 1 lw 961 721 m20 [] 0 sd 1 lw [] 0 sd 1 lw
 973 362 m 229 Y s [] 0 sd 1 lw 973 591 m 228 Y s [] 0 sd 1 lw 967 591 m 6 X s [] 0 sd 1 lw 973 591 m 6 X s [] 0 sd 1 lw
 973 591 m20 [] 0 sd 1 lw [] 0 sd 1 lw 985 366 m 235 Y s [] 0 sd 1 lw 985 601 m 235 Y s [] 0 sd 1 lw 979 601 m 6 X s
 [] 0 sd 1 lw 985 601 m 6 X s [] 0 sd 1 lw 985 601 m20 [] 0 sd 1 lw [] 0 sd 1 lw 996 458 m 264 Y s [] 0 sd 1 lw 996 722
 m 264 Y s [] 0 sd 1 lw 991 722 m 5 X s [] 0 sd 1 lw 996 722 m 6 X s [] 0 sd 1 lw 996 722 m20 [] 0 sd 1 lw [] 0 sd 1 lw
 1008 194 m 135 Y s [] 0 sd 1 lw 1008 329 m 135 Y s [] 0 sd 1 lw 1002 329 m 6 X s [] 0 sd 1 lw 1008 329 m 6 X s [] 0 sd
 1 lw 1008 329 m20 [] 0 sd 1 lw [] 0 sd 1 lw 1020 273 m 189 Y s [] 0 sd 1 lw 1020 462 m 189 Y s [] 0 sd 1 lw 1014 462 m
 6 X s [] 0 sd 1 lw 1020 462 m 6 X s [] 0 sd 1 lw 1020 462 m20 [] 0 sd 1 lw [] 0 sd 1 lw 1032 194 m 136 Y s [] 0 sd 1 lw
 1032 330 m 135 Y s [] 0 sd 1 lw 1026 330 m 6 X s [] 0 sd 1 lw 1032 330 m 6 X s [] 0 sd 1 lw 1032 330 m20 [] 0 sd 1 lw
 [] 0 sd 1 lw 1044 465 m 270 Y s [] 0 sd 1 lw 1044 735 m 270 Y s [] 0 sd 1 lw 1038 735 m 6 X s [] 0 sd 1 lw 1044 735 m 5
 X s [] 0 sd 1 lw 1044 735 m20 [] 0 sd 1 lw [] 0 sd 1 lw 1055 461 m 267 Y s [] 0 sd 1 lw 1055 728 m 266 Y s [] 0 sd 1 lw
 1049 728 m 6 X s [] 0 sd 1 lw 1055 728 m 6 X s [] 0 sd 1 lw 1055 728 m20 [] 0 sd 1 lw [] 0 sd 1 lw 1067 362 m 229 Y s
 [] 0 sd 1 lw 1067 591 m 229 Y s [] 0 sd 1 lw 1061 591 m 6 X s [] 0 sd 1 lw 1067 591 m 6 X s [] 0 sd 1 lw 1067 591 m20
 [] 0 sd 1 lw [] 0 sd 1 lw 1073 194 m 6 X s [] 0 sd 1 lw 1079 194 m 6 X s [] 0 sd 1 lw 1091 362 m 228 Y s [] 0 sd 1 lw
 1091 590 m 229 Y s [] 0 sd 1 lw 1085 590 m 6 X s [] 0 sd 1 lw 1091 590 m 6 X s [] 0 sd 1 lw 1091 590 m20 [] 0 sd 1 lw
 [] 0 sd 1 lw 1103 561 m 297 Y s [] 0 sd 1 lw 1103 858 m 297 Y s [] 0 sd 1 lw 1097 858 m 6 X s [] 0 sd 1 lw 1103 858 m 5
 X s [] 0 sd 1 lw 1103 858 m20 [] 0 sd 1 lw [] 0 sd 1 lw 1114 563 m 299 Y s [] 0 sd 1 lw 1114 862 m 298 Y s [] 0 sd 1 lw
 1108 862 m 6 X s [] 0 sd 1 lw 1114 862 m 6 X s [] 0 sd 1 lw 1114 862 m20 [] 0 sd 1 lw [] 0 sd 1 lw 1126 669 m 327 Y s
 [] 0 sd 1 lw 1126 996 m 328 Y s [] 0 sd 1 lw 1120 996 m 6 X s [] 0 sd 1 lw 1126 996 m 6 X s [] 0 sd 1 lw 1126 996 m20
 [] 0 sd 1 lw [] 0 sd 1 lw 1138 560 m 296 Y s [] 0 sd 1 lw 1138 856 m 296 Y s [] 0 sd 1 lw 1132 856 m 6 X s [] 0 sd 1 lw
 1138 856 m 6 X s [] 0 sd 1 lw 1138 856 m20 [] 0 sd 1 lw [] 0 sd 1 lw 1150 194 m 132 Y s [] 0 sd 1 lw 1150 326 m 131 Y s
 [] 0 sd 1 lw 1144 326 m 6 X s [] 0 sd 1 lw 1150 326 m 6 X s [] 0 sd 1 lw 1150 326 m20 [] 0 sd 1 lw [] 0 sd 1 lw 1162
 272 m 187 Y s [] 0 sd 1 lw 1162 459 m 188 Y s [] 0 sd 1 lw 1156 459 m 6 X s [] 0 sd 1 lw 1162 459 m 5 X s [] 0 sd 1 lw
 1162 459 m20 [] 0 sd 1 lw [] 0 sd 1 lw 1173 672 m 330 Y s [] 0 sd 1 lw 1173 1002 m 330 Y s [] 0 sd 1 lw 1167 1002 m 6 X
 s [] 0 sd 1 lw 1173 1002 m 6 X s [] 0 sd 1 lw 1173 1002 m20 [] 0 sd 1 lw [] 0 sd 1 lw 1185 194 m 139 Y s [] 0 sd 1 lw
 1185 333 m 139 Y s [] 0 sd 1 lw 1179 333 m 6 X s [] 0 sd 1 lw 1185 333 m 6 X s [] 0 sd 1 lw 1185 333 m20 [] 0 sd 1 lw
 [] 0 sd 1 lw 1197 194 m 139 Y s [] 0 sd 1 lw 1197 333 m 139 Y s [] 0 sd 1 lw 1191 333 m 6 X s [] 0 sd 1 lw 1197 333 m 6
 X s [] 0 sd 1 lw 1197 333 m20 [] 0 sd 1 lw [] 0 sd 1 lw 1209 785 m 359 Y s [] 0 sd 1 lw 1209 1144 m 359 Y s [] 0 sd 1
 lw 1203 1144 m 6 X s [] 0 sd 1 lw 1209 1144 m 6 X s [] 0 sd 1 lw 1209 1144 m20 [] 0 sd 1 lw [] 0 sd 1 lw 1220 367 m 237
 Y s [] 0 sd 1 lw 1220 604 m 237 Y s [] 0 sd 1 lw 1215 604 m 5 X s [] 0 sd 1 lw 1220 604 m 6 X s [] 0 sd 1 lw 1220 604
 m20 [] 0 sd 1 lw [] 0 sd 1 lw 1232 272 m 189 Y s [] 0 sd 1 lw 1232 461 m 189 Y s [] 0 sd 1 lw 1226 461 m 6 X s [] 0 sd
 1 lw 1232 461 m 6 X s [] 0 sd 1 lw 1232 461 m20 [] 0 sd 1 lw [] 0 sd 1 lw 1244 463 m 269 Y s [] 0 sd 1 lw 1244 732 m
 268 Y s [] 0 sd 1 lw 1238 732 m 6 X s [] 0 sd 1 lw 1244 732 m 6 X s [] 0 sd 1 lw 1244 732 m20 [] 0 sd 1 lw [] 0 sd 1 lw
 1256 362 m 230 Y s [] 0 sd 1 lw 1256 592 m 229 Y s [] 0 sd 1 lw 1250 592 m 6 X s [] 0 sd 1 lw 1256 592 m 6 X s [] 0 sd
 1 lw 1256 592 m20 [] 0 sd 1 lw [] 0 sd 1 lw 1268 194 m 137 Y s [] 0 sd 1 lw 1268 331 m 136 Y s [] 0 sd 1 lw 1262 331 m
 6 X s [] 0 sd 1 lw 1268 331 m 6 X s [] 0 sd 1 lw 1268 331 m20 [] 0 sd 1 lw [] 0 sd 1 lw 1279 273 m 189 Y s [] 0 sd 1 lw
 1279 462 m 189 Y s [] 0 sd 1 lw 1274 462 m 5 X s [] 0 sd 1 lw 1279 462 m 6 X s [] 0 sd 1 lw 1279 462 m20 [] 0 sd 1 lw
 [] 0 sd 1 lw 1291 364 m 231 Y s [] 0 sd 1 lw 1291 595 m 231 Y s [] 0 sd 1 lw 1285 595 m 6 X s [] 0 sd 1 lw 1291 595 m 6
 X s [] 0 sd 1 lw 1291 595 m20 [] 0 sd 1 lw [] 0 sd 1 lw 1303 369 m 239 Y s [] 0 sd 1 lw 1303 608 m 240 Y s [] 0 sd 1 lw
 1297 608 m 6 X s [] 0 sd 1 lw 1303 608 m 6 X s [] 0 sd 1 lw 1303 608 m20 [] 0 sd 1 lw [] 0 sd 1 lw 1315 194 m 132 Y s
 [] 0 sd 1 lw 1315 326 m 132 Y s [] 0 sd 1 lw 1309 326 m 6 X s [] 0 sd 1 lw 1315 326 m 6 X s [] 0 sd 1 lw 1315 326 m20
 [] 0 sd 1 lw [] 0 sd 1 lw 1327 273 m 191 Y s [] 0 sd 1 lw 1327 464 m 191 Y s [] 0 sd 1 lw 1321 464 m 6 X s [] 0 sd 1 lw
 1327 464 m 6 X s [] 0 sd 1 lw 1327 464 m20 [] 0 sd 1 lw [] 0 sd 1 lw 1338 275 m 194 Y s [] 0 sd 1 lw 1338 469 m 194 Y s
 [] 0 sd 1 lw 1333 469 m 5 X s [] 0 sd 1 lw 1338 469 m 6 X s [] 0 sd 1 lw 1338 469 m20 [] 0 sd 1 lw [] 0 sd 1 lw 1350
 276 m 195 Y s [] 0 sd 1 lw 1350 471 m 196 Y s [] 0 sd 1 lw 1344 471 m 6 X s [] 0 sd 1 lw 1350 471 m 6 X s [] 0 sd 1 lw
 1350 471 m20 [] 0 sd 1 lw [] 0 sd 1 lw 1362 464 m 271 Y s [] 0 sd 1 lw 1362 735 m 270 Y s [] 0 sd 1 lw 1356 735 m 6 X s
 [] 0 sd 1 lw 1362 735 m 6 X s [] 0 sd 1 lw 1362 735 m20 [] 0 sd 1 lw [] 0 sd 1 lw 1374 272 m 187 Y s [] 0 sd 1 lw 1374
 459 m 187 Y s [] 0 sd 1 lw 1368 459 m 6 X s [] 0 sd 1 lw 1374 459 m 6 X s [] 0 sd 1 lw 1374 459 m20 [] 0 sd 1 lw
 [] 0 sd 1 lw 1386 194 m 132 Y s [] 0 sd 1 lw 1386 326 m 131 Y s [] 0 sd 1 lw 1380 326 m 6 X s [] 0 sd 1 lw 1386 326 m 5
 X s [] 0 sd 1 lw 1386 326 m20 [] 0 sd 1 lw [] 0 sd 1 lw 1397 468 m 273 Y s [] 0 sd 1 lw 1397 741 m 273 Y s [] 0 sd 1 lw
 1391 741 m 6 X s [] 0 sd 1 lw 1397 741 m 6 X s [] 0 sd 1 lw 1397 741 m20 [] 0 sd 1 lw [] 0 sd 1 lw 1409 461 m 266 Y s
 [] 0 sd 1 lw 1409 727 m 267 Y s [] 0 sd 1 lw 1403 727 m 6 X s [] 0 sd 1 lw 1409 727 m 6 X s [] 0 sd 1 lw 1409 727 m20
 [] 0 sd 1 lw [] 0 sd 1 lw 1421 679 m 334 Y s [] 0 sd 1 lw 1421 1013 m 334 Y s [] 0 sd 1 lw 1415 1013 m 6 X s [] 0 sd 1
 lw 1421 1013 m 6 X s [] 0 sd 1 lw 1421 1013 m20 [] 0 sd 1 lw [] 0 sd 1 lw 1433 365 m 233 Y s [] 0 sd 1 lw 1433 598 m
 233 Y s [] 0 sd 1 lw 1427 598 m 6 X s [] 0 sd 1 lw 1433 598 m 6 X s [] 0 sd 1 lw 1433 598 m20 [] 0 sd 1 lw [] 0 sd 1 lw
 1445 891 m 381 Y s [] 0 sd 1 lw 1445 1272 m 381 Y s [] 0 sd 1 lw 1439 1272 m 6 X s [] 0 sd 1 lw 1445 1272 m 5 X s
 [] 0 sd 1 lw 1445 1272 m20 [] 0 sd 1 lw [] 0 sd 1 lw 1456 194 m 139 Y s [] 0 sd 1 lw 1456 333 m 139 Y s [] 0 sd 1 lw
 1450 333 m 6 X s [] 0 sd 1 lw 1456 333 m 6 X s [] 0 sd 1 lw 1456 333 m20 [] 0 sd 1 lw [] 0 sd 1 lw 1468 460 m 265 Y s
 [] 0 sd 1 lw 1468 725 m 265 Y s [] 0 sd 1 lw 1462 725 m 6 X s [] 0 sd 1 lw 1468 725 m 6 X s [] 0 sd 1 lw 1468 725 m20
 [] 0 sd 1 lw [] 0 sd 1 lw 1480 892 m 382 Y s [] 0 sd 1 lw 1480 1274 m 382 Y s [] 0 sd 1 lw 1474 1274 m 6 X s [] 0 sd 1
 lw 1480 1274 m 6 X s [] 0 sd 1 lw 1480 1274 m20 [] 0 sd 1 lw [] 0 sd 1 lw 1492 364 m 233 Y s [] 0 sd 1 lw 1492 597 m
 232 Y s [] 0 sd 1 lw 1486 597 m 6 X s [] 0 sd 1 lw 1492 597 m 6 X s [] 0 sd 1 lw 1492 597 m20 [] 0 sd 1 lw [] 0 sd 1 lw
 1503 774 m 353 Y s [] 0 sd 1 lw 1503 1127 m 352 Y s [] 0 sd 1 lw 1498 1127 m 5 X s [] 0 sd 1 lw 1503 1127 m 6 X s
 [] 0 sd 1 lw 1503 1127 m20 [] 0 sd 1 lw [] 0 sd 1 lw 1515 272 m 189 Y s [] 0 sd 1 lw 1515 461 m 188 Y s [] 0 sd 1 lw
 1509 461 m 6 X s [] 0 sd 1 lw 1515 461 m 6 X s [] 0 sd 1 lw 1515 461 m20 [] 0 sd 1 lw [] 0 sd 1 lw 1527 460 m 265 Y s
 [] 0 sd 1 lw 1527 725 m 266 Y s [] 0 sd 1 lw 1521 725 m 6 X s [] 0 sd 1 lw 1527 725 m 6 X s [] 0 sd 1 lw 1527 725 m20
 [] 0 sd 1 lw [] 0 sd 1 lw 1539 362 m 228 Y s [] 0 sd 1 lw 1539 590 m 229 Y s [] 0 sd 1 lw 1533 590 m 6 X s [] 0 sd 1 lw
 1539 590 m 6 X s [] 0 sd 1 lw 1539 590 m20 [] 0 sd 1 lw [] 0 sd 1 lw 1551 271 m 186 Y s [] 0 sd 1 lw 1551 457 m 186 Y s
 [] 0 sd 1 lw 1545 457 m 6 X s [] 0 sd 1 lw 1551 457 m 6 X s [] 0 sd 1 lw 1551 457 m20 [] 0 sd 1 lw [] 0 sd 1 lw 1562
 464 m 269 Y s [] 0 sd 1 lw 1562 733 m 270 Y s [] 0 sd 1 lw 1557 733 m 5 X s [] 0 sd 1 lw 1562 733 m 6 X s [] 0 sd 1 lw
 1562 733 m20 [] 0 sd 1 lw [] 0 sd 1 lw 1574 364 m 231 Y s [] 0 sd 1 lw 1574 595 m 231 Y s [] 0 sd 1 lw 1568 595 m 6 X s
 [] 0 sd 1 lw 1574 595 m 6 X s [] 0 sd 1 lw 1574 595 m20 [] 0 sd 1 lw [] 0 sd 1 lw 1586 194 m 130 Y s [] 0 sd 1 lw 1586
 324 m 129 Y s [] 0 sd 1 lw 1580 324 m 6 X s [] 0 sd 1 lw 1586 324 m 6 X s [] 0 sd 1 lw 1586 324 m20 [] 0 sd 1 lw
 [] 0 sd 1 lw 1598 272 m 188 Y s [] 0 sd 1 lw 1598 460 m 189 Y s [] 0 sd 1 lw 1592 460 m 6 X s [] 0 sd 1 lw 1598 460 m 6
 X s [] 0 sd 1 lw 1598 460 m20 [] 0 sd 1 lw [] 0 sd 1 lw 1610 365 m 232 Y s [] 0 sd 1 lw 1610 597 m 233 Y s [] 0 sd 1 lw
 1604 597 m 6 X s [] 0 sd 1 lw 1610 597 m 6 X s [] 0 sd 1 lw 1610 597 m20 [] 0 sd 1 lw [] 0 sd 1 lw 1621 271 m 185 Y s
 [] 0 sd 1 lw 1621 456 m 186 Y s [] 0 sd 1 lw 1616 456 m 5 X s [] 0 sd 1 lw 1621 456 m 6 X s [] 0 sd 1 lw 1621 456 m20
 [] 0 sd 1 lw [] 0 sd 1 lw 1633 461 m 267 Y s [] 0 sd 1 lw 1633 728 m 267 Y s [] 0 sd 1 lw 1627 728 m 6 X s [] 0 sd 1 lw
 1633 728 m 6 X s [] 0 sd 1 lw 1633 728 m20 [] 0 sd 1 lw [] 0 sd 1 lw 1645 559 m 294 Y s [] 0 sd 1 lw 1645 853 m 295 Y s
 [] 0 sd 1 lw 1639 853 m 6 X s [] 0 sd 1 lw 1645 853 m 6 X s [] 0 sd 1 lw 1645 853 m20 [] 0 sd 1 lw [] 0 sd 1 lw 1657
 571 m 304 Y s [] 0 sd 1 lw 1657 875 m 304 Y s [] 0 sd 1 lw 1651 875 m 6 X s [] 0 sd 1 lw 1657 875 m 6 X s [] 0 sd 1 lw
 1657 875 m20 [] 0 sd 1 lw [] 0 sd 1 lw 1669 361 m 229 Y s [] 0 sd 1 lw 1669 590 m 228 Y s [] 0 sd 1 lw 1663 590 m 6 X s
 [] 0 sd 1 lw 1669 590 m 5 X s [] 0 sd 1 lw 1669 590 m20 [] 0 sd 1 lw [] 0 sd 1 lw 1680 274 m 192 Y s [] 0 sd 1 lw 1680
 466 m 192 Y s [] 0 sd 1 lw 1674 466 m 6 X s [] 0 sd 1 lw 1680 466 m 6 X s [] 0 sd 1 lw 1680 466 m20 [] 0 sd 1 lw
 [] 0 sd 1 lw 1692 557 m 293 Y s [] 0 sd 1 lw 1692 850 m 294 Y s [] 0 sd 1 lw 1686 850 m 6 X s [] 0 sd 1 lw 1692 850 m 6
 X s [] 0 sd 1 lw 1692 850 m20 [] 0 sd 1 lw [] 0 sd 1 lw 1704 365 m 234 Y s [] 0 sd 1 lw 1704 599 m 234 Y s [] 0 sd 1 lw
 1698 599 m 6 X s [] 0 sd 1 lw 1704 599 m 6 X s [] 0 sd 1 lw 1704 599 m20 [] 0 sd 1 lw [] 0 sd 1 lw 1716 466 m 272 Y s
 [] 0 sd 1 lw 1716 738 m 272 Y s [] 0 sd 1 lw 1710 738 m 6 X s [] 0 sd 1 lw 1716 738 m 6 X s [] 0 sd 1 lw 1716 738 m20
 [] 0 sd 1 lw [] 0 sd 1 lw 1728 362 m 228 Y s [] 0 sd 1 lw 1728 590 m 229 Y s [] 0 sd 1 lw 1722 590 m 6 X s [] 0 sd 1 lw
 1728 590 m 5 X s [] 0 sd 1 lw 1728 590 m20 [] 0 sd 1 lw [] 0 sd 1 lw 1739 455 m 261 Y s [] 0 sd 1 lw 1739 716 m 261 Y s
 [] 0 sd 1 lw 1733 716 m 6 X s [] 0 sd 1 lw 1739 716 m 6 X s [] 0 sd 1 lw 1739 716 m20 [] 0 sd 1 lw [] 0 sd 1 lw 1751
 461 m 266 Y s [] 0 sd 1 lw 1751 727 m 266 Y s [] 0 sd 1 lw 1745 727 m 6 X s [] 0 sd 1 lw 1751 727 m 6 X s [] 0 sd 1 lw
 1751 727 m20 [] 0 sd 1 lw [] 0 sd 1 lw 1763 363 m 230 Y s [] 0 sd 1 lw 1763 593 m 230 Y s [] 0 sd 1 lw 1757 593 m 6 X s
 [] 0 sd 1 lw 1763 593 m 6 X s [] 0 sd 1 lw 1763 593 m20 [] 0 sd 1 lw [] 0 sd 1 lw 1775 366 m 235 Y s [] 0 sd 1 lw 1775
 601 m 235 Y s [] 0 sd 1 lw 1769 601 m 6 X s [] 0 sd 1 lw 1775 601 m 6 X s [] 0 sd 1 lw 1775 601 m20 [] 0 sd 1 lw
 [] 0 sd 1 lw 1787 902 m 387 Y s [] 0 sd 1 lw 1787 1289 m 386 Y s [] 0 sd 1 lw 1781 1289 m 6 X s [] 0 sd 1 lw 1787 1289
 m 5 X s [] 0 sd 1 lw 1787 1289 m20 [] 0 sd 1 lw [] 0 sd 1 lw 1798 369 m 238 Y s [] 0 sd 1 lw 1798 607 m 239 Y s [] 0 sd
 1 lw 1792 607 m 6 X s [] 0 sd 1 lw 1798 607 m 6 X s [] 0 sd 1 lw 1798 607 m20 [] 0 sd 1 lw [] 0 sd 1 lw 1810 194 m 133
 Y s [] 0 sd 1 lw 1810 327 m 132 Y s [] 0 sd 1 lw 1804 327 m 6 X s [] 0 sd 1 lw 1810 327 m 6 X s [] 0 sd 1 lw 1810 327
 m20 [] 0 sd 1 lw [] 0 sd 1 lw 1822 463 m 269 Y s [] 0 sd 1 lw 1822 732 m 270 Y s [] 0 sd 1 lw 1816 732 m 6 X s [] 0 sd
 1 lw 1822 732 m 6 X s [] 0 sd 1 lw 1822 732 m20 [] 0 sd 1 lw [] 0 sd 1 lw 1834 194 m 134 Y s [] 0 sd 1 lw 1834 328 m
 133 Y s [] 0 sd 1 lw 1828 328 m 6 X s [] 0 sd 1 lw 1834 328 m 6 X s [] 0 sd 1 lw 1834 328 m20 [] 0 sd 1 lw [] 0 sd 1 lw
 1845 194 m 137 Y s [] 0 sd 1 lw 1845 331 m 137 Y s [] 0 sd 1 lw 1840 331 m 5 X s [] 0 sd 1 lw 1845 331 m 6 X s [] 0 sd
 1 lw 1845 331 m20 [] 0 sd 1 lw [] 0 sd 1 lw 1857 194 m 134 Y s [] 0 sd 1 lw 1857 328 m 133 Y s [] 0 sd 1 lw 1851 328 m
 6 X s [] 0 sd 1 lw 1857 328 m 6 X s [] 0 sd 1 lw 1857 328 m20 [] 0 sd 1 lw [] 0 sd 1 lw 1869 570 m 305 Y s [] 0 sd 1 lw
 1869 875 m 304 Y s [] 0 sd 1 lw 1863 875 m 6 X s [] 0 sd 1 lw 1869 875 m 6 X s [] 0 sd 1 lw 1869 875 m20 [] 0 sd 1 lw
 [] 0 sd 1 lw 1881 362 m 230 Y s [] 0 sd 1 lw 1881 592 m 230 Y s [] 0 sd 1 lw 1875 592 m 6 X s [] 0 sd 1 lw 1881 592 m 6
 X s [] 0 sd 1 lw 1881 592 m20 [] 0 sd 1 lw [] 0 sd 1 lw 1893 273 m 190 Y s [] 0 sd 1 lw 1893 463 m 190 Y s [] 0 sd 1 lw
 1887 463 m 6 X s [] 0 sd 1 lw 1893 463 m 6 X s [] 0 sd 1 lw 1893 463 m20 [] 0 sd 1 lw [] 0 sd 1 lw 1904 194 m 134 Y s
 [] 0 sd 1 lw 1904 328 m 133 Y s [] 0 sd 1 lw 1899 328 m 5 X s [] 0 sd 1 lw 1904 328 m 6 X s [] 0 sd 1 lw 1904 328 m20
 [] 0 sd 1 lw [] 0 sd 1 lw 1916 194 m 133 Y s [] 0 sd 1 lw 1916 327 m 132 Y s [] 0 sd 1 lw 1910 327 m 6 X s [] 0 sd 1 lw
 1916 327 m 6 X s [] 0 sd 1 lw 1916 327 m20 [] 0 sd 1 lw [] 0 sd 1 lw 1928 569 m 304 Y s [] 0 sd 1 lw 1928 873 m 303 Y s
 [] 0 sd 1 lw 1922 873 m 6 X s [] 0 sd 1 lw 1928 873 m 6 X s [] 0 sd 1 lw 1928 873 m20 [] 0 sd 1 lw [] 0 sd 1 lw 1934
 194 m 6 X s [] 0 sd 1 lw 1940 194 m 6 X s [] 0 sd 1 lw 1952 194 m 139 Y s [] 0 sd 1 lw 1952 333 m 139 Y s [] 0 sd 1 lw
 1946 333 m 6 X s [] 0 sd 1 lw 1952 333 m 5 X s [] 0 sd 1 lw 1952 333 m20 [] 0 sd 1 lw [] 0 sd 1 lw 1963 463 m 269 Y s
 [] 0 sd 1 lw 1963 732 m 269 Y s [] 0 sd 1 lw 1957 732 m 6 X s [] 0 sd 1 lw 1963 732 m 6 X s [] 0 sd 1 lw 1963 732 m20
 [] 0 sd 1 lw [] 0 sd 1 lw 1975 194 m 139 Y s [] 0 sd 1 lw 1975 333 m 138 Y s [] 0 sd 1 lw 1969 333 m 6 X s [] 0 sd 1 lw
 1975 333 m 6 X s [] 0 sd 1 lw 1975 333 m20 [] 0 sd 1 lw [] 0 sd 1 lw 1987 194 m 139 Y s [] 0 sd 1 lw 1987 333 m 139 Y s
 [] 0 sd 1 lw 1981 333 m 6 X s [] 0 sd 1 lw 1987 333 m 6 X s [] 0 sd 1 lw 1987 333 m20 [] 0 sd 1 lw [] 0 sd 1 lw 1999
 466 m 272 Y s [] 0 sd 1 lw 1999 738 m 272 Y s [] 0 sd 1 lw 1993 738 m 6 X s [] 0 sd 1 lw 1999 738 m 6 X s [] 0 sd 1 lw
 1999 738 m20 [] 0 sd 1 lw [] 0 sd 1 lw 2011 275 m 194 Y s [] 0 sd 1 lw 2011 469 m 194 Y s [] 0 sd 1 lw 2005 469 m 6 X s
 [] 0 sd 1 lw 2011 469 m 5 X s [] 0 sd 1 lw 2011 469 m20 [] 0 sd 1 lw [] 0 sd 1 lw 2022 194 m 137 Y s [] 0 sd 1 lw 2022
 331 m 136 Y s [] 0 sd 1 lw 2016 331 m 6 X s [] 0 sd 1 lw 2022 331 m 6 X s [] 0 sd 1 lw 2022 331 m20 [] 0 sd 1 lw
 [] 0 sd 1 lw 2034 567 m 301 Y s [] 0 sd 1 lw 2034 868 m 302 Y s [] 0 sd 1 lw 2028 868 m 6 X s [] 0 sd 1 lw 2034 868 m 6
 X s [] 0 sd 1 lw 2034 868 m20 [] 0 sd 1 lw [] 0 sd 1 lw 2046 365 m 234 Y s [] 0 sd 1 lw 2046 599 m 234 Y s [] 0 sd 1 lw
 2040 599 m 6 X s [] 0 sd 1 lw 2046 599 m 6 X s [] 0 sd 1 lw 2046 599 m20 [] 0 sd 1 lw [] 0 sd 1 lw 2058 367 m 236 Y s
 [] 0 sd 1 lw 2058 603 m 236 Y s [] 0 sd 1 lw 2052 603 m 6 X s [] 0 sd 1 lw 2058 603 m 6 X s [] 0 sd 1 lw 2058 603 m20
 [] 0 sd 1 lw [] 0 sd 1 lw 2070 569 m 304 Y s [] 0 sd 1 lw 2070 873 m 303 Y s [] 0 sd 1 lw 2064 873 m 6 X s [] 0 sd 1 lw
 2070 873 m 5 X s [] 0 sd 1 lw 2070 873 m20 [] 0 sd 1 lw [] 0 sd 1 lw 2081 274 m 193 Y s [] 0 sd 1 lw 2081 467 m 192 Y s
 [] 0 sd 1 lw 2075 467 m 6 X s [] 0 sd 1 lw 2081 467 m 6 X s [] 0 sd 1 lw 2081 467 m20 [] 0 sd 1 lw [] 0 sd 1 lw 2093
 463 m 268 Y s [] 0 sd 1 lw 2093 731 m 268 Y s [] 0 sd 1 lw 2087 731 m 6 X s [] 0 sd 1 lw 2093 731 m 6 X s [] 0 sd 1 lw
 2093 731 m20 [] 0 sd 1 lw [] 0 sd 1 lw 2105 275 m 194 Y s [] 0 sd 1 lw 2105 469 m 193 Y s [] 0 sd 1 lw 2099 469 m 6 X s
 [] 0 sd 1 lw 2105 469 m 6 X s [] 0 sd 1 lw 2105 469 m20 [] 0 sd 1 lw [] 0 sd 1 lw 2111 194 m 6 X s [] 0 sd 1 lw 2117
 194 m 6 X s [] 0 sd 1 lw 2128 458 m 265 Y s [] 0 sd 1 lw 2128 723 m 264 Y s [] 0 sd 1 lw 2123 723 m 5 X s [] 0 sd 1 lw
 2128 723 m 6 X s [] 0 sd 1 lw 2128 723 m20 [] 0 sd 1 lw [] 0 sd 1 lw 2140 274 m 193 Y s [] 0 sd 1 lw 2140 467 m 193 Y s
 [] 0 sd 1 lw 2134 467 m 6 X s [] 0 sd 1 lw 2140 467 m 6 X s [] 0 sd 1 lw 2140 467 m20 [] 0 sd 1 lw [] 0 sd 1 lw 2152
 194 m 137 Y s [] 0 sd 1 lw 2152 331 m 137 Y s [] 0 sd 1 lw 2146 331 m 6 X s [] 0 sd 1 lw 2152 331 m 6 X s [] 0 sd 1 lw
 2152 331 m20 [] 0 sd 1 lw [] 0 sd 1 lw 2164 461 m 266 Y s [] 0 sd 1 lw 2164 727 m 266 Y s [] 0 sd 1 lw 2158 727 m 6 X s
 [] 0 sd 1 lw 2164 727 m 6 X s [] 0 sd 1 lw 2164 727 m20 [] 0 sd 1 lw [] 0 sd 1 lw 2176 562 m 298 Y s [] 0 sd 1 lw 2176
 860 m 297 Y s [] 0 sd 1 lw 2170 860 m 6 X s [] 0 sd 1 lw 2176 860 m 6 X s [] 0 sd 1 lw 2176 860 m20 [] 0 sd 1 lw
 [] 0 sd 1 lw 2187 271 m 185 Y s [] 0 sd 1 lw 2187 456 m 185 Y s [] 0 sd 1 lw 2182 456 m 5 X s [] 0 sd 1 lw 2187 456 m 6
 X s [] 0 sd 1 lw 2187 456 m20 [] 0 sd 1 lw [] 0 sd 1 lw 2199 272 m 188 Y s [] 0 sd 1 lw 2199 460 m 188 Y s [] 0 sd 1 lw
 2193 460 m 6 X s [] 0 sd 1 lw 2199 460 m 6 X s [] 0 sd 1 lw 2199 460 m20 [] 0 sd 1 lw [] 0 sd 1 lw 2211 272 m 189 Y s
 [] 0 sd 1 lw 2211 461 m 189 Y s [] 0 sd 1 lw 2205 461 m 6 X s [] 0 sd 1 lw 2211 461 m 6 X s [] 0 sd 1 lw 2211 461 m20
 [] 0 sd 1 lw [] 0 sd 1 lw 2223 272 m 186 Y s [] 0 sd 1 lw 2223 458 m 187 Y s [] 0 sd 1 lw 2217 458 m 6 X s [] 0 sd 1 lw
 2223 458 m 6 X s [] 0 sd 1 lw 2223 458 m20 [] 0 sd 1 lw [] 0 sd 1 lw 2235 194 m 132 Y s [] 0 sd 1 lw 2235 326 m 131 Y s
 [] 0 sd 1 lw 2229 326 m 6 X s [] 0 sd 1 lw 2235 326 m 6 X s [] 0 sd 1 lw 2235 326 m20 [] 0 sd 1 lw [] 0 sd 1 lw 2241
 194 m 5 X s [] 0 sd 1 lw 2246 194 m 6 X s [] 0 sd 1 lw 2258 271 m 186 Y s [] 0 sd 1 lw 2258 457 m 186 Y s [] 0 sd 1 lw
 2252 457 m 6 X s [] 0 sd 1 lw 2258 457 m 6 X s [] 0 sd 1 lw 2258 457 m20 [] 0 sd 1 lw [] 0 sd 1 lw 2270 274 m 191 Y s
 [] 0 sd 1 lw 2270 465 m 191 Y s [] 0 sd 1 lw 2264 465 m 6 X s [] 0 sd 1 lw 2270 465 m 6 X s [] 0 sd 1 lw 2270 465 m20
 [] 0 sd 1 lw [] 0 sd 1 lw 2282 194 m 132 Y s [] 0 sd 1 lw 2282 326 m 131 Y s [] 0 sd 1 lw 2276 326 m 6 X s [] 0 sd 1 lw
 2282 326 m 6 X s [] 0 sd 1 lw 2282 326 m20 [] 0 sd 1 lw [] 0 sd 1 lw 2294 194 m 134 Y s [] 0 sd 1 lw 2294 328 m 134 Y s
 [] 0 sd 1 lw 2288 328 m 6 X s [] 0 sd 1 lw 2294 328 m 5 X s [] 0 sd 1 lw 2294 328 m20 [] 0 sd 1 lw [] 0 sd 1 lw 2299
 194 m 6 X s [] 0 sd 1 lw 2305 194 m 6 X s [] 0 sd 1 lw 2317 363 m 230 Y s [] 0 sd 1 lw 2317 593 m 231 Y s [] 0 sd 1 lw
 2311 593 m 6 X s [] 0 sd 1 lw 2317 593 m 6 X s [] 0 sd 1 lw 2317 593 m20 [] 0 sd 1 lw [] 0 sd 1 lw 2329 194 m 130 Y s
 [] 0 sd 1 lw 2329 324 m 129 Y s [] 0 sd 1 lw 2323 324 m 6 X s [] 0 sd 1 lw 2329 324 m 6 X s [] 0 sd 1 lw 2329 324 m20
 [] 0 sd 1 lw [] 0 sd 1 lw 2341 194 m 137 Y s [] 0 sd 1 lw 2341 331 m 137 Y s [] 0 sd 1 lw 2335 331 m 6 X s [] 0 sd 1 lw
 2341 331 m 6 X s [] 0 sd 1 lw 2341 331 m20 [] 0 sd 1 lw [] 0 sd 1 lw 2353 194 m 135 Y s [] 0 sd 1 lw 2353 329 m 134 Y s
 [] 0 sd 1 lw 2347 329 m 6 X s [] 0 sd 1 lw 2353 329 m 5 X s [] 0 sd 1 lw 2353 329 m20 [] 0 sd 1 lw [] 0 sd 1 lw 2364
 194 m 132 Y s [] 0 sd 1 lw 2364 326 m 131 Y s [] 0 sd 1 lw 2358 326 m 6 X s [] 0 sd 1 lw 2364 326 m 6 X s [] 0 sd 1 lw
 2364 326 m20 [] 0 sd 1 lw [] 0 sd 1 lw 2376 271 m 184 Y s [] 0 sd 1 lw 2376 455 m 184 Y s [] 0 sd 1 lw 2370 455 m 6 X s
 [] 0 sd 1 lw 2376 455 m 6 X s [] 0 sd 1 lw 2376 455 m20 [] 0 sd 1 lw [] 0 sd 1 lw 2388 194 m 132 Y s [] 0 sd 1 lw 2388
 326 m 131 Y s [] 0 sd 1 lw 2382 326 m 6 X s [] 0 sd 1 lw 2388 326 m 6 X s [] 0 sd 1 lw 2388 326 m20 [] 0 sd 1 lw
 [] 0 sd 1 lw 2394 194 m 6 X s [] 0 sd 1 lw 2400 194 m 6 X s [] 0 sd 1 lw 2411 274 m 193 Y s [] 0 sd 1 lw 2411 467 m 192
 Y s [] 0 sd 1 lw 2406 467 m 5 X s [] 0 sd 1 lw 2411 467 m 6 X s [] 0 sd 1 lw 2411 467 m20 [] 0 sd 1 lw [] 0 sd 1 lw
 2423 366 m 234 Y s [] 0 sd 1 lw 2423 600 m 234 Y s [] 0 sd 1 lw 2417 600 m 6 X s [] 0 sd 1 lw 2423 600 m 6 X s [] 0 sd
 1 lw 2423 600 m20 [] 0 sd 1 lw [] 0 sd 1 lw 2429 194 m 6 X s [] 0 sd 1 lw 2435 194 m 6 X s [] 0 sd 1 lw 2441 194 m 6 X
 s [] 0 sd 1 lw 2447 194 m 6 X s [] 0 sd 1 lw 2453 194 m 6 X s [] 0 sd 1 lw 2459 194 m 6 X s [] 0 sd 1 lw 2465 194 m 5 X
 s [] 0 sd 1 lw 2470 194 m 6 X s [] 0 sd 1 lw 2476 194 m 6 X s [] 0 sd 1 lw 2482 194 m 6 X s [] 0 sd 1 lw 2488 194 m 6 X
 s [] 0 sd 1 lw 2494 194 m 6 X s [] 0 sd 1 lw 2500 194 m 6 X s [] 0 sd 1 lw 2506 194 m 6 X s [] 0 sd 1 lw 2512 194 m 6 X
 s [] 0 sd 1 lw 2518 194 m 6 X s [] 0 sd 1 lw 2524 194 m 5 X s [] 0 sd 1 lw 2529 194 m 6 X s [] 0 sd 1 lw 2535 194 m 6 X
 s [] 0 sd 1 lw 2541 194 m 6 X s [] 0 sd 1 lw 2547 194 m 6 X s [] 0 sd 1 lw 2553 194 m 6 X s [] 0 sd 1 lw 2559 194 m 6 X
 s [] 0 sd 1 lw 2565 194 m 6 X s [] 0 sd 1 lw 2571 194 m 6 X s [] 0 sd 1 lw 2577 194 m 5 X s [] 0 sd 1 lw 2582 194 m 6 X
 s [] 0 sd 1 lw 2588 194 m 6 X s [] 0 sd 1 lw 2594 194 m 6 X s [] 0 sd 1 lw 2600 194 m 6 X s [] 0 sd 1 lw 2606 194 m 6 X
 s [] 0 sd 1 lw 2612 194 m 6 X s [] 0 sd 1 lw 2618 194 m 6 X s [] 0 sd 1 lw 2624 194 m 6 X s [] 0 sd 1 lw 2630 194 m 6 X
 s [] 0 sd 1 lw 2636 194 m 5 X s [] 0 sd 1 lw 2641 194 m 6 X s [] 0 sd 1 lw 2647 194 m 6 X s [] 0 sd 1 lw [] 0 sd 1 lw
 295 194 m 2358 X s s
 /xs 0 def (Z \(cm\)) /Helvetica-Bold 72 stwn  gsave  2653 49
 t 0 r  xs neg 0 t 0 0 m /Helvetica-Bold findfont 72 sf 0 0 m (Z \(cm\)) show  gr  [] 0 sd 1 lw [] 0 sd 1 lw 621 241 m
 -47 Y s s [] 0 sd 1 lw [] 0 sd 1 lw 707 218 m -24 Y s s [] 0 sd 1 lw [] 0 sd 1 lw 792 218 m -24 Y s s [] 0 sd 1 lw
 [] 0 sd 1 lw 877 218 m -24 Y s s [] 0 sd 1 lw [] 0 sd 1 lw 962 218 m -24 Y s s [] 0 sd 1 lw [] 0 sd 1 lw 1048 241 m -47
 Y s s [] 0 sd 1 lw [] 0 sd 1 lw 1133 218 m -24 Y s s [] 0 sd 1 lw [] 0 sd 1 lw 1218 218 m -24 Y s s [] 0 sd 1 lw
 [] 0 sd 1 lw 1303 218 m -24 Y s s [] 0 sd 1 lw [] 0 sd 1 lw 1389 218 m -24 Y s s [] 0 sd 1 lw [] 0 sd 1 lw 1474 241 m
 -47 Y s s [] 0 sd 1 lw [] 0 sd 1 lw 1559 218 m -24 Y s s [] 0 sd 1 lw [] 0 sd 1 lw 1645 218 m -24 Y s s [] 0 sd 1 lw
 [] 0 sd 1 lw 1730 218 m -24 Y s s [] 0 sd 1 lw [] 0 sd 1 lw 1815 218 m -24 Y s s [] 0 sd 1 lw [] 0 sd 1 lw 1900 241 m
 -47 Y s s [] 0 sd 1 lw [] 0 sd 1 lw 1986 218 m -24 Y s s [] 0 sd 1 lw [] 0 sd 1 lw 2071 218 m -24 Y s s [] 0 sd 1 lw
 [] 0 sd 1 lw 2156 218 m -24 Y s s [] 0 sd 1 lw [] 0 sd 1 lw 2241 218 m -24 Y s s [] 0 sd 1 lw [] 0 sd 1 lw 2327 241 m
 -47 Y s s [] 0 sd 1 lw [] 0 sd 1 lw 621 241 m -47 Y s s [] 0 sd 1 lw [] 0 sd 1 lw 536 218 m -24 Y s s [] 0 sd 1 lw
 [] 0 sd 1 lw 451 218 m -24 Y s s [] 0 sd 1 lw [] 0 sd 1 lw 366 218 m -24 Y s s [] 0 sd 1 lw [] 0 sd 1 lw 2327 241 m -47
 Y s s [] 0 sd 1 lw [] 0 sd 1 lw 2412 218 m -24 Y s s [] 0 sd 1 lw [] 0 sd 1 lw 2497 218 m -24 Y s s [] 0 sd 1 lw
 [] 0 sd 1 lw 2582 218 m -24 Y s s
 /xs 0 def (-20) /Helvetica-Bold 72 stwn  gsave  621 107
 t 0 r xs 2 div neg 0 t 0 0 m /Helvetica-Bold findfont 72 sf 0 0 m (-20) show  gr 
 /xs 0 def (-10) /Helvetica-Bold 72 stwn  gsave  1048 107
 t 0 r xs 2 div neg 0 t 0 0 m /Helvetica-Bold findfont 72 sf 0 0 m (-10) show  gr 
 /xs 0 def (0) /Helvetica-Bold 72 stwn  gsave  1474 107
 t 0 r xs 2 div neg 0 t 0 0 m /Helvetica-Bold findfont 72 sf 0 0 m (0) show  gr 
 /xs 0 def (10) /Helvetica-Bold 72 stwn  gsave  1900 107
 t 0 r xs 2 div neg 0 t 0 0 m /Helvetica-Bold findfont 72 sf 0 0 m (10) show  gr 
 /xs 0 def (20) /Helvetica-Bold 72 stwn  gsave  2327 107
 t 0 r xs 2 div neg 0 t 0 0 m /Helvetica-Bold findfont 72 sf 0 0 m (20) show  gr  [] 0 sd 1 lw [] 0 sd 1 lw 295 194 m
 1556 Y s s
 /xs 0 def (Number of Hits \(cm) /Helvetica-Bold 72 stwn (-2\)) /Helvetica-Bold 50 stwn  gsave  136 1750
 t 90 r  xs neg 0 t 0 0 m /Helvetica-Bold findfont 72 sf 0 0 m (Number of Hits \(cm) show  currentpoint pop 0 t 
 /Helvetica-Bold findfont 50 sf 0 36 m (-2\)) show  gr  [] 0 sd 1 lw [] 0 sd 1 lw 366 194 m -71 X s s [] 0 sd 1 lw
 [] 0 sd 1 lw 330 252 m -35 X s s [] 0 sd 1 lw [] 0 sd 1 lw 330 310 m -35 X s s [] 0 sd 1 lw [] 0 sd 1 lw 330 368 m -35
 X s s [] 0 sd 1 lw [] 0 sd 1 lw 330 426 m -35 X s s [] 0 sd 1 lw [] 0 sd 1 lw 366 484 m -71 X s s [] 0 sd 1 lw [] 0 sd
 1 lw 330 542 m -35 X s s [] 0 sd 1 lw [] 0 sd 1 lw 330 601 m -35 X s s [] 0 sd 1 lw [] 0 sd 1 lw 330 659 m -35 X s s
 [] 0 sd 1 lw [] 0 sd 1 lw 330 717 m -35 X s s [] 0 sd 1 lw [] 0 sd 1 lw 366 775 m -71 X s s [] 0 sd 1 lw [] 0 sd 1 lw
 330 833 m -35 X s s [] 0 sd 1 lw [] 0 sd 1 lw 330 891 m -35 X s s [] 0 sd 1 lw [] 0 sd 1 lw 330 949 m -35 X s s [] 0 sd
 1 lw [] 0 sd 1 lw 330 1007 m -35 X s s [] 0 sd 1 lw [] 0 sd 1 lw 366 1065 m -71 X s s [] 0 sd 1 lw [] 0 sd 1 lw 330
 1123 m -35 X s s [] 0 sd 1 lw [] 0 sd 1 lw 330 1181 m -35 X s s [] 0 sd 1 lw [] 0 sd 1 lw 330 1239 m -35 X s s [] 0 sd
 1 lw [] 0 sd 1 lw 330 1297 m -35 X s s [] 0 sd 1 lw [] 0 sd 1 lw 366 1355 m -71 X s s [] 0 sd 1 lw [] 0 sd 1 lw 330
 1413 m -35 X s s [] 0 sd 1 lw [] 0 sd 1 lw 330 1471 m -35 X s s [] 0 sd 1 lw [] 0 sd 1 lw 330 1529 m -35 X s s [] 0 sd
 1 lw [] 0 sd 1 lw 330 1587 m -35 X s s [] 0 sd 1 lw [] 0 sd 1 lw 366 1645 m -71 X s s [] 0 sd 1 lw [] 0 sd 1 lw 366
 1645 m -71 X s s [] 0 sd 1 lw [] 0 sd 1 lw 330 1703 m -35 X s s
 /xs 0 def (0) /Helvetica-Bold 72 stwn  gsave  280 174
 t 0 r  xs neg 0 t 0 0 m /Helvetica-Bold findfont 72 sf 0 0 m (0) show  gr 
 /xs 0 def (1) /Helvetica-Bold 72 stwn  gsave  280 464
 t 0 r  xs neg 0 t 0 0 m /Helvetica-Bold findfont 72 sf 0 0 m (1) show  gr 
 /xs 0 def (2) /Helvetica-Bold 72 stwn  gsave  280 754
 t 0 r  xs neg 0 t 0 0 m /Helvetica-Bold findfont 72 sf 0 0 m (2) show  gr 
 /xs 0 def (3) /Helvetica-Bold 72 stwn  gsave  280 1044
 t 0 r  xs neg 0 t 0 0 m /Helvetica-Bold findfont 72 sf 0 0 m (3) show  gr 
 /xs 0 def (4) /Helvetica-Bold 72 stwn  gsave  280 1334
 t 0 r  xs neg 0 t 0 0 m /Helvetica-Bold findfont 72 sf 0 0 m (4) show  gr 
 /xs 0 def (5) /Helvetica-Bold 72 stwn  gsave  280 1624
 t 0 r  xs neg 0 t 0 0 m /Helvetica-Bold findfont 72 sf 0 0 m (5) show  gr  [] 0 sd 1 lw 0.95 0.95 0.95 c 1342 97 29
 1837 bf black [] 0 sd 1 lw 49 1837 m -13 Y 1335 X 91 Y -13 X -78 Y f [] 0 sd 1 lw 29 1837 m 97 Y s [] 0 sd 1 lw 29 1934
 m 1342 X s [] 0 sd 1 lw 1371 1934 m -97 Y s [] 0 sd 1 lw 1371 1837 m -1342 X s
 /xs 0 def (Density of Hits for Layer 3) /Helvetica-Bold 76 stwn  gsave  700 1864
 t 0 r xs 2 div neg 0 t 0 0 m /Helvetica-Bold findfont 76 sf 0 0 m (Density of Hits for Layer 3) show  gr  [] 0 sd 1 lw
 0.95 0.95 0.95 c 590 311 2299 1594 bf black [] 0 sd 1 lw 2319 1594 m -13 Y 583 X 305 Y -13 X -292 Y f [] 0 sd 1 lw 2299
 1594 m 311 Y s [] 0 sd 1 lw 2299 1905 m 590 X s [] 0 sd 1 lw 2889 1905 m -311 Y s [] 0 sd 1 lw 2889 1594 m -590 X s
 gsave  2329 1849
 t 0 r 0 0 m /Helvetica-Bold findfont 64 sf 0 0 m (hzetapden_z3) show  gr 
 gsave  2329 1771
 t 0 r 0 0 m /Helvetica-Bold findfont 64 sf 0 0 m (Nent = 199   \040) show  gr 
 gsave  2329 1693
 t 0 r 0 0 m /Helvetica-Bold findfont 64 sf 0 0 m (Mean  = -0.4913) show  gr 
 gsave  2329 1615
 t 0 r 0 0 m /Helvetica-Bold findfont 64 sf 0 0 m (RMS   =  11.43) show  gr  1 1 0 c gr 
showpage gr
 gr 
%%Trailer
%%Pages:  1
%%EOF
