%!PS-Adobe-2.0
%%Title: ITShitDensity_2_Eta.ps (Landscape A 4)
%%Pages: (atend)
%%Creator: ROOT Version 2.22/09
%%CreationDate:Sat Sep 18 07:10:21 1999
%%EndComments
%%BeginProlog
/s {stroke} def /l {lineto} def /m {moveto} def /t {translate} def
/sw {stringwidth} def /r {rotate} def /rl {roll}  def /R {repeat} def
/d {rlineto} def /rm {rmoveto} def /gr {grestore} def /f {eofill} def
/c {setrgbcolor} def /lw {setlinewidth} def /sd {setdash} def
/cl {closepath} def /sf {scalefont setfont} def /black {0 setgray} def
/box {m dup 0 exch d exch 0 d 0 exch neg d cl} def
/NC{systemdict begin initclip end}def/C{NC box clip newpath}def
/bl {box s} def /bf {box f} def /Y { 0 exch d} def /X { 0 d} def 
/mp {newpath /y exch def /x exch def} def
/side {[w .77 mul w .23 mul] .385 w mul sd w 0 l currentpoint t -144 r} def
/mr {mp x y w2 0 360 arc} def /m24 {mr s} def /m20 {mr f} def
/mb {mp x y w2 add m w2 neg 0 d 0 w neg d w 0 d 0 w d cl} def
/mt {mp x y w2 add m w2 neg w neg d w 0 d cl} def
/m21 {mb f} def /m25 {mb s} def /m22 {mt f} def /m26{mt s} def
/m23 {mp x y w2 sub m w2 w d w neg 0 d cl f} def
/m27 {mp x y w2 add m w3 neg w2 neg d w3 w2 neg d w3 w2 d cl s} def
/m28 {mp x w2 sub y w2 sub w3 add m w3 0 d  0 w3 neg d w3 0 d 0 w3 d w3 0 d  0 w3 d w3 neg 0 d 0 w3 d w3 neg 0 d
 0 w3 neg d w3 neg 0 d cl s } def
/m29 {mp gsave x w2 sub y w2 add w3 sub m currentpoint t
 4 {side} repeat cl fill gr} def
/m30 {mp gsave x w2 sub y w2 add w3 sub m currentpoint t
 5 {side} repeat s gr} def
/m31 {mp x y w2 sub m 0 w d x w2 sub y m w 0 d x w2 sub y w2 add m w w neg d x w2 sub y w2
 sub m w w d s} def
/m2 {mp x y w2 sub m 0 w d x w2 sub y m w 0 d s} def
/m5 {mp x w2 sub y w2 sub m w w d x w2 sub y w2 add m w w neg d s} def
/DP {/PT exch def gsave 47.2 47.2 scale PT 1  eq { 16 16 1 [ 16 0 0 16 neg 0 16
] { < AA AA 55 55 AA AA 55 55 AA AA 55 55 AA AA 55 55 AA AA 55 55 AA AA 55 55
AA AA 55 55 AA AA 55 55 > } image } if PT 2 eq { 16 16 1 [ 16 0 0 16 neg 0 16
] { < BB BB EE EE BB BB EE EE BB BB EE EE BB BB EE EE BB BB EE EE BB BB EE EE
BB BB EE EE BB BB EE EE > } image } if PT 3 eq { 16 16 1 [ 16 0 0 16 neg 0 16
] { < FF FF BB BB FF FF EE EE FF FF BB BB FF FF EE EE FF FF BB BB FF FF EE EE
FF FF BB BB FF FF EE EE > } image } if PT 4 eq { 16 16 1 [ 16 0 0 16 neg 0 16
] { < DF DF BF BF 7F 7F FE FE FD FD FB FB F7 F7 EF EF DF DF BF BF 7F 7F FE FE
FD FD FB FB F7 F7 EF EF > } image } if PT 5 eq { 16 16 1 [ 16 0 0 16 neg 0 16
] { < 7F 7F BF B F DF DF EF EF F7 F7 FB FB FD FD FE FE 7F 7F BF BF DF DF EF
EF F7 F7 FB FB FD FD FE FE > } image } if PT 6 eq { 16 16 1 [ 16 0 0 16 neg 0
16 ] { < BB BB BB BB BB BB BB BB BB BB BB BB BB BB BB BB BB BB BB BB BB BB BB
BB BB BB BB BB BB BB BB BB > } image } if PT 7 eq { 16 16 1 [ 16 0 0 16 neg 0
16 ] { < FF FF FF FF FF FF 00 00 FF FF FF FF FF FF 00 00 FF FF FF FF FF FF 00
00 FF FF FF FF FF FF 00 00 > } image } if PT 8 eq { 16 16 1 [ 16 0 0 16 neg 0
16 ] { < EE EE 47 47 83 83 C5 C5 EE EE 5C 5C 38 38 74 74 EE EE 47 47 83 83 C5
C5 EE EE 5C 5C 38 38 74 74 > } image } if PT 9 eq { 16 16 1 [ 16 0 0 16 neg 0
16 ] { < EF EF EF EF D7 D7 38 38 FE FE FE FE 7D 7D 83 83 EF EF EF EF D7 D7 38
38  FE FE FE FE 7D 7D 83 83 > } image } if PT 10 eq { 16 16 1 [ 16 0 0 16 neg
0 16 ] { <  EF EF EF EF EF EF 00 00 FE FE FE FE FE FE 00 00 EF EF EF EF EF EF
00 00 FE FE FE FE FE FE 00 00 > } image } if PT 11 eq { 16 16 1 [ 16 0 0 16
neg 0 16 ] { < F7 F7 B6 B6 D5 D5 E3 E3 D5 D5 B6 B6 F7 F7 FF FF 7F 7F 6B 6B 5D
5D 3E 3E 5D 5D 6B 6B 7F 7F FF FF > } image } if PT 12 eq { 16 16 1 [ 16 0 0
16 neg 0 16 ] { < E3 E3 DD DD BE BE BE BE BE BE DD DD E3 E3 FF FF 3E 3E DD DD
EB EB EB EB EB EB DD DD 3E 3E FF FF > } image } if PT 13 eq { 16 16 1 [ 16 0
0 16 neg 0 16 ] { <  FE FE 7D 7D BB BB D7 D7 EF EF D7 D7 BB BB 7D 7D FE FE 7D
7D BB BB D7 D7 EF EF D7 D7 BB BB 7D 7D > } image } if PT 14 eq { 16 16 1 [ 16
0 0 16 neg 0 16 ] { < 00 00 EE EF EE EF EE EF 0E E0 EE EE EE EE EE EE 00 EE
FE EE FE EE FE EE 00 00 FE EF FE EF FE EF > } image } if PT 15 eq { 16 16 1 [
16 0 0 16 neg 0 16 ] { < DD DD AA AA DD DD FF FF 77 77 AA AA 77 77 FF FF DD
DD AA AA DD DD FF FF 77 77 AA AA 77 77 FF FF > } image } if PT 16 eq { 16 16
1 [ 16 0 0 16 neg 0 16 ] { <  F1 F1 EE EE 1F 1F FF FF F1 F1 EE EE 1F 1F FF FF
F1 F1 EE EE 1F 1F FF FF F1 F1 EE EE 1F 1F FF FF > } image } if PT 17 eq { 16
16 1 [ 16 0 0 16 neg 0 16 ] { <  EE EE DD DD BB BB FF FF EE EE DD DD BB BB FF
 FF EE EE DD DD BB BB FF FF EE EE DD DD BB BB FF FF > } image } if PT 18 eq {
16 16 1 [ 16 0 0 16 neg 0 16 ] { <  BB BB DD DD EE EE FF FF BB BB DD DD EE EE
FF FF BB BB DD DD EE EE FF FF BB BB DD DD EE EE FF FF > } image } if PT 19 eq
{ 16 16 1 [ 16 0 0 16 neg 0 16 ] { < 1F FC 67 F3 7B EF BD DE BD DE DE BD E6
B3 F8 0F E6 B3 DE BD BD DE BD DE 7B EF 67 F3 1F FC 7F FF > } image } if PT
20 eq { 16 16 1 [ 16 0 0 16 neg 0 16 ] { < DD DD EE EE EE EE EE EE DD DD BB
BB BB BB BB BB DD DD EE EE EE EE EE EE DD DD BB BB BB BB BB BB > } image }
if PT 21 eq { 16 16 1 [ 16 0 0 16 neg 0 16 ] { < 0E 0E EF EF EF EF EF EF E0
E0 FE FE FE FE FE FE 0E 0E EF EF EF EF EF EF E0 E0 FE FE FE FE FE FE > }
image }  if PT 22 eq { 16 16 1 [ 16 0 0 16 neg 0 16 ] { < 70 70 F7 F7 F7 F7 F7
F7 07 07 7F 7F 7F 7F 7F 7F 70 70 F7 F7 F7 F7 F7 F7 07 07 7F 7F 7F 7F 7F 7F >
} image } if PT 23 eq  { 16 16 1 [ 16 0 0 16 neg 0 16 ] { < AA AA 55 55 A9 A9
D1 D1 E1 E1 D1 D1 A9 A9 55 55 AA AA 55 55 A9 A9 D1 D1 E1 E1 D1 D1 A9 A9 55 55
> } image } if PT 24 eq { 16 16 1 [ 16 0 0 16 neg 0 16 ] { < FF FE FF FC EA
A8 D5 54 EA A8 D5 54 E8 28 D4 54 E8 E8 D4 D4 E8 EA 54 D5 A8 EA 54 D5 00 C0 00
80 > } image } if PT 25 eq {  16 16 1 [ 16 0 0 16 neg 0 16 ] { < FF FE FF FC
FF F8 FF F0 F0 00 F0 00 F0 20 F0 60 F0 E0 F1 E0 F3 E0 F0 00 E0 00 C0 00 80 00
00 00 > } image } if gr } def /FA { /PT exch def gsave clip 0 0 translate 1 1
74 { 1 sub 47.2 mul /Xcurr exch def 1 1 74 { 1 sub 47.2 mul /Ycurr exch def
gsave Xcurr Ycurr translate PT DP gr } for } for gr newpath } def
/reencdict 24 dict def /ReEncode {reencdict begin /nco&na exch def
/nfnam exch def /basefontname exch def /basefontdict basefontname findfont def
/newfont basefontdict maxlength dict def basefontdict {exch dup /FID ne
{dup /Encoding eq {exch dup length array copy newfont 3 1 roll put} {exch 
newfont 3 1 roll put} ifelse} {pop pop} ifelse } forall newfont
/FontName nfnam put nco&na aload pop nco&na length 2 idiv {newfont
/Encoding get 3 1 roll put} repeat nfnam newfont definefont pop end } def
/accvec [ 176 /agrave 181 /Agrave 190 /acircumflex 192 /Acircumflex
201 /adieresis 204 /Adieresis 209 /ccedilla 210 /Ccedilla 211 /eacute
212 /Eacute 213 /egrave 214 /Egrave 215 /ecircumflex 216 /Ecircumflex
217 /edieresis 218 /Edieresis 219 /icircumflex 220 /Icircumflex
221 /idieresis 222 /Idieresis 223 /ntilde 224 /Ntilde 226 /ocircumflex
228 /Ocircumflex 229 /odieresis 230 /Odieresis 231 /ucircumflex 236 /Ucircumflex
237 /udieresis 238 /Udieresis 239 /aring 242 /Aring 243 /ydieresis
244 /Ydieresis 246 /aacute 247 /Aacute 252 /ugrave 253 /Ugrave] def
/Times-Roman /Times-Roman accvec ReEncode
/Times-Italic /Times-Italic accvec ReEncode
/Times-Bold /Times-Bold accvec ReEncode
/Times-BoldItalic /Times-BoldItalic accvec ReEncode
/Helvetica /Helvetica accvec ReEncode
/Helvetica-Oblique /Helvetica-Oblique accvec ReEncode
/Helvetica-Bold /Helvetica-Bold accvec ReEncode
/Helvetica-BoldOblique /Helvetica-BoldOblique  accvec ReEncode
/Courier /Courier accvec ReEncode
/Courier-Oblique /Courier-Oblique accvec ReEncode
/Courier-Bold /Courier-Bold accvec ReEncode
/Courier-BoldOblique /Courier-BoldOblique accvec ReEncode
/oshow {gsave [] 0 sd true charpath stroke gr} def
/stwn { /fs exch def /fn exch def /text exch def fn findfont fs sf
 text sw pop xs add /xs exch def} def
/stwb { /fs exch def /fn exch def /nbas exch def /textf exch def
textf length /tlen exch def nbas tlen gt {/nbas tlendef} if
fn findfont fs sf textf dup length nbas sub nbas getinterval sw
pop neg xs add /xs exch def} def
/accspe [ 65 /plusminus  66 /bar  67 /existential  68 /universal 
69 /exclam  70 /numbersign 71 /greater  72 /question  73 /integral 
74 /colon  75 /semicolon  76 /less  77 /bracketleft  78 /bracketright
79 /greaterequal 80 /braceleft 81 /braceright 82 /radical
83 /spade 84 /heart 85 /diamond 86 /club 87 /lessequal
88 /multiply 89 /percent 90 /infinity 48 /circlemultiply 49 /circleplus
50 /emptyset  51 /lozenge 52 /bullet 53 /arrowright 54 /arrowup
55 /arrowleft 56 /arrowdown 57 /arrowboth 48 /degree 44 /comma 43 /plus 45 /angle 42 /angleleft 47 /divide 61 /notequal
 40 /equivalence 41 /second 97 /approxequal 98 /congruent 99 /perpendicular 100 /partialdiff 101 /florin
 102 /intersection 103 /union 104 /propersuperset 105 /reflexsuperset 106 /notsubset 107 /propersubset 108 /reflexsubset
 109 /element 110 /notelement 111 /gradient 112 /logicaland 113 /logicalor 114 /arrowdblboth 115 /arrowdblleft
 116 /arrowdblup 117 /arrowdblright 118 /arrowdbldown 119 /ampersand 120 /omega1 121 /similar 122 /aleph ] def
/Symbol /Special accspe ReEncode
/Zone {/iy exch def /ix exch def  ix 1 sub  3144 mul  1 iy sub  2224
 mul t} def
%%EndProlog
 gsave  90 r 0 -594 t  28 20 t .25 .25 scale  gsave 
%%Page: number 1
 black [] 0 sd 1 lw 0.95 0.95 0.95 c 2948 1944 0 0 bf 0.8 0.8 0.8 c 0 0 m 2 2 d 1940 Y 2944 X 2 2 d -2948 X -1944 Y f
 0.3 0.3 0.3 c 0 0 m 2 2 d 2944 X 1940 Y 2 2 d -1944 Y -2948 X f black [] 0 sd 1 lw 0.95 0.95 0.95 c 2358 1556 295 194
 bf 0.8 0.8 0.8 c 295 194 m 1 1 d 1554 Y 2356 X 1 1 d -2358 X -1556 Y f 0.3 0.3 0.3 c 295 194 m 1 1 d 2356 X 1554 Y 1 1
 d -1556 Y -2358 X f [] 0 sd 1 lw black 295 194 m 2358 X s [] 0 sd 1 lw 2653 194 m 1556 Y s [] 0 sd 1 lw 2653 1750 m
 -2358 X s [] 0 sd 1 lw 295 1750 m -1556 Y s [] 0 sd 1 lw 1 1 1 c black [] 0 sd 1 lw 295 194 m 6 X s [] 0 sd 1 lw 301
 194 m 6 X s [] 0 sd 1 lw 307 194 m 5 X s [] 0 sd 1 lw 312 194 m 6 X s [] 0 sd 1 lw 318 194 m 6 X s [] 0 sd 1 lw 324 194
 m 6 X s [] 0 sd 1 lw 330 194 m 6 X s [] 0 sd 1 lw 336 194 m 6 X s [] 0 sd 1 lw 342 194 m 6 X s [] 0 sd 1 lw 348 194 m 6
 X s [] 0 sd 1 lw 354 194 m 6 X s [] 0 sd 1 lw 360 194 m 6 X s [] 0 sd 1 lw 366 194 m 5 X s [] 0 sd 1 lw 371 194 m 6 X s
 [] 0 sd 1 lw 377 194 m 6 X s [] 0 sd 1 lw 383 194 m 6 X s [] 0 sd 1 lw 389 194 m 6 X s [] 0 sd 1 lw 395 194 m 6 X s
 [] 0 sd 1 lw 401 194 m 6 X s [] 0 sd 1 lw 407 194 m 6 X s [] 0 sd 1 lw 419 228 m 82 Y s [] 0 sd 1 lw 419 310 m 83 Y s
 [] 0 sd 1 lw 413 310 m 6 X s [] 0 sd 1 lw 419 310 m 6 X s [] 0 sd 1 lw /w 2 def /w2 {w 2 div} def /w3 {w 3 div} def 419
 310 m20 [] 0 sd 1 lw [] 0 sd 1 lw 430 356 m 131 Y s [] 0 sd 1 lw 430 487 m 131 Y s [] 0 sd 1 lw 425 487 m 5 X s [] 0 sd
 1 lw 430 487 m 6 X s [] 0 sd 1 lw 430 487 m20 [] 0 sd 1 lw [] 0 sd 1 lw 442 314 m 120 Y s [] 0 sd 1 lw 442 434 m 120 Y
 s [] 0 sd 1 lw 436 434 m 6 X s [] 0 sd 1 lw 442 434 m 6 X s [] 0 sd 1 lw 442 434 m20 [] 0 sd 1 lw [] 0 sd 1 lw 454 466
 m 165 Y s [] 0 sd 1 lw 454 631 m 164 Y s [] 0 sd 1 lw 448 631 m 6 X s [] 0 sd 1 lw 454 631 m 6 X s [] 0 sd 1 lw 454 631
 m20 [] 0 sd 1 lw [] 0 sd 1 lw 466 232 m 90 Y s [] 0 sd 1 lw 466 322 m 90 Y s [] 0 sd 1 lw 460 322 m 6 X s [] 0 sd 1 lw
 466 322 m 6 X s [] 0 sd 1 lw 466 322 m20 [] 0 sd 1 lw [] 0 sd 1 lw 478 318 m 123 Y s [] 0 sd 1 lw 478 441 m 124 Y s
 [] 0 sd 1 lw 472 441 m 6 X s [] 0 sd 1 lw 478 441 m 5 X s [] 0 sd 1 lw 478 441 m20 [] 0 sd 1 lw [] 0 sd 1 lw 489 194 m
 64 Y s [] 0 sd 1 lw 489 258 m 63 Y s [] 0 sd 1 lw 483 258 m 6 X s [] 0 sd 1 lw 489 258 m 6 X s [] 0 sd 1 lw 489 258 m20
 [] 0 sd 1 lw [] 0 sd 1 lw 501 231 m 88 Y s [] 0 sd 1 lw 501 319 m 89 Y s [] 0 sd 1 lw 495 319 m 6 X s [] 0 sd 1 lw 501
 319 m 6 X s [] 0 sd 1 lw 501 319 m20 [] 0 sd 1 lw [] 0 sd 1 lw 513 326 m 131 Y s [] 0 sd 1 lw 513 457 m 132 Y s [] 0 sd
 1 lw 507 457 m 6 X s [] 0 sd 1 lw 513 457 m 6 X s [] 0 sd 1 lw 513 457 m20 [] 0 sd 1 lw [] 0 sd 1 lw 525 544 m 191 Y s
 [] 0 sd 1 lw 525 735 m 191 Y s [] 0 sd 1 lw 519 735 m 6 X s [] 0 sd 1 lw 525 735 m 6 X s [] 0 sd 1 lw 525 735 m20
 [] 0 sd 1 lw [] 0 sd 1 lw 537 281 m 119 Y s [] 0 sd 1 lw 537 400 m 118 Y s [] 0 sd 1 lw 531 400 m 6 X s [] 0 sd 1 lw
 537 400 m 5 X s [] 0 sd 1 lw 537 400 m20 [] 0 sd 1 lw [] 0 sd 1 lw 548 281 m 119 Y s [] 0 sd 1 lw 548 400 m 119 Y s
 [] 0 sd 1 lw 542 400 m 6 X s [] 0 sd 1 lw 548 400 m 6 X s [] 0 sd 1 lw 548 400 m20 [] 0 sd 1 lw [] 0 sd 1 lw 560 235 m
 98 Y s [] 0 sd 1 lw 560 333 m 98 Y s [] 0 sd 1 lw 554 333 m 6 X s [] 0 sd 1 lw 560 333 m 6 X s [] 0 sd 1 lw 560 333 m20
 [] 0 sd 1 lw [] 0 sd 1 lw 566 194 m 6 X s [] 0 sd 1 lw 572 194 m 6 X s [] 0 sd 1 lw 584 194 m 72 Y s [] 0 sd 1 lw 584
 266 m 72 Y s [] 0 sd 1 lw 578 266 m 6 X s [] 0 sd 1 lw 584 266 m 6 X s [] 0 sd 1 lw 584 266 m20 [] 0 sd 1 lw [] 0 sd 1
 lw 596 194 m 77 Y s [] 0 sd 1 lw 596 271 m 76 Y s [] 0 sd 1 lw 590 271 m 6 X s [] 0 sd 1 lw 596 271 m 5 X s [] 0 sd 1
 lw 596 271 m20 [] 0 sd 1 lw [] 0 sd 1 lw 607 194 m 71 Y s [] 0 sd 1 lw 607 265 m 71 Y s [] 0 sd 1 lw 601 265 m 6 X s
 [] 0 sd 1 lw 607 265 m 6 X s [] 0 sd 1 lw 607 265 m20 [] 0 sd 1 lw [] 0 sd 1 lw 613 194 m 6 X s [] 0 sd 1 lw 619 194 m
 6 X s [] 0 sd 1 lw 631 465 m 187 Y s [] 0 sd 1 lw 631 652 m 187 Y s [] 0 sd 1 lw 625 652 m 6 X s [] 0 sd 1 lw 631 652 m
 6 X s [] 0 sd 1 lw 631 652 m20 [] 0 sd 1 lw [] 0 sd 1 lw 643 412 m 175 Y s [] 0 sd 1 lw 643 587 m 176 Y s [] 0 sd 1 lw
 637 587 m 6 X s [] 0 sd 1 lw 643 587 m 6 X s [] 0 sd 1 lw 643 587 m20 [] 0 sd 1 lw [] 0 sd 1 lw 654 407 m 172 Y s
 [] 0 sd 1 lw 654 579 m 172 Y s [] 0 sd 1 lw 649 579 m 5 X s [] 0 sd 1 lw 654 579 m 6 X s [] 0 sd 1 lw 654 579 m20
 [] 0 sd 1 lw [] 0 sd 1 lw 666 415 m 179 Y s [] 0 sd 1 lw 666 594 m 179 Y s [] 0 sd 1 lw 660 594 m 6 X s [] 0 sd 1 lw
 666 594 m 6 X s [] 0 sd 1 lw 666 594 m20 [] 0 sd 1 lw [] 0 sd 1 lw 678 357 m 162 Y s [] 0 sd 1 lw 678 519 m 162 Y s
 [] 0 sd 1 lw 672 519 m 6 X s [] 0 sd 1 lw 678 519 m 6 X s [] 0 sd 1 lw 678 519 m20 [] 0 sd 1 lw [] 0 sd 1 lw 690 245 m
 121 Y s [] 0 sd 1 lw 690 366 m 122 Y s [] 0 sd 1 lw 684 366 m 6 X s [] 0 sd 1 lw 690 366 m 6 X s [] 0 sd 1 lw 690 366
 m20 [] 0 sd 1 lw [] 0 sd 1 lw 702 301 m 145 Y s [] 0 sd 1 lw 702 446 m 145 Y s [] 0 sd 1 lw 696 446 m 6 X s [] 0 sd 1
 lw 702 446 m 6 X s [] 0 sd 1 lw 702 446 m20 [] 0 sd 1 lw [] 0 sd 1 lw 713 303 m 148 Y s [] 0 sd 1 lw 713 451 m 149 Y s
 [] 0 sd 1 lw 708 451 m 5 X s [] 0 sd 1 lw 713 451 m 6 X s [] 0 sd 1 lw 713 451 m20 [] 0 sd 1 lw [] 0 sd 1 lw 725 194 m
 90 Y s [] 0 sd 1 lw 725 284 m 90 Y s [] 0 sd 1 lw 719 284 m 6 X s [] 0 sd 1 lw 725 284 m 6 X s [] 0 sd 1 lw 725 284 m20
 [] 0 sd 1 lw [] 0 sd 1 lw 737 307 m 154 Y s [] 0 sd 1 lw 737 461 m 155 Y s [] 0 sd 1 lw 731 461 m 6 X s [] 0 sd 1 lw
 737 461 m 6 X s [] 0 sd 1 lw 737 461 m20 [] 0 sd 1 lw [] 0 sd 1 lw 749 303 m 148 Y s [] 0 sd 1 lw 749 451 m 147 Y s
 [] 0 sd 1 lw 743 451 m 6 X s [] 0 sd 1 lw 749 451 m 6 X s [] 0 sd 1 lw 749 451 m20 [] 0 sd 1 lw [] 0 sd 1 lw 761 379 m
 184 Y s [] 0 sd 1 lw 761 563 m 184 Y s [] 0 sd 1 lw 755 563 m 6 X s [] 0 sd 1 lw 761 563 m 5 X s [] 0 sd 1 lw 761 563
 m20 [] 0 sd 1 lw [] 0 sd 1 lw 772 515 m 221 Y s [] 0 sd 1 lw 772 736 m 222 Y s [] 0 sd 1 lw 766 736 m 6 X s [] 0 sd 1
 lw 772 736 m 6 X s [] 0 sd 1 lw 772 736 m20 [] 0 sd 1 lw [] 0 sd 1 lw 784 315 m 164 Y s [] 0 sd 1 lw 784 479 m 164 Y s
 [] 0 sd 1 lw 778 479 m 6 X s [] 0 sd 1 lw 784 479 m 6 X s [] 0 sd 1 lw 784 479 m20 [] 0 sd 1 lw [] 0 sd 1 lw 796 450 m
 207 Y s [] 0 sd 1 lw 796 657 m 207 Y s [] 0 sd 1 lw 790 657 m 6 X s [] 0 sd 1 lw 796 657 m 6 X s [] 0 sd 1 lw 796 657
 m20 [] 0 sd 1 lw [] 0 sd 1 lw 808 251 m 135 Y s [] 0 sd 1 lw 808 386 m 136 Y s [] 0 sd 1 lw 802 386 m 6 X s [] 0 sd 1
 lw 808 386 m 6 X s [] 0 sd 1 lw 808 386 m20 [] 0 sd 1 lw [] 0 sd 1 lw 820 250 m 135 Y s [] 0 sd 1 lw 820 385 m 134 Y s
 [] 0 sd 1 lw 814 385 m 6 X s [] 0 sd 1 lw 820 385 m 5 X s [] 0 sd 1 lw 820 385 m20 [] 0 sd 1 lw [] 0 sd 1 lw 831 251 m
 136 Y s [] 0 sd 1 lw 831 387 m 135 Y s [] 0 sd 1 lw 825 387 m 6 X s [] 0 sd 1 lw 831 387 m 6 X s [] 0 sd 1 lw 831 387
 m20 [] 0 sd 1 lw [] 0 sd 1 lw 843 194 m 98 Y s [] 0 sd 1 lw 843 292 m 98 Y s [] 0 sd 1 lw 837 292 m 6 X s [] 0 sd 1 lw
 843 292 m 6 X s [] 0 sd 1 lw 843 292 m20 [] 0 sd 1 lw [] 0 sd 1 lw 855 250 m 133 Y s [] 0 sd 1 lw 855 383 m 134 Y s
 [] 0 sd 1 lw 849 383 m 6 X s [] 0 sd 1 lw 855 383 m 6 X s [] 0 sd 1 lw 855 383 m20 [] 0 sd 1 lw [] 0 sd 1 lw 867 395 m
 202 Y s [] 0 sd 1 lw 867 597 m 201 Y s [] 0 sd 1 lw 861 597 m 6 X s [] 0 sd 1 lw 867 597 m 6 X s [] 0 sd 1 lw 867 597
 m20 [] 0 sd 1 lw [] 0 sd 1 lw 879 470 m 223 Y s [] 0 sd 1 lw 879 693 m 223 Y s [] 0 sd 1 lw 873 693 m 6 X s [] 0 sd 1
 lw 879 693 m 5 X s [] 0 sd 1 lw 879 693 m20 [] 0 sd 1 lw [] 0 sd 1 lw 890 647 m 275 Y s [] 0 sd 1 lw 890 922 m 275 Y s
 [] 0 sd 1 lw 884 922 m 6 X s [] 0 sd 1 lw 890 922 m 6 X s [] 0 sd 1 lw 890 922 m20 [] 0 sd 1 lw [] 0 sd 1 lw 902 327 m
 181 Y s [] 0 sd 1 lw 902 508 m 181 Y s [] 0 sd 1 lw 896 508 m 6 X s [] 0 sd 1 lw 902 508 m 6 X s [] 0 sd 1 lw 902 508
 m20 [] 0 sd 1 lw [] 0 sd 1 lw 914 497 m 245 Y s [] 0 sd 1 lw 914 742 m 245 Y s [] 0 sd 1 lw 908 742 m 6 X s [] 0 sd 1
 lw 914 742 m 6 X s [] 0 sd 1 lw 914 742 m20 [] 0 sd 1 lw [] 0 sd 1 lw 926 256 m 150 Y s [] 0 sd 1 lw 926 406 m 150 Y s
 [] 0 sd 1 lw 920 406 m 6 X s [] 0 sd 1 lw 926 406 m 6 X s [] 0 sd 1 lw 926 406 m20 [] 0 sd 1 lw [] 0 sd 1 lw 937 336 m
 194 Y s [] 0 sd 1 lw 937 530 m 193 Y s [] 0 sd 1 lw 932 530 m 5 X s [] 0 sd 1 lw 937 530 m 6 X s [] 0 sd 1 lw 937 530
 m20 [] 0 sd 1 lw [] 0 sd 1 lw 949 194 m 106 Y s [] 0 sd 1 lw 949 300 m 105 Y s [] 0 sd 1 lw 943 300 m 6 X s [] 0 sd 1
 lw 949 300 m 6 X s [] 0 sd 1 lw 949 300 m20 [] 0 sd 1 lw [] 0 sd 1 lw 961 687 m 299 Y s [] 0 sd 1 lw 961 986 m 300 Y s
 [] 0 sd 1 lw 955 986 m 6 X s [] 0 sd 1 lw 961 986 m 6 X s [] 0 sd 1 lw 961 986 m20 [] 0 sd 1 lw [] 0 sd 1 lw 973 420 m
 226 Y s [] 0 sd 1 lw 973 646 m 226 Y s [] 0 sd 1 lw 967 646 m 6 X s [] 0 sd 1 lw 973 646 m 6 X s [] 0 sd 1 lw 973 646
 m20 [] 0 sd 1 lw [] 0 sd 1 lw 979 194 m 6 X s [] 0 sd 1 lw 985 194 m 6 X s [] 0 sd 1 lw 996 334 m 191 Y s [] 0 sd 1 lw
 996 525 m 191 Y s [] 0 sd 1 lw 991 525 m 5 X s [] 0 sd 1 lw 996 525 m 6 X s [] 0 sd 1 lw 996 525 m20 [] 0 sd 1 lw
 [] 0 sd 1 lw 1008 608 m 286 Y s [] 0 sd 1 lw 1008 894 m 286 Y s [] 0 sd 1 lw 1002 894 m 6 X s [] 0 sd 1 lw 1008 894 m 6
 X s [] 0 sd 1 lw 1008 894 m20 [] 0 sd 1 lw [] 0 sd 1 lw 1020 437 m 243 Y s [] 0 sd 1 lw 1020 680 m 243 Y s [] 0 sd 1 lw
 1014 680 m 6 X s [] 0 sd 1 lw 1020 680 m 6 X s [] 0 sd 1 lw 1020 680 m20 [] 0 sd 1 lw [] 0 sd 1 lw 1032 434 m 241 Y s
 [] 0 sd 1 lw 1032 675 m 241 Y s [] 0 sd 1 lw 1026 675 m 6 X s [] 0 sd 1 lw 1032 675 m 6 X s [] 0 sd 1 lw 1032 675 m20
 [] 0 sd 1 lw [] 0 sd 1 lw 1044 194 m 115 Y s [] 0 sd 1 lw 1044 309 m 114 Y s [] 0 sd 1 lw 1038 309 m 6 X s [] 0 sd 1 lw
 1044 309 m 6 X s [] 0 sd 1 lw 1044 309 m20 [] 0 sd 1 lw [] 0 sd 1 lw 1055 813 m 339 Y s [] 0 sd 1 lw 1055 1152 m 339 Y
 s [] 0 sd 1 lw 1050 1152 m 5 X s [] 0 sd 1 lw 1055 1152 m 6 X s [] 0 sd 1 lw 1055 1152 m20 [] 0 sd 1 lw [] 0 sd 1 lw
 1067 194 m 119 Y s [] 0 sd 1 lw 1067 313 m 119 Y s [] 0 sd 1 lw 1061 313 m 6 X s [] 0 sd 1 lw 1067 313 m 6 X s [] 0 sd
 1 lw 1067 313 m20 [] 0 sd 1 lw [] 0 sd 1 lw 1079 541 m 280 Y s [] 0 sd 1 lw 1079 821 m 281 Y s [] 0 sd 1 lw 1073 821 m
 6 X s [] 0 sd 1 lw 1079 821 m 6 X s [] 0 sd 1 lw 1079 821 m20 [] 0 sd 1 lw [] 0 sd 1 lw 1091 441 m 247 Y s [] 0 sd 1 lw
 1091 688 m 247 Y s [] 0 sd 1 lw 1085 688 m 6 X s [] 0 sd 1 lw 1091 688 m 6 X s [] 0 sd 1 lw 1091 688 m20 [] 0 sd 1 lw
 [] 0 sd 1 lw 1103 194 m 120 Y s [] 0 sd 1 lw 1103 314 m 119 Y s [] 0 sd 1 lw 1097 314 m 6 X s [] 0 sd 1 lw 1103 314 m 5
 X s [] 0 sd 1 lw 1103 314 m20 [] 0 sd 1 lw [] 0 sd 1 lw 1114 538 m 278 Y s [] 0 sd 1 lw 1114 816 m 279 Y s [] 0 sd 1 lw
 1108 816 m 6 X s [] 0 sd 1 lw 1114 816 m 6 X s [] 0 sd 1 lw 1114 816 m20 [] 0 sd 1 lw [] 0 sd 1 lw 1126 650 m 314 Y s
 [] 0 sd 1 lw 1126 964 m 314 Y s [] 0 sd 1 lw 1120 964 m 6 X s [] 0 sd 1 lw 1126 964 m 6 X s [] 0 sd 1 lw 1126 964 m20
 [] 0 sd 1 lw [] 0 sd 1 lw 1138 459 m 264 Y s [] 0 sd 1 lw 1138 723 m 265 Y s [] 0 sd 1 lw 1132 723 m 6 X s [] 0 sd 1 lw
 1138 723 m 6 X s [] 0 sd 1 lw 1138 723 m20 [] 0 sd 1 lw [] 0 sd 1 lw 1150 366 m 235 Y s [] 0 sd 1 lw 1150 601 m 234 Y s
 [] 0 sd 1 lw 1144 601 m 6 X s [] 0 sd 1 lw 1150 601 m 6 X s [] 0 sd 1 lw 1150 601 m20 [] 0 sd 1 lw [] 0 sd 1 lw 1156
 194 m 6 X s [] 0 sd 1 lw 1162 194 m 5 X s [] 0 sd 1 lw 1173 670 m 328 Y s [] 0 sd 1 lw 1173 998 m 328 Y s [] 0 sd 1 lw
 1167 998 m 6 X s [] 0 sd 1 lw 1173 998 m 6 X s [] 0 sd 1 lw 1173 998 m20 [] 0 sd 1 lw [] 0 sd 1 lw 1185 273 m 189 Y s
 [] 0 sd 1 lw 1185 462 m 190 Y s [] 0 sd 1 lw 1179 462 m 6 X s [] 0 sd 1 lw 1185 462 m 6 X s [] 0 sd 1 lw 1185 462 m20
 [] 0 sd 1 lw [] 0 sd 1 lw 1197 194 m 140 Y s [] 0 sd 1 lw 1197 334 m 139 Y s [] 0 sd 1 lw 1191 334 m 6 X s [] 0 sd 1 lw
 1197 334 m 6 X s [] 0 sd 1 lw 1197 334 m20 [] 0 sd 1 lw [] 0 sd 1 lw 1209 577 m 311 Y s [] 0 sd 1 lw 1209 888 m 310 Y s
 [] 0 sd 1 lw 1203 888 m 6 X s [] 0 sd 1 lw 1209 888 m 6 X s [] 0 sd 1 lw 1209 888 m20 [] 0 sd 1 lw [] 0 sd 1 lw 1220
 901 m 387 Y s [] 0 sd 1 lw 1220 1288 m 387 Y s [] 0 sd 1 lw 1215 1288 m 5 X s [] 0 sd 1 lw 1220 1288 m 6 X s [] 0 sd 1
 lw 1220 1288 m20 [] 0 sd 1 lw [] 0 sd 1 lw 1232 468 m 274 Y s [] 0 sd 1 lw 1232 742 m 275 Y s [] 0 sd 1 lw 1226 742 m 6
 X s [] 0 sd 1 lw 1232 742 m 6 X s [] 0 sd 1 lw 1232 742 m20 [] 0 sd 1 lw [] 0 sd 1 lw 1244 272 m 189 Y s [] 0 sd 1 lw
 1244 461 m 189 Y s [] 0 sd 1 lw 1238 461 m 6 X s [] 0 sd 1 lw 1244 461 m 6 X s [] 0 sd 1 lw 1244 461 m20 [] 0 sd 1 lw
 [] 0 sd 1 lw 1256 274 m 194 Y s [] 0 sd 1 lw 1256 468 m 193 Y s [] 0 sd 1 lw 1250 468 m 6 X s [] 0 sd 1 lw 1256 468 m 6
 X s [] 0 sd 1 lw 1256 468 m20 [] 0 sd 1 lw [] 0 sd 1 lw 1268 366 m 234 Y s [] 0 sd 1 lw 1268 600 m 234 Y s [] 0 sd 1 lw
 1262 600 m 6 X s [] 0 sd 1 lw 1268 600 m 6 X s [] 0 sd 1 lw 1268 600 m20 [] 0 sd 1 lw [] 0 sd 1 lw 1279 274 m 192 Y s
 [] 0 sd 1 lw 1279 466 m 192 Y s [] 0 sd 1 lw 1274 466 m 5 X s [] 0 sd 1 lw 1279 466 m 6 X s [] 0 sd 1 lw 1279 466 m20
 [] 0 sd 1 lw [] 0 sd 1 lw 1291 683 m 338 Y s [] 0 sd 1 lw 1291 1021 m 337 Y s [] 0 sd 1 lw 1285 1021 m 6 X s [] 0 sd 1
 lw 1291 1021 m 6 X s [] 0 sd 1 lw 1291 1021 m20 [] 0 sd 1 lw [] 0 sd 1 lw 1297 194 m 6 X s [] 0 sd 1 lw 1303 194 m 6 X
 s [] 0 sd 1 lw 1315 379 m 252 Y s [] 0 sd 1 lw 1315 631 m 252 Y s [] 0 sd 1 lw 1309 631 m 6 X s [] 0 sd 1 lw 1315 631 m
 6 X s [] 0 sd 1 lw 1315 631 m20 [] 0 sd 1 lw [] 0 sd 1 lw 1327 275 m 196 Y s [] 0 sd 1 lw 1327 471 m 196 Y s [] 0 sd 1
 lw 1321 471 m 6 X s [] 0 sd 1 lw 1327 471 m 6 X s [] 0 sd 1 lw 1327 471 m20 [] 0 sd 1 lw [] 0 sd 1 lw 1338 277 m 200 Y
 s [] 0 sd 1 lw 1338 477 m 199 Y s [] 0 sd 1 lw 1333 477 m 5 X s [] 0 sd 1 lw 1338 477 m 6 X s [] 0 sd 1 lw 1338 477 m20
 [] 0 sd 1 lw [] 0 sd 1 lw 1350 374 m 246 Y s [] 0 sd 1 lw 1350 620 m 246 Y s [] 0 sd 1 lw 1344 620 m 6 X s [] 0 sd 1 lw
 1350 620 m 6 X s [] 0 sd 1 lw 1350 620 m20 [] 0 sd 1 lw [] 0 sd 1 lw 1362 278 m 202 Y s [] 0 sd 1 lw 1362 480 m 202 Y s
 [] 0 sd 1 lw 1356 480 m 6 X s [] 0 sd 1 lw 1362 480 m 6 X s [] 0 sd 1 lw 1362 480 m20 [] 0 sd 1 lw [] 0 sd 1 lw 1368
 194 m 6 X s [] 0 sd 1 lw 1374 194 m 6 X s [] 0 sd 1 lw 1386 276 m 196 Y s [] 0 sd 1 lw 1386 472 m 196 Y s [] 0 sd 1 lw
 1380 472 m 6 X s [] 0 sd 1 lw 1386 472 m 5 X s [] 0 sd 1 lw 1386 472 m20 [] 0 sd 1 lw [] 0 sd 1 lw 1397 491 m 298 Y s
 [] 0 sd 1 lw 1397 789 m 297 Y s [] 0 sd 1 lw 1391 789 m 6 X s [] 0 sd 1 lw 1397 789 m 6 X s [] 0 sd 1 lw 1397 789 m20
 [] 0 sd 1 lw [] 0 sd 1 lw 1409 597 m 327 Y s [] 0 sd 1 lw 1409 924 m 326 Y s [] 0 sd 1 lw 1403 924 m 6 X s [] 0 sd 1 lw
 1409 924 m 6 X s [] 0 sd 1 lw 1409 924 m20 [] 0 sd 1 lw [] 0 sd 1 lw 1421 609 m 336 Y s [] 0 sd 1 lw 1421 945 m 336 Y s
 [] 0 sd 1 lw 1415 945 m 6 X s [] 0 sd 1 lw 1421 945 m 6 X s [] 0 sd 1 lw 1421 945 m20 [] 0 sd 1 lw [] 0 sd 1 lw 1433
 379 m 252 Y s [] 0 sd 1 lw 1433 631 m 252 Y s [] 0 sd 1 lw 1427 631 m 6 X s [] 0 sd 1 lw 1433 631 m 6 X s [] 0 sd 1 lw
 1433 631 m20 [] 0 sd 1 lw [] 0 sd 1 lw 1445 491 m 297 Y s [] 0 sd 1 lw 1445 788 m 297 Y s [] 0 sd 1 lw 1439 788 m 6 X s
 [] 0 sd 1 lw 1445 788 m 5 X s [] 0 sd 1 lw 1445 788 m20 [] 0 sd 1 lw [] 0 sd 1 lw 1456 194 m 141 Y s [] 0 sd 1 lw 1456
 335 m 141 Y s [] 0 sd 1 lw 1450 335 m 6 X s [] 0 sd 1 lw 1456 335 m 6 X s [] 0 sd 1 lw 1456 335 m20 [] 0 sd 1 lw
 [] 0 sd 1 lw 1468 382 m 257 Y s [] 0 sd 1 lw 1468 639 m 257 Y s [] 0 sd 1 lw 1462 639 m 6 X s [] 0 sd 1 lw 1468 639 m 6
 X s [] 0 sd 1 lw 1468 639 m20 [] 0 sd 1 lw [] 0 sd 1 lw 1480 498 m 303 Y s [] 0 sd 1 lw 1480 801 m 303 Y s [] 0 sd 1 lw
 1474 801 m 6 X s [] 0 sd 1 lw 1480 801 m 6 X s [] 0 sd 1 lw 1480 801 m20 [] 0 sd 1 lw [] 0 sd 1 lw 1492 194 m 145 Y s
 [] 0 sd 1 lw 1492 339 m 144 Y s [] 0 sd 1 lw 1486 339 m 6 X s [] 0 sd 1 lw 1492 339 m 6 X s [] 0 sd 1 lw 1492 339 m20
 [] 0 sd 1 lw [] 0 sd 1 lw 1503 718 m 361 Y s [] 0 sd 1 lw 1503 1079 m 361 Y s [] 0 sd 1 lw 1498 1079 m 5 X s [] 0 sd 1
 lw 1503 1079 m 6 X s [] 0 sd 1 lw 1503 1079 m20 [] 0 sd 1 lw [] 0 sd 1 lw 1515 282 m 211 Y s [] 0 sd 1 lw 1515 493 m
 211 Y s [] 0 sd 1 lw 1509 493 m 6 X s [] 0 sd 1 lw 1515 493 m 6 X s [] 0 sd 1 lw 1515 493 m20 [] 0 sd 1 lw [] 0 sd 1 lw
 1527 376 m 249 Y s [] 0 sd 1 lw 1527 625 m 249 Y s [] 0 sd 1 lw 1521 625 m 6 X s [] 0 sd 1 lw 1527 625 m 6 X s [] 0 sd
 1 lw 1527 625 m20 [] 0 sd 1 lw [] 0 sd 1 lw 1539 594 m 324 Y s [] 0 sd 1 lw 1539 918 m 324 Y s [] 0 sd 1 lw 1533 918 m
 6 X s [] 0 sd 1 lw 1539 918 m 6 X s [] 0 sd 1 lw 1539 918 m20 [] 0 sd 1 lw [] 0 sd 1 lw 1551 194 m 150 Y s [] 0 sd 1 lw
 1551 344 m 150 Y s [] 0 sd 1 lw 1545 344 m 6 X s [] 0 sd 1 lw 1551 344 m 6 X s [] 0 sd 1 lw 1551 344 m20 [] 0 sd 1 lw
 [] 0 sd 1 lw 1562 469 m 274 Y s [] 0 sd 1 lw 1562 743 m 274 Y s [] 0 sd 1 lw 1557 743 m 5 X s [] 0 sd 1 lw 1562 743 m 6
 X s [] 0 sd 1 lw 1562 743 m20 [] 0 sd 1 lw [] 0 sd 1 lw 1574 374 m 247 Y s [] 0 sd 1 lw 1574 621 m 246 Y s [] 0 sd 1 lw
 1568 621 m 6 X s [] 0 sd 1 lw 1574 621 m 6 X s [] 0 sd 1 lw 1574 621 m20 [] 0 sd 1 lw [] 0 sd 1 lw 1586 194 m 149 Y s
 [] 0 sd 1 lw 1586 343 m 148 Y s [] 0 sd 1 lw 1580 343 m 6 X s [] 0 sd 1 lw 1586 343 m 6 X s [] 0 sd 1 lw 1586 343 m20
 [] 0 sd 1 lw [] 0 sd 1 lw 1598 378 m 250 Y s [] 0 sd 1 lw 1598 628 m 251 Y s [] 0 sd 1 lw 1592 628 m 6 X s [] 0 sd 1 lw
 1598 628 m 6 X s [] 0 sd 1 lw 1598 628 m20 [] 0 sd 1 lw [] 0 sd 1 lw 1610 194 m 145 Y s [] 0 sd 1 lw 1610 339 m 145 Y s
 [] 0 sd 1 lw 1604 339 m 6 X s [] 0 sd 1 lw 1610 339 m 6 X s [] 0 sd 1 lw 1610 339 m20 [] 0 sd 1 lw [] 0 sd 1 lw 1621
 376 m 250 Y s [] 0 sd 1 lw 1621 626 m 249 Y s [] 0 sd 1 lw 1616 626 m 5 X s [] 0 sd 1 lw 1621 626 m 6 X s [] 0 sd 1 lw
 1621 626 m20 [] 0 sd 1 lw [] 0 sd 1 lw 1633 583 m 315 Y s [] 0 sd 1 lw 1633 898 m 315 Y s [] 0 sd 1 lw 1627 898 m 6 X s
 [] 0 sd 1 lw 1633 898 m 6 X s [] 0 sd 1 lw 1633 898 m20 [] 0 sd 1 lw [] 0 sd 1 lw 1645 587 m 318 Y s [] 0 sd 1 lw 1645
 905 m 318 Y s [] 0 sd 1 lw 1639 905 m 6 X s [] 0 sd 1 lw 1645 905 m 6 X s [] 0 sd 1 lw 1645 905 m20 [] 0 sd 1 lw
 [] 0 sd 1 lw 1657 474 m 281 Y s [] 0 sd 1 lw 1657 755 m 280 Y s [] 0 sd 1 lw 1651 755 m 6 X s [] 0 sd 1 lw 1657 755 m 6
 X s [] 0 sd 1 lw 1657 755 m20 [] 0 sd 1 lw [] 0 sd 1 lw 1669 276 m 196 Y s [] 0 sd 1 lw 1669 472 m 196 Y s [] 0 sd 1 lw
 1663 472 m 6 X s [] 0 sd 1 lw 1669 472 m 5 X s [] 0 sd 1 lw 1669 472 m20 [] 0 sd 1 lw [] 0 sd 1 lw 1680 194 m 143 Y s
 [] 0 sd 1 lw 1680 337 m 142 Y s [] 0 sd 1 lw 1674 337 m 6 X s [] 0 sd 1 lw 1680 337 m 6 X s [] 0 sd 1 lw 1680 337 m20
 [] 0 sd 1 lw [] 0 sd 1 lw 1692 276 m 198 Y s [] 0 sd 1 lw 1692 474 m 198 Y s [] 0 sd 1 lw 1686 474 m 6 X s [] 0 sd 1 lw
 1692 474 m 6 X s [] 0 sd 1 lw 1692 474 m20 [] 0 sd 1 lw [] 0 sd 1 lw 1704 470 m 276 Y s [] 0 sd 1 lw 1704 746 m 276 Y s
 [] 0 sd 1 lw 1698 746 m 6 X s [] 0 sd 1 lw 1704 746 m 6 X s [] 0 sd 1 lw 1704 746 m20 [] 0 sd 1 lw [] 0 sd 1 lw 1716
 368 m 237 Y s [] 0 sd 1 lw 1716 605 m 238 Y s [] 0 sd 1 lw 1710 605 m 6 X s [] 0 sd 1 lw 1716 605 m 6 X s [] 0 sd 1 lw
 1716 605 m20 [] 0 sd 1 lw [] 0 sd 1 lw 1728 797 m 367 Y s [] 0 sd 1 lw 1728 1164 m 367 Y s [] 0 sd 1 lw 1722 1164 m 6 X
 s [] 0 sd 1 lw 1728 1164 m 5 X s [] 0 sd 1 lw 1728 1164 m20 [] 0 sd 1 lw [] 0 sd 1 lw 1739 277 m 198 Y s [] 0 sd 1 lw
 1739 475 m 199 Y s [] 0 sd 1 lw 1733 475 m 6 X s [] 0 sd 1 lw 1739 475 m 6 X s [] 0 sd 1 lw 1739 475 m20 [] 0 sd 1 lw
 [] 0 sd 1 lw 1751 369 m 239 Y s [] 0 sd 1 lw 1751 608 m 238 Y s [] 0 sd 1 lw 1745 608 m 6 X s [] 0 sd 1 lw 1751 608 m 6
 X s [] 0 sd 1 lw 1751 608 m20 [] 0 sd 1 lw [] 0 sd 1 lw 1763 470 m 275 Y s [] 0 sd 1 lw 1763 745 m 276 Y s [] 0 sd 1 lw
 1757 745 m 6 X s [] 0 sd 1 lw 1763 745 m 6 X s [] 0 sd 1 lw 1763 745 m20 [] 0 sd 1 lw [] 0 sd 1 lw 1775 276 m 197 Y s
 [] 0 sd 1 lw 1775 473 m 197 Y s [] 0 sd 1 lw 1769 473 m 6 X s [] 0 sd 1 lw 1775 473 m 6 X s [] 0 sd 1 lw 1775 473 m20
 [] 0 sd 1 lw [] 0 sd 1 lw 1787 661 m 322 Y s [] 0 sd 1 lw 1787 983 m 322 Y s [] 0 sd 1 lw 1781 983 m 6 X s [] 0 sd 1 lw
 1787 983 m 5 X s [] 0 sd 1 lw 1787 983 m20 [] 0 sd 1 lw [] 0 sd 1 lw 1798 458 m 263 Y s [] 0 sd 1 lw 1798 721 m 264 Y s
 [] 0 sd 1 lw 1792 721 m 6 X s [] 0 sd 1 lw 1798 721 m 6 X s [] 0 sd 1 lw 1798 721 m20 [] 0 sd 1 lw [] 0 sd 1 lw 1810
 194 m 130 Y s [] 0 sd 1 lw 1810 324 m 130 Y s [] 0 sd 1 lw 1804 324 m 6 X s [] 0 sd 1 lw 1810 324 m 6 X s [] 0 sd 1 lw
 1810 324 m20 [] 0 sd 1 lw [] 0 sd 1 lw 1822 641 m 309 Y s [] 0 sd 1 lw 1822 950 m 309 Y s [] 0 sd 1 lw 1816 950 m 6 X s
 [] 0 sd 1 lw 1822 950 m 6 X s [] 0 sd 1 lw 1822 950 m20 [] 0 sd 1 lw [] 0 sd 1 lw 1834 269 m 182 Y s [] 0 sd 1 lw 1834
 451 m 181 Y s [] 0 sd 1 lw 1828 451 m 6 X s [] 0 sd 1 lw 1834 451 m 6 X s [] 0 sd 1 lw 1834 451 m20 [] 0 sd 1 lw
 [] 0 sd 1 lw 1845 856 m 362 Y s [] 0 sd 1 lw 1845 1218 m 362 Y s [] 0 sd 1 lw 1840 1218 m 5 X s [] 0 sd 1 lw 1845 1218
 m 6 X s [] 0 sd 1 lw 1845 1218 m20 [] 0 sd 1 lw [] 0 sd 1 lw 1857 445 m 251 Y s [] 0 sd 1 lw 1857 696 m 250 Y s [] 0 sd
 1 lw 1851 696 m 6 X s [] 0 sd 1 lw 1857 696 m 6 X s [] 0 sd 1 lw 1857 696 m20 [] 0 sd 1 lw [] 0 sd 1 lw 1869 194 m 125
 Y s [] 0 sd 1 lw 1869 319 m 124 Y s [] 0 sd 1 lw 1863 319 m 6 X s [] 0 sd 1 lw 1869 319 m 6 X s [] 0 sd 1 lw 1869 319
 m20 [] 0 sd 1 lw [] 0 sd 1 lw 1881 269 m 179 Y s [] 0 sd 1 lw 1881 448 m 180 Y s [] 0 sd 1 lw 1875 448 m 6 X s [] 0 sd
 1 lw 1881 448 m 6 X s [] 0 sd 1 lw 1881 448 m20 [] 0 sd 1 lw [] 0 sd 1 lw 1893 349 m 210 Y s [] 0 sd 1 lw 1893 559 m
 211 Y s [] 0 sd 1 lw 1887 559 m 6 X s [] 0 sd 1 lw 1893 559 m 6 X s [] 0 sd 1 lw 1893 559 m20 [] 0 sd 1 lw [] 0 sd 1 lw
 1899 194 m 5 X s [] 0 sd 1 lw 1904 194 m 6 X s [] 0 sd 1 lw 1916 344 m 204 Y s [] 0 sd 1 lw 1916 548 m 204 Y s [] 0 sd
 1 lw 1910 548 m 6 X s [] 0 sd 1 lw 1916 548 m 6 X s [] 0 sd 1 lw 1916 548 m20 [] 0 sd 1 lw [] 0 sd 1 lw 1928 194 m 111
 Y s [] 0 sd 1 lw 1928 305 m 111 Y s [] 0 sd 1 lw 1922 305 m 6 X s [] 0 sd 1 lw 1928 305 m 6 X s [] 0 sd 1 lw 1928 305
 m20 [] 0 sd 1 lw [] 0 sd 1 lw 1940 429 m 234 Y s [] 0 sd 1 lw 1940 663 m 234 Y s [] 0 sd 1 lw 1934 663 m 6 X s [] 0 sd
 1 lw 1940 663 m 6 X s [] 0 sd 1 lw 1940 663 m20 [] 0 sd 1 lw [] 0 sd 1 lw 1946 194 m 6 X s [] 0 sd 1 lw 1952 194 m 5 X
 s [] 0 sd 1 lw 1963 432 m 238 Y s [] 0 sd 1 lw 1963 670 m 238 Y s [] 0 sd 1 lw 1957 670 m 6 X s [] 0 sd 1 lw 1963 670 m
 6 X s [] 0 sd 1 lw 1963 670 m20 [] 0 sd 1 lw [] 0 sd 1 lw 1975 194 m 110 Y s [] 0 sd 1 lw 1975 304 m 109 Y s [] 0 sd 1
 lw 1969 304 m 6 X s [] 0 sd 1 lw 1975 304 m 6 X s [] 0 sd 1 lw 1975 304 m20 [] 0 sd 1 lw [] 0 sd 1 lw 1987 600 m 280 Y
 s [] 0 sd 1 lw 1987 880 m 280 Y s [] 0 sd 1 lw 1981 880 m 6 X s [] 0 sd 1 lw 1987 880 m 6 X s [] 0 sd 1 lw 1987 880 m20
 [] 0 sd 1 lw [] 0 sd 1 lw 1999 409 m 215 Y s [] 0 sd 1 lw 1999 624 m 214 Y s [] 0 sd 1 lw 1993 624 m 6 X s [] 0 sd 1 lw
 1999 624 m 6 X s [] 0 sd 1 lw 1999 624 m20 [] 0 sd 1 lw [] 0 sd 1 lw 2011 414 m 220 Y s [] 0 sd 1 lw 2011 634 m 219 Y s
 [] 0 sd 1 lw 2005 634 m 6 X s [] 0 sd 1 lw 2011 634 m 5 X s [] 0 sd 1 lw 2011 634 m20 [] 0 sd 1 lw [] 0 sd 1 lw 2022
 330 m 184 Y s [] 0 sd 1 lw 2022 514 m 185 Y s [] 0 sd 1 lw 2016 514 m 6 X s [] 0 sd 1 lw 2022 514 m 6 X s [] 0 sd 1 lw
 2022 514 m20 [] 0 sd 1 lw [] 0 sd 1 lw 2034 825 m 316 Y s [] 0 sd 1 lw 2034 1141 m 315 Y s [] 0 sd 1 lw 2028 1141 m 6 X
 s [] 0 sd 1 lw 2034 1141 m 6 X s [] 0 sd 1 lw 2034 1141 m20 [] 0 sd 1 lw [] 0 sd 1 lw 2046 256 m 150 Y s [] 0 sd 1 lw
 2046 406 m 150 Y s [] 0 sd 1 lw 2040 406 m 6 X s [] 0 sd 1 lw 2046 406 m 6 X s [] 0 sd 1 lw 2046 406 m20 [] 0 sd 1 lw
 [] 0 sd 1 lw 2058 324 m 177 Y s [] 0 sd 1 lw 2058 501 m 177 Y s [] 0 sd 1 lw 2052 501 m 6 X s [] 0 sd 1 lw 2058 501 m 6
 X s [] 0 sd 1 lw 2058 501 m20 [] 0 sd 1 lw [] 0 sd 1 lw 2070 397 m 203 Y s [] 0 sd 1 lw 2070 600 m 203 Y s [] 0 sd 1 lw
 2064 600 m 6 X s [] 0 sd 1 lw 2070 600 m 5 X s [] 0 sd 1 lw 2070 600 m20 [] 0 sd 1 lw [] 0 sd 1 lw 2081 326 m 181 Y s
 [] 0 sd 1 lw 2081 507 m 180 Y s [] 0 sd 1 lw 2075 507 m 6 X s [] 0 sd 1 lw 2081 507 m 6 X s [] 0 sd 1 lw 2081 507 m20
 [] 0 sd 1 lw [] 0 sd 1 lw 2093 252 m 138 Y s [] 0 sd 1 lw 2093 390 m 138 Y s [] 0 sd 1 lw 2087 390 m 6 X s [] 0 sd 1 lw
 2093 390 m 6 X s [] 0 sd 1 lw 2093 390 m20 [] 0 sd 1 lw [] 0 sd 1 lw 2105 319 m 172 Y s [] 0 sd 1 lw 2105 491 m 171 Y s
 [] 0 sd 1 lw 2099 491 m 6 X s [] 0 sd 1 lw 2105 491 m 6 X s [] 0 sd 1 lw 2105 491 m20 [] 0 sd 1 lw [] 0 sd 1 lw 2117
 456 m 211 Y s [] 0 sd 1 lw 2117 667 m 212 Y s [] 0 sd 1 lw 2111 667 m 6 X s [] 0 sd 1 lw 2117 667 m 6 X s [] 0 sd 1 lw
 2117 667 m20 [] 0 sd 1 lw [] 0 sd 1 lw 2128 316 m 166 Y s [] 0 sd 1 lw 2128 482 m 166 Y s [] 0 sd 1 lw 2123 482 m 5 X s
 [] 0 sd 1 lw 2128 482 m 6 X s [] 0 sd 1 lw 2128 482 m20 [] 0 sd 1 lw [] 0 sd 1 lw 2140 194 m 99 Y s [] 0 sd 1 lw 2140
 293 m 98 Y s [] 0 sd 1 lw 2134 293 m 6 X s [] 0 sd 1 lw 2140 293 m 6 X s [] 0 sd 1 lw 2140 293 m20 [] 0 sd 1 lw [] 0 sd
 1 lw 2152 194 m 88 Y s [] 0 sd 1 lw 2152 282 m 88 Y s [] 0 sd 1 lw 2146 282 m 6 X s [] 0 sd 1 lw 2152 282 m 6 X s
 [] 0 sd 1 lw 2152 282 m20 [] 0 sd 1 lw [] 0 sd 1 lw 2164 313 m 163 Y s [] 0 sd 1 lw 2164 476 m 162 Y s [] 0 sd 1 lw
 2158 476 m 6 X s [] 0 sd 1 lw 2164 476 m 6 X s [] 0 sd 1 lw 2164 476 m20 [] 0 sd 1 lw [] 0 sd 1 lw 2176 248 m 130 Y s
 [] 0 sd 1 lw 2176 378 m 130 Y s [] 0 sd 1 lw 2170 378 m 6 X s [] 0 sd 1 lw 2176 378 m 6 X s [] 0 sd 1 lw 2176 378 m20
 [] 0 sd 1 lw [] 0 sd 1 lw 2187 194 m 94 Y s [] 0 sd 1 lw 2187 288 m 93 Y s [] 0 sd 1 lw 2182 288 m 5 X s [] 0 sd 1 lw
 2187 288 m 6 X s [] 0 sd 1 lw 2187 288 m20 [] 0 sd 1 lw [] 0 sd 1 lw 2193 194 m 6 X s [] 0 sd 1 lw 2199 194 m 6 X s
 [] 0 sd 1 lw 2211 435 m 194 Y s [] 0 sd 1 lw 2211 629 m 195 Y s [] 0 sd 1 lw 2205 629 m 6 X s [] 0 sd 1 lw 2211 629 m 6
 X s [] 0 sd 1 lw 2211 629 m20 [] 0 sd 1 lw [] 0 sd 1 lw 2223 243 m 118 Y s [] 0 sd 1 lw 2223 361 m 117 Y s [] 0 sd 1 lw
 2217 361 m 6 X s [] 0 sd 1 lw 2223 361 m 6 X s [] 0 sd 1 lw 2223 361 m20 [] 0 sd 1 lw [] 0 sd 1 lw 2229 194 m 6 X s
 [] 0 sd 1 lw 2235 194 m 6 X s [] 0 sd 1 lw 2241 194 m 5 X s [] 0 sd 1 lw 2246 194 m 6 X s [] 0 sd 1 lw 2258 754 m 259 Y
 s [] 0 sd 1 lw 2258 1013 m 260 Y s [] 0 sd 1 lw 2252 1013 m 6 X s [] 0 sd 1 lw 2258 1013 m 6 X s [] 0 sd 1 lw 2258 1013
 m20 [] 0 sd 1 lw [] 0 sd 1 lw 2270 362 m 167 Y s [] 0 sd 1 lw 2270 529 m 168 Y s [] 0 sd 1 lw 2264 529 m 6 X s [] 0 sd
 1 lw 2270 529 m 6 X s [] 0 sd 1 lw 2270 529 m20 [] 0 sd 1 lw [] 0 sd 1 lw 2282 240 m 110 Y s [] 0 sd 1 lw 2282 350 m
 110 Y s [] 0 sd 1 lw 2276 350 m 6 X s [] 0 sd 1 lw 2282 350 m 6 X s [] 0 sd 1 lw 2282 350 m20 [] 0 sd 1 lw [] 0 sd 1 lw
 2294 240 m 112 Y s [] 0 sd 1 lw 2294 352 m 111 Y s [] 0 sd 1 lw 2288 352 m 6 X s [] 0 sd 1 lw 2294 352 m 5 X s [] 0 sd
 1 lw 2294 352 m20 [] 0 sd 1 lw [] 0 sd 1 lw 2305 589 m 217 Y s [] 0 sd 1 lw 2305 806 m 216 Y s [] 0 sd 1 lw 2299 806 m
 6 X s [] 0 sd 1 lw 2305 806 m 6 X s [] 0 sd 1 lw 2305 806 m20 [] 0 sd 1 lw [] 0 sd 1 lw 2317 194 m 76 Y s [] 0 sd 1 lw
 2317 270 m 75 Y s [] 0 sd 1 lw 2311 270 m 6 X s [] 0 sd 1 lw 2317 270 m 6 X s [] 0 sd 1 lw 2317 270 m20 [] 0 sd 1 lw
 [] 0 sd 1 lw 2329 398 m 164 Y s [] 0 sd 1 lw 2329 562 m 165 Y s [] 0 sd 1 lw 2323 562 m 6 X s [] 0 sd 1 lw 2329 562 m 6
 X s [] 0 sd 1 lw 2329 562 m20 [] 0 sd 1 lw [] 0 sd 1 lw 2341 338 m 143 Y s [] 0 sd 1 lw 2341 481 m 144 Y s [] 0 sd 1 lw
 2335 481 m 6 X s [] 0 sd 1 lw 2341 481 m 6 X s [] 0 sd 1 lw 2341 481 m20 [] 0 sd 1 lw [] 0 sd 1 lw 2353 340 m 146 Y s
 [] 0 sd 1 lw 2353 486 m 146 Y s [] 0 sd 1 lw 2347 486 m 6 X s [] 0 sd 1 lw 2353 486 m 5 X s [] 0 sd 1 lw 2353 486 m20
 [] 0 sd 1 lw [] 0 sd 1 lw 2364 194 m 72 Y s [] 0 sd 1 lw 2364 266 m 71 Y s [] 0 sd 1 lw 2358 266 m 6 X s [] 0 sd 1 lw
 2364 266 m 6 X s [] 0 sd 1 lw 2364 266 m20 [] 0 sd 1 lw [] 0 sd 1 lw 2376 237 m 102 Y s [] 0 sd 1 lw 2376 339 m 103 Y s
 [] 0 sd 1 lw 2370 339 m 6 X s [] 0 sd 1 lw 2376 339 m 6 X s [] 0 sd 1 lw 2376 339 m20 [] 0 sd 1 lw [] 0 sd 1 lw 2382
 194 m 6 X s [] 0 sd 1 lw 2388 194 m 6 X s [] 0 sd 1 lw 2400 334 m 140 Y s [] 0 sd 1 lw 2400 474 m 139 Y s [] 0 sd 1 lw
 2394 474 m 6 X s [] 0 sd 1 lw 2400 474 m 6 X s [] 0 sd 1 lw 2400 474 m20 [] 0 sd 1 lw [] 0 sd 1 lw 2411 277 m 114 Y s
 [] 0 sd 1 lw 2411 391 m 114 Y s [] 0 sd 1 lw 2406 391 m 5 X s [] 0 sd 1 lw 2411 391 m 6 X s [] 0 sd 1 lw 2411 391 m20
 [] 0 sd 1 lw [] 0 sd 1 lw 2423 194 m 68 Y s [] 0 sd 1 lw 2423 262 m 67 Y s [] 0 sd 1 lw 2417 262 m 6 X s [] 0 sd 1 lw
 2423 262 m 6 X s [] 0 sd 1 lw 2423 262 m20 [] 0 sd 1 lw [] 0 sd 1 lw 2435 380 m 150 Y s [] 0 sd 1 lw 2435 530 m 150 Y s
 [] 0 sd 1 lw 2429 530 m 6 X s [] 0 sd 1 lw 2435 530 m 6 X s [] 0 sd 1 lw 2435 530 m20 [] 0 sd 1 lw [] 0 sd 1 lw 2447
 194 m 67 Y s [] 0 sd 1 lw 2447 261 m 67 Y s [] 0 sd 1 lw 2441 261 m 6 X s [] 0 sd 1 lw 2447 261 m 6 X s [] 0 sd 1 lw
 2447 261 m20 [] 0 sd 1 lw [] 0 sd 1 lw 2459 367 m 140 Y s [] 0 sd 1 lw 2459 507 m 140 Y s [] 0 sd 1 lw 2453 507 m 6 X s
 [] 0 sd 1 lw 2459 507 m 6 X s [] 0 sd 1 lw 2459 507 m20 [] 0 sd 1 lw [] 0 sd 1 lw 2465 194 m 5 X s [] 0 sd 1 lw 2470
 194 m 6 X s [] 0 sd 1 lw 2482 231 m 87 Y s [] 0 sd 1 lw 2482 318 m 88 Y s [] 0 sd 1 lw 2476 318 m 6 X s [] 0 sd 1 lw
 2482 318 m 6 X s [] 0 sd 1 lw 2482 318 m20 [] 0 sd 1 lw [] 0 sd 1 lw 2494 320 m 126 Y s [] 0 sd 1 lw 2494 446 m 126 Y s
 [] 0 sd 1 lw 2488 446 m 6 X s [] 0 sd 1 lw 2494 446 m 6 X s [] 0 sd 1 lw 2494 446 m20 [] 0 sd 1 lw [] 0 sd 1 lw 2506
 194 m 62 Y s [] 0 sd 1 lw 2506 256 m 61 Y s [] 0 sd 1 lw 2500 256 m 6 X s [] 0 sd 1 lw 2506 256 m 6 X s [] 0 sd 1 lw
 2506 256 m20 [] 0 sd 1 lw [] 0 sd 1 lw 2518 268 m 102 Y s [] 0 sd 1 lw 2518 370 m 101 Y s [] 0 sd 1 lw 2512 370 m 6 X s
 [] 0 sd 1 lw 2518 370 m 6 X s [] 0 sd 1 lw 2518 370 m20 [] 0 sd 1 lw [] 0 sd 1 lw 2524 194 m 5 X s [] 0 sd 1 lw 2529
 194 m 6 X s [] 0 sd 1 lw 2541 229 m 84 Y s [] 0 sd 1 lw 2541 313 m 85 Y s [] 0 sd 1 lw 2535 313 m 6 X s [] 0 sd 1 lw
 2541 313 m 6 X s [] 0 sd 1 lw 2541 313 m20 [] 0 sd 1 lw [] 0 sd 1 lw 2547 194 m 6 X s [] 0 sd 1 lw 2553 194 m 6 X s
 [] 0 sd 1 lw 2559 194 m 6 X s [] 0 sd 1 lw 2565 194 m 6 X s [] 0 sd 1 lw 2571 194 m 6 X s [] 0 sd 1 lw 2577 194 m 5 X s
 [] 0 sd 1 lw 2582 194 m 6 X s [] 0 sd 1 lw 2588 194 m 6 X s [] 0 sd 1 lw 2594 194 m 6 X s [] 0 sd 1 lw 2600 194 m 6 X s
 [] 0 sd 1 lw 2606 194 m 6 X s [] 0 sd 1 lw 2612 194 m 6 X s [] 0 sd 1 lw 2618 194 m 6 X s [] 0 sd 1 lw 2624 194 m 6 X s
 [] 0 sd 1 lw 2630 194 m 6 X s [] 0 sd 1 lw 2636 194 m 5 X s [] 0 sd 1 lw 2641 194 m 6 X s [] 0 sd 1 lw 2647 194 m 6 X s
 [] 0 sd 1 lw [] 0 sd 1 lw 295 194 m 2358 X s s
 /xs 0 def (Pseudorapidity) /Helvetica-Bold 72 stwn  gsave  2653 49
 t 0 r  xs neg 0 t 0 0 m /Helvetica-Bold findfont 72 sf 0 0 m (Pseudorapidity) show  gr  [] 0 sd 1 lw [] 0 sd 1 lw 479
 241 m -47 Y s s [] 0 sd 1 lw [] 0 sd 1 lw 545 218 m -24 Y s s [] 0 sd 1 lw [] 0 sd 1 lw 612 218 m -24 Y s s [] 0 sd 1
 lw [] 0 sd 1 lw 678 218 m -24 Y s s [] 0 sd 1 lw [] 0 sd 1 lw 744 218 m -24 Y s s [] 0 sd 1 lw [] 0 sd 1 lw 811 241 m
 -47 Y s s [] 0 sd 1 lw [] 0 sd 1 lw 877 218 m -24 Y s s [] 0 sd 1 lw [] 0 sd 1 lw 943 218 m -24 Y s s [] 0 sd 1 lw
 [] 0 sd 1 lw 1010 218 m -24 Y s s [] 0 sd 1 lw [] 0 sd 1 lw 1076 218 m -24 Y s s [] 0 sd 1 lw [] 0 sd 1 lw 1142 241 m
 -47 Y s s [] 0 sd 1 lw [] 0 sd 1 lw 1209 218 m -24 Y s s [] 0 sd 1 lw [] 0 sd 1 lw 1275 218 m -24 Y s s [] 0 sd 1 lw
 [] 0 sd 1 lw 1341 218 m -24 Y s s [] 0 sd 1 lw [] 0 sd 1 lw 1408 218 m -24 Y s s [] 0 sd 1 lw [] 0 sd 1 lw 1474 241 m
 -47 Y s s [] 0 sd 1 lw [] 0 sd 1 lw 1540 218 m -24 Y s s [] 0 sd 1 lw [] 0 sd 1 lw 1607 218 m -24 Y s s [] 0 sd 1 lw
 [] 0 sd 1 lw 1673 218 m -24 Y s s [] 0 sd 1 lw [] 0 sd 1 lw 1739 218 m -24 Y s s [] 0 sd 1 lw [] 0 sd 1 lw 1806 241 m
 -47 Y s s [] 0 sd 1 lw [] 0 sd 1 lw 1872 218 m -24 Y s s [] 0 sd 1 lw [] 0 sd 1 lw 1938 218 m -24 Y s s [] 0 sd 1 lw
 [] 0 sd 1 lw 2005 218 m -24 Y s s [] 0 sd 1 lw [] 0 sd 1 lw 2071 218 m -24 Y s s [] 0 sd 1 lw [] 0 sd 1 lw 2137 241 m
 -47 Y s s [] 0 sd 1 lw [] 0 sd 1 lw 2204 218 m -24 Y s s [] 0 sd 1 lw [] 0 sd 1 lw 2270 218 m -24 Y s s [] 0 sd 1 lw
 [] 0 sd 1 lw 2336 218 m -24 Y s s [] 0 sd 1 lw [] 0 sd 1 lw 2403 218 m -24 Y s s [] 0 sd 1 lw [] 0 sd 1 lw 2469 241 m
 -47 Y s s [] 0 sd 1 lw [] 0 sd 1 lw 479 241 m -47 Y s s [] 0 sd 1 lw [] 0 sd 1 lw 413 218 m -24 Y s s [] 0 sd 1 lw
 [] 0 sd 1 lw 346 218 m -24 Y s s [] 0 sd 1 lw [] 0 sd 1 lw 2469 241 m -47 Y s s [] 0 sd 1 lw [] 0 sd 1 lw 2535 218 m
 -24 Y s s [] 0 sd 1 lw [] 0 sd 1 lw 2602 218 m -24 Y s s
 /xs 0 def (-1.5) /Helvetica-Bold 72 stwn  gsave  479 107
 t 0 r xs 2 div neg 0 t 0 0 m /Helvetica-Bold findfont 72 sf 0 0 m (-1.5) show  gr 
 /xs 0 def (-1) /Helvetica-Bold 72 stwn  gsave  811 107
 t 0 r xs 2 div neg 0 t 0 0 m /Helvetica-Bold findfont 72 sf 0 0 m (-1) show  gr 
 /xs 0 def (-0.5) /Helvetica-Bold 72 stwn  gsave  1142 107
 t 0 r xs 2 div neg 0 t 0 0 m /Helvetica-Bold findfont 72 sf 0 0 m (-0.5) show  gr 
 /xs 0 def (0) /Helvetica-Bold 72 stwn  gsave  1474 107
 t 0 r xs 2 div neg 0 t 0 0 m /Helvetica-Bold findfont 72 sf 0 0 m (0) show  gr 
 /xs 0 def (0.5) /Helvetica-Bold 72 stwn  gsave  1806 107
 t 0 r xs 2 div neg 0 t 0 0 m /Helvetica-Bold findfont 72 sf 0 0 m (0.5) show  gr 
 /xs 0 def (1) /Helvetica-Bold 72 stwn  gsave  2137 107
 t 0 r xs 2 div neg 0 t 0 0 m /Helvetica-Bold findfont 72 sf 0 0 m (1) show  gr 
 /xs 0 def (1.5) /Helvetica-Bold 72 stwn  gsave  2469 107
 t 0 r xs 2 div neg 0 t 0 0 m /Helvetica-Bold findfont 72 sf 0 0 m (1.5) show  gr  [] 0 sd 1 lw [] 0 sd 1 lw 295 194 m
 1556 Y s s
 /xs 0 def (Number of Hits \(cm) /Helvetica-Bold 72 stwn (-2\)) /Helvetica-Bold 50 stwn  gsave  136 1750
 t 90 r  xs neg 0 t 0 0 m /Helvetica-Bold findfont 72 sf 0 0 m (Number of Hits \(cm) show  currentpoint pop 0 t 
 /Helvetica-Bold findfont 50 sf 0 36 m (-2\)) show  gr  [] 0 sd 1 lw [] 0 sd 1 lw 366 194 m -71 X s s [] 0 sd 1 lw
 [] 0 sd 1 lw 330 228 m -35 X s s [] 0 sd 1 lw [] 0 sd 1 lw 330 262 m -35 X s s [] 0 sd 1 lw [] 0 sd 1 lw 330 297 m -35
 X s s [] 0 sd 1 lw [] 0 sd 1 lw 366 331 m -71 X s s [] 0 sd 1 lw [] 0 sd 1 lw 330 365 m -35 X s s [] 0 sd 1 lw [] 0 sd
 1 lw 330 399 m -35 X s s [] 0 sd 1 lw [] 0 sd 1 lw 330 433 m -35 X s s [] 0 sd 1 lw [] 0 sd 1 lw 366 467 m -71 X s s
 [] 0 sd 1 lw [] 0 sd 1 lw 330 501 m -35 X s s [] 0 sd 1 lw [] 0 sd 1 lw 330 535 m -35 X s s [] 0 sd 1 lw [] 0 sd 1 lw
 330 569 m -35 X s s [] 0 sd 1 lw [] 0 sd 1 lw 366 603 m -71 X s s [] 0 sd 1 lw [] 0 sd 1 lw 330 637 m -35 X s s [] 0 sd
 1 lw [] 0 sd 1 lw 330 671 m -35 X s s [] 0 sd 1 lw [] 0 sd 1 lw 330 705 m -35 X s s [] 0 sd 1 lw [] 0 sd 1 lw 366 739 m
 -71 X s s [] 0 sd 1 lw [] 0 sd 1 lw 330 773 m -35 X s s [] 0 sd 1 lw [] 0 sd 1 lw 330 807 m -35 X s s [] 0 sd 1 lw
 [] 0 sd 1 lw 330 841 m -35 X s s [] 0 sd 1 lw [] 0 sd 1 lw 366 875 m -71 X s s [] 0 sd 1 lw [] 0 sd 1 lw 330 910 m -35
 X s s [] 0 sd 1 lw [] 0 sd 1 lw 330 944 m -35 X s s [] 0 sd 1 lw [] 0 sd 1 lw 330 978 m -35 X s s [] 0 sd 1 lw [] 0 sd
 1 lw 366 1012 m -71 X s s [] 0 sd 1 lw [] 0 sd 1 lw 330 1046 m -35 X s s [] 0 sd 1 lw [] 0 sd 1 lw 330 1080 m -35 X s s
 [] 0 sd 1 lw [] 0 sd 1 lw 330 1114 m -35 X s s [] 0 sd 1 lw [] 0 sd 1 lw 366 1148 m -71 X s s [] 0 sd 1 lw [] 0 sd 1 lw
 330 1182 m -35 X s s [] 0 sd 1 lw [] 0 sd 1 lw 330 1216 m -35 X s s [] 0 sd 1 lw [] 0 sd 1 lw 330 1250 m -35 X s s
 [] 0 sd 1 lw [] 0 sd 1 lw 366 1284 m -71 X s s [] 0 sd 1 lw [] 0 sd 1 lw 330 1318 m -35 X s s [] 0 sd 1 lw [] 0 sd 1 lw
 330 1352 m -35 X s s [] 0 sd 1 lw [] 0 sd 1 lw 330 1386 m -35 X s s [] 0 sd 1 lw [] 0 sd 1 lw 366 1420 m -71 X s s
 [] 0 sd 1 lw [] 0 sd 1 lw 330 1454 m -35 X s s [] 0 sd 1 lw [] 0 sd 1 lw 330 1488 m -35 X s s [] 0 sd 1 lw [] 0 sd 1 lw
 330 1523 m -35 X s s [] 0 sd 1 lw [] 0 sd 1 lw 366 1557 m -71 X s s [] 0 sd 1 lw [] 0 sd 1 lw 330 1591 m -35 X s s
 [] 0 sd 1 lw [] 0 sd 1 lw 330 1625 m -35 X s s [] 0 sd 1 lw [] 0 sd 1 lw 330 1659 m -35 X s s [] 0 sd 1 lw [] 0 sd 1 lw
 366 1693 m -71 X s s [] 0 sd 1 lw [] 0 sd 1 lw 366 1693 m -71 X s s [] 0 sd 1 lw [] 0 sd 1 lw 330 1727 m -35 X s s
 /xs 0 def (0) /Helvetica-Bold 72 stwn  gsave  280 174
 t 0 r  xs neg 0 t 0 0 m /Helvetica-Bold findfont 72 sf 0 0 m (0) show  gr 
 /xs 0 def (2) /Helvetica-Bold 72 stwn  gsave  280 310
 t 0 r  xs neg 0 t 0 0 m /Helvetica-Bold findfont 72 sf 0 0 m (2) show  gr 
 /xs 0 def (4) /Helvetica-Bold 72 stwn  gsave  280 446
 t 0 r  xs neg 0 t 0 0 m /Helvetica-Bold findfont 72 sf 0 0 m (4) show  gr 
 /xs 0 def (6) /Helvetica-Bold 72 stwn  gsave  280 582
 t 0 r  xs neg 0 t 0 0 m /Helvetica-Bold findfont 72 sf 0 0 m (6) show  gr 
 /xs 0 def (8) /Helvetica-Bold 72 stwn  gsave  280 719
 t 0 r  xs neg 0 t 0 0 m /Helvetica-Bold findfont 72 sf 0 0 m (8) show  gr 
 /xs 0 def (10) /Helvetica-Bold 72 stwn  gsave  280 855
 t 0 r  xs neg 0 t 0 0 m /Helvetica-Bold findfont 72 sf 0 0 m (10) show  gr 
 /xs 0 def (12) /Helvetica-Bold 72 stwn  gsave  280 991
 t 0 r  xs neg 0 t 0 0 m /Helvetica-Bold findfont 72 sf 0 0 m (12) show  gr 
 /xs 0 def (14) /Helvetica-Bold 72 stwn  gsave  280 1127
 t 0 r  xs neg 0 t 0 0 m /Helvetica-Bold findfont 72 sf 0 0 m (14) show  gr 
 /xs 0 def (16) /Helvetica-Bold 72 stwn  gsave  280 1263
 t 0 r  xs neg 0 t 0 0 m /Helvetica-Bold findfont 72 sf 0 0 m (16) show  gr 
 /xs 0 def (18) /Helvetica-Bold 72 stwn  gsave  280 1400
 t 0 r  xs neg 0 t 0 0 m /Helvetica-Bold findfont 72 sf 0 0 m (18) show  gr 
 /xs 0 def (20) /Helvetica-Bold 72 stwn  gsave  280 1536
 t 0 r  xs neg 0 t 0 0 m /Helvetica-Bold findfont 72 sf 0 0 m (20) show  gr 
 /xs 0 def (22) /Helvetica-Bold 72 stwn  gsave  280 1672
 t 0 r  xs neg 0 t 0 0 m /Helvetica-Bold findfont 72 sf 0 0 m (22) show  gr  [] 0 sd 1 lw 0.95 0.95 0.95 c 1165 97 29
 1837 bf black [] 0 sd 1 lw 49 1837 m -13 Y 1158 X 91 Y -13 X -78 Y f [] 0 sd 1 lw 29 1837 m 97 Y s [] 0 sd 1 lw 29 1934
 m 1165 X s [] 0 sd 1 lw 1194 1934 m -97 Y s [] 0 sd 1 lw 1194 1837 m -1165 X s
 /xs 0 def (Hits for Layer 2 by Eta) /Helvetica-Bold 76 stwn  gsave  612 1864
 t 0 r xs 2 div neg 0 t 0 0 m /Helvetica-Bold findfont 76 sf 0 0 m (Hits for Layer 2 by Eta) show  gr  [] 0 sd 1 lw 0.95
 0.95 0.95 c 590 311 2299 1594 bf black [] 0 sd 1 lw 2319 1594 m -13 Y 583 X 305 Y -13 X -292 Y f [] 0 sd 1 lw 2299 1594
 m 311 Y s [] 0 sd 1 lw 2299 1905 m 590 X s [] 0 sd 1 lw 2889 1905 m -311 Y s [] 0 sd 1 lw 2889 1594 m -590 X s
 gsave  2329 1849
 t 0 r 0 0 m /Helvetica-Bold findfont 64 sf 0 0 m (hEtaEtapden_Eta2) show  gr 
 gsave  2329 1771
 t 0 r 0 0 m /Helvetica-Bold findfont 64 sf 0 0 m (Nent = 897   \040) show  gr 
 gsave  2329 1693
 t 0 r 0 0 m /Helvetica-Bold findfont 64 sf 0 0 m (Mean  = -0.03664) show  gr 
 gsave  2329 1615
 t 0 r 0 0 m /Helvetica-Bold findfont 64 sf 0 0 m (RMS   = 0.7967) show  gr  1 1 0 c gr 
showpage gr
 gr 
%%Trailer
%%Pages:  1
%%EOF
