%!PS-Adobe-2.0
%%Title: ITShitDensity_6_Eta.ps (Landscape A 4)
%%Pages: (atend)
%%Creator: ROOT Version 2.22/09
%%CreationDate:Sat Sep 18 07:10:31 1999
%%EndComments
%%BeginProlog
/s {stroke} def /l {lineto} def /m {moveto} def /t {translate} def
/sw {stringwidth} def /r {rotate} def /rl {roll}  def /R {repeat} def
/d {rlineto} def /rm {rmoveto} def /gr {grestore} def /f {eofill} def
/c {setrgbcolor} def /lw {setlinewidth} def /sd {setdash} def
/cl {closepath} def /sf {scalefont setfont} def /black {0 setgray} def
/box {m dup 0 exch d exch 0 d 0 exch neg d cl} def
/NC{systemdict begin initclip end}def/C{NC box clip newpath}def
/bl {box s} def /bf {box f} def /Y { 0 exch d} def /X { 0 d} def 
/mp {newpath /y exch def /x exch def} def
/side {[w .77 mul w .23 mul] .385 w mul sd w 0 l currentpoint t -144 r} def
/mr {mp x y w2 0 360 arc} def /m24 {mr s} def /m20 {mr f} def
/mb {mp x y w2 add m w2 neg 0 d 0 w neg d w 0 d 0 w d cl} def
/mt {mp x y w2 add m w2 neg w neg d w 0 d cl} def
/m21 {mb f} def /m25 {mb s} def /m22 {mt f} def /m26{mt s} def
/m23 {mp x y w2 sub m w2 w d w neg 0 d cl f} def
/m27 {mp x y w2 add m w3 neg w2 neg d w3 w2 neg d w3 w2 d cl s} def
/m28 {mp x w2 sub y w2 sub w3 add m w3 0 d  0 w3 neg d w3 0 d 0 w3 d w3 0 d  0 w3 d w3 neg 0 d 0 w3 d w3 neg 0 d
 0 w3 neg d w3 neg 0 d cl s } def
/m29 {mp gsave x w2 sub y w2 add w3 sub m currentpoint t
 4 {side} repeat cl fill gr} def
/m30 {mp gsave x w2 sub y w2 add w3 sub m currentpoint t
 5 {side} repeat s gr} def
/m31 {mp x y w2 sub m 0 w d x w2 sub y m w 0 d x w2 sub y w2 add m w w neg d x w2 sub y w2
 sub m w w d s} def
/m2 {mp x y w2 sub m 0 w d x w2 sub y m w 0 d s} def
/m5 {mp x w2 sub y w2 sub m w w d x w2 sub y w2 add m w w neg d s} def
/DP {/PT exch def gsave 47.2 47.2 scale PT 1  eq { 16 16 1 [ 16 0 0 16 neg 0 16
] { < AA AA 55 55 AA AA 55 55 AA AA 55 55 AA AA 55 55 AA AA 55 55 AA AA 55 55
AA AA 55 55 AA AA 55 55 > } image } if PT 2 eq { 16 16 1 [ 16 0 0 16 neg 0 16
] { < BB BB EE EE BB BB EE EE BB BB EE EE BB BB EE EE BB BB EE EE BB BB EE EE
BB BB EE EE BB BB EE EE > } image } if PT 3 eq { 16 16 1 [ 16 0 0 16 neg 0 16
] { < FF FF BB BB FF FF EE EE FF FF BB BB FF FF EE EE FF FF BB BB FF FF EE EE
FF FF BB BB FF FF EE EE > } image } if PT 4 eq { 16 16 1 [ 16 0 0 16 neg 0 16
] { < DF DF BF BF 7F 7F FE FE FD FD FB FB F7 F7 EF EF DF DF BF BF 7F 7F FE FE
FD FD FB FB F7 F7 EF EF > } image } if PT 5 eq { 16 16 1 [ 16 0 0 16 neg 0 16
] { < 7F 7F BF B F DF DF EF EF F7 F7 FB FB FD FD FE FE 7F 7F BF BF DF DF EF
EF F7 F7 FB FB FD FD FE FE > } image } if PT 6 eq { 16 16 1 [ 16 0 0 16 neg 0
16 ] { < BB BB BB BB BB BB BB BB BB BB BB BB BB BB BB BB BB BB BB BB BB BB BB
BB BB BB BB BB BB BB BB BB > } image } if PT 7 eq { 16 16 1 [ 16 0 0 16 neg 0
16 ] { < FF FF FF FF FF FF 00 00 FF FF FF FF FF FF 00 00 FF FF FF FF FF FF 00
00 FF FF FF FF FF FF 00 00 > } image } if PT 8 eq { 16 16 1 [ 16 0 0 16 neg 0
16 ] { < EE EE 47 47 83 83 C5 C5 EE EE 5C 5C 38 38 74 74 EE EE 47 47 83 83 C5
C5 EE EE 5C 5C 38 38 74 74 > } image } if PT 9 eq { 16 16 1 [ 16 0 0 16 neg 0
16 ] { < EF EF EF EF D7 D7 38 38 FE FE FE FE 7D 7D 83 83 EF EF EF EF D7 D7 38
38  FE FE FE FE 7D 7D 83 83 > } image } if PT 10 eq { 16 16 1 [ 16 0 0 16 neg
0 16 ] { <  EF EF EF EF EF EF 00 00 FE FE FE FE FE FE 00 00 EF EF EF EF EF EF
00 00 FE FE FE FE FE FE 00 00 > } image } if PT 11 eq { 16 16 1 [ 16 0 0 16
neg 0 16 ] { < F7 F7 B6 B6 D5 D5 E3 E3 D5 D5 B6 B6 F7 F7 FF FF 7F 7F 6B 6B 5D
5D 3E 3E 5D 5D 6B 6B 7F 7F FF FF > } image } if PT 12 eq { 16 16 1 [ 16 0 0
16 neg 0 16 ] { < E3 E3 DD DD BE BE BE BE BE BE DD DD E3 E3 FF FF 3E 3E DD DD
EB EB EB EB EB EB DD DD 3E 3E FF FF > } image } if PT 13 eq { 16 16 1 [ 16 0
0 16 neg 0 16 ] { <  FE FE 7D 7D BB BB D7 D7 EF EF D7 D7 BB BB 7D 7D FE FE 7D
7D BB BB D7 D7 EF EF D7 D7 BB BB 7D 7D > } image } if PT 14 eq { 16 16 1 [ 16
0 0 16 neg 0 16 ] { < 00 00 EE EF EE EF EE EF 0E E0 EE EE EE EE EE EE 00 EE
FE EE FE EE FE EE 00 00 FE EF FE EF FE EF > } image } if PT 15 eq { 16 16 1 [
16 0 0 16 neg 0 16 ] { < DD DD AA AA DD DD FF FF 77 77 AA AA 77 77 FF FF DD
DD AA AA DD DD FF FF 77 77 AA AA 77 77 FF FF > } image } if PT 16 eq { 16 16
1 [ 16 0 0 16 neg 0 16 ] { <  F1 F1 EE EE 1F 1F FF FF F1 F1 EE EE 1F 1F FF FF
F1 F1 EE EE 1F 1F FF FF F1 F1 EE EE 1F 1F FF FF > } image } if PT 17 eq { 16
16 1 [ 16 0 0 16 neg 0 16 ] { <  EE EE DD DD BB BB FF FF EE EE DD DD BB BB FF
 FF EE EE DD DD BB BB FF FF EE EE DD DD BB BB FF FF > } image } if PT 18 eq {
16 16 1 [ 16 0 0 16 neg 0 16 ] { <  BB BB DD DD EE EE FF FF BB BB DD DD EE EE
FF FF BB BB DD DD EE EE FF FF BB BB DD DD EE EE FF FF > } image } if PT 19 eq
{ 16 16 1 [ 16 0 0 16 neg 0 16 ] { < 1F FC 67 F3 7B EF BD DE BD DE DE BD E6
B3 F8 0F E6 B3 DE BD BD DE BD DE 7B EF 67 F3 1F FC 7F FF > } image } if PT
20 eq { 16 16 1 [ 16 0 0 16 neg 0 16 ] { < DD DD EE EE EE EE EE EE DD DD BB
BB BB BB BB BB DD DD EE EE EE EE EE EE DD DD BB BB BB BB BB BB > } image }
if PT 21 eq { 16 16 1 [ 16 0 0 16 neg 0 16 ] { < 0E 0E EF EF EF EF EF EF E0
E0 FE FE FE FE FE FE 0E 0E EF EF EF EF EF EF E0 E0 FE FE FE FE FE FE > }
image }  if PT 22 eq { 16 16 1 [ 16 0 0 16 neg 0 16 ] { < 70 70 F7 F7 F7 F7 F7
F7 07 07 7F 7F 7F 7F 7F 7F 70 70 F7 F7 F7 F7 F7 F7 07 07 7F 7F 7F 7F 7F 7F >
} image } if PT 23 eq  { 16 16 1 [ 16 0 0 16 neg 0 16 ] { < AA AA 55 55 A9 A9
D1 D1 E1 E1 D1 D1 A9 A9 55 55 AA AA 55 55 A9 A9 D1 D1 E1 E1 D1 D1 A9 A9 55 55
> } image } if PT 24 eq { 16 16 1 [ 16 0 0 16 neg 0 16 ] { < FF FE FF FC EA
A8 D5 54 EA A8 D5 54 E8 28 D4 54 E8 E8 D4 D4 E8 EA 54 D5 A8 EA 54 D5 00 C0 00
80 > } image } if PT 25 eq {  16 16 1 [ 16 0 0 16 neg 0 16 ] { < FF FE FF FC
FF F8 FF F0 F0 00 F0 00 F0 20 F0 60 F0 E0 F1 E0 F3 E0 F0 00 E0 00 C0 00 80 00
00 00 > } image } if gr } def /FA { /PT exch def gsave clip 0 0 translate 1 1
74 { 1 sub 47.2 mul /Xcurr exch def 1 1 74 { 1 sub 47.2 mul /Ycurr exch def
gsave Xcurr Ycurr translate PT DP gr } for } for gr newpath } def
/reencdict 24 dict def /ReEncode {reencdict begin /nco&na exch def
/nfnam exch def /basefontname exch def /basefontdict basefontname findfont def
/newfont basefontdict maxlength dict def basefontdict {exch dup /FID ne
{dup /Encoding eq {exch dup length array copy newfont 3 1 roll put} {exch 
newfont 3 1 roll put} ifelse} {pop pop} ifelse } forall newfont
/FontName nfnam put nco&na aload pop nco&na length 2 idiv {newfont
/Encoding get 3 1 roll put} repeat nfnam newfont definefont pop end } def
/accvec [ 176 /agrave 181 /Agrave 190 /acircumflex 192 /Acircumflex
201 /adieresis 204 /Adieresis 209 /ccedilla 210 /Ccedilla 211 /eacute
212 /Eacute 213 /egrave 214 /Egrave 215 /ecircumflex 216 /Ecircumflex
217 /edieresis 218 /Edieresis 219 /icircumflex 220 /Icircumflex
221 /idieresis 222 /Idieresis 223 /ntilde 224 /Ntilde 226 /ocircumflex
228 /Ocircumflex 229 /odieresis 230 /Odieresis 231 /ucircumflex 236 /Ucircumflex
237 /udieresis 238 /Udieresis 239 /aring 242 /Aring 243 /ydieresis
244 /Ydieresis 246 /aacute 247 /Aacute 252 /ugrave 253 /Ugrave] def
/Times-Roman /Times-Roman accvec ReEncode
/Times-Italic /Times-Italic accvec ReEncode
/Times-Bold /Times-Bold accvec ReEncode
/Times-BoldItalic /Times-BoldItalic accvec ReEncode
/Helvetica /Helvetica accvec ReEncode
/Helvetica-Oblique /Helvetica-Oblique accvec ReEncode
/Helvetica-Bold /Helvetica-Bold accvec ReEncode
/Helvetica-BoldOblique /Helvetica-BoldOblique  accvec ReEncode
/Courier /Courier accvec ReEncode
/Courier-Oblique /Courier-Oblique accvec ReEncode
/Courier-Bold /Courier-Bold accvec ReEncode
/Courier-BoldOblique /Courier-BoldOblique accvec ReEncode
/oshow {gsave [] 0 sd true charpath stroke gr} def
/stwn { /fs exch def /fn exch def /text exch def fn findfont fs sf
 text sw pop xs add /xs exch def} def
/stwb { /fs exch def /fn exch def /nbas exch def /textf exch def
textf length /tlen exch def nbas tlen gt {/nbas tlendef} if
fn findfont fs sf textf dup length nbas sub nbas getinterval sw
pop neg xs add /xs exch def} def
/accspe [ 65 /plusminus  66 /bar  67 /existential  68 /universal 
69 /exclam  70 /numbersign 71 /greater  72 /question  73 /integral 
74 /colon  75 /semicolon  76 /less  77 /bracketleft  78 /bracketright
79 /greaterequal 80 /braceleft 81 /braceright 82 /radical
83 /spade 84 /heart 85 /diamond 86 /club 87 /lessequal
88 /multiply 89 /percent 90 /infinity 48 /circlemultiply 49 /circleplus
50 /emptyset  51 /lozenge 52 /bullet 53 /arrowright 54 /arrowup
55 /arrowleft 56 /arrowdown 57 /arrowboth 48 /degree 44 /comma 43 /plus 45 /angle 42 /angleleft 47 /divide 61 /notequal
 40 /equivalence 41 /second 97 /approxequal 98 /congruent 99 /perpendicular 100 /partialdiff 101 /florin
 102 /intersection 103 /union 104 /propersuperset 105 /reflexsuperset 106 /notsubset 107 /propersubset 108 /reflexsubset
 109 /element 110 /notelement 111 /gradient 112 /logicaland 113 /logicalor 114 /arrowdblboth 115 /arrowdblleft
 116 /arrowdblup 117 /arrowdblright 118 /arrowdbldown 119 /ampersand 120 /omega1 121 /similar 122 /aleph ] def
/Symbol /Special accspe ReEncode
/Zone {/iy exch def /ix exch def  ix 1 sub  3144 mul  1 iy sub  2224
 mul t} def
%%EndProlog
 gsave  90 r 0 -594 t  28 20 t .25 .25 scale  gsave 
%%Page: number 1
 black [] 0 sd 1 lw 0.95 0.95 0.95 c 2948 1944 0 0 bf 0.8 0.8 0.8 c 0 0 m 2 2 d 1940 Y 2944 X 2 2 d -2948 X -1944 Y f
 0.3 0.3 0.3 c 0 0 m 2 2 d 2944 X 1940 Y 2 2 d -1944 Y -2948 X f black [] 0 sd 1 lw 0.95 0.95 0.95 c 2358 1556 295 194
 bf 0.8 0.8 0.8 c 295 194 m 1 1 d 1554 Y 2356 X 1 1 d -2358 X -1556 Y f 0.3 0.3 0.3 c 295 194 m 1 1 d 2356 X 1554 Y 1 1
 d -1556 Y -2358 X f [] 0 sd 1 lw black 295 194 m 2358 X s [] 0 sd 1 lw 2653 194 m 1556 Y s [] 0 sd 1 lw 2653 1750 m
 -2358 X s [] 0 sd 1 lw 295 1750 m -1556 Y s [] 0 sd 1 lw 1 1 1 c black [] 0 sd 1 lw 295 194 m 6 X s [] 0 sd 1 lw 301
 194 m 6 X s [] 0 sd 1 lw 307 194 m 5 X s [] 0 sd 1 lw 312 194 m 6 X s [] 0 sd 1 lw 318 194 m 6 X s [] 0 sd 1 lw 324 194
 m 6 X s [] 0 sd 1 lw 330 194 m 6 X s [] 0 sd 1 lw 336 194 m 6 X s [] 0 sd 1 lw 342 194 m 6 X s [] 0 sd 1 lw 348 194 m 6
 X s [] 0 sd 1 lw 354 194 m 6 X s [] 0 sd 1 lw 360 194 m 6 X s [] 0 sd 1 lw 366 194 m 5 X s [] 0 sd 1 lw 371 194 m 6 X s
 [] 0 sd 1 lw 377 194 m 6 X s [] 0 sd 1 lw 383 194 m 6 X s [] 0 sd 1 lw 389 194 m 6 X s [] 0 sd 1 lw 395 194 m 6 X s
 [] 0 sd 1 lw 401 194 m 6 X s [] 0 sd 1 lw 407 194 m 6 X s [] 0 sd 1 lw 413 194 m 6 X s [] 0 sd 1 lw 419 194 m 6 X s
 [] 0 sd 1 lw 425 194 m 5 X s [] 0 sd 1 lw 430 194 m 6 X s [] 0 sd 1 lw 436 194 m 6 X s [] 0 sd 1 lw 442 194 m 6 X s
 [] 0 sd 1 lw 454 304 m 150 Y s [] 0 sd 1 lw 454 454 m 150 Y s [] 0 sd 1 lw 448 454 m 6 X s [] 0 sd 1 lw 454 454 m 6 X s
 [] 0 sd 1 lw /w 2 def /w2 {w 2 div} def /w3 {w 3 div} def 454 454 m20 [] 0 sd 1 lw [] 0 sd 1 lw 460 194 m 6 X s [] 0 sd
 1 lw 466 194 m 6 X s [] 0 sd 1 lw 478 246 m 125 Y s [] 0 sd 1 lw 478 371 m 124 Y s [] 0 sd 1 lw 472 371 m 6 X s [] 0 sd
 1 lw 478 371 m 5 X s [] 0 sd 1 lw 478 371 m20 [] 0 sd 1 lw [] 0 sd 1 lw 489 247 m 126 Y s [] 0 sd 1 lw 489 373 m 126 Y
 s [] 0 sd 1 lw 483 373 m 6 X s [] 0 sd 1 lw 489 373 m 6 X s [] 0 sd 1 lw 489 373 m20 [] 0 sd 1 lw [] 0 sd 1 lw 501 516
 m 222 Y s [] 0 sd 1 lw 501 738 m 222 Y s [] 0 sd 1 lw 495 738 m 6 X s [] 0 sd 1 lw 501 738 m 6 X s [] 0 sd 1 lw 501 738
 m20 [] 0 sd 1 lw [] 0 sd 1 lw 513 194 m 92 Y s [] 0 sd 1 lw 513 286 m 91 Y s [] 0 sd 1 lw 507 286 m 6 X s [] 0 sd 1 lw
 513 286 m 6 X s [] 0 sd 1 lw 513 286 m20 [] 0 sd 1 lw [] 0 sd 1 lw 525 311 m 159 Y s [] 0 sd 1 lw 525 470 m 159 Y s
 [] 0 sd 1 lw 519 470 m 6 X s [] 0 sd 1 lw 525 470 m 6 X s [] 0 sd 1 lw 525 470 m20 [] 0 sd 1 lw [] 0 sd 1 lw 537 311 m
 160 Y s [] 0 sd 1 lw 537 471 m 160 Y s [] 0 sd 1 lw 531 471 m 6 X s [] 0 sd 1 lw 537 471 m 5 X s [] 0 sd 1 lw 537 471
 m20 [] 0 sd 1 lw [] 0 sd 1 lw 548 249 m 131 Y s [] 0 sd 1 lw 548 380 m 131 Y s [] 0 sd 1 lw 542 380 m 6 X s [] 0 sd 1
 lw 548 380 m 6 X s [] 0 sd 1 lw 548 380 m20 [] 0 sd 1 lw [] 0 sd 1 lw 560 454 m 209 Y s [] 0 sd 1 lw 560 663 m 210 Y s
 [] 0 sd 1 lw 554 663 m 6 X s [] 0 sd 1 lw 560 663 m 6 X s [] 0 sd 1 lw 560 663 m20 [] 0 sd 1 lw [] 0 sd 1 lw 572 194 m
 95 Y s [] 0 sd 1 lw 572 289 m 94 Y s [] 0 sd 1 lw 566 289 m 6 X s [] 0 sd 1 lw 572 289 m 6 X s [] 0 sd 1 lw 572 289 m20
 [] 0 sd 1 lw [] 0 sd 1 lw 584 457 m 213 Y s [] 0 sd 1 lw 584 670 m 212 Y s [] 0 sd 1 lw 578 670 m 6 X s [] 0 sd 1 lw
 584 670 m 6 X s [] 0 sd 1 lw 584 670 m20 [] 0 sd 1 lw [] 0 sd 1 lw 596 194 m 97 Y s [] 0 sd 1 lw 596 291 m 97 Y s
 [] 0 sd 1 lw 590 291 m 6 X s [] 0 sd 1 lw 596 291 m 5 X s [] 0 sd 1 lw 596 291 m20 [] 0 sd 1 lw [] 0 sd 1 lw 607 317 m
 168 Y s [] 0 sd 1 lw 607 485 m 167 Y s [] 0 sd 1 lw 601 485 m 6 X s [] 0 sd 1 lw 607 485 m 6 X s [] 0 sd 1 lw 607 485
 m20 [] 0 sd 1 lw [] 0 sd 1 lw 619 251 m 138 Y s [] 0 sd 1 lw 619 389 m 137 Y s [] 0 sd 1 lw 613 389 m 6 X s [] 0 sd 1
 lw 619 389 m 6 X s [] 0 sd 1 lw 619 389 m20 [] 0 sd 1 lw [] 0 sd 1 lw 625 194 m 6 X s [] 0 sd 1 lw 631 194 m 6 X s
 [] 0 sd 1 lw 643 320 m 172 Y s [] 0 sd 1 lw 643 492 m 172 Y s [] 0 sd 1 lw 637 492 m 6 X s [] 0 sd 1 lw 643 492 m 6 X s
 [] 0 sd 1 lw 643 492 m20 [] 0 sd 1 lw [] 0 sd 1 lw 654 194 m 100 Y s [] 0 sd 1 lw 654 294 m 100 Y s [] 0 sd 1 lw 649
 294 m 5 X s [] 0 sd 1 lw 654 294 m 6 X s [] 0 sd 1 lw 654 294 m20 [] 0 sd 1 lw [] 0 sd 1 lw 666 396 m 201 Y s [] 0 sd 1
 lw 666 597 m 201 Y s [] 0 sd 1 lw 660 597 m 6 X s [] 0 sd 1 lw 666 597 m 6 X s [] 0 sd 1 lw 666 597 m20 [] 0 sd 1 lw
 [] 0 sd 1 lw 678 323 m 175 Y s [] 0 sd 1 lw 678 498 m 176 Y s [] 0 sd 1 lw 672 498 m 6 X s [] 0 sd 1 lw 678 498 m 6 X s
 [] 0 sd 1 lw 678 498 m20 [] 0 sd 1 lw [] 0 sd 1 lw 690 255 m 145 Y s [] 0 sd 1 lw 690 400 m 145 Y s [] 0 sd 1 lw 684
 400 m 6 X s [] 0 sd 1 lw 690 400 m 6 X s [] 0 sd 1 lw 690 400 m20 [] 0 sd 1 lw [] 0 sd 1 lw 702 324 m 177 Y s [] 0 sd 1
 lw 702 501 m 177 Y s [] 0 sd 1 lw 696 501 m 6 X s [] 0 sd 1 lw 702 501 m 6 X s [] 0 sd 1 lw 702 501 m20 [] 0 sd 1 lw
 [] 0 sd 1 lw 713 255 m 145 Y s [] 0 sd 1 lw 713 400 m 146 Y s [] 0 sd 1 lw 708 400 m 5 X s [] 0 sd 1 lw 713 400 m 6 X s
 [] 0 sd 1 lw 713 400 m20 [] 0 sd 1 lw [] 0 sd 1 lw 719 194 m 6 X s [] 0 sd 1 lw 725 194 m 6 X s [] 0 sd 1 lw 737 404 m
 210 Y s [] 0 sd 1 lw 737 614 m 210 Y s [] 0 sd 1 lw 731 614 m 6 X s [] 0 sd 1 lw 737 614 m 6 X s [] 0 sd 1 lw 737 614
 m20 [] 0 sd 1 lw [] 0 sd 1 lw 749 485 m 236 Y s [] 0 sd 1 lw 749 721 m 235 Y s [] 0 sd 1 lw 743 721 m 6 X s [] 0 sd 1
 lw 749 721 m 6 X s [] 0 sd 1 lw 749 721 m20 [] 0 sd 1 lw [] 0 sd 1 lw 761 194 m 106 Y s [] 0 sd 1 lw 761 300 m 106 Y s
 [] 0 sd 1 lw 755 300 m 6 X s [] 0 sd 1 lw 761 300 m 5 X s [] 0 sd 1 lw 761 300 m20 [] 0 sd 1 lw [] 0 sd 1 lw 772 257 m
 150 Y s [] 0 sd 1 lw 772 407 m 151 Y s [] 0 sd 1 lw 766 407 m 6 X s [] 0 sd 1 lw 772 407 m 6 X s [] 0 sd 1 lw 772 407
 m20 [] 0 sd 1 lw [] 0 sd 1 lw 784 258 m 153 Y s [] 0 sd 1 lw 784 411 m 153 Y s [] 0 sd 1 lw 778 411 m 6 X s [] 0 sd 1
 lw 784 411 m 6 X s [] 0 sd 1 lw 784 411 m20 [] 0 sd 1 lw [] 0 sd 1 lw 796 332 m 189 Y s [] 0 sd 1 lw 796 521 m 188 Y s
 [] 0 sd 1 lw 790 521 m 6 X s [] 0 sd 1 lw 796 521 m 6 X s [] 0 sd 1 lw 796 521 m20 [] 0 sd 1 lw [] 0 sd 1 lw 808 194 m
 111 Y s [] 0 sd 1 lw 808 305 m 110 Y s [] 0 sd 1 lw 802 305 m 6 X s [] 0 sd 1 lw 808 305 m 6 X s [] 0 sd 1 lw 808 305
 m20 [] 0 sd 1 lw [] 0 sd 1 lw 820 500 m 247 Y s [] 0 sd 1 lw 820 747 m 247 Y s [] 0 sd 1 lw 814 747 m 6 X s [] 0 sd 1
 lw 820 747 m 5 X s [] 0 sd 1 lw 820 747 m20 [] 0 sd 1 lw [] 0 sd 1 lw 831 194 m 111 Y s [] 0 sd 1 lw 831 305 m 110 Y s
 [] 0 sd 1 lw 825 305 m 6 X s [] 0 sd 1 lw 831 305 m 6 X s [] 0 sd 1 lw 831 305 m20 [] 0 sd 1 lw [] 0 sd 1 lw 843 194 m
 113 Y s [] 0 sd 1 lw 843 307 m 112 Y s [] 0 sd 1 lw 837 307 m 6 X s [] 0 sd 1 lw 843 307 m 6 X s [] 0 sd 1 lw 843 307
 m20 [] 0 sd 1 lw [] 0 sd 1 lw 855 336 m 194 Y s [] 0 sd 1 lw 855 530 m 194 Y s [] 0 sd 1 lw 849 530 m 6 X s [] 0 sd 1
 lw 855 530 m 6 X s [] 0 sd 1 lw 855 530 m20 [] 0 sd 1 lw [] 0 sd 1 lw 867 194 m 113 Y s [] 0 sd 1 lw 867 307 m 112 Y s
 [] 0 sd 1 lw 861 307 m 6 X s [] 0 sd 1 lw 867 307 m 6 X s [] 0 sd 1 lw 867 307 m20 [] 0 sd 1 lw [] 0 sd 1 lw 879 260 m
 160 Y s [] 0 sd 1 lw 879 420 m 159 Y s [] 0 sd 1 lw 873 420 m 6 X s [] 0 sd 1 lw 879 420 m 5 X s [] 0 sd 1 lw 879 420
 m20 [] 0 sd 1 lw [] 0 sd 1 lw 884 194 m 6 X s [] 0 sd 1 lw 890 194 m 6 X s [] 0 sd 1 lw 902 261 m 162 Y s [] 0 sd 1 lw
 902 423 m 162 Y s [] 0 sd 1 lw 896 423 m 6 X s [] 0 sd 1 lw 902 423 m 6 X s [] 0 sd 1 lw 902 423 m20 [] 0 sd 1 lw
 [] 0 sd 1 lw 914 340 m 200 Y s [] 0 sd 1 lw 914 540 m 199 Y s [] 0 sd 1 lw 908 540 m 6 X s [] 0 sd 1 lw 914 540 m 6 X s
 [] 0 sd 1 lw 914 540 m20 [] 0 sd 1 lw [] 0 sd 1 lw 926 605 m 284 Y s [] 0 sd 1 lw 926 889 m 283 Y s [] 0 sd 1 lw 920
 889 m 6 X s [] 0 sd 1 lw 926 889 m 6 X s [] 0 sd 1 lw 926 889 m20 [] 0 sd 1 lw [] 0 sd 1 lw 937 343 m 202 Y s [] 0 sd 1
 lw 937 545 m 203 Y s [] 0 sd 1 lw 932 545 m 5 X s [] 0 sd 1 lw 937 545 m 6 X s [] 0 sd 1 lw 937 545 m20 [] 0 sd 1 lw
 [] 0 sd 1 lw 949 429 m 234 Y s [] 0 sd 1 lw 949 663 m 235 Y s [] 0 sd 1 lw 943 663 m 6 X s [] 0 sd 1 lw 949 663 m 6 X s
 [] 0 sd 1 lw 949 663 m20 [] 0 sd 1 lw [] 0 sd 1 lw 961 264 m 166 Y s [] 0 sd 1 lw 961 430 m 167 Y s [] 0 sd 1 lw 955
 430 m 6 X s [] 0 sd 1 lw 961 430 m 6 X s [] 0 sd 1 lw 961 430 m20 [] 0 sd 1 lw [] 0 sd 1 lw 973 194 m 120 Y s [] 0 sd 1
 lw 973 314 m 119 Y s [] 0 sd 1 lw 967 314 m 6 X s [] 0 sd 1 lw 973 314 m 6 X s [] 0 sd 1 lw 973 314 m20 [] 0 sd 1 lw
 [] 0 sd 1 lw 985 264 m 169 Y s [] 0 sd 1 lw 985 433 m 168 Y s [] 0 sd 1 lw 979 433 m 6 X s [] 0 sd 1 lw 985 433 m 6 X s
 [] 0 sd 1 lw 985 433 m20 [] 0 sd 1 lw [] 0 sd 1 lw 996 265 m 171 Y s [] 0 sd 1 lw 996 436 m 170 Y s [] 0 sd 1 lw 991
 436 m 5 X s [] 0 sd 1 lw 996 436 m 6 X s [] 0 sd 1 lw 996 436 m20 [] 0 sd 1 lw [] 0 sd 1 lw 1008 624 m 296 Y s [] 0 sd
 1 lw 1008 920 m 296 Y s [] 0 sd 1 lw 1002 920 m 6 X s [] 0 sd 1 lw 1008 920 m 6 X s [] 0 sd 1 lw 1008 920 m20 [] 0 sd 1
 lw [] 0 sd 1 lw 1020 265 m 171 Y s [] 0 sd 1 lw 1020 436 m 170 Y s [] 0 sd 1 lw 1014 436 m 6 X s [] 0 sd 1 lw 1020 436
 m 6 X s [] 0 sd 1 lw 1020 436 m20 [] 0 sd 1 lw [] 0 sd 1 lw 1026 194 m 6 X s [] 0 sd 1 lw 1032 194 m 6 X s [] 0 sd 1 lw
 1044 194 m 122 Y s [] 0 sd 1 lw 1044 316 m 122 Y s [] 0 sd 1 lw 1038 316 m 6 X s [] 0 sd 1 lw 1044 316 m 5 X s [] 0 sd
 1 lw 1044 316 m20 [] 0 sd 1 lw [] 0 sd 1 lw 1055 350 m 212 Y s [] 0 sd 1 lw 1055 562 m 212 Y s [] 0 sd 1 lw 1049 562 m
 6 X s [] 0 sd 1 lw 1055 562 m 6 X s [] 0 sd 1 lw 1055 562 m20 [] 0 sd 1 lw [] 0 sd 1 lw 1067 439 m 245 Y s [] 0 sd 1 lw
 1067 684 m 245 Y s [] 0 sd 1 lw 1061 684 m 6 X s [] 0 sd 1 lw 1067 684 m 6 X s [] 0 sd 1 lw 1067 684 m20 [] 0 sd 1 lw
 [] 0 sd 1 lw 1079 267 m 174 Y s [] 0 sd 1 lw 1079 441 m 175 Y s [] 0 sd 1 lw 1073 441 m 6 X s [] 0 sd 1 lw 1079 441 m 6
 X s [] 0 sd 1 lw 1079 441 m20 [] 0 sd 1 lw [] 0 sd 1 lw 1091 194 m 125 Y s [] 0 sd 1 lw 1091 319 m 124 Y s [] 0 sd 1 lw
 1085 319 m 6 X s [] 0 sd 1 lw 1091 319 m 6 X s [] 0 sd 1 lw 1091 319 m20 [] 0 sd 1 lw [] 0 sd 1 lw 1103 352 m 214 Y s
 [] 0 sd 1 lw 1103 566 m 215 Y s [] 0 sd 1 lw 1097 566 m 6 X s [] 0 sd 1 lw 1103 566 m 5 X s [] 0 sd 1 lw 1103 566 m20
 [] 0 sd 1 lw [] 0 sd 1 lw 1114 640 m 307 Y s [] 0 sd 1 lw 1114 947 m 307 Y s [] 0 sd 1 lw 1108 947 m 6 X s [] 0 sd 1 lw
 1114 947 m 6 X s [] 0 sd 1 lw 1114 947 m20 [] 0 sd 1 lw [] 0 sd 1 lw 1126 194 m 126 Y s [] 0 sd 1 lw 1126 320 m 126 Y s
 [] 0 sd 1 lw 1120 320 m 6 X s [] 0 sd 1 lw 1126 320 m 6 X s [] 0 sd 1 lw 1126 320 m20 [] 0 sd 1 lw [] 0 sd 1 lw 1138
 268 m 178 Y s [] 0 sd 1 lw 1138 446 m 178 Y s [] 0 sd 1 lw 1132 446 m 6 X s [] 0 sd 1 lw 1138 446 m 6 X s [] 0 sd 1 lw
 1138 446 m20 [] 0 sd 1 lw [] 0 sd 1 lw 1150 355 m 218 Y s [] 0 sd 1 lw 1150 573 m 219 Y s [] 0 sd 1 lw 1144 573 m 6 X s
 [] 0 sd 1 lw 1150 573 m 6 X s [] 0 sd 1 lw 1150 573 m20 [] 0 sd 1 lw [] 0 sd 1 lw 1156 194 m 6 X s [] 0 sd 1 lw 1162
 194 m 5 X s [] 0 sd 1 lw 1173 356 m 221 Y s [] 0 sd 1 lw 1173 577 m 221 Y s [] 0 sd 1 lw 1167 577 m 6 X s [] 0 sd 1 lw
 1173 577 m 6 X s [] 0 sd 1 lw 1173 577 m20 [] 0 sd 1 lw [] 0 sd 1 lw 1185 450 m 257 Y s [] 0 sd 1 lw 1185 707 m 256 Y s
 [] 0 sd 1 lw 1179 707 m 6 X s [] 0 sd 1 lw 1185 707 m 6 X s [] 0 sd 1 lw 1185 707 m20 [] 0 sd 1 lw [] 0 sd 1 lw 1191
 194 m 6 X s [] 0 sd 1 lw 1197 194 m 6 X s [] 0 sd 1 lw 1209 194 m 128 Y s [] 0 sd 1 lw 1209 322 m 128 Y s [] 0 sd 1 lw
 1203 322 m 6 X s [] 0 sd 1 lw 1209 322 m 6 X s [] 0 sd 1 lw 1209 322 m20 [] 0 sd 1 lw [] 0 sd 1 lw 1220 270 m 181 Y s
 [] 0 sd 1 lw 1220 451 m 181 Y s [] 0 sd 1 lw 1215 451 m 5 X s [] 0 sd 1 lw 1220 451 m 6 X s [] 0 sd 1 lw 1220 451 m20
 [] 0 sd 1 lw [] 0 sd 1 lw 1226 194 m 6 X s [] 0 sd 1 lw 1232 194 m 6 X s [] 0 sd 1 lw 1244 270 m 182 Y s [] 0 sd 1 lw
 1244 452 m 182 Y s [] 0 sd 1 lw 1238 452 m 6 X s [] 0 sd 1 lw 1244 452 m 6 X s [] 0 sd 1 lw 1244 452 m20 [] 0 sd 1 lw
 [] 0 sd 1 lw 1256 270 m 184 Y s [] 0 sd 1 lw 1256 454 m 183 Y s [] 0 sd 1 lw 1250 454 m 6 X s [] 0 sd 1 lw 1256 454 m 6
 X s [] 0 sd 1 lw 1256 454 m20 [] 0 sd 1 lw [] 0 sd 1 lw 1268 194 m 130 Y s [] 0 sd 1 lw 1268 324 m 130 Y s [] 0 sd 1 lw
 1262 324 m 6 X s [] 0 sd 1 lw 1268 324 m 6 X s [] 0 sd 1 lw 1268 324 m20 [] 0 sd 1 lw [] 0 sd 1 lw 1279 271 m 184 Y s
 [] 0 sd 1 lw 1279 455 m 184 Y s [] 0 sd 1 lw 1274 455 m 5 X s [] 0 sd 1 lw 1279 455 m 6 X s [] 0 sd 1 lw 1279 455 m20
 [] 0 sd 1 lw [] 0 sd 1 lw 1291 360 m 226 Y s [] 0 sd 1 lw 1291 586 m 227 Y s [] 0 sd 1 lw 1285 586 m 6 X s [] 0 sd 1 lw
 1291 586 m 6 X s [] 0 sd 1 lw 1291 586 m20 [] 0 sd 1 lw [] 0 sd 1 lw 1303 194 m 131 Y s [] 0 sd 1 lw 1303 325 m 131 Y s
 [] 0 sd 1 lw 1297 325 m 6 X s [] 0 sd 1 lw 1303 325 m 6 X s [] 0 sd 1 lw 1303 325 m20 [] 0 sd 1 lw [] 0 sd 1 lw 1309
 194 m 6 X s [] 0 sd 1 lw 1315 194 m 6 X s [] 0 sd 1 lw 1327 194 m 133 Y s [] 0 sd 1 lw 1327 327 m 132 Y s [] 0 sd 1 lw
 1321 327 m 6 X s [] 0 sd 1 lw 1327 327 m 6 X s [] 0 sd 1 lw 1327 327 m20 [] 0 sd 1 lw [] 0 sd 1 lw 1333 194 m 5 X s
 [] 0 sd 1 lw 1338 194 m 6 X s [] 0 sd 1 lw 1350 272 m 186 Y s [] 0 sd 1 lw 1350 458 m 187 Y s [] 0 sd 1 lw 1344 458 m 6
 X s [] 0 sd 1 lw 1350 458 m 6 X s [] 0 sd 1 lw 1350 458 m20 [] 0 sd 1 lw [] 0 sd 1 lw 1362 560 m 295 Y s [] 0 sd 1 lw
 1362 855 m 296 Y s [] 0 sd 1 lw 1356 855 m 6 X s [] 0 sd 1 lw 1362 855 m 6 X s [] 0 sd 1 lw 1362 855 m20 [] 0 sd 1 lw
 [] 0 sd 1 lw 1368 194 m 6 X s [] 0 sd 1 lw 1374 194 m 6 X s [] 0 sd 1 lw 1386 459 m 264 Y s [] 0 sd 1 lw 1386 723 m 264
 Y s [] 0 sd 1 lw 1380 723 m 6 X s [] 0 sd 1 lw 1386 723 m 5 X s [] 0 sd 1 lw 1386 723 m20 [] 0 sd 1 lw [] 0 sd 1 lw
 1397 194 m 133 Y s [] 0 sd 1 lw 1397 327 m 133 Y s [] 0 sd 1 lw 1391 327 m 6 X s [] 0 sd 1 lw 1397 327 m 6 X s [] 0 sd
 1 lw 1397 327 m20 [] 0 sd 1 lw [] 0 sd 1 lw 1409 272 m 188 Y s [] 0 sd 1 lw 1409 460 m 188 Y s [] 0 sd 1 lw 1403 460 m
 6 X s [] 0 sd 1 lw 1409 460 m 6 X s [] 0 sd 1 lw 1409 460 m20 [] 0 sd 1 lw [] 0 sd 1 lw 1421 559 m 295 Y s [] 0 sd 1 lw
 1421 854 m 296 Y s [] 0 sd 1 lw 1415 854 m 6 X s [] 0 sd 1 lw 1421 854 m 6 X s [] 0 sd 1 lw 1421 854 m20 [] 0 sd 1 lw
 [] 0 sd 1 lw 1433 460 m 266 Y s [] 0 sd 1 lw 1433 726 m 266 Y s [] 0 sd 1 lw 1427 726 m 6 X s [] 0 sd 1 lw 1433 726 m 6
 X s [] 0 sd 1 lw 1433 726 m20 [] 0 sd 1 lw [] 0 sd 1 lw 1445 194 m 134 Y s [] 0 sd 1 lw 1445 328 m 133 Y s [] 0 sd 1 lw
 1439 328 m 6 X s [] 0 sd 1 lw 1445 328 m 5 X s [] 0 sd 1 lw 1445 328 m20 [] 0 sd 1 lw [] 0 sd 1 lw 1456 362 m 230 Y s
 [] 0 sd 1 lw 1456 592 m 229 Y s [] 0 sd 1 lw 1450 592 m 6 X s [] 0 sd 1 lw 1456 592 m 6 X s [] 0 sd 1 lw 1456 592 m20
 [] 0 sd 1 lw [] 0 sd 1 lw 1468 363 m 230 Y s [] 0 sd 1 lw 1468 593 m 230 Y s [] 0 sd 1 lw 1462 593 m 6 X s [] 0 sd 1 lw
 1468 593 m 6 X s [] 0 sd 1 lw 1468 593 m20 [] 0 sd 1 lw [] 0 sd 1 lw 1480 562 m 297 Y s [] 0 sd 1 lw 1480 859 m 297 Y s
 [] 0 sd 1 lw 1474 859 m 6 X s [] 0 sd 1 lw 1480 859 m 6 X s [] 0 sd 1 lw 1480 859 m20 [] 0 sd 1 lw [] 0 sd 1 lw 1492
 194 m 134 Y s [] 0 sd 1 lw 1492 328 m 133 Y s [] 0 sd 1 lw 1486 328 m 6 X s [] 0 sd 1 lw 1492 328 m 6 X s [] 0 sd 1 lw
 1492 328 m20 [] 0 sd 1 lw [] 0 sd 1 lw 1503 272 m 188 Y s [] 0 sd 1 lw 1503 460 m 187 Y s [] 0 sd 1 lw 1498 460 m 5 X s
 [] 0 sd 1 lw 1503 460 m 6 X s [] 0 sd 1 lw 1503 460 m20 [] 0 sd 1 lw [] 0 sd 1 lw 1515 562 m 298 Y s [] 0 sd 1 lw 1515
 860 m 298 Y s [] 0 sd 1 lw 1509 860 m 6 X s [] 0 sd 1 lw 1515 860 m 6 X s [] 0 sd 1 lw 1515 860 m20 [] 0 sd 1 lw
 [] 0 sd 1 lw 1527 272 m 188 Y s [] 0 sd 1 lw 1527 460 m 188 Y s [] 0 sd 1 lw 1521 460 m 6 X s [] 0 sd 1 lw 1527 460 m 6
 X s [] 0 sd 1 lw 1527 460 m20 [] 0 sd 1 lw [] 0 sd 1 lw 1539 272 m 187 Y s [] 0 sd 1 lw 1539 459 m 187 Y s [] 0 sd 1 lw
 1533 459 m 6 X s [] 0 sd 1 lw 1539 459 m 6 X s [] 0 sd 1 lw 1539 459 m20 [] 0 sd 1 lw [] 0 sd 1 lw 1551 560 m 296 Y s
 [] 0 sd 1 lw 1551 856 m 296 Y s [] 0 sd 1 lw 1545 856 m 6 X s [] 0 sd 1 lw 1551 856 m 6 X s [] 0 sd 1 lw 1551 856 m20
 [] 0 sd 1 lw [] 0 sd 1 lw 1562 272 m 187 Y s [] 0 sd 1 lw 1562 459 m 187 Y s [] 0 sd 1 lw 1557 459 m 5 X s [] 0 sd 1 lw
 1562 459 m 6 X s [] 0 sd 1 lw 1562 459 m20 [] 0 sd 1 lw [] 0 sd 1 lw 1568 194 m 6 X s [] 0 sd 1 lw 1574 194 m 6 X s
 [] 0 sd 1 lw 1586 362 m 228 Y s [] 0 sd 1 lw 1586 590 m 228 Y s [] 0 sd 1 lw 1580 590 m 6 X s [] 0 sd 1 lw 1586 590 m 6
 X s [] 0 sd 1 lw 1586 590 m20 [] 0 sd 1 lw [] 0 sd 1 lw 1592 194 m 6 X s [] 0 sd 1 lw 1598 194 m 6 X s [] 0 sd 1 lw
 1610 457 m 262 Y s [] 0 sd 1 lw 1610 719 m 263 Y s [] 0 sd 1 lw 1604 719 m 6 X s [] 0 sd 1 lw 1610 719 m 6 X s [] 0 sd
 1 lw 1610 719 m20 [] 0 sd 1 lw [] 0 sd 1 lw 1621 271 m 185 Y s [] 0 sd 1 lw 1621 456 m 186 Y s [] 0 sd 1 lw 1616 456 m
 5 X s [] 0 sd 1 lw 1621 456 m 6 X s [] 0 sd 1 lw 1621 456 m20 [] 0 sd 1 lw [] 0 sd 1 lw 1627 194 m 6 X s [] 0 sd 1 lw
 1633 194 m 6 X s [] 0 sd 1 lw 1645 360 m 227 Y s [] 0 sd 1 lw 1645 587 m 227 Y s [] 0 sd 1 lw 1639 587 m 6 X s [] 0 sd
 1 lw 1645 587 m 6 X s [] 0 sd 1 lw 1645 587 m20 [] 0 sd 1 lw [] 0 sd 1 lw 1657 194 m 132 Y s [] 0 sd 1 lw 1657 326 m
 131 Y s [] 0 sd 1 lw 1651 326 m 6 X s [] 0 sd 1 lw 1657 326 m 6 X s [] 0 sd 1 lw 1657 326 m20 [] 0 sd 1 lw [] 0 sd 1 lw
 1669 194 m 131 Y s [] 0 sd 1 lw 1669 325 m 130 Y s [] 0 sd 1 lw 1663 325 m 6 X s [] 0 sd 1 lw 1669 325 m 5 X s [] 0 sd
 1 lw 1669 325 m20 [] 0 sd 1 lw [] 0 sd 1 lw 1680 194 m 130 Y s [] 0 sd 1 lw 1680 324 m 130 Y s [] 0 sd 1 lw 1674 324 m
 6 X s [] 0 sd 1 lw 1680 324 m 6 X s [] 0 sd 1 lw 1680 324 m20 [] 0 sd 1 lw [] 0 sd 1 lw 1692 359 m 225 Y s [] 0 sd 1 lw
 1692 584 m 224 Y s [] 0 sd 1 lw 1686 584 m 6 X s [] 0 sd 1 lw 1692 584 m 6 X s [] 0 sd 1 lw 1692 584 m20 [] 0 sd 1 lw
 [] 0 sd 1 lw 1704 194 m 131 Y s [] 0 sd 1 lw 1704 325 m 130 Y s [] 0 sd 1 lw 1698 325 m 6 X s [] 0 sd 1 lw 1704 325 m 6
 X s [] 0 sd 1 lw 1704 325 m20 [] 0 sd 1 lw [] 0 sd 1 lw 1716 359 m 224 Y s [] 0 sd 1 lw 1716 583 m 225 Y s [] 0 sd 1 lw
 1710 583 m 6 X s [] 0 sd 1 lw 1716 583 m 6 X s [] 0 sd 1 lw 1716 583 m20 [] 0 sd 1 lw [] 0 sd 1 lw 1728 358 m 223 Y s
 [] 0 sd 1 lw 1728 581 m 224 Y s [] 0 sd 1 lw 1722 581 m 6 X s [] 0 sd 1 lw 1728 581 m 5 X s [] 0 sd 1 lw 1728 581 m20
 [] 0 sd 1 lw [] 0 sd 1 lw 1739 357 m 223 Y s [] 0 sd 1 lw 1739 580 m 223 Y s [] 0 sd 1 lw 1733 580 m 6 X s [] 0 sd 1 lw
 1739 580 m 6 X s [] 0 sd 1 lw 1739 580 m20 [] 0 sd 1 lw [] 0 sd 1 lw 1745 194 m 6 X s [] 0 sd 1 lw 1751 194 m 6 X s
 [] 0 sd 1 lw 1763 547 m 286 Y s [] 0 sd 1 lw 1763 833 m 286 Y s [] 0 sd 1 lw 1757 833 m 6 X s [] 0 sd 1 lw 1763 833 m 6
 X s [] 0 sd 1 lw 1763 833 m20 [] 0 sd 1 lw [] 0 sd 1 lw 1775 546 m 284 Y s [] 0 sd 1 lw 1775 830 m 285 Y s [] 0 sd 1 lw
 1769 830 m 6 X s [] 0 sd 1 lw 1775 830 m 6 X s [] 0 sd 1 lw 1775 830 m20 [] 0 sd 1 lw [] 0 sd 1 lw 1781 194 m 6 X s
 [] 0 sd 1 lw 1787 194 m 5 X s [] 0 sd 1 lw 1798 268 m 179 Y s [] 0 sd 1 lw 1798 447 m 178 Y s [] 0 sd 1 lw 1792 447 m 6
 X s [] 0 sd 1 lw 1798 447 m 6 X s [] 0 sd 1 lw 1798 447 m20 [] 0 sd 1 lw [] 0 sd 1 lw 1810 268 m 178 Y s [] 0 sd 1 lw
 1810 446 m 178 Y s [] 0 sd 1 lw 1804 446 m 6 X s [] 0 sd 1 lw 1810 446 m 6 X s [] 0 sd 1 lw 1810 446 m20 [] 0 sd 1 lw
 [] 0 sd 1 lw 1816 194 m 6 X s [] 0 sd 1 lw 1822 194 m 6 X s [] 0 sd 1 lw 1834 353 m 216 Y s [] 0 sd 1 lw 1834 569 m 216
 Y s [] 0 sd 1 lw 1828 569 m 6 X s [] 0 sd 1 lw 1834 569 m 6 X s [] 0 sd 1 lw 1834 569 m20 [] 0 sd 1 lw [] 0 sd 1 lw
 1845 267 m 177 Y s [] 0 sd 1 lw 1845 444 m 176 Y s [] 0 sd 1 lw 1840 444 m 5 X s [] 0 sd 1 lw 1845 444 m 6 X s [] 0 sd
 1 lw 1845 444 m20 [] 0 sd 1 lw [] 0 sd 1 lw 1857 267 m 174 Y s [] 0 sd 1 lw 1857 441 m 175 Y s [] 0 sd 1 lw 1851 441 m
 6 X s [] 0 sd 1 lw 1857 441 m 6 X s [] 0 sd 1 lw 1857 441 m20 [] 0 sd 1 lw [] 0 sd 1 lw 1869 935 m 370 Y s [] 0 sd 1 lw
 1869 1305 m 370 Y s [] 0 sd 1 lw 1863 1305 m 6 X s [] 0 sd 1 lw 1869 1305 m 6 X s [] 0 sd 1 lw 1869 1305 m20 [] 0 sd 1
 lw [] 0 sd 1 lw 1881 194 m 124 Y s [] 0 sd 1 lw 1881 318 m 124 Y s [] 0 sd 1 lw 1875 318 m 6 X s [] 0 sd 1 lw 1881 318
 m 6 X s [] 0 sd 1 lw 1881 318 m20 [] 0 sd 1 lw [] 0 sd 1 lw 1893 194 m 123 Y s [] 0 sd 1 lw 1893 317 m 123 Y s [] 0 sd
 1 lw 1887 317 m 6 X s [] 0 sd 1 lw 1893 317 m 6 X s [] 0 sd 1 lw 1893 317 m20 [] 0 sd 1 lw [] 0 sd 1 lw 1904 349 m 211
 Y s [] 0 sd 1 lw 1904 560 m 211 Y s [] 0 sd 1 lw 1899 560 m 5 X s [] 0 sd 1 lw 1904 560 m 6 X s [] 0 sd 1 lw 1904 560
 m20 [] 0 sd 1 lw [] 0 sd 1 lw 1916 349 m 211 Y s [] 0 sd 1 lw 1916 560 m 211 Y s [] 0 sd 1 lw 1910 560 m 6 X s [] 0 sd
 1 lw 1916 560 m 6 X s [] 0 sd 1 lw 1916 560 m20 [] 0 sd 1 lw [] 0 sd 1 lw 1928 265 m 170 Y s [] 0 sd 1 lw 1928 435 m
 170 Y s [] 0 sd 1 lw 1922 435 m 6 X s [] 0 sd 1 lw 1928 435 m 6 X s [] 0 sd 1 lw 1928 435 m20 [] 0 sd 1 lw [] 0 sd 1 lw
 1934 194 m 6 X s [] 0 sd 1 lw 1940 194 m 6 X s [] 0 sd 1 lw 1952 346 m 208 Y s [] 0 sd 1 lw 1952 554 m 207 Y s [] 0 sd
 1 lw 1946 554 m 6 X s [] 0 sd 1 lw 1952 554 m 5 X s [] 0 sd 1 lw 1952 554 m20 [] 0 sd 1 lw [] 0 sd 1 lw 1963 433 m 239
 Y s [] 0 sd 1 lw 1963 672 m 239 Y s [] 0 sd 1 lw 1957 672 m 6 X s [] 0 sd 1 lw 1963 672 m 6 X s [] 0 sd 1 lw 1963 672
 m20 [] 0 sd 1 lw [] 0 sd 1 lw 1975 264 m 168 Y s [] 0 sd 1 lw 1975 432 m 167 Y s [] 0 sd 1 lw 1969 432 m 6 X s [] 0 sd
 1 lw 1975 432 m 6 X s [] 0 sd 1 lw 1975 432 m20 [] 0 sd 1 lw [] 0 sd 1 lw 1987 263 m 167 Y s [] 0 sd 1 lw 1987 430 m
 166 Y s [] 0 sd 1 lw 1981 430 m 6 X s [] 0 sd 1 lw 1987 430 m 6 X s [] 0 sd 1 lw 1987 430 m20 [] 0 sd 1 lw [] 0 sd 1 lw
 1999 263 m 166 Y s [] 0 sd 1 lw 1999 429 m 166 Y s [] 0 sd 1 lw 1993 429 m 6 X s [] 0 sd 1 lw 1999 429 m 6 X s [] 0 sd
 1 lw 1999 429 m20 [] 0 sd 1 lw [] 0 sd 1 lw 2011 194 m 117 Y s [] 0 sd 1 lw 2011 311 m 116 Y s [] 0 sd 1 lw 2005 311 m
 6 X s [] 0 sd 1 lw 2011 311 m 5 X s [] 0 sd 1 lw 2011 311 m20 [] 0 sd 1 lw [] 0 sd 1 lw 2022 796 m 329 Y s [] 0 sd 1 lw
 2022 1125 m 328 Y s [] 0 sd 1 lw 2016 1125 m 6 X s [] 0 sd 1 lw 2022 1125 m 6 X s [] 0 sd 1 lw 2022 1125 m20 [] 0 sd 1
 lw [] 0 sd 1 lw 2034 194 m 116 Y s [] 0 sd 1 lw 2034 310 m 116 Y s [] 0 sd 1 lw 2028 310 m 6 X s [] 0 sd 1 lw 2034 310
 m 6 X s [] 0 sd 1 lw 2034 310 m20 [] 0 sd 1 lw [] 0 sd 1 lw 2046 262 m 163 Y s [] 0 sd 1 lw 2046 425 m 162 Y s [] 0 sd
 1 lw 2040 425 m 6 X s [] 0 sd 1 lw 2046 425 m 6 X s [] 0 sd 1 lw 2046 425 m20 [] 0 sd 1 lw [] 0 sd 1 lw 2052 194 m 6 X
 s [] 0 sd 1 lw 2058 194 m 6 X s [] 0 sd 1 lw 2070 194 m 114 Y s [] 0 sd 1 lw 2070 308 m 114 Y s [] 0 sd 1 lw 2064 308 m
 6 X s [] 0 sd 1 lw 2070 308 m 5 X s [] 0 sd 1 lw 2070 308 m20 [] 0 sd 1 lw [] 0 sd 1 lw 2081 338 m 196 Y s [] 0 sd 1 lw
 2081 534 m 196 Y s [] 0 sd 1 lw 2075 534 m 6 X s [] 0 sd 1 lw 2081 534 m 6 X s [] 0 sd 1 lw 2081 534 m20 [] 0 sd 1 lw
 [] 0 sd 1 lw 2093 260 m 159 Y s [] 0 sd 1 lw 2093 419 m 159 Y s [] 0 sd 1 lw 2087 419 m 6 X s [] 0 sd 1 lw 2093 419 m 6
 X s [] 0 sd 1 lw 2093 419 m20 [] 0 sd 1 lw [] 0 sd 1 lw 2105 259 m 158 Y s [] 0 sd 1 lw 2105 417 m 157 Y s [] 0 sd 1 lw
 2099 417 m 6 X s [] 0 sd 1 lw 2105 417 m 6 X s [] 0 sd 1 lw 2105 417 m20 [] 0 sd 1 lw [] 0 sd 1 lw 2117 586 m 271 Y s
 [] 0 sd 1 lw 2117 857 m 270 Y s [] 0 sd 1 lw 2111 857 m 6 X s [] 0 sd 1 lw 2117 857 m 6 X s [] 0 sd 1 lw 2117 857 m20
 [] 0 sd 1 lw [] 0 sd 1 lw 2128 498 m 245 Y s [] 0 sd 1 lw 2128 743 m 246 Y s [] 0 sd 1 lw 2123 743 m 5 X s [] 0 sd 1 lw
 2128 743 m 6 X s [] 0 sd 1 lw 2128 743 m20 [] 0 sd 1 lw [] 0 sd 1 lw 2140 194 m 110 Y s [] 0 sd 1 lw 2140 304 m 109 Y s
 [] 0 sd 1 lw 2134 304 m 6 X s [] 0 sd 1 lw 2140 304 m 6 X s [] 0 sd 1 lw 2140 304 m20 [] 0 sd 1 lw [] 0 sd 1 lw 2152
 409 m 215 Y s [] 0 sd 1 lw 2152 624 m 215 Y s [] 0 sd 1 lw 2146 624 m 6 X s [] 0 sd 1 lw 2152 624 m 6 X s [] 0 sd 1 lw
 2152 624 m20 [] 0 sd 1 lw [] 0 sd 1 lw 2164 493 m 241 Y s [] 0 sd 1 lw 2164 734 m 242 Y s [] 0 sd 1 lw 2158 734 m 6 X s
 [] 0 sd 1 lw 2164 734 m 6 X s [] 0 sd 1 lw 2164 734 m20 [] 0 sd 1 lw [] 0 sd 1 lw 2176 409 m 216 Y s [] 0 sd 1 lw 2176
 625 m 215 Y s [] 0 sd 1 lw 2170 625 m 6 X s [] 0 sd 1 lw 2176 625 m 6 X s [] 0 sd 1 lw 2176 625 m20 [] 0 sd 1 lw
 [] 0 sd 1 lw 2187 257 m 151 Y s [] 0 sd 1 lw 2187 408 m 152 Y s [] 0 sd 1 lw 2182 408 m 5 X s [] 0 sd 1 lw 2187 408 m 6
 X s [] 0 sd 1 lw 2187 408 m20 [] 0 sd 1 lw [] 0 sd 1 lw 2199 256 m 149 Y s [] 0 sd 1 lw 2199 405 m 150 Y s [] 0 sd 1 lw
 2193 405 m 6 X s [] 0 sd 1 lw 2199 405 m 6 X s [] 0 sd 1 lw 2199 405 m20 [] 0 sd 1 lw [] 0 sd 1 lw 2205 194 m 6 X s
 [] 0 sd 1 lw 2211 194 m 6 X s [] 0 sd 1 lw 2223 255 m 148 Y s [] 0 sd 1 lw 2223 403 m 147 Y s [] 0 sd 1 lw 2217 403 m 6
 X s [] 0 sd 1 lw 2223 403 m 6 X s [] 0 sd 1 lw 2223 403 m20 [] 0 sd 1 lw [] 0 sd 1 lw 2235 561 m 253 Y s [] 0 sd 1 lw
 2235 814 m 253 Y s [] 0 sd 1 lw 2229 814 m 6 X s [] 0 sd 1 lw 2235 814 m 6 X s [] 0 sd 1 lw 2235 814 m20 [] 0 sd 1 lw
 [] 0 sd 1 lw 2246 255 m 145 Y s [] 0 sd 1 lw 2246 400 m 145 Y s [] 0 sd 1 lw 2241 400 m 5 X s [] 0 sd 1 lw 2246 400 m 6
 X s [] 0 sd 1 lw 2246 400 m20 [] 0 sd 1 lw [] 0 sd 1 lw 2258 254 m 144 Y s [] 0 sd 1 lw 2258 398 m 143 Y s [] 0 sd 1 lw
 2252 398 m 6 X s [] 0 sd 1 lw 2258 398 m 6 X s [] 0 sd 1 lw 2258 398 m20 [] 0 sd 1 lw [] 0 sd 1 lw 2270 474 m 225 Y s
 [] 0 sd 1 lw 2270 699 m 226 Y s [] 0 sd 1 lw 2264 699 m 6 X s [] 0 sd 1 lw 2270 699 m 6 X s [] 0 sd 1 lw 2270 699 m20
 [] 0 sd 1 lw [] 0 sd 1 lw 2282 194 m 101 Y s [] 0 sd 1 lw 2282 295 m 100 Y s [] 0 sd 1 lw 2276 295 m 6 X s [] 0 sd 1 lw
 2282 295 m 6 X s [] 0 sd 1 lw 2282 295 m20 [] 0 sd 1 lw [] 0 sd 1 lw 2294 321 m 172 Y s [] 0 sd 1 lw 2294 493 m 172 Y s
 [] 0 sd 1 lw 2288 493 m 6 X s [] 0 sd 1 lw 2294 493 m 5 X s [] 0 sd 1 lw 2294 493 m20 [] 0 sd 1 lw [] 0 sd 1 lw 2305
 706 m 279 Y s [] 0 sd 1 lw 2305 985 m 280 Y s [] 0 sd 1 lw 2299 985 m 6 X s [] 0 sd 1 lw 2305 985 m 6 X s [] 0 sd 1 lw
 2305 985 m20 [] 0 sd 1 lw [] 0 sd 1 lw 2317 194 m 99 Y s [] 0 sd 1 lw 2317 293 m 99 Y s [] 0 sd 1 lw 2311 293 m 6 X s
 [] 0 sd 1 lw 2317 293 m 6 X s [] 0 sd 1 lw 2317 293 m20 [] 0 sd 1 lw [] 0 sd 1 lw 2329 464 m 217 Y s [] 0 sd 1 lw 2329
 681 m 218 Y s [] 0 sd 1 lw 2323 681 m 6 X s [] 0 sd 1 lw 2329 681 m 6 X s [] 0 sd 1 lw 2329 681 m20 [] 0 sd 1 lw
 [] 0 sd 1 lw 2341 389 m 194 Y s [] 0 sd 1 lw 2341 583 m 195 Y s [] 0 sd 1 lw 2335 583 m 6 X s [] 0 sd 1 lw 2341 583 m 6
 X s [] 0 sd 1 lw 2341 583 m20 [] 0 sd 1 lw [] 0 sd 1 lw 2353 537 m 236 Y s [] 0 sd 1 lw 2353 773 m 236 Y s [] 0 sd 1 lw
 2347 773 m 6 X s [] 0 sd 1 lw 2353 773 m 5 X s [] 0 sd 1 lw 2353 773 m20 [] 0 sd 1 lw [] 0 sd 1 lw 2364 384 m 189 Y s
 [] 0 sd 1 lw 2364 573 m 190 Y s [] 0 sd 1 lw 2358 573 m 6 X s [] 0 sd 1 lw 2364 573 m 6 X s [] 0 sd 1 lw 2364 573 m20
 [] 0 sd 1 lw [] 0 sd 1 lw 2376 250 m 134 Y s [] 0 sd 1 lw 2376 384 m 134 Y s [] 0 sd 1 lw 2370 384 m 6 X s [] 0 sd 1 lw
 2376 384 m 6 X s [] 0 sd 1 lw 2376 384 m20 [] 0 sd 1 lw [] 0 sd 1 lw 2388 313 m 163 Y s [] 0 sd 1 lw 2388 476 m 163 Y s
 [] 0 sd 1 lw 2382 476 m 6 X s [] 0 sd 1 lw 2388 476 m 6 X s [] 0 sd 1 lw 2388 476 m20 [] 0 sd 1 lw [] 0 sd 1 lw 2400
 194 m 93 Y s [] 0 sd 1 lw 2400 287 m 93 Y s [] 0 sd 1 lw 2394 287 m 6 X s [] 0 sd 1 lw 2400 287 m 6 X s [] 0 sd 1 lw
 2400 287 m20 [] 0 sd 1 lw [] 0 sd 1 lw 2411 248 m 130 Y s [] 0 sd 1 lw 2411 378 m 130 Y s [] 0 sd 1 lw 2406 378 m 5 X s
 [] 0 sd 1 lw 2411 378 m 6 X s [] 0 sd 1 lw 2411 378 m20 [] 0 sd 1 lw [] 0 sd 1 lw 2423 448 m 204 Y s [] 0 sd 1 lw 2423
 652 m 205 Y s [] 0 sd 1 lw 2417 652 m 6 X s [] 0 sd 1 lw 2423 652 m 6 X s [] 0 sd 1 lw 2423 652 m20 [] 0 sd 1 lw
 [] 0 sd 1 lw 2435 376 m 181 Y s [] 0 sd 1 lw 2435 557 m 181 Y s [] 0 sd 1 lw 2429 557 m 6 X s [] 0 sd 1 lw 2435 557 m 6
 X s [] 0 sd 1 lw 2435 557 m20 [] 0 sd 1 lw [] 0 sd 1 lw 2447 194 m 90 Y s [] 0 sd 1 lw 2447 284 m 89 Y s [] 0 sd 1 lw
 2441 284 m 6 X s [] 0 sd 1 lw 2447 284 m 6 X s [] 0 sd 1 lw 2447 284 m20 [] 0 sd 1 lw [] 0 sd 1 lw 2459 308 m 154 Y s
 [] 0 sd 1 lw 2459 462 m 155 Y s [] 0 sd 1 lw 2453 462 m 6 X s [] 0 sd 1 lw 2459 462 m 6 X s [] 0 sd 1 lw 2459 462 m20
 [] 0 sd 1 lw [] 0 sd 1 lw 2470 307 m 153 Y s [] 0 sd 1 lw 2470 460 m 154 Y s [] 0 sd 1 lw 2465 460 m 5 X s [] 0 sd 1 lw
 2470 460 m 6 X s [] 0 sd 1 lw 2470 460 m20 [] 0 sd 1 lw [] 0 sd 1 lw 2482 246 m 124 Y s [] 0 sd 1 lw 2482 370 m 124 Y s
 [] 0 sd 1 lw 2476 370 m 6 X s [] 0 sd 1 lw 2482 370 m 6 X s [] 0 sd 1 lw 2482 370 m20 [] 0 sd 1 lw [] 0 sd 1 lw 2494
 368 m 174 Y s [] 0 sd 1 lw 2494 542 m 174 Y s [] 0 sd 1 lw 2488 542 m 6 X s [] 0 sd 1 lw 2494 542 m 6 X s [] 0 sd 1 lw
 2494 542 m20 [] 0 sd 1 lw [] 0 sd 1 lw 2506 194 m 87 Y s [] 0 sd 1 lw 2506 281 m 86 Y s [] 0 sd 1 lw 2500 281 m 6 X s
 [] 0 sd 1 lw 2506 281 m 6 X s [] 0 sd 1 lw 2506 281 m20 [] 0 sd 1 lw [] 0 sd 1 lw 2512 194 m 6 X s [] 0 sd 1 lw 2518
 194 m 6 X s [] 0 sd 1 lw 2524 194 m 5 X s [] 0 sd 1 lw 2529 194 m 6 X s [] 0 sd 1 lw 2535 194 m 6 X s [] 0 sd 1 lw 2541
 194 m 6 X s [] 0 sd 1 lw 2547 194 m 6 X s [] 0 sd 1 lw 2553 194 m 6 X s [] 0 sd 1 lw 2559 194 m 6 X s [] 0 sd 1 lw 2565
 194 m 6 X s [] 0 sd 1 lw 2571 194 m 6 X s [] 0 sd 1 lw 2577 194 m 5 X s [] 0 sd 1 lw 2582 194 m 6 X s [] 0 sd 1 lw 2588
 194 m 6 X s [] 0 sd 1 lw 2594 194 m 6 X s [] 0 sd 1 lw 2600 194 m 6 X s [] 0 sd 1 lw 2606 194 m 6 X s [] 0 sd 1 lw 2612
 194 m 6 X s [] 0 sd 1 lw 2618 194 m 6 X s [] 0 sd 1 lw 2624 194 m 6 X s [] 0 sd 1 lw 2630 194 m 6 X s [] 0 sd 1 lw 2636
 194 m 5 X s [] 0 sd 1 lw 2641 194 m 6 X s [] 0 sd 1 lw 2647 194 m 6 X s [] 0 sd 1 lw [] 0 sd 1 lw 295 194 m 2358 X s s
 /xs 0 def (Pseudorapidity) /Helvetica-Bold 72 stwn  gsave  2653 49
 t 0 r  xs neg 0 t 0 0 m /Helvetica-Bold findfont 72 sf 0 0 m (Pseudorapidity) show  gr  [] 0 sd 1 lw [] 0 sd 1 lw 439
 241 m -47 Y s s [] 0 sd 1 lw [] 0 sd 1 lw 543 218 m -24 Y s s [] 0 sd 1 lw [] 0 sd 1 lw 646 218 m -24 Y s s [] 0 sd 1
 lw [] 0 sd 1 lw 750 218 m -24 Y s s [] 0 sd 1 lw [] 0 sd 1 lw 853 218 m -24 Y s s [] 0 sd 1 lw [] 0 sd 1 lw 957 241 m
 -47 Y s s [] 0 sd 1 lw [] 0 sd 1 lw 1060 218 m -24 Y s s [] 0 sd 1 lw [] 0 sd 1 lw 1164 218 m -24 Y s s [] 0 sd 1 lw
 [] 0 sd 1 lw 1267 218 m -24 Y s s [] 0 sd 1 lw [] 0 sd 1 lw 1371 218 m -24 Y s s [] 0 sd 1 lw [] 0 sd 1 lw 1474 241 m
 -47 Y s s [] 0 sd 1 lw [] 0 sd 1 lw 1577 218 m -24 Y s s [] 0 sd 1 lw [] 0 sd 1 lw 1681 218 m -24 Y s s [] 0 sd 1 lw
 [] 0 sd 1 lw 1784 218 m -24 Y s s [] 0 sd 1 lw [] 0 sd 1 lw 1888 218 m -24 Y s s [] 0 sd 1 lw [] 0 sd 1 lw 1991 241 m
 -47 Y s s [] 0 sd 1 lw [] 0 sd 1 lw 2095 218 m -24 Y s s [] 0 sd 1 lw [] 0 sd 1 lw 2198 218 m -24 Y s s [] 0 sd 1 lw
 [] 0 sd 1 lw 2302 218 m -24 Y s s [] 0 sd 1 lw [] 0 sd 1 lw 2405 218 m -24 Y s s [] 0 sd 1 lw [] 0 sd 1 lw 2509 241 m
 -47 Y s s [] 0 sd 1 lw [] 0 sd 1 lw 439 241 m -47 Y s s [] 0 sd 1 lw [] 0 sd 1 lw 336 218 m -24 Y s s [] 0 sd 1 lw
 [] 0 sd 1 lw 2509 241 m -47 Y s s [] 0 sd 1 lw [] 0 sd 1 lw 2612 218 m -24 Y s s
 /xs 0 def (-1) /Helvetica-Bold 72 stwn  gsave  439 107
 t 0 r xs 2 div neg 0 t 0 0 m /Helvetica-Bold findfont 72 sf 0 0 m (-1) show  gr 
 /xs 0 def (-0.5) /Helvetica-Bold 72 stwn  gsave  957 107
 t 0 r xs 2 div neg 0 t 0 0 m /Helvetica-Bold findfont 72 sf 0 0 m (-0.5) show  gr 
 /xs 0 def (0) /Helvetica-Bold 72 stwn  gsave  1474 107
 t 0 r xs 2 div neg 0 t 0 0 m /Helvetica-Bold findfont 72 sf 0 0 m (0) show  gr 
 /xs 0 def (0.5) /Helvetica-Bold 72 stwn  gsave  1991 107
 t 0 r xs 2 div neg 0 t 0 0 m /Helvetica-Bold findfont 72 sf 0 0 m (0.5) show  gr 
 /xs 0 def (1) /Helvetica-Bold 72 stwn  gsave  2509 107
 t 0 r xs 2 div neg 0 t 0 0 m /Helvetica-Bold findfont 72 sf 0 0 m (1) show  gr  [] 0 sd 1 lw [] 0 sd 1 lw 295 194 m
 1556 Y s s
 /xs 0 def (Number of Hits \(cm) /Helvetica-Bold 72 stwn (-2\)) /Helvetica-Bold 50 stwn  gsave  136 1750
 t 90 r  xs neg 0 t 0 0 m /Helvetica-Bold findfont 72 sf 0 0 m (Number of Hits \(cm) show  currentpoint pop 0 t 
 /Helvetica-Bold findfont 50 sf 0 36 m (-2\)) show  gr  [] 0 sd 1 lw [] 0 sd 1 lw 366 194 m -71 X s s [] 0 sd 1 lw
 [] 0 sd 1 lw 330 269 m -35 X s s [] 0 sd 1 lw [] 0 sd 1 lw 330 343 m -35 X s s [] 0 sd 1 lw [] 0 sd 1 lw 330 418 m -35
 X s s [] 0 sd 1 lw [] 0 sd 1 lw 366 492 m -71 X s s [] 0 sd 1 lw [] 0 sd 1 lw 330 567 m -35 X s s [] 0 sd 1 lw [] 0 sd
 1 lw 330 641 m -35 X s s [] 0 sd 1 lw [] 0 sd 1 lw 330 716 m -35 X s s [] 0 sd 1 lw [] 0 sd 1 lw 366 790 m -71 X s s
 [] 0 sd 1 lw [] 0 sd 1 lw 330 864 m -35 X s s [] 0 sd 1 lw [] 0 sd 1 lw 330 939 m -35 X s s [] 0 sd 1 lw [] 0 sd 1 lw
 330 1013 m -35 X s s [] 0 sd 1 lw [] 0 sd 1 lw 366 1088 m -71 X s s [] 0 sd 1 lw [] 0 sd 1 lw 330 1162 m -35 X s s
 [] 0 sd 1 lw [] 0 sd 1 lw 330 1237 m -35 X s s [] 0 sd 1 lw [] 0 sd 1 lw 330 1311 m -35 X s s [] 0 sd 1 lw [] 0 sd 1 lw
 366 1386 m -71 X s s [] 0 sd 1 lw [] 0 sd 1 lw 330 1460 m -35 X s s [] 0 sd 1 lw [] 0 sd 1 lw 330 1534 m -35 X s s
 [] 0 sd 1 lw [] 0 sd 1 lw 330 1609 m -35 X s s [] 0 sd 1 lw [] 0 sd 1 lw 366 1683 m -71 X s s [] 0 sd 1 lw [] 0 sd 1 lw
 366 1683 m -71 X s s
 /xs 0 def (0) /Helvetica-Bold 72 stwn  gsave  280 174
 t 0 r  xs neg 0 t 0 0 m /Helvetica-Bold findfont 72 sf 0 0 m (0) show  gr 
 /xs 0 def (0.2) /Helvetica-Bold 72 stwn  gsave  280 471
 t 0 r  xs neg 0 t 0 0 m /Helvetica-Bold findfont 72 sf 0 0 m (0.2) show  gr 
 /xs 0 def (0.4) /Helvetica-Bold 72 stwn  gsave  280 769
 t 0 r  xs neg 0 t 0 0 m /Helvetica-Bold findfont 72 sf 0 0 m (0.4) show  gr 
 /xs 0 def (0.6) /Helvetica-Bold 72 stwn  gsave  280 1067
 t 0 r  xs neg 0 t 0 0 m /Helvetica-Bold findfont 72 sf 0 0 m (0.6) show  gr 
 /xs 0 def (0.8) /Helvetica-Bold 72 stwn  gsave  280 1365
 t 0 r  xs neg 0 t 0 0 m /Helvetica-Bold findfont 72 sf 0 0 m (0.8) show  gr 
 /xs 0 def (1) /Helvetica-Bold 72 stwn  gsave  280 1663
 t 0 r  xs neg 0 t 0 0 m /Helvetica-Bold findfont 72 sf 0 0 m (1) show  gr  [] 0 sd 1 lw 0.95 0.95 0.95 c 1165 97 29
 1837 bf black [] 0 sd 1 lw 49 1837 m -13 Y 1158 X 91 Y -13 X -78 Y f [] 0 sd 1 lw 29 1837 m 97 Y s [] 0 sd 1 lw 29 1934
 m 1165 X s [] 0 sd 1 lw 1194 1934 m -97 Y s [] 0 sd 1 lw 1194 1837 m -1165 X s
 /xs 0 def (Hits for Layer 6 by Eta) /Helvetica-Bold 76 stwn  gsave  612 1864
 t 0 r xs 2 div neg 0 t 0 0 m /Helvetica-Bold findfont 76 sf 0 0 m (Hits for Layer 6 by Eta) show  gr  [] 0 sd 1 lw 0.95
 0.95 0.95 c 590 311 2299 1594 bf black [] 0 sd 1 lw 2319 1594 m -13 Y 583 X 305 Y -13 X -292 Y f [] 0 sd 1 lw 2299 1594
 m 311 Y s [] 0 sd 1 lw 2299 1905 m 590 X s [] 0 sd 1 lw 2889 1905 m -311 Y s [] 0 sd 1 lw 2889 1594 m -590 X s
 gsave  2329 1849
 t 0 r 0 0 m /Helvetica-Bold findfont 64 sf 0 0 m (hEtaEtapden_Eta6) show  gr 
 gsave  2329 1771
 t 0 r 0 0 m /Helvetica-Bold findfont 64 sf 0 0 m (Nent = 33    \040) show  gr 
 gsave  2329 1693
 t 0 r 0 0 m /Helvetica-Bold findfont 64 sf 0 0 m (Mean  = 0.04727) show  gr 
 gsave  2329 1615
 t 0 r 0 0 m /Helvetica-Bold findfont 64 sf 0 0 m (RMS   = 0.5645) show  gr  1 1 0 c gr 
showpage gr
 gr 
%%Trailer
%%Pages:  1
%%EOF
